25001 ru_mts
25002:792200 ru_megafonural
25002:792201 ru_megafonural
25002:792202 ru_megafonural
25002:792203 ru_megafonural
25002:792204 ru_megafonural
25002:792205 ru_megafonural
25002:792206 ru_megafonural
25002:792207 ru_megafonural
25002:792208 ru_megafonural
25002:792209 ru_megafonural
25002:792210 ru_megafonural
25002:792211 ru_megafonural
25002:792212 ru_megafonural
25002:792213 ru_megafonural
25002:792214 ru_megafonural
25002:792215 ru_megafonural
25002:792216 ru_megafonural
25002:792217 ru_megafonural
25002:792218 ru_megafonural
25002:792219 ru_megafonural
25002:792220 ru_megafonural
25002:792221 ru_megafonural
25002:792222 ru_megafonural
25002:792223 ru_megafonural
25002:7922240 ru_megafonural
25002:7922241 ru_megafonural
25002:7922242 ru_megafonural
25002:7922243 ru_megafonural
25002:7922244 ru_megafonural
25002:7922245 ru_megafonural
25002:7922246 ru_megafonural
25002:7922247 ru_megafonural
25002:7922248 ru_megafonural
25002:7922249 ru_megafonural
25002:7922250 ru_megafonural
25002:7922251 ru_megafonural
25002:7922252 ru_megafonural
25002:7922253 ru_megafonural
25002:7922254 ru_megafonural
25002:7922255 ru_megafonural
25002:7922256 ru_megafonural
25002:7922257 ru_megafonural
25002:7922258 ru_megafonural
25002:7922259 ru_megafonural
25002:792226 ru_megafonural
25002:792227 ru_megafonural
25002:792228 ru_megafonural
25002:792229 ru_megafonural
25002:792230 ru_megafonural
25002:792231 ru_megafonural
25002:792232 ru_megafonural
25002:792233 ru_megafonural
25002:792234 ru_megafonural
25002:792235 ru_megafonural
25002:792236 ru_megafonural
25002:792237 ru_megafonural
25002:792238 ru_megafonural
25002:792239 ru_megafonural
25002:792240 ru_megafonural
25002:792241 ru_megafonural
25002:792242 ru_megafonural
25002:792243 ru_megafonural
25002:792244 ru_megafonural
25002:792245 ru_megafonural
25002:792246 ru_megafonural
25002:792247 ru_megafonural
25002:792248 ru_megafonural
25002:792249 ru_megafonural
25002:792250 ru_megafonural
25002:792251 ru_megafonural
25002:792252 ru_megafonural
25002:792256 ru_megafonural
25002:792257 ru_megafonural
25002:792258 ru_megafonural
25002:792259 ru_megafonural
25002:792260 ru_megafonural
25002:792261 ru_megafonural
25002:792263 ru_megafonural
25002:792264 ru_megafonural
25002:792265 ru_megafonural
25002:792266 ru_megafonural
25002:792267 ru_megafonural
25002:7922680 ru_megafonural
25002:7922681 ru_megafonural
25002:7922682 ru_megafonural
25002:7922683 ru_megafonural
25002:7922684 ru_megafonural
25002:7922685 ru_megafonural
25002:7922686 ru_megafonural
25002:7922687 ru_megafonural
25002:7922688 ru_megafonural
25002:7922689 ru_megafonural
25002:7922690 ru_megafonural
25002:7922691 ru_megafonural
25002:7922692 ru_megafonural
25002:7922693 ru_megafonural
25002:7922694 ru_megafonural
25002:7922695 ru_megafonural
25002:7922696 ru_megafonural
25002:7922697 ru_megafonural
25002:7922698 ru_megafonural
25002:7922699 ru_megafonural
25002:7922700 ru_megafonural
25002:7922701 ru_megafonural
25002:7922702 ru_megafonural
25002:7922703 ru_megafonural
25002:7922704 ru_megafonural
25002:7922705 ru_megafonural
25002:7922706 ru_megafonural
25002:7922707 ru_megafonural
25002:7922708 ru_megafonural
25002:7922709 ru_megafonural
25002:7922710 ru_megafonural
25002:7922711 ru_megafonural
25002:7922712 ru_megafonural
25002:7922713 ru_megafonural
25002:7922714 ru_megafonural
25002:7922715 ru_megafonural
25002:7922716 ru_megafonural
25002:7922717 ru_megafonural
25002:7922718 ru_megafonural
25002:7922719 ru_megafonural
25002:7922720 ru_megafonural
25002:7922721 ru_megafonural
25002:7922722 ru_megafonural
25002:7922723 ru_megafonural
25002:7922724 ru_megafonural
25002:7922725 ru_megafonural
25002:7922726 ru_megafonural
25002:7922727 ru_megafonural
25002:7922728 ru_megafonural
25002:7922729 ru_megafonural
25002:7922730 ru_megafonural
25002:7922731 ru_megafonural
25002:7922732 ru_megafonural
25002:7922733 ru_megafonural
25002:7922734 ru_megafonural
25002:7922735 ru_megafonural
25002:7922736 ru_megafonural
25002:7922737 ru_megafonural
25002:7922738 ru_megafonural
25002:7922739 ru_megafonural
25002:7922740 ru_megafonural
25002:7922741 ru_megafonural
25002:7922742 ru_megafonural
25002:7922743 ru_megafonural
25002:7922744 ru_megafonural
25002:7922745 ru_megafonural
25002:7922746 ru_megafonural
25002:7922747 ru_megafonural
25002:7922748 ru_megafonural
25002:7922749 ru_megafonural
25002:7922750 ru_megafonural
25002:7922751 ru_megafonural
25002:7922752 ru_megafonural
25002:7922753 ru_megafonural
25002:7922754 ru_megafonural
25002:7922755 ru_megafonural
25002:7922756 ru_megafonural
25002:7922757 ru_megafonural
25002:7922758 ru_megafonural
25002:7922759 ru_megafonural
25002:792276 ru_megafonural
25002:792277 ru_megafonural
25002:792278 ru_megafonural
25002:792279 ru_megafonural
25002:79229 ru_megafonural
25002:7929200 ru_megafonural
25002:7929202 ru_megafonural
25002:7929203 ru_megafonural
25002:7929204 ru_megafonural
25002:7929205 ru_megafonural
25002:7929206 ru_megafonural
25002:7929207 ru_megafonural
25002:7929208 ru_megafonural
25002:7929209 ru_megafonural
25002:7929210 ru_megafonural
25002:7929211 ru_megafonural
25002:7929212 ru_megafonural
25002:7929213 ru_megafonural
25002:7929214 ru_megafonural
25002:7929215 ru_megafonural
25002:7929216 ru_megafonural
25002:7929217 ru_megafonural
25002:7929218 ru_megafonural
25002:7929219 ru_megafonural
25002:7929220 ru_megafonural
25002:7929221 ru_megafonural
25002:7929222 ru_megafonural
25002:7929223 ru_megafonural
25002:7929224 ru_megafonural
25002:7929225 ru_megafonural
25002:7929226 ru_megafonural
25002:7929227 ru_megafonural
25002:7929228 ru_megafonural
25002:7929229 ru_megafonural
25002:7929230 ru_megafonural
25002:7929231 ru_megafonural
25002:7929232 ru_megafonural
25002:7929233 ru_megafonural
25002:7929234 ru_megafonural
25002:7929235 ru_megafonural
25002:7929236 ru_megafonural
25002:7929237 ru_megafonural
25002:7929238 ru_megafonural
25002:7929239 ru_megafonural
25002:7929240 ru_megafonural
25002:792925 ru_megafonural
25002:792926 ru_megafonural
25002:7929270 ru_megafonural
25002:7929271 ru_megafonural
25002:7929272 ru_megafonural
25002:7929273 ru_megafonural
25002:7929274 ru_megafonural
25002:7929275 ru_megafonural
25002:7929276 ru_megafonural
25002:7929277 ru_megafonural
25002:7929278 ru_megafonural
25002:7929279 ru_megafonural
25002:7929285 ru_megafonural
25002:7929286 ru_megafonural
25002:7929287 ru_megafonural
25002:7929288 ru_megafonural
25002:7929289 ru_megafonural
25002:792929 ru_megafonural
25002:7932100 ru_megafonural
25002:7932200 ru_megafonural
25002:7932203 ru_megafonural
25002:7932207 ru_megafonural
25002:7932209 ru_megafonural
25002:7932400 ru_megafonural
25002 ru_megafon
25099 ru_beeline
25020 ru_tele2
25012 ru_baikalwestcom
