Hole: -2.3914063;-1.7385697
Hole: -2.071875;-2.2723727
Hole: -1.5804687;-2.721766
Hole: -0.9875001;-3.0422037
Hole: -0.29375005;-3.1086364
Hole: 0.40625;-3.053146
Hole: 1.0359373;-2.7327087
Hole: 1.578906;-2.3950768
Hole: 2.046094;-1.9402119
Hole: 2.4031253;-1.4306371
Hole: 2.6124997;-0.8007031
Hole: 2.6601562;-0.08089115
Hole: 2.55625;0.5959362
Hole: 2.2570314;1.2735438
Hole: 1.8390622;1.7838999
Hole: 1.4023438;2.2958174
Hole: 0.953125;2.7030087
Hole: -2.509375;-1.1219224
Hole: -2.5476563;-0.45291087
Hole: -0.75312495;0.13247381
Goal: -2.3453126;0.6381403;0.0
Magnet: 0.029687643;-0.24814369
Gun: -1.1148438;4.410708;0.5
Gun: -0.56875014;3.8073468;0.5
Gun: 0.0851562;3.1305199;0.5
Obstacle: 3.0;0.1;0.0;5.0;0.0
Obstacle: 3.0;0.1;0.0;-5.0;0.0
Obstacle: 5.0;0.1;3.0;0.0;1.5707964
Obstacle: 5.0;0.1;-3.0;0.0;1.5707964
Obstacle: 0.75;0.1;-2.6375;3.0304794;-1.1780972
Obstacle: 0.5;0.1;-2.1679688;1.8972265;-1.1780972
Obstacle: 0.5;0.1;-1.6640625;1.0953501;-0.7853982
Obstacle: 0.5;0.1;-0.8812499;0.5849942;-0.3926991
Obstacle: 0.25;0.1;-0.23671865;0.38100827;0.0
Obstacle: 0.25;0.1;0.1632812;0.31770203;-0.3926991
Obstacle: 0.25;0.1;0.41015625;0.05666293;-1.1780972
Obstacle: 0.25;0.1;0.49531245;-0.37084827;-1.5707964
Obstacle: 0.25;0.1;0.3359375;-0.6561159;-2.3561945
Obstacle: 0.25;0.1;-0.014843702;-0.7553734;0.0
Obstacle: 0.25;0.1;-0.3289063;-0.58499414;-0.7853982
Obstacle: 0.25;0.1;-0.44218755;-0.22626027;-1.5707964
Obstacle: 0.25;0.1;-0.3289063;0.1832748;-1.9634955
