Hole: 0.23046875;1.1695967
Hole: -1.5671875;0.4521301
Hole: -1.0507812;-0.7639701
Hole: -0.72968745;-1.1023836
Hole: -0.33124995;-1.3462297
Hole: 0.125;-1.5416185
Hole: 0.59140635;-1.7151233
Hole: 1.9273438;-4.453694
Hole: 2.1828127;-4.098868
Hole: -0.4968748;2.6201644
Hole: -0.01640606;2.5341926
Hole: 0.4390626;2.7295809
Hole: 0.36562514;3.6901126
Hole: 0.6750002;3.3579519
Hole: 1.0398438;3.0390773
Hole: 1.3765626;2.7022269
Hole: 1.7015629;2.3645945
Hole: 2.0554686;2.0504093
Hole: 2.657031;4.6193843
Hole: -1.7273436;-2.1481085
Hole: -1.2695312;-2.3810077
Hole: -0.8046875;-2.5881221
Hole: -0.33124995;-2.812428
Hole: 0.13671875;-2.9523256
Hole: 0.61640644;-3.1086364
Hole: -1.7156248;1.0328269
Hole: 1.0890622;-3.2508795
Hole: 1.5703125;-3.0640872
Hole: 1.7624998;-2.6021879
Hole: 1.9703126;-2.1332548
Hole: 2.15625;-1.6627587
Hole: 2.7132812;0.16373616
Hole: -2.6218748;-3.3540435
Hole: -0.80390644;3.007814
Hole: 2.6609378;-4.0050793
Goal: 0.071875095;-0.16686183;0.0
Magnet: 0.043750048;-0.1770247
Magnet: 2.5804691;-4.556081
Magnet: -0.17656255;3.147715
Obstacle: 3.0;0.1;0.0;5.0;0.0
Obstacle: 3.0;0.1;0.0;-5.0;0.0
Obstacle: 5.0;0.1;3.0;0.0;1.5707964
Obstacle: 5.0;0.1;-3.0;0.0;1.5707964
Obstacle: 0.5;0.1;0.55546856;-0.09026977;-1.5707964
Obstacle: 0.5;0.1;0.1421876;0.35834244;0.0
Obstacle: 0.75;0.1;0.3171873;-1.2782353;-0.3926991
Obstacle: 1.0;0.1;1.2843752;-0.69675666;1.1780972
Obstacle: 1.0;0.1;1.0328126;0.88120365;-0.7853982
Obstacle: 1.25;0.1;-0.7546873;1.1180148;0.3926991
Obstacle: 1.25;0.1;-1.8507814;-0.6318882;-1.5707964
Obstacle: 0.5;0.1;-0.6640625;0.03868692;0.7853982
Obstacle: 0.5;0.1;-0.70000005;-0.6670575;-0.7853981
Obstacle: 1.75;0.1;-0.2820313;-2.4083617;-0.3926991
Obstacle: 1.25;0.1;1.6937499;-1.9159815;1.1780972
Obstacle: 0.75;0.1;2.3164062;-0.002735557;-0.3926991
Obstacle: 1.0;0.1;-0.6656251;-4.131688;-5.9604645E-8
Obstacle: 1.75;0.1;1.078125;2.5513885;-0.7853982
Obstacle: 0.75;0.1;-0.77265596;3.4493926;0.3926991
Obstacle: 1.25;0.1;-2.2976563;2.3442743;0.7853982
Obstacle: 1.25;0.1;1.4257812;-4.584215;-0.3926991
Obstacle: 1.0;0.1;-2.5273438;-3.7542017;-0.3926991
