data face=ui-font40 size=23 bold=0 italic=0 charset= unicode= stretchH=100 smooth=1 aa=1 padding=2,2,2,2 spacing=0,0 outline=0
common lineHeight=26 base=19 scaleW=256 scaleH=185 pages=1 packed=0
page id=0 file="ui-font40.png"
chars count=151
char id=1377 x=2 y=2 width=16 height=13 xoffset=1 yoffset=7 xadvance=18 page=0 chnl=15
char id=1378 x=20 y=2 width=10 height=17 xoffset=2 yoffset=7 xadvance=12 page=0 chnl=15
char id=1379 x=2 y=17 width=13 height=17 xoffset=1 yoffset=7 xadvance=13 page=0 chnl=15
char id=1380 x=32 y=2 width=12 height=17 xoffset=2 yoffset=7 xadvance=13 page=0 chnl=15
char id=1381 x=46 y=2 width=10 height=17 xoffset=1 yoffset=3 xadvance=12 page=0 chnl=15
char id=1382 x=58 y=2 width=12 height=17 xoffset=1 yoffset=7 xadvance=13 page=0 chnl=15
char id=1383 x=72 y=2 width=9 height=17 xoffset=2 yoffset=3 xadvance=10 page=0 chnl=15
char id=1384 x=83 y=2 width=11 height=17 xoffset=2 yoffset=7 xadvance=12 page=0 chnl=15
char id=1385 x=96 y=2 width=14 height=17 xoffset=2 yoffset=7 xadvance=15 page=0 chnl=15
char id=1386 x=112 y=2 width=13 height=17 xoffset=1 yoffset=3 xadvance=14 page=0 chnl=15
char id=1387 x=127 y=2 width=10 height=21 xoffset=2 yoffset=3 xadvance=12 page=0 chnl=15
char id=1388 x=17 y=21 width=5 height=17 xoffset=2 yoffset=7 xadvance=7 page=0 chnl=15
char id=1389 x=24 y=21 width=16 height=21 xoffset=2 yoffset=3 xadvance=19 page=0 chnl=15
char id=1390 x=2 y=36 width=12 height=18 xoffset=1 yoffset=2 xadvance=13 page=0 chnl=15
char id=1391 x=42 y=21 width=10 height=21 xoffset=1 yoffset=3 xadvance=12 page=0 chnl=15
char id=1392 x=54 y=21 width=10 height=17 xoffset=2 yoffset=3 xadvance=12 page=0 chnl=15
char id=1393 x=66 y=21 width=10 height=18 xoffset=1 yoffset=2 xadvance=12 page=0 chnl=15
char id=1394 x=78 y=21 width=12 height=17 xoffset=2 yoffset=7 xadvance=13 page=0 chnl=15
char id=1395 x=54 y=40 width=10 height=17 xoffset=1 yoffset=3 xadvance=12 page=0 chnl=15
char id=1396 x=92 y=21 width=12 height=17 xoffset=1 yoffset=3 xadvance=13 page=0 chnl=15
char id=1397 x=16 y=40 width=4 height=17 xoffset=0 yoffset=7 xadvance=5 page=0 chnl=15
char id=1398 x=2 y=56 width=12 height=17 xoffset=-1 yoffset=3 xadvance=12 page=0 chnl=15
char id=1399 x=106 y=21 width=9 height=17 xoffset=0 yoffset=7 xadvance=9 page=0 chnl=15
char id=1400 x=22 y=44 width=10 height=13 xoffset=2 yoffset=7 xadvance=12 page=0 chnl=15
char id=1401 x=117 y=21 width=7 height=17 xoffset=0 yoffset=6 xadvance=7 page=0 chnl=15
char id=1402 x=34 y=44 width=16 height=17 xoffset=1 yoffset=7 xadvance=18 page=0 chnl=15
char id=1403 x=16 y=59 width=9 height=17 xoffset=0 yoffset=7 xadvance=10 page=0 chnl=15
char id=1404 x=2 y=75 width=11 height=13 xoffset=2 yoffset=7 xadvance=13 page=0 chnl=15
char id=1405 x=139 y=2 width=10 height=13 xoffset=1 yoffset=7 xadvance=12 page=0 chnl=15
char id=1406 x=151 y=2 width=12 height=21 xoffset=1 yoffset=3 xadvance=13 page=0 chnl=15
char id=1407 x=165 y=2 width=16 height=13 xoffset=1 yoffset=7 xadvance=18 page=0 chnl=15
char id=1408 x=139 y=17 width=10 height=17 xoffset=2 yoffset=7 xadvance=12 page=0 chnl=15
char id=1409 x=126 y=25 width=10 height=17 xoffset=1 yoffset=7 xadvance=12 page=0 chnl=15
char id=1410 x=78 y=40 width=7 height=12 xoffset=2 yoffset=7 xadvance=9 page=0 chnl=15
char id=1411 x=87 y=40 width=16 height=21 xoffset=1 yoffset=3 xadvance=18 page=0 chnl=15
char id=1412 x=66 y=54 width=12 height=17 xoffset=0 yoffset=7 xadvance=13 page=0 chnl=15
char id=1415 x=105 y=40 width=14 height=17 xoffset=1 yoffset=3 xadvance=16 page=0 chnl=15
char id=1413 x=52 y=59 width=11 height=13 xoffset=1 yoffset=7 xadvance=12 page=0 chnl=15
char id=1414 x=27 y=63 width=15 height=21 xoffset=1 yoffset=3 xadvance=17 page=0 chnl=15
char id=1329 x=183 y=2 width=14 height=17 xoffset=2 yoffset=3 xadvance=16 page=0 chnl=15
char id=1330 x=165 y=17 width=13 height=17 xoffset=2 yoffset=2 xadvance=16 page=0 chnl=15
char id=1331 x=199 y=2 width=15 height=17 xoffset=1 yoffset=2 xadvance=17 page=0 chnl=15
char id=1332 x=216 y=2 width=16 height=17 xoffset=1 yoffset=2 xadvance=17 page=0 chnl=15
char id=1333 x=234 y=2 width=14 height=17 xoffset=2 yoffset=3 xadvance=16 page=0 chnl=15
char id=1334 x=180 y=21 width=13 height=17 xoffset=2 yoffset=2 xadvance=16 page=0 chnl=15
char id=1335 x=151 y=25 width=11 height=17 xoffset=2 yoffset=3 xadvance=13 page=0 chnl=15
char id=1336 x=164 y=36 width=13 height=17 xoffset=2 yoffset=2 xadvance=16 page=0 chnl=15
char id=1337 x=121 y=44 width=17 height=17 xoffset=2 yoffset=2 xadvance=19 page=0 chnl=15
char id=1338 x=140 y=44 width=15 height=17 xoffset=1 yoffset=3 xadvance=17 page=0 chnl=15
char id=1339 x=105 y=59 width=13 height=17 xoffset=2 yoffset=3 xadvance=15 page=0 chnl=15
char id=1340 x=15 y=78 width=10 height=17 xoffset=2 yoffset=3 xadvance=12 page=0 chnl=15
char id=1341 x=80 y=63 width=16 height=17 xoffset=2 yoffset=3 xadvance=19 page=0 chnl=15
char id=1342 x=44 y=74 width=15 height=17 xoffset=1 yoffset=2 xadvance=17 page=0 chnl=15
char id=1343 x=65 y=73 width=13 height=17 xoffset=2 yoffset=3 xadvance=16 page=0 chnl=15
char id=1344 x=2 y=90 width=11 height=17 xoffset=1 yoffset=3 xadvance=13 page=0 chnl=15
char id=1345 x=27 y=86 width=13 height=18 xoffset=2 yoffset=2 xadvance=16 page=0 chnl=15
char id=1346 x=195 y=21 width=16 height=17 xoffset=1 yoffset=2 xadvance=17 page=0 chnl=15
char id=1347 x=213 y=21 width=13 height=17 xoffset=2 yoffset=3 xadvance=16 page=0 chnl=15
char id=1348 x=228 y=21 width=16 height=17 xoffset=2 yoffset=3 xadvance=17 page=0 chnl=15
char id=1349 x=179 y=40 width=13 height=17 xoffset=1 yoffset=2 xadvance=16 page=0 chnl=15
char id=1350 x=157 y=55 width=16 height=17 xoffset=-1 yoffset=3 xadvance=15 page=0 chnl=15
char id=1351 x=120 y=63 width=13 height=17 xoffset=1 yoffset=2 xadvance=16 page=0 chnl=15
char id=1352 x=98 y=78 width=13 height=17 xoffset=2 yoffset=2 xadvance=16 page=0 chnl=15
char id=1353 x=80 y=82 width=13 height=17 xoffset=1 yoffset=2 xadvance=15 page=0 chnl=15
char id=1354 x=61 y=92 width=15 height=17 xoffset=1 yoffset=2 xadvance=17 page=0 chnl=15
char id=1355 x=42 y=93 width=13 height=17 xoffset=2 yoffset=2 xadvance=16 page=0 chnl=15
char id=1356 x=135 y=63 width=16 height=17 xoffset=2 yoffset=2 xadvance=18 page=0 chnl=15
char id=1357 x=15 y=106 width=13 height=17 xoffset=2 yoffset=3 xadvance=16 page=0 chnl=15
char id=1358 x=194 y=40 width=16 height=17 xoffset=1 yoffset=3 xadvance=17 page=0 chnl=15
char id=1360 x=212 y=40 width=13 height=17 xoffset=2 yoffset=2 xadvance=15 page=0 chnl=15
char id=1359 x=227 y=40 width=13 height=17 xoffset=1 yoffset=2 xadvance=14 page=0 chnl=15
char id=1361 x=175 y=59 width=13 height=17 xoffset=1 yoffset=2 xadvance=16 page=0 chnl=15
char id=1362 x=30 y=106 width=9 height=17 xoffset=2 yoffset=3 xadvance=11 page=0 chnl=15
char id=1363 x=153 y=74 width=15 height=17 xoffset=1 yoffset=3 xadvance=17 page=0 chnl=15
char id=1364 x=113 y=82 width=14 height=17 xoffset=1 yoffset=2 xadvance=15 page=0 chnl=15
char id=1365 x=95 y=97 width=15 height=17 xoffset=1 yoffset=2 xadvance=17 page=0 chnl=15
char id=1366 x=129 y=82 width=16 height=17 xoffset=1 yoffset=3 xadvance=18 page=0 chnl=15
char id=1372 x=44 y=63 width=6 height=7 xoffset=0 yoffset=0 xadvance=5 page=0 chnl=15
char id=1371 x=80 y=54 width=5 height=5 xoffset=0 yoffset=1 xadvance=4 page=0 chnl=15
char id=1374 x=15 y=97 width=6 height=7 xoffset=0 yoffset=0 xadvance=6 page=0 chnl=15
char id=58 x=170 y=74 width=3 height=12 xoffset=2 yoffset=7 xadvance=6 page=0 chnl=15
char id=46 x=147 y=82 width=3 height=3 xoffset=2 yoffset=17 xadvance=6 page=0 chnl=15
char id=171 x=66 y=41 width=10 height=11 xoffset=1 yoffset=8 xadvance=12 page=0 chnl=15
char id=187 x=2 y=109 width=10 height=11 xoffset=2 yoffset=8 xadvance=12 page=0 chnl=15
char id=45 x=246 y=21 width=6 height=2 xoffset=1 yoffset=12 xadvance=7 page=0 chnl=15
char id=96 x=157 y=44 width=5 height=6 xoffset=1 yoffset=1 xadvance=5 page=0 chnl=15
char id=49 x=246 y=25 width=5 height=17 xoffset=4 yoffset=3 xadvance=13 page=0 chnl=15
char id=50 x=2 y=122 width=10 height=17 xoffset=2 yoffset=2 xadvance=13 page=0 chnl=15
char id=51 x=242 y=44 width=11 height=17 xoffset=2 yoffset=2 xadvance=13 page=0 chnl=15
char id=52 x=78 y=101 width=11 height=17 xoffset=1 yoffset=3 xadvance=13 page=0 chnl=15
char id=53 x=57 y=111 width=11 height=17 xoffset=1 yoffset=3 xadvance=13 page=0 chnl=15
char id=54 x=41 y=112 width=12 height=17 xoffset=1 yoffset=2 xadvance=13 page=0 chnl=15
char id=55 x=14 y=125 width=11 height=17 xoffset=2 yoffset=3 xadvance=13 page=0 chnl=15
char id=56 x=27 y=125 width=12 height=17 xoffset=1 yoffset=2 xadvance=13 page=0 chnl=15
char id=57 x=190 y=59 width=12 height=17 xoffset=1 yoffset=2 xadvance=13 page=0 chnl=15
char id=48 x=204 y=59 width=12 height=17 xoffset=1 yoffset=2 xadvance=13 page=0 chnl=15
char id=37 x=218 y=59 width=17 height=17 xoffset=1 yoffset=2 xadvance=19 page=0 chnl=15
char id=47 x=70 y=111 width=6 height=17 xoffset=0 yoffset=2 xadvance=5 page=0 chnl=15
char id=65 x=237 y=63 width=15 height=17 xoffset=0 yoffset=3 xadvance=14 page=0 chnl=15
char id=66 x=175 y=78 width=12 height=17 xoffset=2 yoffset=3 xadvance=14 page=0 chnl=15
char id=67 x=147 y=93 width=15 height=17 xoffset=1 yoffset=2 xadvance=16 page=0 chnl=15
char id=68 x=112 y=101 width=14 height=17 xoffset=2 yoffset=3 xadvance=16 page=0 chnl=15
char id=69 x=128 y=101 width=12 height=17 xoffset=2 yoffset=3 xadvance=14 page=0 chnl=15
char id=70 x=91 y=116 width=11 height=17 xoffset=2 yoffset=3 xadvance=13 page=0 chnl=15
char id=71 x=55 y=130 width=15 height=17 xoffset=1 yoffset=2 xadvance=17 page=0 chnl=15
char id=72 x=72 y=130 width=13 height=17 xoffset=2 yoffset=3 xadvance=16 page=0 chnl=15
char id=73 x=250 y=2 width=2 height=17 xoffset=2 yoffset=3 xadvance=5 page=0 chnl=15
char id=74 x=104 y=116 width=6 height=20 xoffset=-1 yoffset=3 xadvance=5 page=0 chnl=15
char id=75 x=87 y=135 width=13 height=17 xoffset=2 yoffset=3 xadvance=15 page=0 chnl=15
char id=76 x=2 y=141 width=10 height=17 xoffset=2 yoffset=3 xadvance=12 page=0 chnl=15
char id=77 x=14 y=144 width=15 height=17 xoffset=2 yoffset=3 xadvance=19 page=0 chnl=15
char id=78 x=31 y=144 width=13 height=17 xoffset=2 yoffset=3 xadvance=16 page=0 chnl=15
char id=79 x=46 y=149 width=15 height=17 xoffset=1 yoffset=2 xadvance=16 page=0 chnl=15
char id=80 x=63 y=149 width=12 height=17 xoffset=2 yoffset=3 xadvance=13 page=0 chnl=15
char id=81 x=2 y=163 width=16 height=20 xoffset=1 yoffset=2 xadvance=17 page=0 chnl=15
char id=82 x=20 y=163 width=13 height=17 xoffset=2 yoffset=3 xadvance=15 page=0 chnl=15
char id=83 x=189 y=78 width=13 height=17 xoffset=1 yoffset=2 xadvance=14 page=0 chnl=15
char id=84 x=204 y=78 width=13 height=17 xoffset=0 yoffset=3 xadvance=13 page=0 chnl=15
char id=85 x=219 y=78 width=13 height=17 xoffset=2 yoffset=3 xadvance=16 page=0 chnl=15
char id=86 x=234 y=82 width=15 height=17 xoffset=0 yoffset=3 xadvance=14 page=0 chnl=15
char id=87 x=164 y=97 width=21 height=17 xoffset=0 yoffset=3 xadvance=20 page=0 chnl=15
char id=88 x=142 y=112 width=14 height=17 xoffset=0 yoffset=3 xadvance=14 page=0 chnl=15
char id=89 x=112 y=120 width=15 height=17 xoffset=0 yoffset=3 xadvance=14 page=0 chnl=15
char id=90 x=187 y=97 width=13 height=17 xoffset=1 yoffset=3 xadvance=14 page=0 chnl=15
char id=97 x=129 y=120 width=10 height=13 xoffset=1 yoffset=7 xadvance=12 page=0 chnl=15
char id=98 x=202 y=97 width=10 height=17 xoffset=2 yoffset=3 xadvance=12 page=0 chnl=15
char id=99 x=214 y=97 width=11 height=13 xoffset=1 yoffset=7 xadvance=12 page=0 chnl=15
char id=100 x=227 y=101 width=10 height=17 xoffset=1 yoffset=3 xadvance=12 page=0 chnl=15
char id=101 x=214 y=112 width=11 height=13 xoffset=1 yoffset=7 xadvance=12 page=0 chnl=15
char id=102 x=77 y=149 width=7 height=17 xoffset=0 yoffset=2 xadvance=7 page=0 chnl=15
char id=103 x=239 y=101 width=10 height=17 xoffset=1 yoffset=7 xadvance=12 page=0 chnl=15
char id=104 x=227 y=120 width=10 height=17 xoffset=2 yoffset=3 xadvance=12 page=0 chnl=15
char id=105 x=251 y=82 width=2 height=17 xoffset=2 yoffset=3 xadvance=5 page=0 chnl=15
char id=106 x=158 y=112 width=4 height=22 xoffset=-1 yoffset=3 xadvance=5 page=0 chnl=15
char id=107 x=141 y=131 width=10 height=17 xoffset=2 yoffset=3 xadvance=11 page=0 chnl=15
char id=108 x=153 y=131 width=2 height=17 xoffset=2 yoffset=3 xadvance=5 page=0 chnl=15
char id=109 x=102 y=139 width=16 height=13 xoffset=2 yoffset=7 xadvance=18 page=0 chnl=15
char id=110 x=129 y=135 width=10 height=13 xoffset=2 yoffset=7 xadvance=12 page=0 chnl=15
char id=111 x=239 y=120 width=11 height=13 xoffset=1 yoffset=7 xadvance=12 page=0 chnl=15
char id=112 x=239 y=135 width=10 height=17 xoffset=2 yoffset=7 xadvance=12 page=0 chnl=15
char id=113 x=164 y=116 width=10 height=17 xoffset=1 yoffset=7 xadvance=12 page=0 chnl=15
char id=114 x=46 y=131 width=7 height=13 xoffset=2 yoffset=7 xadvance=8 page=0 chnl=15
char id=115 x=176 y=116 width=10 height=13 xoffset=1 yoffset=7 xadvance=11 page=0 chnl=15
char id=116 x=120 y=139 width=6 height=17 xoffset=0 yoffset=3 xadvance=6 page=0 chnl=15
char id=117 x=188 y=116 width=10 height=13 xoffset=1 yoffset=7 xadvance=12 page=0 chnl=15
char id=118 x=200 y=116 width=11 height=12 xoffset=0 yoffset=7 xadvance=11 page=0 chnl=15
char id=119 x=200 y=130 width=16 height=12 xoffset=0 yoffset=7 xadvance=16 page=0 chnl=15
char id=120 x=218 y=139 width=11 height=12 xoffset=0 yoffset=7 xadvance=11 page=0 chnl=15
char id=121 x=176 y=131 width=11 height=17 xoffset=0 yoffset=7 xadvance=10 page=0 chnl=15
char id=122 x=164 y=135 width=10 height=12 xoffset=1 yoffset=7 xadvance=11 page=0 chnl=15
char id=44 x=170 y=88 width=3 height=6 xoffset=2 yoffset=17 xadvance=5 page=0 chnl=15
char id=32 x=0 y=0 width=0 height=0 xoffset=2 yoffset=17 xadvance=7 page=0 chnl=15
kernings count=131
kerning first=49 second=49 amount=-2
kerning first=65 second=84 amount=-2
kerning first=65 second=86 amount=-2
kerning first=65 second=87 amount=-1
kerning first=65 second=89 amount=-2
kerning first=65 second=118 amount=0
kerning first=65 second=119 amount=0
kerning first=65 second=121 amount=0
kerning first=65 second=32 amount=-1
kerning first=70 second=44 amount=-3
kerning first=70 second=46 amount=-3
kerning first=70 second=65 amount=-1
kerning first=80 second=44 amount=-3
kerning first=80 second=46 amount=-3
kerning first=80 second=65 amount=-2
kerning first=80 second=32 amount=0
kerning first=82 second=84 amount=0
kerning first=82 second=86 amount=0
kerning first=82 second=87 amount=0
kerning first=82 second=89 amount=0
kerning first=84 second=44 amount=-3
kerning first=84 second=45 amount=-1
kerning first=84 second=46 amount=-3
kerning first=84 second=58 amount=-3
kerning first=84 second=65 amount=-2
kerning first=84 second=79 amount=0
kerning first=84 second=97 amount=-3
kerning first=84 second=99 amount=-3
kerning first=84 second=101 amount=-3
kerning first=84 second=105 amount=-1
kerning first=84 second=111 amount=-3
kerning first=84 second=114 amount=-1
kerning first=84 second=115 amount=-3
kerning first=84 second=117 amount=-1
kerning first=84 second=119 amount=-1
kerning first=84 second=121 amount=-1
kerning first=84 second=32 amount=0
kerning first=86 second=44 amount=-2
kerning first=86 second=45 amount=-1
kerning first=86 second=46 amount=-2
kerning first=86 second=58 amount=-1
kerning first=86 second=65 amount=-2
kerning first=86 second=97 amount=-2
kerning first=86 second=101 amount=-1
kerning first=86 second=105 amount=0
kerning first=86 second=111 amount=-1
kerning first=86 second=114 amount=-1
kerning first=86 second=117 amount=-1
kerning first=86 second=121 amount=-1
kerning first=87 second=44 amount=-1
kerning first=87 second=45 amount=0
kerning first=87 second=46 amount=-1
kerning first=87 second=58 amount=0
kerning first=87 second=65 amount=-1
kerning first=87 second=97 amount=-1
kerning first=87 second=101 amount=0
kerning first=87 second=111 amount=0
kerning first=87 second=114 amount=0
kerning first=87 second=117 amount=0
kerning first=87 second=121 amount=0
kerning first=89 second=44 amount=-3
kerning first=89 second=45 amount=-2
kerning first=89 second=46 amount=-3
kerning first=89 second=58 amount=-1
kerning first=89 second=65 amount=-2
kerning first=89 second=97 amount=-2
kerning first=89 second=101 amount=-2
kerning first=89 second=105 amount=-1
kerning first=89 second=111 amount=-2
kerning first=89 second=112 amount=-2
kerning first=89 second=113 amount=-2
kerning first=89 second=117 amount=-1
kerning first=89 second=118 amount=-1
kerning first=89 second=32 amount=0
kerning first=102 second=102 amount=0
kerning first=114 second=44 amount=-1
kerning first=114 second=46 amount=-1
kerning first=118 second=44 amount=-2
kerning first=118 second=46 amount=-2
kerning first=119 second=44 amount=-1
kerning first=119 second=46 amount=-1
kerning first=121 second=44 amount=-2
kerning first=121 second=46 amount=-2
kerning first=1372 second=1387 amount=0
kerning first=1372 second=1398 amount=2
kerning first=1371 second=1398 amount=2
kerning first=1374 second=1350 amount=2
kerning first=1374 second=1398 amount=2
kerning first=1329 second=1372 amount=-1
kerning first=1329 second=1371 amount=-1
kerning first=1329 second=1374 amount=-1
kerning first=1377 second=1372 amount=-5
kerning first=1377 second=1371 amount=-4
kerning first=1377 second=1374 amount=-6
kerning first=1333 second=1372 amount=-5
kerning first=1333 second=1371 amount=-4
kerning first=1333 second=1374 amount=-6
kerning first=1381 second=1372 amount=-5
kerning first=1381 second=1371 amount=-4
kerning first=1381 second=1374 amount=-6
kerning first=1335 second=1372 amount=-5
kerning first=1335 second=1371 amount=-4
kerning first=1335 second=1374 amount=-6
kerning first=1383 second=1372 amount=-5
kerning first=1383 second=1371 amount=-4
kerning first=1383 second=1374 amount=-6
kerning first=1336 second=1372 amount=-2
kerning first=1336 second=1371 amount=-2
kerning first=1336 second=1374 amount=-2
kerning first=1384 second=1372 amount=-5
kerning first=1384 second=1371 amount=-4
kerning first=1384 second=1374 amount=-6
kerning first=1339 second=1372 amount=-5
kerning first=1339 second=1371 amount=-4
kerning first=1339 second=1374 amount=-6
kerning first=1387 second=1371 amount=-4
kerning first=1387 second=1374 amount=-6
kerning first=1352 second=1372 amount=-1
kerning first=1352 second=1374 amount=-1
kerning first=1400 second=1372 amount=-5
kerning first=1400 second=1371 amount=-4
kerning first=1400 second=1374 amount=-6
kerning first=1365 second=1372 amount=-1
kerning first=1365 second=1371 amount=-2
kerning first=1365 second=1374 amount=-2
kerning first=1413 second=1372 amount=-5
kerning first=1413 second=1371 amount=-4
kerning first=1413 second=1374 amount=-6
kerning first=32 second=65 amount=-1
kerning first=32 second=84 amount=0
kerning first=32 second=89 amount=0