info face="Helvetica" size=28 bold=0 italic=0 charset="" unicode=0 stretchH=100 smooth=1 aa=1 padding=0,0,0,0 spacing=2,2
common lineHeight=28 base=22 scaleW=256 scaleH=256 pages=1 packed=0
page id=0 file="date_font@2x.png"
chars count=95
char id=123 x=2 y=2 width=10 height=27 xoffset=-1 yoffset=1 xadvance=9 page=0 chnl=0 letter="{"
char id=125 x=14 y=2 width=10 height=27 xoffset=0 yoffset=1 xadvance=9 page=0 chnl=0 letter="}"
char id=40 x=26 y=2 width=8 height=27 xoffset=1 yoffset=1 xadvance=9 page=0 chnl=0 letter="("
char id=41 x=36 y=2 width=8 height=27 xoffset=0 yoffset=1 xadvance=9 page=0 chnl=0 letter=")"
char id=106 x=46 y=2 width=6 height=27 xoffset=-1 yoffset=1 xadvance=6 page=0 chnl=0 letter="j"
char id=91 x=54 y=2 width=6 height=27 xoffset=1 yoffset=1 xadvance=8 page=0 chnl=0 letter="["
char id=93 x=62 y=2 width=6 height=27 xoffset=0 yoffset=1 xadvance=8 page=0 chnl=0 letter="]"
char id=36 x=70 y=2 width=15 height=26 xoffset=0 yoffset=-0 xadvance=16 page=0 chnl=0 letter="$"
char id=81 x=87 y=2 width=20 height=23 xoffset=1 yoffset=1 xadvance=22 page=0 chnl=0 letter="Q"
char id=64 x=109 y=2 width=23 height=22 xoffset=3 yoffset=1 xadvance=28 page=0 chnl=0 letter="@"
char id=79 x=134 y=2 width=20 height=22 xoffset=1 yoffset=1 xadvance=22 page=0 chnl=0 letter="O"
char id=71 x=156 y=2 width=19 height=22 xoffset=1 yoffset=1 xadvance=22 page=0 chnl=0 letter="G"
char id=67 x=177 y=2 width=19 height=22 xoffset=1 yoffset=1 xadvance=20 page=0 chnl=0 letter="C"
char id=83 x=198 y=2 width=17 height=22 xoffset=1 yoffset=1 xadvance=19 page=0 chnl=0 letter="S"
char id=38 x=217 y=2 width=17 height=22 xoffset=1 yoffset=1 xadvance=19 page=0 chnl=0 letter="&"
char id=85 x=236 y=2 width=17 height=22 xoffset=2 yoffset=1 xadvance=20 page=0 chnl=0 letter="U"
char id=98 x=2 y=31 width=14 height=22 xoffset=1 yoffset=1 xadvance=16 page=0 chnl=0 letter="b"
char id=103 x=18 y=31 width=14 height=22 xoffset=0 yoffset=7 xadvance=16 page=0 chnl=0 letter="g"
char id=100 x=34 y=31 width=14 height=22 xoffset=0 yoffset=1 xadvance=16 page=0 chnl=0 letter="d"
char id=74 x=50 y=31 width=12 height=22 xoffset=0 yoffset=1 xadvance=14 page=0 chnl=0 letter="J"
char id=87 x=64 y=31 width=26 height=21 xoffset=0 yoffset=1 xadvance=26 page=0 chnl=0 letter="W"
char id=37 x=92 y=31 width=24 height=21 xoffset=0 yoffset=2 xadvance=25 page=0 chnl=0 letter="%"
char id=77 x=118 y=31 width=20 height=21 xoffset=2 yoffset=1 xadvance=23 page=0 chnl=0 letter="M"
char id=65 x=140 y=31 width=19 height=21 xoffset=0 yoffset=1 xadvance=19 page=0 chnl=0 letter="A"
char id=89 x=161 y=31 width=19 height=21 xoffset=0 yoffset=1 xadvance=19 page=0 chnl=0 letter="Y"
char id=86 x=182 y=31 width=19 height=21 xoffset=0 yoffset=1 xadvance=19 page=0 chnl=0 letter="V"
char id=88 x=203 y=31 width=19 height=21 xoffset=0 yoffset=1 xadvance=19 page=0 chnl=0 letter="X"
char id=82 x=224 y=31 width=18 height=21 xoffset=2 yoffset=1 xadvance=20 page=0 chnl=0 letter="R"
char id=68 x=2 y=55 width=17 height=21 xoffset=2 yoffset=1 xadvance=20 page=0 chnl=0 letter="D"
char id=75 x=21 y=55 width=17 height=21 xoffset=2 yoffset=1 xadvance=19 page=0 chnl=0 letter="K"
char id=72 x=40 y=55 width=17 height=21 xoffset=2 yoffset=1 xadvance=20 page=0 chnl=0 letter="H"
char id=78 x=59 y=55 width=17 height=21 xoffset=2 yoffset=1 xadvance=20 page=0 chnl=0 letter="N"
char id=84 x=78 y=55 width=17 height=21 xoffset=0 yoffset=1 xadvance=17 page=0 chnl=0 letter="T"
char id=90 x=97 y=55 width=17 height=21 xoffset=0 yoffset=1 xadvance=17 page=0 chnl=0 letter="Z"
char id=66 x=116 y=55 width=16 height=21 xoffset=2 yoffset=1 xadvance=19 page=0 chnl=0 letter="B"
char id=35 x=134 y=55 width=16 height=21 xoffset=0 yoffset=1 xadvance=16 page=0 chnl=0 letter="#"
char id=80 x=152 y=55 width=16 height=21 xoffset=2 yoffset=1 xadvance=19 page=0 chnl=0 letter="P"
char id=69 x=170 y=55 width=16 height=21 xoffset=2 yoffset=1 xadvance=19 page=0 chnl=0 letter="E"
char id=56 x=188 y=55 width=15 height=21 xoffset=0 yoffset=2 xadvance=16 page=0 chnl=0 letter="8"
char id=51 x=205 y=55 width=15 height=21 xoffset=0 yoffset=2 xadvance=16 page=0 chnl=0 letter="3"
char id=48 x=222 y=55 width=15 height=21 xoffset=0 yoffset=2 xadvance=16 page=0 chnl=0 letter="0"
char id=53 x=239 y=55 width=15 height=21 xoffset=0 yoffset=2 xadvance=16 page=0 chnl=0 letter="5"
char id=70 x=2 y=78 width=15 height=21 xoffset=2 yoffset=1 xadvance=17 page=0 chnl=0 letter="F"
char id=54 x=19 y=78 width=14 height=21 xoffset=1 yoffset=2 xadvance=16 page=0 chnl=0 letter="6"
char id=57 x=35 y=78 width=14 height=21 xoffset=1 yoffset=2 xadvance=16 page=0 chnl=0 letter="9"
char id=112 x=51 y=78 width=14 height=21 xoffset=1 yoffset=7 xadvance=16 page=0 chnl=0 letter="p"
char id=113 x=67 y=78 width=14 height=21 xoffset=0 yoffset=7 xadvance=16 page=0 chnl=0 letter="q"
char id=121 x=83 y=78 width=14 height=21 xoffset=0 yoffset=7 xadvance=14 page=0 chnl=0 letter="y"
char id=76 x=99 y=78 width=14 height=21 xoffset=2 yoffset=1 xadvance=16 page=0 chnl=0 letter="L"
char id=63 x=115 y=78 width=13 height=21 xoffset=2 yoffset=1 xadvance=16 page=0 chnl=0 letter="?"
char id=107 x=130 y=78 width=13 height=21 xoffset=1 yoffset=1 xadvance=14 page=0 chnl=0 letter="k"
char id=104 x=145 y=78 width=13 height=21 xoffset=1 yoffset=1 xadvance=16 page=0 chnl=0 letter="h"
char id=92 x=160 y=78 width=10 height=21 xoffset=-1 yoffset=1 xadvance=8 page=0 chnl=0 letter="\"
char id=47 x=172 y=78 width=9 height=21 xoffset=0 yoffset=1 xadvance=8 page=0 chnl=0 letter="/"
char id=102 x=183 y=78 width=8 height=21 xoffset=0 yoffset=1 xadvance=8 page=0 chnl=0 letter="f"
char id=124 x=193 y=78 width=4 height=21 xoffset=1 yoffset=1 xadvance=7 page=0 chnl=0 letter="|"
char id=33 x=199 y=78 width=4 height=21 xoffset=3 yoffset=1 xadvance=8 page=0 chnl=0 letter="!"
char id=73 x=205 y=78 width=4 height=21 xoffset=2 yoffset=1 xadvance=8 page=0 chnl=0 letter="I"
char id=105 x=211 y=78 width=4 height=21 xoffset=1 yoffset=1 xadvance=6 page=0 chnl=0 letter="i"
char id=108 x=217 y=78 width=4 height=21 xoffset=1 yoffset=1 xadvance=6 page=0 chnl=0 letter="l"
char id=52 x=223 y=78 width=15 height=20 xoffset=0 yoffset=2 xadvance=16 page=0 chnl=0 letter="4"
char id=50 x=2 y=101 width=15 height=20 xoffset=0 yoffset=2 xadvance=16 page=0 chnl=0 letter="2"
char id=55 x=19 y=101 width=14 height=20 xoffset=1 yoffset=2 xadvance=16 page=0 chnl=0 letter="7"
char id=116 x=35 y=101 width=8 height=20 xoffset=0 yoffset=3 xadvance=8 page=0 chnl=0 letter="t"
char id=49 x=45 y=101 width=8 height=20 xoffset=2 yoffset=2 xadvance=16 page=0 chnl=0 letter="1"
char id=59 x=55 y=101 width=4 height=20 xoffset=3 yoffset=7 xadvance=8 page=0 chnl=0 letter=";"
char id=111 x=61 y=101 width=15 height=17 xoffset=0 yoffset=6 xadvance=16 page=0 chnl=0 letter="o"
char id=99 x=78 y=101 width=14 height=17 xoffset=0 yoffset=6 xadvance=14 page=0 chnl=0 letter="c"
char id=115 x=94 y=101 width=13 height=17 xoffset=0 yoffset=6 xadvance=14 page=0 chnl=0 letter="s"
char id=60 x=109 y=101 width=17 height=16 xoffset=0 yoffset=7 xadvance=16 page=0 chnl=0 letter="<"
char id=62 x=128 y=101 width=17 height=16 xoffset=0 yoffset=7 xadvance=16 page=0 chnl=0 letter=">"
char id=97 x=147 y=101 width=14 height=16 xoffset=1 yoffset=7 xadvance=16 page=0 chnl=0 letter="a"
char id=101 x=163 y=101 width=14 height=16 xoffset=1 yoffset=7 xadvance=16 page=0 chnl=0 letter="e"
char id=117 x=179 y=101 width=13 height=16 xoffset=1 yoffset=7 xadvance=16 page=0 chnl=0 letter="u"
char id=109 x=194 y=101 width=21 height=15 xoffset=1 yoffset=7 xadvance=23 page=0 chnl=0 letter="m"
char id=119 x=217 y=101 width=20 height=15 xoffset=0 yoffset=7 xadvance=20 page=0 chnl=0 letter="w"
char id=43 x=239 y=101 width=15 height=15 xoffset=1 yoffset=7 xadvance=16 page=0 chnl=0 letter="+"
char id=118 x=2 y=123 width=14 height=15 xoffset=0 yoffset=7 xadvance=14 page=0 chnl=0 letter="v"
char id=120 x=18 y=123 width=14 height=15 xoffset=0 yoffset=7 xadvance=14 page=0 chnl=0 letter="x"
char id=122 x=34 y=123 width=13 height=15 xoffset=0 yoffset=7 xadvance=14 page=0 chnl=0 letter="z"
char id=110 x=49 y=123 width=13 height=15 xoffset=1 yoffset=7 xadvance=16 page=0 chnl=0 letter="n"
char id=114 x=64 y=123 width=8 height=15 xoffset=1 yoffset=7 xadvance=9 page=0 chnl=0 letter="r"
char id=58 x=74 y=123 width=3 height=15 xoffset=3 yoffset=7 xadvance=8 page=0 chnl=0 letter=":"
char id=94 x=79 y=123 width=13 height=13 xoffset=1 yoffset=1 xadvance=13 page=0 chnl=0 letter="^"
char id=61 x=94 y=123 width=15 height=9 xoffset=1 yoffset=10 xadvance=16 page=0 chnl=0 letter="="
char id=42 x=111 y=123 width=9 height=9 xoffset=1 yoffset=1 xadvance=11 page=0 chnl=0 letter="*"
char id=34 x=122 y=123 width=8 height=9 xoffset=1 yoffset=1 xadvance=10 page=0 chnl=0 letter="""
char id=39 x=132 y=123 width=3 height=9 xoffset=2 yoffset=1 xadvance=5 page=0 chnl=0 letter="'"
char id=44 x=137 y=123 width=4 height=8 xoffset=2 yoffset=19 xadvance=8 page=0 chnl=0 letter=","
char id=126 x=143 y=123 width=17 height=6 xoffset=0 yoffset=12 xadvance=16 page=0 chnl=0 letter="~"
char id=96 x=162 y=123 width=6 height=5 xoffset=0 yoffset=1 xadvance=9 page=0 chnl=0 letter="`"
char id=45 x=170 y=123 width=8 height=4 xoffset=1 yoffset=12 xadvance=9 page=0 chnl=0 letter="-"
char id=46 x=180 y=123 width=4 height=3 xoffset=2 yoffset=19 xadvance=8 page=0 chnl=0 letter="."
char id=95 x=186 y=123 width=16 height=2 xoffset=0 yoffset=24 xadvance=16 page=0 chnl=0 letter="_"
char id=32 x=204 y=123 width=0 height=0 xoffset=0 yoffset=142 xadvance=8 page=0 chnl=0 letter="space"
kernings count=114
kerning first=81 second=102 amount=-1
kerning first=81 second=52 amount=-1
kerning first=81 second=42 amount=-1
kerning first=64 second=56 amount=-1
kerning first=64 second=51 amount=-1
kerning first=64 second=50 amount=-1
kerning first=64 second=42 amount=-2
kerning first=64 second=34 amount=-1
kerning first=79 second=82 amount=-2
kerning first=79 second=102 amount=-2
kerning first=87 second=65 amount=-1
kerning first=87 second=59 amount=-1
kerning first=87 second=111 amount=-1
kerning first=87 second=97 amount=-1
kerning first=87 second=101 amount=-1
kerning first=87 second=117 amount=-1
kerning first=87 second=114 amount=-1
kerning first=87 second=58 amount=-1
kerning first=87 second=44 amount=-2
kerning first=87 second=45 amount=-1
kerning first=87 second=46 amount=-2
kerning first=65 second=87 amount=-1
kerning first=65 second=89 amount=-2
kerning first=65 second=86 amount=-2
kerning first=65 second=84 amount=-2
kerning first=65 second=121 amount=-1
kerning first=65 second=119 amount=-1
kerning first=65 second=118 amount=-1
kerning first=65 second=32 amount=-2
kerning first=89 second=65 amount=-2
kerning first=89 second=112 amount=-2
kerning first=89 second=113 amount=-3
kerning first=89 second=105 amount=-1
kerning first=89 second=59 amount=-2
kerning first=89 second=111 amount=-3
kerning first=89 second=97 amount=-2
kerning first=89 second=101 amount=-3
kerning first=89 second=117 amount=-2
kerning first=89 second=118 amount=-2
kerning first=89 second=58 amount=-2
kerning first=89 second=44 amount=-4
kerning first=89 second=45 amount=-3
kerning first=89 second=46 amount=-4
kerning first=89 second=32 amount=-1
kerning first=86 second=65 amount=-2
kerning first=86 second=121 amount=-1
kerning first=86 second=105 amount=-1
kerning first=86 second=59 amount=-1
kerning first=86 second=111 amount=-2
kerning first=86 second=97 amount=-2
kerning first=86 second=101 amount=-2
kerning first=86 second=117 amount=-1
kerning first=86 second=114 amount=-1
kerning first=86 second=58 amount=-1
kerning first=86 second=44 amount=-3
kerning first=86 second=45 amount=-2
kerning first=86 second=46 amount=-3
kerning first=82 second=87 amount=-1
kerning first=82 second=89 amount=-1
kerning first=82 second=86 amount=-1
kerning first=82 second=84 amount=-1
kerning first=84 second=79 amount=-1
kerning first=84 second=65 amount=-2
kerning first=84 second=121 amount=-2
kerning first=84 second=105 amount=-1
kerning first=84 second=59 amount=-3
kerning first=84 second=111 amount=-3
kerning first=84 second=99 amount=-3
kerning first=84 second=115 amount=-3
kerning first=84 second=97 amount=-3
kerning first=84 second=101 amount=-3
kerning first=84 second=117 amount=-1
kerning first=84 second=119 amount=-2
kerning first=84 second=114 amount=-1
kerning first=84 second=58 amount=-3
kerning first=84 second=44 amount=-3
kerning first=84 second=45 amount=-2
kerning first=84 second=46 amount=-3
kerning first=84 second=32 amount=-1
kerning first=80 second=65 amount=-2
kerning first=80 second=62 amount=-2
kerning first=80 second=122 amount=-1
kerning first=80 second=44 amount=-4
kerning first=80 second=46 amount=-4
kerning first=80 second=32 amount=-1
kerning first=70 second=65 amount=-2
kerning first=70 second=44 amount=-3
kerning first=70 second=46 amount=-3
kerning first=121 second=44 amount=-2
kerning first=121 second=46 amount=-2
kerning first=76 second=87 amount=-2
kerning first=76 second=89 amount=-2
kerning first=76 second=86 amount=-2
kerning first=76 second=84 amount=-2
kerning first=76 second=121 amount=-1
kerning first=76 second=32 amount=-1
kerning first=63 second=126 amount=-2
kerning first=47 second=52 amount=-1
kerning first=102 second=102 amount=-1
kerning first=33 second=102 amount=-1
kerning first=49 second=49 amount=-2
kerning first=62 second=35 amount=-2
kerning first=119 second=44 amount=-2
kerning first=119 second=46 amount=-2
kerning first=118 second=44 amount=-2
kerning first=118 second=46 amount=-2
kerning first=114 second=44 amount=-2
kerning first=114 second=46 amount=-2
kerning first=34 second=82 amount=-1
kerning first=34 second=42 amount=-1
kerning first=32 second=65 amount=-2
kerning first=32 second=89 amount=-1
kerning first=32 second=84 amount=-1
kerning first=32 second=92 amount=-2
