﻿//收费点格式：用#号隔开，索引#名称#价格(分)#描述#重复购买  
0#幸运红包#1#复活X1元素之力X1额外赠送恐龙币X200#1
1#新手红包#600#复活X6元素之力X6额外赠送恐龙币X3000#1
2#成长礼包#600#复活X2元素之力X3额外赠送恐龙币X1000#1
3#战斗宝盒#1500#复活X4元素之力X6额外赠送恐龙币X5000#1
4#博士秘藏宝箱#2500#复活X11元素之力X18额外赠送恐龙币X10000#1
5#补充钻石（小）#600#钻石X300额外赠送钻石X300#1
6#补充钻石（中）#1500#钻石X900额外赠送钻石X900#0
7#补充钻石（大）#2900#钻石X2175额外赠送钻石X2175#1
8#补充恐龙币（小）#600#钻石x400#1
9#补充恐龙币（中）#1500#恐龙币X3000额外赠送恐龙币X3000#1
10#补充恐龙币（大）#2500#恐龙币X18750额外赠送恐龙币X18750#1
11#铠甲雷古曼#2000#获得铠甲雷古曼#1
12#活力礼包#1400#恐龙币X200钻石X1800复活心X1元素之力X1#1
13#畅玩礼包#2100#恐龙币X1000钻石X2500复活心X3元素之力X3#1
14#至尊礼包#2800#恐龙币X5000钻石X4000复活心X5元素之力X10#1