﻿@指甲异常#R.raw.js153
@全下肢肌萎缩#R.raw.js156
@四肢活动障碍#R.raw.js157
@大腿肌萎缩#R.raw.js159
@小腿肌萎缩#R.raw.js161
@足痛#R.raw.js162
@足肌萎缩#R.raw.js163
@下肢痛#R.raw.js166
@上肢肌萎缩#R.raw.js167
@上肢痛#R.raw.js169
@双侧手肌萎缩#R.raw.js170
@肩部疼痛#R.raw.js171
@一侧手肌萎缩#R.raw.js173
@四肢疼痛#R.raw.js174
@四肢红斑#R.raw.js175
@下肢皮肤溃疡#R.raw.js176
