{
  "project_info": {
    "project_number": "737346980847",
    "firebase_url": "https://api-project-737346980847.firebaseio.com",
    "project_id": "api-project-737346980847",
    "storage_bucket": "api-project-737346980847.appspot.com"
  },
  "client": [
    {
      "client_info": {
        "mobilesdk_app_id": "1:737346980847:android:f86b678adac5423b",
        "android_client_info": {
          "package_name": "com.maxgames.stickwarlegacy"
        }
      },
      "oauth_client": [
        {
          "client_id": "737346980847-5uvscn7l4549ladcbur1lug2cogaoutk.apps.googleusercontent.com",
          "client_type": 3
        },
        {
          "client_id": "737346980847-crnj818391okpu9utb4tn25ls557rei4.apps.googleusercontent.com",
          "client_type": 3
        },
        {
          "client_id": "737346980847-asrir7n3kqa2i2l7pic5emdsb7jrnoh8.apps.googleusercontent.com",
          "client_type": 1,
          "android_info": {
            "package_name": "com.maxgames.stickwarlegacy",
            "certificate_hash": "ed801ea72c34117e6beae7394b785efca80af56b"
          }
        }
      ],
      "api_key": [
        {
          "current_key": "AIzaSyDRb_mds516xYw_woa3AYSjOLE-jrkNckk"
        },
        {
          "current_key": "AIzaSyBawStdMb0eqDDH7-LTIRHmqSXMCJZiMnA"
        }
      ],
      "services": {
        "analytics_service": {
          "status": 1
        },
        "appinvite_service": {
          "status": 2,
          "other_platform_oauth_client": [
            {
              "client_id": "737346980847-dfrvd1rotcev9712u1q9d4f0a6on0t0b.apps.googleusercontent.com",
              "client_type": 2,
              "ios_info": {
                "bundle_id": "com.stickpage.stickwar",
                "app_store_id": "1001780528"
              }
            },
            {
              "client_id": "737346980847-5uvscn7l4549ladcbur1lug2cogaoutk.apps.googleusercontent.com",
              "client_type": 3
            }
          ]
        },
        "ads_service": {
          "status": 2
        }
      }
    },
    {
      "client_info": {
        "mobilesdk_app_id": "1:737346980847:android:396b347f39a1c083",
        "android_client_info": {
          "package_name": "com.maxgames.stickwarlegacy.mi"
        }
      },
      "oauth_client": [
        {
          "client_id": "737346980847-5uvscn7l4549ladcbur1lug2cogaoutk.apps.googleusercontent.com",
          "client_type": 3
        },
        {
          "client_id": "737346980847-crnj818391okpu9utb4tn25ls557rei4.apps.googleusercontent.com",
          "client_type": 3
        }
      ],
      "api_key": [
        {
          "current_key": "AIzaSyDRb_mds516xYw_woa3AYSjOLE-jrkNckk"
        },
        {
          "current_key": "AIzaSyBawStdMb0eqDDH7-LTIRHmqSXMCJZiMnA"
        }
      ],
      "services": {
        "analytics_service": {
          "status": 1
        },
        "appinvite_service": {
          "status": 1,
          "other_platform_oauth_client": []
        },
        "ads_service": {
          "status": 2
        }
      }
    }
  ],
  "configuration_version": "1"
}