Hole: -1.0500001;1.0742475
Hole: 1.0367186;3.0148482
Hole: -1.0835936;-1.1031661
Hole: -2.5742188;-1.7229378
Hole: -2.4875;-4.2239122
Hole: 0.2320311;-4.166861
Hole: 1.9625001;-2.8585384
Goal: 2.6601562;-4.467759;0.7853982
Obstacle: 3.0;0.1;0.0;5.0;0.0
Obstacle: 3.0;0.1;0.0;-5.0;0.0
Obstacle: 5.0;0.1;3.0;0.0;1.5707964
Obstacle: 5.0;0.1;-3.0;0.0;1.5707964
Obstacle: 1.0;0.1;-1.5062501;3.5463026;0.7853981
Obstacle: 1.25;0.1;-2.1773436;1.5931994;2.3561945
Obstacle: 1.25;0.1;0.51796865;4.1832724;-0.7853982
Obstacle: 0.75;0.1;0.1859374;3.1727216;-0.7853982
Obstacle: 0.75;0.1;-1.1984375;1.8855004;-0.7853982
Obstacle: 1.25;0.1;-0.057031155;2.134037;-0.7853982
Obstacle: 0.5;0.1;2.05625;3.0633023;1.5707964
Obstacle: 0.25;0.1;1.9484377;3.7831187;-1.1780972
Obstacle: 0.25;0.1;1.7390623;4.127783;-0.7853981
Obstacle: 2.25;0.1;0.5046878;1.0586181;0.785398
Obstacle: 0.75;0.1;-1.5718751;-0.062133435;-0.7853981
Obstacle: 0.75;0.1;-1.578125;-1.2266519;-0.7853982
Obstacle: 0.75;0.1;-1.7445312;-2.1785867;-0.7853982
Obstacle: 0.5;0.1;-0.8492186;-2.5037143;0.39269903
Obstacle: 1.0;0.1;-0.07499981;-1.4462674;1.1780972
Obstacle: 1.5;0.1;1.9890625;1.1258305;0.7853982
Obstacle: 0.75;0.1;0.9515629;-0.6201653;0.0
Obstacle: 0.5;0.1;1.9453125;-0.30597976;0.7853981
Obstacle: 0.75;0.1;2.5140624;-1.0257936;0.7853982
Obstacle: 0.5;0.1;1.5835938;-1.467372;0.0
Obstacle: 0.75;0.1;0.87421894;-2.1027756;1.1780972
Obstacle: 1.0;0.1;-0.25703096;-3.1117635;0.3926991
Obstacle: 0.5;0.1;-1.5703125;-3.286052;-0.3926991
Obstacle: 1.0;0.1;-1.1109376;-4.2043743;0.0
Obstacle: 0.75;0.1;1.1124997;-3.5087922;0.7853981
Obstacle: 0.25;0.1;1.5968752;-2.7819476;1.5707964
Obstacle: 1.0;0.1;1.7687497;-4.2723713;5.4977875
Obstacle: 0.25;0.1;2.8328123;-3.8636181;-0.7853981
Obstacle: 0.25;0.1;1.7617188;-2.5224712;3.5342915
Obstacle: 0.25;0.1;2.1226563;-2.5388813;-0.3926991
