Goal: -2.371875;2.6107845;0.0
Hole: 0.9773438;2.584994
Hole: 0.66796875;3.458771
Hole: 2.6812499;0.99218446
Hole: 0.42109346;1.916764
Hole: -0.7750001;0.75849956
Hole: -2.65;-0.8898013
Hole: -0.4625001;-0.27002728
Hole: -0.4601562;-4.7116055
Hole: 1.4492188;-2.2153184
Hole: 2.657812;-4.6553354
Hole: -2.6312501;-4.6795616
Hole: 2.646875;4.613911
Hole: -0.16015625;0.37944484
Hole: -1.8429687;-2.8444698
Hole: -2.6101563;1.6369677
Obstacle: 3.0;0.1;0.0;5.0;0.0
Obstacle: 3.0;0.1;0.0;-5.0;0.0
Obstacle: 5.0;0.1;3.0;0.0;1.5707964
Obstacle: 5.0;0.1;-3.0;0.0;1.5707964
Obstacle: 1.0;0.1;-1.9507811;3.193825;0.0
Obstacle: 1.0;0.1;-0.0625;3.5736604;0.3926991
Obstacle: 1.0;0.1;1.171875;3.0937848;-1.1780972
Obstacle: 1.0;0.1;2.2625003;1.139899;0.7853982
Obstacle: 1.0;0.1;-2.6171875;-0.11293499;-1.1780972
Obstacle: 1.0;0.1;0.26171875;-0.1660825;-0.3926991
Obstacle: 1.0;0.1;1.5062499;-1.4181323;1.9634955
Obstacle: 1.0;0.1;1.4703126;-3.145369;1.1780972
Obstacle: 1.0;0.1;-1.515625;-2.745213;1.5707964
Obstacle: 1.0;0.1;-0.58359385;-4.2653356;0.78539824
Obstacle: 1.0;0.1;0.06406236;-2.6373591;1.5707964
Obstacle: 2.25;0.1;-0.6648438;0.22391567;1.1780972
Obstacle: 0.75;0.1;0.8523437;2.2325072;-3.1415925
Obstacle: 1.0;0.1;-1.9726562;2.0199287;0.0
Obstacle: 1.0;0.1;-1.1015625;1.0203205;0.3926991
