Goal: 2.4367185;-4.432594;0.0
Hole: -1.2648437;1.2250885
Hole: -2.6273437;-0.403673
Hole: -1.2546875;-1.9425576
Hole: -0.90703106;-3.7229383
Hole: -0.5945313;-0.57639736
Hole: 0.57890606;0.295819
Hole: -0.56171846;0.83978146
Hole: 0.59296894;1.558029
Hole: -0.60859346;2.4005466
Hole: 0.9195311;3.2375922
Hole: 2.0281253;1.5431805
Hole: 1.28125;0.14185242
Hole: 2.6953125;0.17389621
Hole: 2.0124998;-1.1711606
Hole: 1.2609377;-2.4505675
Hole: 2.6796875;-2.4599452
Obstacle: 3.0;0.1;0.0;5.0;0.0
Obstacle: 3.0;0.1;0.0;-5.0;0.0
Obstacle: 5.0;0.1;3.0;0.0;1.5707964
Obstacle: 5.0;0.1;-3.0;0.0;1.5707964
Obstacle: 3.75;0.1;-0.9421873;1.3016796;-1.5707964
Obstacle: 4.0;0.1;0.9359374;-0.9921858;-1.5707964
