Hole: 0.22500014;4.613912
Hole: -0.6937499;3.2782342
Hole: 2.6671877;4.6428313
Hole: 1.5375004;3.614302
Hole: 2.6429687;2.0660415
Hole: -1.7265625;0.8053927
Hole: 1.1453123;1.1320828
Hole: 0.40781212;-1.3751477
Hole: -0.5617187;-0.8882375
Hole: 0.3296876;-2.9491994
Hole: 2.1140623;-4.20281
Hole: 2.6140628;-4.6084394
Hole: -2.634375;-2.1738958
Hole: -1.403125;-3.1258304
Goal: -2.4664063;-3.8776853;0.0
Obstacle: 3.0;0.1;0.0;5.0;0.0
Obstacle: 3.0;0.1;0.0;-5.0;0.0
Obstacle: 5.0;0.1;3.0;0.0;1.5707964
Obstacle: 5.0;0.1;-3.0;0.0;1.5707964
Obstacle: 1.0;0.1;-2.0046875;3.3212154;0.0
Obstacle: 1.0;0.1;-0.2992189;2.3458395;-1.5707964
Obstacle: 0.25;0.1;0.32500005;4.0629144;-1.5707964
Obstacle: 0.75;0.1;0.52499986;3.0445487;0.0
Obstacle: 0.5;0.1;1.215625;3.5291128;1.5707964
Obstacle: 0.5;0.1;1.6070313;3.9464593;5.9604645E-8
Obstacle: 0.5;0.1;2.4343748;2.488083;0.0
Obstacle: 0.25;0.1;2.0226564;2.3520887;1.5707964
Obstacle: 0.75;0.1;1.3531251;2.2200074;0.0
Obstacle: 1.0;0.1;0.6710937;0.5021503;1.5707964
Obstacle: 1.5;0.1;1.5906248;-0.05275492;1.5707964
Obstacle: 0.25;0.1;1.9109378;1.3759271;3.1415925
Obstacle: 1.0;0.1;-0.4093747;0.69988275;0.0
Obstacle: 1.0;0.1;-1.3007812;1.6103939;1.5707964
Obstacle: 0.75;0.1;-2.1507814;1.634623;1.5707964
Obstacle: 1.5;0.1;-1.5085936;-0.035560463;0.0
Obstacle: 0.5;0.1;2.640625;0.44978404;0.7853981
Obstacle: 0.5;0.1;1.9757814;-0.7592808;-0.7853982
Obstacle: 1.0;0.1;2.0343752;-2.2801888;0.0
Obstacle: 0.5;0.1;0.9437499;-1.8378285;-1.1780972
Obstacle: 0.25;0.1;-0.05859375;-1.1094191;-0.3926991
Obstacle: 0.5;0.1;-1.3601563;-0.8585402;0.0
Obstacle: 1.0;0.1;-1.9742188;-1.7964053;0.0
Obstacle: 0.75;0.1;-0.5375;-2.3098867;-0.7853982
Obstacle: 0.75;0.1;1.3250003;-3.0758097;0.0
Obstacle: 1.0;0.1;0.828125;-4.0128903;0.0
Obstacle: 1.0;0.1;-1.0234375;-3.6486926;-0.3926991
Obstacle: 1.0;0.1;-1.8859377;-4.1566978;1.5707964
Obstacle: 0.5;0.1;-1.7078125;-2.8796406;1.1780972
