Hole: 0.84609413;4.270811
Hole: 1.7156248;4.635798
Hole: -0.14765644;2.8561933
Hole: 0.64765644;2.8382175
Hole: 1.6156249;-1.6963656
Hole: 0.7750001;-1.0695593
Hole: -0.13593769;-0.5365374
Hole: 2.4460936;-3.9034784
Hole: 1.7148438;-4.601407
Hole: 0.86796904;-4.466979
Hole: -0.1624999;-2.1191857
Hole: -0.9742187;-0.18483752
Hole: -2.6289062;-0.9656118
Hole: -1.6054688;-1.8261049
Hole: -0.984375;-3.8464243
Hole: -2.5968752;-2.6928504
Hole: -1.0539062;0.61547464
Hole: -1.9164062;2.3091047
Hole: -2.6242187;1.278233
Hole: -1.9351563;0.381008
Hole: -2.6609375;-4.631888
Hole: 0.7015624;0.8882375
Hole: 2.0054688;1.028136
Hole: 2.6421876;3.4986315
Hole: 0.6414063;2.105119
Hole: -1.4703125;-3.8597114
Goal: 2.5296874;0.06916765;0.0
Obstacle: 3.0;0.1;0.0;5.0;0.0
Obstacle: 3.0;0.1;0.0;-5.0;0.0
Obstacle: 5.0;0.1;3.0;0.0;1.5707964
Obstacle: 5.0;0.1;-3.0;0.0;1.5707964
Obstacle: 1.25;0.1;-1.7921875;3.6143012;0.0
Obstacle: 1.0;0.1;-0.63984394;2.7053528;-1.5707964
Obstacle: 0.25;0.1;0.18203115;4.09652;-1.1780972
Obstacle: 1.25;0.1;0.2828126;1.9480255;-1.5707964
Obstacle: 0.5;0.1;2.4851565;0.6381395;0.0
Obstacle: 1.25;0.1;2.0625;-0.5263776;-1.5707964
Obstacle: 0.75;0.1;1.1429687;-0.87807775;-1.5707964
Obstacle: 1.0;0.1;0.2921872;-1.6408764;-1.5707964
Obstacle: 0.75;0.1;-0.6085937;0.12622084;-1.5707964
Obstacle: 0.5;0.1;2.0703125;-3.0351708;-1.5707964
Obstacle: 0.5;0.1;2.0804687;-4.743654;-1.5707964
Obstacle: 0.5;0.1;1.2476563;-4.789761;1.5707964
Obstacle: 0.5;0.1;1.2171874;-2.925755;-1.5707964
Obstacle: 0.5;0.1;0.6781249;3.8839378;0.0
Obstacle: 1.0;0.1;0.29453135;-2.5005867;0.0
Obstacle: 1.25;0.1;-1.7617188;-1.3212203;0.0
Obstacle: 0.5;0.1;-1.1695313;0.20906636;0.0
Obstacle: 1.0;0.1;-2.3882813;-2.2833147;0.0
Obstacle: 0.75;0.1;0.4203124;-4.1504474;-1.5707964
Obstacle: 1.0;0.1;-0.6335938;-3.2063322;-1.5707964
Obstacle: 1.25;0.1;-1.5664062;1.3634226;-1.5707964
Obstacle: 0.25;0.1;-1.5210938;-1.1352094;1.5707964
Obstacle: 0.25;0.1;0.6187496;1.2907398;3.1415925
Obstacle: 0.5;0.1;2.4125;1.3860894;0.0
Obstacle: 0.5;0.1;2.4093752;3.880812;3.1415925
Obstacle: 0.75;0.1;1.0968752;2.485739;3.1415925
