"EXCIT",32,4,,,,,,,,,,,,,,,,
"level","map",,"difficulty","difficulty","difficulty","elements",,,,,,,"level","level","music","music","demo","solution"
"id","x","y","icon","leto","kryst","pickups","beamer","deflector","door","key","oneway","arrow","name","filename","filename","replay","demo","full"
,,,,,,,,,,,,,,,,,,
"t_bas4",1,1,0,1,1,0,,,,,,,"First Numbers","tutorial/e1_daniel_tutorial_start-wall-goal.xml","noisefever_intro4.ogg",30,"demo","DLD"
"e1o_r3",1,2,0,2,2,0,,,,,,,"Hottub","e1_others/roadblocks_03_hottub.xml","yann_c-spells-3.ogg",45,"demo","RULU"
"t_bas1",1,3,0,1,1,0,,,,,,,"Basics","tutorial/01_tutorial-basic.xml","noisefever_intro4.ogg",30,"demo","URDL"
"e1o_j0",2,3,0,3,3,0,,,,,,,"Easy Business","e1_others/julia_einfach_0_3.xml","yann_highscores.ogg",45,"demo","DRU"
,,,,,,,,,,,,,,,,,,
"t_pick3",2,4,0,4,4,3,,,,,,,"Management","tutorial/e1_daniel_tutorial_mis.xml","noisefever_intro4.ogg",45,"demo","RURLUR"
"e2L_l9",3,1,2,15,13,3,,,,,,,"Level 9","e2_leto/13_level-9.xml","yann_tfmap.ogg",60,,"RULURDLULULDRDRURDLDLURDLURULDLUR"
"e2L_l5",3,2,0,4,4,3,,,,,,,"Fourtyfive","e2_leto/04_level-5.xml","noisefever_intro8.ogg",45,,"RDRUDLULDLUDRURDLU"
"e2L_bn",3,3,0,2,2,3,,,,,,,"Pickups","e2_leto/02_basics2_pickups.xml","yann_c-spells-3.ogg",45,"demo","LDRDLURLDLURDRULDRUR"
"t_pick2",3,4,1,3,3,3,,,,,,,"Moores Law","tutorial/daniel_2008_tutorial-pickups.xml","noisefever_intro9.ogg",50,"demo","LDULURDRULURDL"
"e1o_r4",4,3,0,5,5,3,,,,,,,"Trashcan","e1_others/roadblocks_04_trashcan.xml","yann_highscores.ogg",45,"demo","LURDLRDURL"
"e1o_j1",4,4,0,10,6,3,,,,,,,"Julias Report","e1_others/julia_einfach_1_4.xml","noisefever_intro8.ogg",45,,"UDRDULDRDLDU "
,,,,,,,,,,,,,,,,,,
"t_beam2",4,2,1,5,5,3,4,,,,,,"Beamer","tutorial/daniel_2008_tutorial-beamer.xml","noisefever_intro4.ogg",50,"demo","RDRDLURLRDLDRU"
"e1o_j3",5,2,1,6,9,3,2,,,,,,"Workflow","e1_others/julia_einfach_3b_4.xml","yann_c-spells-3.ogg",50,"demo","RLDRURDLULURDLDRULDURU"
"e2o_fen",5,1,1,7,7,3,2,,,,,,"Rennwickel","e2_others/07_roadblocks_08_fenwick_2008.xml","yann_tfmap.ogg",50,,"RDULULRDLDRULDLURDLDRURDL"
"e1L_k2",6,1,2,11,22,3,4,,,,,,"Framework","e1_leto/daniel_komplex_2.xml","noisefever_intro9.ogg",60,,"DLURDRLUDRULDL"
"e1o_j2",6,2,1,8,8,3,2,,,,,,"Opportunities","e1_others/julia_einfach_2_2.xml","yann_highscores.ogg",50,"demo","URULDURULURL"
"e2o_t2",6,3,1,6,6,3,6,,,,,,"Surprise","e2_others/06_traction2_levels.xml","yann_guerreNaive_course-c.ogg",80,"demo","DRURDLDULDRULULDLRDLULDRDLURDRULULRDLULDRDLURURLURULULDLURULDLUR"
"e1o_r7",6,4,2,9,21,3,2,,,,,,"Pain Scalability","e1_others/roadblocks_07_ikes.xml","noisefever_intro8.ogg",60,,"LDRDRULDRULDRULDRU"
,,,,,,,,,,,,,,,,,,
"t_deflect",7,3,1,14,12,3,,14,,,,,"Environment","tutorial/e1_daniel_tutorial_deflektor.xml","noisefever_intro4.ogg",50,"demo","LDRURUR"
"E2K_37",8,1,3,37,55,3,,11,,,,,"Random Blox","e2_kryst/37_randomblox.xml","yann_guerreNaive_course-c.ogg",90,,"URDLDRURRURURULRDRDLULULRURUDRLDRDRULDR"
"e2o_r14",8,2,2,20,24,3,2,8,,,,,"Total Krass","e2_others/24_roadblocks_14_krasnow.xml","noisefever_intro9.ogg",60,"demo","URULDRDRULDLURDRURULDRDLURDRULURULRDLURURDRULURRU"
"e2L_l6",8,3,1,8,8,3,,26,,,,,"Eight x Six","e2_leto/08_level-6.xml","yann_c-spells-3.ogg",50,"demo","ULRUULDDLDR"
"e1L_k6",8,4,3,16,23,3,,20,,,,,"Comp. Planning","e1_leto/daniel_komplex_6.xml","noisefever_intro3_2.ogg",80,,"RRDURURDLURDLDURURDLURDRULDRULULDR"
"e2o_o9",9,1,4,27,26,3,10,26,,,,,"Merger","e2_others/26_orbox_9-and-11_plus_beamers.xml","noisefever_intro1.ogg",120,,"UDRDLULDLURRDULDLDRDLULDLURRDULDLUDRULLULURUDRDLULDLURRDULDLUDRULLURRDLURDLRLDULDLUDRULLURRDLURURL"
"E2K_38",9,2,3,38,50,3,,7,,,,,"Loops","e2_kryst/38_loops.xml","noisefever_intro5.ogg",80,,"DRDRDLURULDLULRDLDRDLULULDRURULDLURDRLDRDLURULDLURDLDRDLULULULDRDRDURUL"
"e2L_e1b1",9,3,1,9,9,3,10,17,,,,,"Soho Blocks","e2_leto/09_excit1-blocks-1.xml","noisefever_intro9.ogg",50,"demo","DLULDRLDRDRDLRUL"
"e2o_o6",10,3,1,10,23,3,,18,,,,,"Watson","e2_others/23_orbox_6_wwwrr6.xml","noisefever_intro8.ogg",50,"demo","RRULDRDRULDLULDRURDRURDRDRURDRULL"
,,,,,,,,,,,,,,,,,,
"e1o_r8",11,1,2,7,999999,3,2,,22,,,,"Homage","e1_others/roadblocks_08_fenwick.xml","yann_tfmap.ogg",60,,"RDULULRDLDRULDLURDLDRURDL"
"t_door1",11,2,1,12,10,3,,,12,,,,"Open Doors","tutorial/10_tutorial-door-key.xml","yann_c-spells-3.ogg",50,"demo","LDRULDRUDRDRLULDRDLULDRLURDLR"
"t_door3",11,3,1,18,13,3,,,5,,,,"Knowledge","tutorial/e1_daniel_tutorial_key-door.xml","noisefever_intro4.ogg",50,"demo","RULDRDRULDLULUDRDLULDRULDLR"
"e2L_sci",12,4,3,11,25,3,10,17,8,,,,"Scifibase","e2_leto/25_scifibase.xml","noisefever_intro9.ogg",80,,"ULRULRUDLRRDULUDDRDRLUDRDLDULDRLURULUDLDRULURULURLDUDLRULDLDRDRLDLU"
"E2K_34",12,1,2,34,44,3,,18,17,,,,"Particlegun","e2_kryst/34_particlegun.xml","yann_il-repense-trucs.ogg",60,,"LRULRURDL"
"e2o_a8",12,2,1,13,11,3,10,,2,,,,"Anja","e2_others/11_anja_2008_--I.xml","noisefever_intro8.ogg",50,"demo","RULDRDRDRURDRDLULURULDLDRULRDLURURUDRDL"
"e2L_l7",11,4,2,24,17,3,2,,1,,,1,"Leto","e2_leto/17_level-7.xml","yann_tfmap.ogg",60,,"RDRDURURULURULDLDLDRDLDLULULDRURULURUL"
"e2L_cc",13,1,4,29,29,3,2,104,2,,,,"Complex C","e2_leto/29_complex-c.xml","yann_tfmap.ogg",120,"demo","DULLLLUURUDRDRUDRUDRDLRRUDRUDLDDULUURD"
"e2L_logo",13,2,1,14,12,3,8,15,4,,,,"Logisch","e2_leto/12_logo.xml","yann_guerreNaive_course-c.ogg",80,"demo","RDRULDRDRUDRDLDRLURDRDRULDRDLRUDR"
"E2K_50",13,3,2,50,51,3,,3,31,,,,"Particlecannon","e2_kryst/50_particlegun2.xml","yann_c-spells-2.ogg",60,,".."
"e2L_cb",13,4,4,30,30,3,,,46,,,,"Complex B","e2_leto/30_complex-b.xml","yann_morot.ogg",120,,"DRUDRULULDRULDRDULURDLURURULUDRDLULRD"
,,,,,,,,,,,,,,,,,,
"t_onew3",14,2,1,12,10,3,,,,,4,,"Simulation","tutorial/e1_daniel_tutorial_one-way.xml","noisefever_intro4.ogg",50,"demo","RLDURLDRULRU"
"E2K_54",15,1,2,54,41,3,,2,,,1,,"Starstica","e2_kryst/54_starstica.xml","yann_tfmap.ogg",50,"demo","LDRDRURULULURDRDLDRUDLULURURDRDLDRDRULURULULURDRDLDRDLULURDR"
"t_onew1",15,2,1,16,14,3,,,,,15,,"Not Twoway","tutorial/14_tutorial-oneway.xml","yann_c-spells-3.ogg",50,"demo","URLULDURDULDRDLRUDRULDURD"
"e1L_f2",15,3,2,23,24,3,10,,3,3,2,,"Alea iacta est","e1_leto/daniel_flat_2.xml","yann_il-repense-trucs.ogg",60,,"ULDLURUDLDRULURURDLDRDRDLDLULRULDLRDLDLURLD"
"e1o_r16",16,1,2,13,11,3,2,,,,1,,"Melting Strategy","e1_others/roadblocks_16_mertin.xml","yann_highscores.ogg",60,,"RLDLURDRULU"
"e1L_f3",16,3,3,24,19,3,8,19,,,2,,"Flat Budget","e1_leto/daniel_flat_3.xml","noisefever_intro3_2.ogg",8,,"LDLLULRURDLDLDRDULDRRDRDU"
"E2K_57",16,4,3,57,52,3,4,10,2,,10,,"Outside the box","e2_kryst/57_outsidethebox.xml","yann_c-spells-2.ogg",60,,"ULDRULURULULDRULURDULDLULDRULURDURLDLRDLULDLURURDLULDRDDLURDURLDLRDLULURDL"
"e2L_ok",17,1,2,17,18,3,,,7,,15,,"Only one","e2_leto/18_one-key.xml","yann_il-repense-trucs.ogg",60,,"LURURDLULDLULURLDURULRDLDRURDLURDR"
"e2L_four",17,2,2,18,21,3,10,8,5,,2,,"Four","e2_leto/21_four.xml","noisefever_intro5.ogg",60,,"RDRDLDRUDURLULDRLURDRLDRDLRLURDLRULDRLDR"
"e1L_k5",17,4,3,15,28,3,,29,2,2,11,,"Tough CIO","e1_leto/daniel_komplex_5.xml","noisefever_intro9.ogg",80,,"DRDLDRDUULRUURULDRDRDLLURDURDLDLULRDLDRDLDRDRU"
"E2K_44",18,1,4,44,58,3,,2,,,188,,"Oneway","e2_kryst/44_oneway.xml","noisefever_Intro2.ogg",130,,"URULULDLDRDLULULDRDRDRURDRULULULDRDRULDRDRURDRURDLDRD"
"e2L_lfive",18,2,2,19,15,3,10,26,,,8,,"Easy Five","e2_leto/15_level_five.xml","yann_c-spells-2.ogg",60,,"URDRRLRL"
"E2K_45",18,3,2,45,32,3,,21,,,1,,"On a boat","e2_kryst/45_onaboat.xml","noisefever_intro3_2.ogg",60,,"LULDRDRDLDRDLDLDLDLDRULDLDLD"
"E2K_60",18,4,3,60,54,3,4,11,,,3,,"Starstica II","e2_kryst/60_beamer_starstica.xml","scifish_output_1-2-57_fade.ogg",80,,"RDLDLUDRDLDRDRULDRLRDLURULURDRUL"
,,,,,,,,,,,,,,,,,,
"t_arro3",19,3,1,17,14,3,,,,,,4,"Productivity","tutorial/e1_daniel_tutorial_speed-up.xml","noisefever_intro4.ogg",50,,"LDRURLDLURDLDLURDRU"
"e1L_b1",20,2,2,20,15,3,2,15,1,1,,3,"Analysis","e1_leto/daniel_blocks_1.xml","noisefever_intro3_2.ogg",60,,"RURDRUDLURLDRDURL"
"t_arro2",20,3,2,22,20,3,,6,7,,13,17,"Hidden UFO","tutorial/daniel_2008_tutorial-arrow.xml","yann_c-spells-3.ogg",60,,"LUDUDLRDLUDRURUDRLDULURDULRUDDULUDRDLDLLURUDULURDLUDRDLDLULURDLRDLDDLURD"
"E2K_33",20,4,2,33,30,3,,8,2,,,4,"Alienscript","e2_kryst/33_alienscript.xml","noisefever_intro5.ogg",60,,"LRDRDURLLURDRUDULDULLULDLRDRDRUDULD"
"e1L_b0",21,1,3,19,29,3,7,2,4,3,1,7,"Block Hotel","e1_leto/daniel_blocks_0.xml","scifish_output_1-2-57_fade.ogg",60,,"RDLDLURURDLULUDLURDLRURDRRLRDLDLURULDLDRULULDLURDRURDRRDLDLURURD"
"e1L_b2",21,2,2,21,17,3,,11,1,1,4,2,"Reporting","e1_leto/daniel_blocks_2.xml","yann_c-spells-2.ogg",60,,"LURDRULRDRURDRUDLDRULDRLRDLURDLDLU"
"E2K_52",21,4,2,52,33,3,,13,1,,1,10,"Alienscript","e2_kryst/52_alienscript2.xml","noisefever_intro5.ogg",60,,"RDLULURULURULUUULURDLRURDULDLULRLDLDLDRURU"
"e1L_dl",22,2,2,30,16,3,4,9,1,,3,9,"Integration","e1_leto/default_logo.xml","yann_guerreNaive_course-c.ogg",80,,"LDLDLRDLRDUDRLD"
"E2K_32",22,4,2,32,31,3,,4,,,,4,"Cross","e2_kryst/32_cross.xml","yann_highscores.ogg",60,,"RULRDLDRDRRDRDLUULDURDLURURDL"
"e2L_c",23,1,3,23,19,3,,,5,,31,6,"Castle","e2_leto/19_castle.xml","noisefever_intro9.ogg",90,,"RDLUDLRUDLULDRDLULURDRUDLDLURDRULRDLURLU"
"e2L_l8k",23,2,2,21,16,3,,34,5,,1,4,"Kryst","e2_leto/16_level-8_kryst.xml","noisefever_intro3_2.ogg",60,,"DRLDLDRULRULDLDLRURDULUULULUL"
"E2K_46",23,3,2,46,35,3,,1,,,,1,"Cheesy","e2_kryst/46_cheesy.xml","noisefever_intro5.ogg",60,,"DRDLULDRURDRULDLDRULDLULDRDLDRURDRULDLDRDLULUR"
"E2K_35",23,4,2,35,34,3,,6,,,3,3,"Driller","e2_kryst/35_driller.xml","yann_morot.ogg",60,,"DULULDLURDLDRDRRURDLDRDRRDRURURDLULRDLULULDLDRDLDR"
,,,,,,,,,,,,,,,,,,
"e1L_k7",24,1,3,29,18,3,4,13,,,3,4,"Forecasting","e1_leto/daniel_komplex_7.xml","scifish_output_1-2-57_fade.ogg",90,,"DLULRDRURDLRLDRDRUL"
"E2K_59",24,4,2,59,36,3,,3,4,,,17,"Inside the box","e2_kryst/59_insidethebox.xml","yann_highscores.ogg",60,,"RDLUDRULDRLRUDLRL"
"e1L_k1",25,1,3,26,20,3,4,12,,,8,1,"Consolidation","e1_leto/daniel_komplex_1.xml","scifish_output_1-2-57_fade.ogg",90,,"URDLDRURULDRDRURDRURDLDRDRURDRULRUL"
"E2K_36",25,3,2,36,38,3,,76,,,1,63,"Boom","e2_kryst/36_boom.xml","noisefever_intro5.ogg",60,,"DURDRDLDURDRDDLDRDLULURDRLLUUDLDURULDLDURD"
"e1L_n1",25,4,2,,,0,4,8,6,,2,1,"Year zero","e1_leto/daniel_new2006_one.xml","yann_il-repense-trucs.ogg",60,,"ULDLDLDRLURURURDLDRULULRDRDLURURURDLDRDLRDULUDRDLDRDRDURLUDR"
"e1L_k3",26,1,3,27,25,3,4,4,2,2,4,8,"Vision","e1_leto/daniel_komplex_3.xml","noisefever_intro3_2.ogg",90,,"RRURDRDRDUDLLDRURULURLDULULUDLURUDR"
"e1L_f1",26,2,3,22,26,3,2,2,2,1,4,3,"Moria Miner","e1_leto/daniel_flat_1.xml","noisefever_intro1.ogg",90,,"LUDRDLDLDRULDULRDULURLURDLDL"
"E2K_49",26,3,2,49,39,3,,20,1,,2,10,"YES","e2_kryst/49_yes.xml","yann_c-spells-2.ogg",60,,"URDLDRDLDLULDRLRULURURURDLDRDLDLULDRRLURDURUULUDLUDL"
"e2L_n61",26,4,4,26,22,3,6,9,6,,2,3,"Year one","e2_leto/22_new2006-one.xml","noisefever_Intro2.ogg",130,,"ULDLDLDRLURURURDLDRULULRDRDLURURURDLDRDLRDULUDRDLDRDRDURLUDR"
"E2K_51",27,2,3,51,53,3,4,14,5,,4,9,"Freeroam Cells","e2_kryst/51_freeroam_cells.xml","yann_morot.ogg",90,,".."
"E2K_31",27,3,3,31,40,3,6,19,8,,6,6,"Simple Cells","e2_kryst/31_simple_cells.xml","noisefever_intro1.ogg",60,,"RDLULRDRDLDRULURLDRDLULDRDRULDLULDURDLULDRDRDLURDRDLDRDLUDLLRDURDRULUDRDRLURDLULRDLURDLDRDLUDLLUDL"
,,,,,,,,,,,,,,,,,,
"E2K_42",28,1,3,42,43,3,2,28,2,,,2,"Vertigo","e2_kryst/42_vertigo.xml","scifish_output_1-2-57_fade.ogg",75,,"RDRULDLURURUDRDRDRULDLURDLURURURUDRDLURULRUDRDRULDLULURDRUR"
"E2K_39",28,2,3,39,37,3,10,34,,,8,6,"Warpcore","e2_kryst/39_warpcore.xml","noisefever_intro5.ogg",75,,"RDLDLLDRDLDLULULDRDLDRDLLDRULDURURDRURLDLDRDLDRDLLDRULDURURDRULDRL"
"e1L_k0",28,3,2,25,27,3,2,15,,,,6,"Subsidiary","e1_leto/daniel_komplex_0.xml","yann_c-spells-2.ogg",75,,"RUDRURURDLURL"
"E2K_40",29,1,3,40,47,3,,23,,,4,3,"Galaxy","e2_kryst/40_galaxy.xml","yann_morot.ogg",90,,"RDRLULURDLRRRLDRRUDRDRDRURDLRURLDLURURDLRURDURDLDRRULDLDLURDUUURURDLL"
"E2K_48",29,3,3,48,49,3,8,18,3,,3,1,"Big Politics","e2_kryst/48_obama_big.xml","yann_il-repense-trucs.ogg",75,,"RULULDLULURDRDRLULDLDRULULDLULURURLURURLDLURDRLDLULULLULDRULULDULUR"
"E2K_47",29,4,3,47,48,3,,14,2,,1,14,"Small Politics","e2_kryst/47_obama_small.xml","noisefever_intro3_2.ogg",90,,".."
"E2K_41",30,1,3,41,46,3,2,20,,,,1,"Multipolter","e2_kryst/41_multipolter.xml","noisefever_Intro2.ogg",90,,"DRUDRULDLURDLULULDLULDLRULURDRDLDLURDRULDLRDURULULULDLUL"
"E2K_56",30,2,3,56,56,3,4,24,4,,3,10,"The Eye","e2_kryst/56_theeye.xml","noisefever_intro1.ogg",90,,"RULULRURDLURURLLURURURLDLDRDLULRDULULRURDLULDRLLURDRDRURULDULDRLULULRURDLURU"
"E2K_55",30,3,2,55,42,3,2,14,6,,1,5,"WWYD","e2_kryst/55_jesus.xml","yann_tfmap.ogg",75,,"DURDRDLULRDLDRULDULDRDRURLURULRDRDLULLURULRLDLDLD"
"e1L_k4",31,1,4,28,30,3,4,15,6,3,22,16,"K4 is the limit","e1_leto/daniel_komplex_4.xml","noisefever_Intro2.ogg",150,,"DUDRLDRLDLRDUDLRULDULDLDLRDRULURDULURDLULURDLURDRUDLDLRLRULU"
"e2L_n62",31,2,3,26,27,3,,,13,,1,8,"Year two","e2_leto/27_new2006-two.xml","yann_morot.ogg",150,,"LURUDLURLULUDRDRULULDLRDURDRUDRUDL"
"E2K_53",31,3,3,53,45,3,6,14,3,,5,6,"Organic Bubbles","e2_kryst/53_organicbubbles.xml","scifish_output_1-2-57_fade.ogg",90,,"DRDLURDULDRDDRDRULDRULDRDURDLDURURURRDLULURRDLDLUDRDRURDLRD"
"E2K_43",32,1,4,43,57,3,2,20,10,,3,15,"Crocodile","e2_kryst/43_crocodile.xml","noisefever_Intro2.ogg",150,,".."
"E2K_58",32,2,4,58,59,3,,29,6,,,15,"The End","e2_kryst/58_yourock.xml","yann_guerreNaive_course-c.ogg",130,," LRDRURLDLULDLULRDRURDUDLRLULULDLDULUULURLUURDUD"
"e2L_ca",32,3,4,28,28,3,,20,5,,3,16,"Last Complexity","e2_leto/28_complex-a.xml","yann_morot.ogg",150,,"ULRLULULRDLDRLDRURURDRULRDRURURDLURLURDLURURURDLURUDURDLURD"
