{
    "header" : {
        "file_version" : 68,
        "format_version" : 1,
        "library_version" : 1
    },
    "profiles" : {
        "ColorCorrection" : {
            "defaults" : [
                {
                    "Default" : [
                        [
                            "CC_Tags",
                            ""
                        ]
                    ]
                }
            ],
            "selection" : [
                
            ],
            "overrides" : [
                
            ],
            "priority" : [
                
            ]
        },
        "CPU" : {
            "defaults" : [
                {
                    "Default" : [
                        
                    ]
                }
            ],
            "selection" : [
                {
                    "CPU_Low" : [
                        [
                            [
                                "CORES=1"
                            ]
                        ]
                    ]
                },
                {
                    "CPU_Medium" : [
                        [
                            [
                                "CORES=2"
                            ]
                        ]
                    ]
                },
                {
                    "CPU_High" : [
                        [
                            [
                                "CORES<2"
                            ]
                        ]
                    ]
                }
            ],
            "overrides" : {
                "CPU_High" : [
                    
                ],
                "CPU_Low" : [
                    
                ],
                "CPU_Medium" : [
                    
                ],
                "CPU_Ultra_High" : [
                    
                ],
                "CPU_Ultra_Low" : [
                    
                ]
            },
            "priority" : {
                "CPU_High" : [
                    "CPU_Ultra_High",
                    "CPU_Medium"
                ],
                "CPU_Low" : [
                    "CPU_Medium",
                    "CPU_Ultra_Low"
                ],
                "CPU_Medium" : [
                    "CPU_High",
                    "CPU_Low"
                ],
                "CPU_Ultra_High" : [
                    "",
                    "CPU_High"
                ],
                "CPU_Ultra_Low" : [
                    "CPU_Low",
                    ""
                ]
            }
        },
        "GPU" : {
            "defaults" : [
                {
                    "Default" : [
						[
							"HighEndGPU",
							false,
							"HighEndGPU",
							"[;]"
						],
                        [
							"LowEndShaders",
                            true,
                            "LowEndShaders",
                            "[;]"
                        ],
                        [
                            "HighEndShaders",
                            false,
                            "HighEndShaders",
                            "[;]"
                        ],
                        [
                            "ShadowMaps",
                            false,
                            "ShadowMaps",
                            "[;]"
                        ],
                        [
                            "Reflections",
                            false,
                            "Reflections",
                            "[;]"
                        ],
                        [
                            "HardwareSkinning",
                            false,
                            "HardwareSkinning",
                            "[;]"
                        ],
                        [
                            "DisableLightmaps",
                            false,
                            "DisableLightmaps",
                            "[;]"
                        ],
                        [
                            "HighQualityGhostEffect",
                            false,
                            "HighQualityGhostEffect",
                            "[;]"
                        ],
                        [
                            "RenderTargetSizeScale",
                            1.0,
                            "RenderTargetSizeScale",
                            "[0;1]"
                        ],
                        [
                            "ShadowBlobs",
                            false,
                            "ShadowBlobs",
                            "[;]"
                        ],
                        [
                            "MinifigsLOD0MaxDistance",
                            10.0,
                            "MinifigsLOD0MaxDistance",
                            "[0;100]"
                        ],
                        [
                            "SetsLOD0MaxDistance",
                            10.0,
                            "SetsLOD0MaxDistance",
                            "[0;100]"
                        ],
                        [
                            "EnvironmentLOD0MaxDistance",
                            10.0,
                            "EnvironmentLOD0MaxDistance",
                            "[0;100]"
                        ],
                        [
                            "DropObjectsForLowEnd",
                            false,
                            "DropObjectsForLowEnd",
                            "[;]"
                        ],
                        [
                            "DropAnimatoinsForLowEnd",
                            false,
                            "DropAnimatoinsForLowEnd",
                            "[;]"
                        ],
                        [
                            "DropParticlesForLowEnd",
                            false,
                            "DropParticlesForLowEnd",
                            "[;]"
                        ],
                        [
                            "AntiAliasingSamples",
                            "None",
                            "AntiAliasingSamples",
                            "[;]"
                        ],
						[
                            "EnableFXAA",
                            true,
                            "EnableFXAA",
                            "[;]"
                        ],
                        [
                            "EnableDOF",
                            true,
                            "EnableDOF",
                            "[;]"
                        ],
                        [
                            "FramerateLimit",
                            -1,
                            "FramerateLimit",
                            "[-1;100]"
                        ],
						[
                            "MaxRandomizedMinifigs",
                            5,
                            "MaxRandomizedMinifigs",
                            "[0;5]"
                        ],
                        [
                            "TargetPPI",
                            0,
                            "TargetPPI",
                            "[0;1000]"
                        ],
                        [
                            "TargetPPITablet",
                            300,
                            "TargetPPITablet",
                            "[0;1000]"
                        ],
                        [
                            "UseBareBonesAsset",
                            false,
                            "UseBareBonesAsset",
                            "[;]"
                        ]
                    ]
                }
            ],
            "selection" : [
                {
                    "GPU_PC" : [
                        [
                            [
                                "ARCHITECTURE=AMD64"
                            ]
                        ]
                    ]
                },
                {
                    "GPU_Ultra_High" : [
                        [
                            [
                                "GPU$$Adreno"
                            ],
                            [
                                "GPU$$630"
                            ]
                        ],
                        [
                            [
                                "GPU$$Mali"
                            ],
                            [
                                "GPU$$G72"
                            ]
                        ],
                        [
                            [
                                "GPU$$Mali"
                            ],
                            [
                                "GPU$$G76"
                            ]
                        ],
                        [
                            [
                                "GPU$$Adreno"
                            ],
                            [
                                "GPU$$640"
                            ]
                        ]
                    ]
                },
                {
                    "GPU_High" : [
                        [
                            [
                                "GPU$$NVIDIA"
                            ],
                            [
                                "CPU_REPORT$$A57"
                            ]
                        ],
                        [
                            [
                                "GPU$$Adreno"
                            ],
                            [
                                "GPU$$530"
                            ]
                        ],
						[
                            [
                                "GPU$$Adreno"
                            ],
                            [
                                "GPU$$540"
                            ]
                        ],
                        [
                            [
                                "GPU$$Mali"
                            ],
                            [
                                "GPU$$G71"
                            ],
                            [
                                "MANUF$$samsung"
                            ]
                        ],
                        [
                            [
                                "GPU$$Mali"
                            ],
                            [
                                "GPU$$G71"
                            ],
                            [
                                "MANUF$$SAMSUNG"
                            ]
                        ],
                        [
                            [
                                "GPU$$Mali"
                            ],
                            [
                                "GPU$$G71"
                            ],
                            [
                                "CHIPSET$$exynos"
                            ]
                        ],
                        [
                            [
                                "GPU$$Mali"
                            ],
                            [
                                "GPU$$T880"
                            ],
                            [
                                "MANUF$$samsung"
                            ]
                        ],
                        [
                            [
                                "GPU$$Mali"
                            ],
                            [
                                "GPU$$T880"
                            ],
                            [
                                "MANUF$$SAMSUNG"
                            ]
                        ],
                        [
                            [
                                "GPU$$Mali"
                            ],
                            [
                                "GPU$$T880"
                            ],
                            [
                                "CHIPSET$$exynos"
                            ]
                        ]
                    ]
				},
                {
                    "GPU_Medium" : [
                        [
                            [
                                "GPU$$Adreno"
                            ],
                            [
                                "GPU$$430"
                            ]
                        ],
                        [
                            [
                                "GPU$$Mali"
                            ],
                            [
                                "GPU$$G71"
                            ]
                        ],
                        [
                            [
                                "GPU$$Intel"
                            ],
                            [
                                "GPU$$HD Graphics"
                            ],
                            [
                                "GPU$$5000"
                            ]
                        ],
                        [
                            [
                                "GPU$$Intel"
                            ],
                            [
                                "GPU$$HD Graphics"
                            ],
                            [
                                "GPU$$5100"
                            ]
                        ],
                        [
                            [
                                "GPU$$Intel"
                            ],
                            [
                                "GPU$$HD Graphics"
                            ],
                            [
                                "GPU$$5200"
                            ]
                        ],
                        [
                            [
                                "GPU$$Intel"
                            ],
                            [
                                "GPU$$HD Graphics"
                            ],
                            [
                                "GPU$$Atom"
                            ]
                        ],
                        [
                            [
                                "GPU$$Intel"
                            ],
                            [
                                "GPU$$HD Graphics"
                            ],
                            [
                                "GPU$$615"
                            ]
                        ],
                        [
                            [
                                "GPU$$Intel"
                            ],
                            [
                                "GPU$$HD Graphics"
                            ],
                            [
                                "GPU$$515"
                            ]
                        ],
                        [
                            [
                                "GPU$$NVIDIA"
                            ],
                            [
                                "CORES=4"
                            ],
                            [
                                "MEM_T<2700"
                            ],
                            [
                                "MEM_T>2000"
                            ]
                        ],
                        [
                            [
                                "GPU$$NVIDIA"
                            ],
                            [
                                "CPU_REPORT$$A15"
                            ],
                            [
                                "CPUFMAX>=2000"
                            ]
                        ]
                    ]
                },
                {
                    "GPU_Low" : [
                        [
                            [
                                "GPU$$Mali"
                            ],
                            [
                                "GPU$$T760"
                            ],
                            [
                                "CHIPSET$$exynos"
                            ],
                            [
                                "CHIPSET!$exynos5"
                            ]
                        ],
                        [
                            [
                                "GPU$$Adreno"
                            ],
                            [
                                "GPU$$418"
                            ]
                        ],
                        [
                            [
                                "GPU$$Adreno"
                            ],
                            [
                                "GPU$$420"
                            ]
                        ],
                        [
                            [
                                "GPU$$Adreno"
                            ],
                            [
                                "GPU$$508"
                            ]
                        ],
                        [
                            [
                                "GPU$$Adreno"
                            ],
                            [
                                "GPU$$509"
                            ]
                        ],
                        [
                            [
                                "GPU$$Adreno"
                            ],
                            [
                                "GPU$$512"
                            ]
                        ],
                        [
                            [
                                "GPU$$Adreno"
                            ],
                            [
                                "GPU$$616"
                            ]
                        ],
                        [
                            [
                                "GPU$$Mali"
                            ],
                            [
                                "GPU$$T880"
                            ],
                            [
                                "CHIPSET!$exynos"
                            ]
                        ],
                        [
                            [
                                "GPU$$Mali"
                            ],
                            [
                                "GPU$$G51"
                            ]
                        ],
                        [
                            [
                                "GPU$$Intel"
                            ],
                            [
                                "GPU$$HD Graphics"
                            ],
                            [
                                "GPU$$4000"
                            ]
                        ],
                        [
                            [
                                "GPU$$Intel"
                            ],
                            [
                                "GPU$$HD Graphics"
                            ],
                            [
                                "GPU$$4200"
                            ]
                        ],
                        [
                            [
                                "GPU$$Intel"
                            ],
                            [
                                "GPU$$HD Graphics"
                            ],
                            [
                                "GPU$$4400"
                            ]
                        ],
                        [
                            [
                                "GPU$$Intel"
                            ],
                            [
                                "GPU$$HD Graphics"
                            ],
                            [
                                "GPU$$4600"
                            ]
                        ],
                        [
                            [
                                "GPU$$NVIDIA"
                            ],
                            [
                                "CORES>=2"
                            ],
                            [
                                "CORES<4"
                            ],
                            [
                                "MEM_T>=2000"
                            ]
                        ]
                    ]
                },
                {
                    "GPU_Ultra_Low" : [
                        [
                            [
                                "GPU$$Adreno"
                            ],
                            [
                                "GPU$$305"
                            ]
                        ],
                        [
                            [
                                "GPU$$Adreno"
                            ],
                            [
                                "GPU$$306"
                            ]
                        ],
                        [
                            [
                                "GPU$$Adreno"
                            ],
                            [
                                "GPU$$308"
                            ]
                        ],
                        [
                            [
                                "GPU$$Adreno"
                            ],
                            [
                                "GPU$$320"
                            ]
                        ],
                        [
                            [
                                "GPU$$Adreno"
                            ],
                            [
                                "GPU$$330"
                            ]
                        ],
                        [
                            [
                                "GPU$$Adreno"
                            ],
                            [
                                "GPU$$405"
                            ]
                        ],
                        [
                            [
                                "GPU$$Adreno"
                            ],
                            [
                                "GPU$$505"
                            ]
                        ],
                        [
                            [
                                "GPU$$Adreno"
                            ],
                            [
                                "GPU$$506"
                            ]
                        ],
                        [
                            [
                                "GPU$$Adreno"
                            ],
                            [
                                "GPU$$510"
                            ]
                        ],
                        [
                            [
                                "GPU$$Mali"
                            ],
                            [
                                "GPU$$450"
                            ]
                        ],
                        [
                            [
                                "GPU$$Mali"
                            ],
                            [
                                "GPU$$T624"
                            ]
                        ],
                        [
                            [
                                "GPU$$Mali"
                            ],
                            [
                                "GPU$$T628"
                            ]
                        ],
                        [
                            [
                                "GPU$$Mali"
                            ],
                            [
                                "GPU$$T720"
                            ]
                        ],
                        [
                            [
                                "GPU$$Mali"
                            ],
                            [
                                "GPU$$T760"
                            ],
                            [
                                "CHIPSET!$exynos"
                            ]
                        ],
                        [
                            [
                                "GPU$$Mali"
                            ],
                            [
                                "GPU$$T760"
                            ],
                            [
                                "CHIPSET$$exynos5"
                            ]
                        ],
                        [
                            [
                                "GPU$$Mali"
                            ],
                            [
                                "GPU$$T830"
                            ]
                        ],
                        [
                            [
                                "GPU$$Mali"
                            ],
                            [
                                "GPU$$T860"
                            ]
                        ],
                        [
                            [
                                "GPU$$PowerVR"
                            ]
                        ],
                        [
                            [
                                "GPU$$Vivante"
                            ]
                        ],
                        [
                            [
                                "GPU$$NVIDIA"
                            ],
                            [
                                "CPU_REPORT$$A15"
                            ],
                            [
                                "CPUFMAX<2000"
                            ]
                        ],
                        [
                            [
                                "GPU$$NVIDIA"
                            ],
                            [
                                "CORES=2"
                            ],
                            [
                                "MEM_T<2000"
                            ],
                            [
                                "MEM_T>=1500"
                            ]
                        ]
                    ]
                }
            ],
            "overrides" : {
				"GPU_PC" : {
					"HighEndGPU" : true,
                    "LowEndShaders" : false,
                    "HighEndShaders" : true,
                    "ShadowMaps" : true,
                    "Reflections" : true,
                    "HighQualityGhostEffect" : true,
                    "HardwareSkinning" : true,
					"MaxRandomizedMinifigs" : 5
                },
                "GPU_Ultra_High" : {
					"HighEndGPU" : true,
                    "LowEndShaders" : false,
                    "HighEndShaders" : true,
                    "ShadowMaps" : true,
                    "Reflections" : true,
                    "HighQualityGhostEffect" : true,
                    "AntiAliasingSamples" : "None",
                    "HardwareSkinning" : true,
                    "TargetPPI" : 401,
                    "TargetPPITablet" : 290,
                    "FramerateLimit" : 30.0,
					"MaxRandomizedMinifigs" : 5
                },
                "GPU_High" : {
                    "LowEndShaders" : false,
                    "HighEndShaders" : true,
                    "ShadowMaps" : true,
                    "Reflections" : true,
                    "HighQualityGhostEffect" : true,
                    "AntiAliasingSamples" : "None",
                    "HardwareSkinning" : true,
                    "TargetPPI" : 326,
                    "TargetPPITablet" : 290,
                    "FramerateLimit" : 30.0,
					"MaxRandomizedMinifigs" : 5
                },
                "GPU_Medium" : {
                    "LowEndShaders" : false,
                    "ShadowMaps" : true,
                    "Reflections" : true,
                    "MinifigsLOD0MaxDistance" : 5.0,
                    "SetsLOD0MaxDistance" : 5.0,
                    "EnvironmentLOD0MaxDistance" : 5.0,
                    "HardwareSkinning" : true,
                    "TargetPPI" : 290,
                    "TargetPPITablet" : 264,
                    "FramerateLimit" : 30.0,
					"MaxRandomizedMinifigs" : 5
                },
				"GPU_Low" : {
                    "ShadowMaps" : true,
                    "Reflections" : false,
                    "MinifigsLOD0MaxDistance" : 0.0,
                    "SetsLOD0MaxDistance" : 0.0,
                    "EnvironmentLOD0MaxDistance" : 0.0,
                    "HardwareSkinning" : true,
                    "TargetPPI" : 264,
                    "TargetPPITablet" : 196,
                    "FramerateLimit" : 30.0,
					"MaxRandomizedMinifigs" : 0
                },
                "GPU_Ultra_Low" : {
                    "ShadowMaps" : false,
                    "ShadowBlobs": true,
                    "DisableLightmaps" : false,
                    "MinifigsLOD0MaxDistance" : 0.0,
                    "SetsLOD0MaxDistance" : 0.0,
                    "EnvironmentLOD0MaxDistance" : 0.0,
                    "DropObjectsForLowEnd" : true,
                    "DropAnimatoinsForLowEnd" : true,
                    "DropParticlesForLowEnd" : true,
                    "HardwareSkinning" : true,
                    "TargetPPI" : 196,
                    "TargetPPITablet" : 132,
                    "FramerateLimit" : 30.0,
					"MaxRandomizedMinifigs" : 0
                }
            },
            "priority" : {
                "GPU_PC" : [
                    "",
                    "GPU_Ultra_High"
                ],
				 "GPU_Ultra_High" : [
                    "",
                    "GPU_High"
                ],
				"GPU_High" : [
                    "GPU_Ultra_High",
                    "GPU_Medium"
                ],
				"GPU_Medium" : [
                    "GPU_High",
                    "GPU_Low"
                ],
				"GPU_Low" : [
                    "GPU_Medium",
                    "GPU_Ultra_Low"
                ],
				"GPU_Ultra_Low" : [
                    "GPU_Low",
                    ""
                ]
            }
        },
        "MEM" : {
            "defaults" : [
                {
                    "Default" : [
                        
                    ]
                }
            ],
            "selection" : [
                
            ],
            "overrides" : {
                "MEM_High" : [
                    
                ],
                "MEM_Low" : [
                    
                ],
                "MEM_Medium" : [
                    
                ],
                "MEM_Ultra_High" : [
                    
                ],
                "MEM_Ultra_Low" : [
                    
                ]
            },
            "priority" : {
                "MEM_High" : [
                    "MEM_Ultra_High",
                    "MEM_Medium"
                ],
                "MEM_Low" : [
                    "MEM_Medium",
                    "MEM_Ultra_Low"
                ],
                "MEM_Medium" : [
                    "MEM_High",
                    "MEM_Low"
                ],
                "MEM_Ultra_High" : [
                    "",
                    "MEM_High"
                ],
                "MEM_Ultra_Low" : [
                    "MEM_Low",
                    ""
                ]
            }
        },
        "Specific" : {
            "defaults" : [
                {
                    "Default" : [
                        
                    ]
                }
            ],
            "selection" : [
                
            ],
            "overrides" : [
                
            ],
            "priority" : [
                
            ]
        }
    }
}