Hole: -1.528125;-2.8288405
Hole: 2.6531248;-0.39742073
Goal: 2.8992186;-2.9843714;-0.7853982
Obstacle: 3.0;0.1;0.0;5.0;0.0
Obstacle: 3.0;0.1;0.0;-5.0;0.0
Obstacle: 5.0;0.1;3.0;0.0;1.5707964
Obstacle: 5.0;0.1;-3.0;0.0;1.5707964
Obstacle: 1.75;0.1;-1.0710936;3.0718975;-2.3561945
Obstacle: 1.5;0.1;-2.0093749;0.80070347;0.7853982
Obstacle: 1.75;0.1;1.1570313;3.8894072;0.7853982
Obstacle: 1.5;0.1;1.9609375;-0.49667853;-2.3561945
Obstacle: 2.5;0.1;-1.3203125;-1.8604947;0.7853982
Obstacle: 1.25;0.1;0.079687595;-2.0738597;2.3561945
Obstacle: 1.5;0.1;1.9976561;-3.1039479;0.7853982
Obstacle: 1.5;0.1;-0.22734356;-4.070728;-3.9269907
Obstacle: 0.5;0.1;1.8734374;-3.8104706;-0.7853982
Obstacle: 3.0;0.1;0.0234375;1.10551;-2.3561945
Obstacle: 1.25;0.1;0.6500001;1.1219229;-0.7853982
Obstacle: 1.0;0.1;2.498438;1.9706906;0.7853981
Obstacle: 0.75;0.1;1.3601565;-2.4372814;0.7853982
