Goal: 2.4007812;4.3786683;0.0
Hole: -2.5867186;2.5224705
Hole: -2.6203125;-1.7237219
Hole: -1.4960938;4.524817
Obstacle: 3.0;0.1;0.0;5.0;0.0
Obstacle: 3.0;0.1;0.0;-5.0;0.0
Obstacle: 5.0;0.1;3.0;0.0;1.5707964
Obstacle: 5.0;0.1;-3.0;0.0;1.5707964
Obstacle: 2.75;0.1;-1.0375001;2.4357154;-1.1780972
Obstacle: 2.75;0.1;-1.9499998;1.9511518;-1.1780972
Obstacle: 0.75;0.1;-0.27890635;-0.8116453;-0.3926991
Obstacle: 0.75;0.1;0.68359375;-0.44275057;1.1780972
Obstacle: 0.5;0.1;0.7015624;0.5638922;-0.7853981
Obstacle: 1.0;0.1;0.3296876;1.5635004;0.0
Obstacle: 1.0;0.1;1.6492188;0.7006647;-1.1780972
Obstacle: 1.0;0.1;1.6140623;-1.0015649;1.1780972
Obstacle: 1.0;0.1;0.29609394;-1.8464246;0.0
Obstacle: 1.0;0.1;-1.309375;-1.1727234;-0.7853982
Obstacle: 0.5;0.1;-2.1179686;-0.0754201;1.9634955
Obstacle: 1.5;0.1;-1.9601564;-1.9245788;-0.7853981
Obstacle: 1.25;0.1;1.7687497;-2.9515438;1.9634955
Obstacle: 1.0;0.1;0.059375286;-2.9484172;0.0
Obstacle: 1.5;0.1;0.8062496;-4.030089;0.0
Obstacle: 0.75;0.1;-1.3195314;-3.7276268;-0.3926991
Obstacle: 0.5;0.1;2.5648437;-1.8393905;0.0
Obstacle: 1.0;0.1;2.266406;1.6510358;-0.7853982
Obstacle: 1.0;0.1;0.6984377;2.7194233;-0.3926991
Obstacle: 1.0;0.1;0.3367188;4.2919135;-0.7853982
Obstacle: 0.75;0.1;1.6523438;3.3829622;-0.3926991
