Hole: 2.639063;-2.2637746
Goal: 2.414844;-3.2633862;0.0
Obstacle: 3.0;0.1;0.0;5.0;0.0
Obstacle: 3.0;0.1;0.0;-5.0;0.0
Obstacle: 5.0;0.1;3.0;0.0;1.5707964
Obstacle: 5.0;0.1;-3.0;0.0;1.5707964
Obstacle: 0.75;0.1;-1.844531;3.1492727;0.0
Obstacle: 0.5;0.1;-0.6414062;4.172331;1.5707964
Obstacle: 0.25;0.1;-0.74687505;2.652992;-1.5707964
Obstacle: 0.5;0.1;0.07499981;3.050019;0.0
Obstacle: 0.5;0.1;0.47109365;3.85502;1.5707964
Obstacle: 0.5;0.1;1.7281251;3.7706108;-1.5707964
Obstacle: 0.25;0.1;2.453125;2.5951543;0.0
Obstacle: 0.5;0.1;1.6335936;2.291129;0.0
Obstacle: 0.25;0.1;1.233594;2.6170385;1.5707964
Obstacle: 0.25;0.1;0.77265596;4.250489;0.0
Obstacle: 0.25;0.1;1.4242187;3.577567;0.0
Obstacle: 0.5;0.1;0.36328125;2.18249;-1.5707964
Obstacle: 0.75;0.1;1.3921871;1.5416168;0.0
Obstacle: 1.25;0.1;1.4328125;0.6483004;0.0
Obstacle: 0.25;0.1;-0.104687214;0.8765146;-1.5707964
Obstacle: 0.25;0.1;-0.6671872;1.232903;0.0
Obstacle: 0.25;0.1;-1.1679688;1.665885;-1.5707964
Obstacle: 0.5;0.1;-1.8476562;2.2325108;5.9604645E-8
Obstacle: 0.5;0.1;-2.4585936;1.4361068;0.0
Obstacle: 0.75;0.1;-1.5406249;0.54747975;0.0
Obstacle: 0.25;0.1;-2.1484375;0.009769387;-1.5707964
Obstacle: 0.25;0.1;-1.389844;-0.43102738;-1.5707963
Obstacle: 0.25;0.1;-0.6945312;0.054317974;1.5707965
Obstacle: 1.0;0.1;-1.6984375;-0.8913636;0.0
Obstacle: 0.5;0.1;0.09062481;-0.20672148;0.0
Obstacle: 0.25;0.1;0.64921856;-0.7452136;-1.5707964
Obstacle: 0.75;0.1;1.65625;-0.9226274;0.0
Obstacle: 0.5;0.1;1.2867184;0.22782329;1.5707964
Obstacle: 0.5;0.1;2.2984376;-0.50371265;1.5707964
Obstacle: 0.5;0.1;2.1742187;-1.766706;0.0
Obstacle: 0.25;0.1;-0.6968751;-1.4126636;-1.5707964
Obstacle: 0.75;0.1;0.35703135;-1.7198136;0.0
Obstacle: 1.75;0.1;0.98671913;-2.6920674;0.0
Obstacle: 0.25;0.1;-1.0874996;-2.4654171;-1.5707964
Obstacle: 0.25;0.1;-1.5171874;-2.014459;0.0
Obstacle: 0.25;0.1;-1.9476562;-1.7745214;-1.5707964
Obstacle: 0.25;0.1;-2.46875;-2.6209462;5.9604645E-8
Obstacle: 0.25;0.1;-2.0171876;-2.8335297;-1.5707964
Obstacle: 0.25;0.1;-1.7390623;-3.2751086;0.0
Obstacle: 0.25;0.1;2.0750003;4.1738963;0.0
Obstacle: 0.5;0.1;-0.78515625;-3.4790936;-1.5707964
Obstacle: 0.5;0.1;-1.5242188;-4.0082045;0.0
Obstacle: 0.5;0.1;0.057031155;-4.141849;1.5707964
Obstacle: 0.5;0.1;0.9593749;-3.608833;-1.5707964
Obstacle: 0.5;0.1;1.946094;-4.3317714;1.5707964
