Hole: 2.6398437;4.5849957
Hole: 1.6367188;-0.2848771
Goal: -2.6687498;-3.6400928;-0.3926991
Obstacle: 3.0;0.1;0.0;5.0;0.0
Obstacle: 3.0;0.1;0.0;-5.0;0.0
Obstacle: 5.0;0.1;3.0;0.0;1.5707964
Obstacle: 5.0;0.1;-3.0;0.0;1.5707964
Obstacle: 2.5;0.1;-0.5406251;2.846031;0.0
Obstacle: 1.0;0.1;2.1101565;1.1461505;0.39269903
Obstacle: 0.75;0.1;0.7750001;1.2923014;-0.7853982
Obstacle: 1.0;0.1;-0.5601561;1.9151987;1.5707964
Obstacle: 0.75;0.1;0.3609376;0.68581474;0.7853982
Obstacle: 0.75;0.1;-0.8515625;0.1903088;0.0
Obstacle: 0.75;0.1;-1.7703125;0.8218057;-1.1780972
Obstacle: 0.5;0.1;-1.7195313;1.7354423;0.7853982
Obstacle: 2.0;0.1;-0.005468607;-0.6162572;0.0
Obstacle: 0.25;0.1;0.9156251;-0.29347405;1.5707964
Obstacle: 0.5;0.1;2.0671873;-0.117623635;-1.9634955
Obstacle: 1.0;0.1;-2.1000001;-1.3728033;-0.39269903
Obstacle: 0.5;0.1;-0.8445313;-1.5423993;0.3926991
Obstacle: 0.75;0.1;0.3921876;-1.3321615;1.5707964
Obstacle: 1.0;0.1;-0.43203115;-2.3575618;0.3926991
Obstacle: 0.5;0.1;-1.7101562;-2.4927714;-0.3926991
Obstacle: 1.0;0.1;-2.0703125;-3.3071518;-0.3926991
Obstacle: 1.0;0.1;-0.3054688;-3.2813613;0.3926991
Obstacle: 1.0;0.1;2.3023436;-1.4595557;0.7853982
Obstacle: 0.5;0.1;1.4992185;-1.6994922;-1.1780972
Obstacle: 0.75;0.1;1.3015628;-2.9069967;0.0
Obstacle: 0.25;0.1;2.1179686;-2.734272;1.1780972
Obstacle: 0.25;0.1;-2.6539063;-4.2653317;-0.3926991
Obstacle: 1.0;0.1;2.0687501;-3.7010546;0.0
Obstacle: 0.75;0.1;0.099999905;-3.816725;-0.7853982
Obstacle: 0.5;0.1;-2.4875002;-4.7702203;-1.5707964
Obstacle: 0.5;0.1;-0.43281245;-4.633446;2.3561945
Obstacle: 0.75;0.1;1.0296874;3.521297;-1.1780972
Obstacle: 0.75;0.1;-0.3257811;4.4028955;-1.9634955
