<resources>
<lang value="th">th</lang>
  <ek value="ocearStarPay">2_315CD90E94AEB7602473B796023E49728692034CA5B060B2113FCCACDEBD9F13</ek>
  <productId value="490">490</productId>
  <promotionId value="1000">1000</promotionId>
</resources>