data face=font size=27 bold=0 italic=0 charset= unicode= stretchH=100 smooth=1 aa=1 padding=2,2,2,2 spacing=0,0 outline=0
common lineHeight=22 base=21 scaleW=256 scaleH=124 pages=1 packed=0
page id=0 file="font.png"
chars count=65
char id=49 x=2 y=2 width=11 height=19 xoffset=1 yoffset=2 xadvance=10 page=0 chnl=15
char id=50 x=15 y=2 width=20 height=19 xoffset=-1 yoffset=2 xadvance=19 page=0 chnl=15
char id=51 x=37 y=2 width=19 height=19 xoffset=0 yoffset=2 xadvance=19 page=0 chnl=15
char id=52 x=58 y=2 width=19 height=19 xoffset=0 yoffset=2 xadvance=19 page=0 chnl=15
char id=53 x=79 y=2 width=19 height=19 xoffset=0 yoffset=2 xadvance=19 page=0 chnl=15
char id=54 x=100 y=2 width=19 height=19 xoffset=0 yoffset=2 xadvance=19 page=0 chnl=15
char id=55 x=121 y=2 width=18 height=19 xoffset=2 yoffset=2 xadvance=19 page=0 chnl=15
char id=56 x=141 y=2 width=19 height=19 xoffset=0 yoffset=2 xadvance=19 page=0 chnl=15
char id=57 x=162 y=2 width=19 height=19 xoffset=0 yoffset=2 xadvance=19 page=0 chnl=15
char id=48 x=183 y=2 width=19 height=19 xoffset=0 yoffset=2 xadvance=19 page=0 chnl=15
char id=36 x=204 y=2 width=19 height=22 xoffset=0 yoffset=0 xadvance=19 page=0 chnl=15
char id=46 x=225 y=2 width=6 height=3 xoffset=1 yoffset=17 xadvance=7 page=0 chnl=15
char id=43 x=233 y=2 width=16 height=15 xoffset=0 yoffset=5 xadvance=17 page=0 chnl=15
char id=97 x=225 y=19 width=17 height=15 xoffset=-1 yoffset=5 xadvance=17 page=0 chnl=15
char id=98 x=2 y=23 width=18 height=19 xoffset=-1 yoffset=2 xadvance=17 page=0 chnl=15
char id=99 x=22 y=23 width=14 height=15 xoffset=-1 yoffset=5 xadvance=13 page=0 chnl=15
char id=100 x=38 y=23 width=18 height=19 xoffset=-1 yoffset=2 xadvance=17 page=0 chnl=15
char id=101 x=58 y=23 width=17 height=15 xoffset=-1 yoffset=5 xadvance=17 page=0 chnl=15
char id=102 x=77 y=23 width=16 height=19 xoffset=1 yoffset=2 xadvance=15 page=0 chnl=15
char id=103 x=95 y=23 width=18 height=19 xoffset=-1 yoffset=5 xadvance=17 page=0 chnl=15
char id=104 x=115 y=23 width=18 height=19 xoffset=-1 yoffset=2 xadvance=17 page=0 chnl=15
char id=105 x=244 y=19 width=10 height=19 xoffset=-1 yoffset=2 xadvance=8 page=0 chnl=15
char id=106 x=22 y=40 width=14 height=23 xoffset=-4 yoffset=2 xadvance=8 page=0 chnl=15
char id=107 x=58 y=40 width=17 height=19 xoffset=-1 yoffset=2 xadvance=17 page=0 chnl=15
char id=108 x=2 y=44 width=10 height=19 xoffset=-1 yoffset=2 xadvance=8 page=0 chnl=15
char id=109 x=135 y=23 width=26 height=15 xoffset=0 yoffset=5 xadvance=26 page=0 chnl=15
char id=110 x=38 y=44 width=18 height=15 xoffset=0 yoffset=5 xadvance=17 page=0 chnl=15
char id=111 x=163 y=23 width=17 height=15 xoffset=-1 yoffset=5 xadvance=17 page=0 chnl=15
char id=112 x=182 y=23 width=18 height=19 xoffset=-1 yoffset=5 xadvance=17 page=0 chnl=15
char id=113 x=202 y=26 width=18 height=19 xoffset=-1 yoffset=5 xadvance=17 page=0 chnl=15
char id=114 x=222 y=36 width=15 height=15 xoffset=0 yoffset=5 xadvance=13 page=0 chnl=15
char id=115 x=135 y=40 width=17 height=15 xoffset=-1 yoffset=5 xadvance=17 page=0 chnl=15
char id=116 x=239 y=40 width=12 height=19 xoffset=1 yoffset=2 xadvance=13 page=0 chnl=15
char id=117 x=154 y=40 width=18 height=15 xoffset=-1 yoffset=5 xadvance=17 page=0 chnl=15
char id=118 x=174 y=44 width=14 height=15 xoffset=2 yoffset=5 xadvance=15 page=0 chnl=15
char id=119 x=190 y=47 width=22 height=15 xoffset=2 yoffset=5 xadvance=23 page=0 chnl=15
char id=120 x=214 y=53 width=18 height=15 xoffset=-1 yoffset=5 xadvance=16 page=0 chnl=15
char id=121 x=234 y=61 width=18 height=19 xoffset=-1 yoffset=5 xadvance=17 page=0 chnl=15
char id=122 x=77 y=44 width=15 height=15 xoffset=-1 yoffset=5 xadvance=13 page=0 chnl=15
char id=65 x=94 y=44 width=20 height=19 xoffset=-1 yoffset=2 xadvance=19 page=0 chnl=15
char id=66 x=38 y=61 width=20 height=19 xoffset=-1 yoffset=2 xadvance=19 page=0 chnl=15
char id=67 x=116 y=44 width=17 height=19 xoffset=0 yoffset=2 xadvance=15 page=0 chnl=15
char id=68 x=60 y=61 width=20 height=19 xoffset=-1 yoffset=2 xadvance=19 page=0 chnl=15
char id=69 x=2 y=65 width=17 height=19 xoffset=0 yoffset=2 xadvance=15 page=0 chnl=15
char id=70 x=135 y=57 width=17 height=19 xoffset=-1 yoffset=2 xadvance=15 page=0 chnl=15
char id=71 x=154 y=61 width=19 height=19 xoffset=0 yoffset=2 xadvance=19 page=0 chnl=15
char id=72 x=175 y=64 width=21 height=19 xoffset=-1 yoffset=2 xadvance=19 page=0 chnl=15
char id=73 x=198 y=64 width=11 height=19 xoffset=-1 yoffset=2 xadvance=9 page=0 chnl=15
char id=74 x=211 y=70 width=20 height=19 xoffset=0 yoffset=2 xadvance=19 page=0 chnl=15
char id=75 x=233 y=82 width=21 height=19 xoffset=-1 yoffset=2 xadvance=18 page=0 chnl=15
char id=76 x=21 y=65 width=14 height=19 xoffset=-1 yoffset=2 xadvance=15 page=0 chnl=15
char id=77 x=82 y=65 width=23 height=19 xoffset=-1 yoffset=2 xadvance=22 page=0 chnl=15
char id=78 x=107 y=65 width=21 height=19 xoffset=-1 yoffset=2 xadvance=19 page=0 chnl=15
char id=79 x=130 y=78 width=19 height=19 xoffset=0 yoffset=2 xadvance=19 page=0 chnl=15
char id=80 x=151 y=82 width=20 height=19 xoffset=-1 yoffset=2 xadvance=19 page=0 chnl=15
char id=81 x=173 y=85 width=19 height=19 xoffset=-1 yoffset=2 xadvance=20 page=0 chnl=15
char id=82 x=194 y=91 width=20 height=19 xoffset=-1 yoffset=2 xadvance=19 page=0 chnl=15
char id=83 x=216 y=103 width=19 height=19 xoffset=0 yoffset=2 xadvance=19 page=0 chnl=15
char id=84 x=237 y=103 width=16 height=19 xoffset=2 yoffset=2 xadvance=17 page=0 chnl=15
char id=85 x=37 y=82 width=20 height=19 xoffset=0 yoffset=2 xadvance=19 page=0 chnl=15
char id=86 x=59 y=82 width=17 height=19 xoffset=3 yoffset=2 xadvance=18 page=0 chnl=15
char id=87 x=2 y=86 width=27 height=19 xoffset=3 yoffset=2 xadvance=28 page=0 chnl=15
char id=88 x=78 y=86 width=21 height=19 xoffset=-1 yoffset=2 xadvance=18 page=0 chnl=15
char id=89 x=101 y=86 width=17 height=19 xoffset=3 yoffset=2 xadvance=18 page=0 chnl=15
char id=90 x=120 y=99 width=17 height=19 xoffset=-1 yoffset=2 xadvance=15 page=0 chnl=15
char id=32 x=0 y=0 width=0 height=0 xoffset=-1 yoffset=2 xadvance=5 page=0 chnl=15