{
    "url": "https://git.gameloft.org/tor_studio/engine", 
    "tag": "2019.3", 
    "graph-url": "https://git.gameloft.org/tor_studio/engine/network/HEAD?extended_sha1=203efbd805f470dcc7b2c68456e14509da520081&filter_ref=1", 
    "sha": "203efbd805f470dcc7b2c68456e14509da520081", 
    "version": "2019.3-1281-g203efbd80", 
    "branch": "HEAD"
}