0|rumts|poolurl.txt|hm76519207822+1397+51+0+1+afb35,7496;hm76519207822+1397+51+0+1+afb35,7495;hm76519207822+1397+51+0+1+afb35,4447
0|rumegafon|poolurl.txt|hm76519207822+1397+51+0+1+afb35,7496
0|rutele2|poolurl.txt|43402822+1397+51+0+1+afb35,3602;3079102822+1397+51+0+1+afb35,2990
79|ru|poolurl.txt|hm76519207822+1397+51+0+1+afb35,7496;hm76519207822+1397+51+0+1+afb35,7495;hm76519207822+1397+51+0+1+afb35,4447
00|all|poolurl.txt|hm76519207822+1397+51+0+1+afb35,7496;hm76519207822+1397+51+0+1+afb35,7495;hm76519207822+1397+51+0+1+afb35,7495
375|by|poolurl.txt|4244700m822+1397+51+0+1+afb35,0000000
38|ua|poolurl.txt|47521920y822+1397+51+0+1+afb35,0000000
77|kz|poolurl.txt|50241920l822+1397+51+0+1+afb35,7122;50241920l822+1397+51+0+1+afb35,7122;50241920l822+1397+51+0+1+afb35,7132
374|am|poolurl.txt|7771920c822+1397+51+0+1+afb35,8161;7771920c822+1397+51+0+1+afb35,4449;7771920c822+1397+51+0+1+afb35,4446
994|az|poolurl.txt|7771920c822+1397+51+0+1+afb35,4161;7771920c822+1397+51+0+1+afb35,4449;7771920c822+1397+51+0+1+afb35,4448
371|lv|poolurl.txt|77741920c822+1397+51+0+1+afb35,1824;77731920c822+1397+51+0+1+afb35,1824;77721920c822+1397+51+0+1+afb35,1824
370|lt|poolurl.txt|77791920c822+1397+51+0+1+afb35,1624;77771920c822+1397+51+0+1+afb35,1624;77731920c822+1397+51+0+1+afb35,1624
372|ee|poolurl.txt|7771920c822+1397+51+0+1+afb35,1206;7771920c822+1397+51+0+1+afb35,1204;7771920c822+1397+51+0+1+afb35,1302
992|tj|poolurl.txt|7771920c822+1397+51+0+1+afb35,4161;7771920c822+1397+51+0+1+afb35,4449;7771920c822+1397+51+0+1+afb35,4448
972|il|poolurl.txt|77741920c822+1397+51+0+1+afb35,4070;77731920c822+1397+51+0+1+afb35,4070;77711920c822+1397+51+0+1+afb35,4070
49|de|poolurl.txt|77761920c822+1397+51+0+1+afb35,82300;77751920c822+1397+51+0+1+afb35,82300;77731920c822+1397+51+0+1+afb35,82300