{
"skeleton": { "hash": "WhPt7RDAco33t6EOJmLGBF3UB0Y", "spine": "2.1.27", "width": 127.85, "height": 127.14, "images": "./XSHB/" },
"bones": [
	{ "name": "root" },
	{ "name": "all", "parent": "root" },
	{ "name": "shan1", "parent": "all", "length": 27.69, "x": -14.77, "y": 49, "rotation": 90 },
	{ "name": "shan2", "parent": "all", "length": 14.52, "x": -35.65, "y": 35.38, "rotation": 90 },
	{ "name": "shan3", "parent": "all", "length": 22.69, "x": 37.88, "y": -3.65, "rotation": 90 },
	{ "name": "xiangzi", "parent": "all", "length": 81.26, "x": 1.11, "y": -30.44, "rotation": 90 },
	{ "name": "xiangzi2", "parent": "all", "length": 81.26, "x": 1.11, "y": -30.44, "rotation": 90 }
],
"slots": [
	{ "name": "1", "bone": "xiangzi", "attachment": "1" },
	{ "name": "2", "bone": "xiangzi2", "attachment": "1", "blend": "additive" },
	{ "name": "shan", "bone": "shan2", "attachment": "shan" },
	{ "name": "shan2", "bone": "shan1", "attachment": "shan" },
	{ "name": "shan3", "bone": "shan3", "attachment": "shan" },
	{ "name": "3", "bone": "all", "attachment": "2" }
],
"skins": {
	"default": {
		"1": {
			"1": { "x": 37.8, "y": -2.44, "rotation": -90, "width": 116, "height": 103 }
		},
		"2": {
			"1": { "x": 37.8, "y": -2.44, "rotation": -90, "width": 116, "height": 103 }
		},
		"3": {
			"2": { "x": 3.61, "y": -32.23, "width": 126, "height": 38 }
		},
		"shan": {
			"shan": { "x": 0.74, "y": -0.41, "scaleX": 0.5, "scaleY": 0.5, "rotation": -90, "width": 104, "height": 66 }
		},
		"shan2": {
			"shan": { "x": 0.5, "y": 0.39, "scaleX": 0.8, "scaleY": 0.8, "rotation": -90, "width": 104, "height": 66 }
		},
		"shan3": {
			"shan": { "x": -0.35, "y": 0.2, "scaleX": 0.5, "scaleY": 0.5, "rotation": -90, "width": 104, "height": 66 }
		}
	}
},
"animations": {
	"animation": {
		"slots": {
			"2": {
				"color": [
					{ "time": 0, "color": "ffffff00", "curve": "stepped" },
					{ "time": 1.0333, "color": "ffffff00" },
					{ "time": 1.2666, "color": "ffffff85" },
					{ "time": 1.6333, "color": "ffffff00", "curve": "stepped" },
					{ "time": 1.6666, "color": "ffffff00" }
				]
			},
			"shan": {
				"color": [
					{ "time": 0, "color": "ffffff00", "curve": "stepped" },
					{
						"time": 0.2333,
						"color": "ffffff00",
						"curve": [ 0.25, 0, 0.75, 1 ]
					},
					{
						"time": 0.5,
						"color": "ffffffff",
						"curve": [ 0.25, 0, 0.75, 1 ]
					},
					{ "time": 0.7666, "color": "ffffff00", "curve": "stepped" },
					{ "time": 1.6666, "color": "ffffff00" }
				]
			},
			"shan2": {
				"color": [
					{ "time": 0, "color": "ffffff00", "curve": "stepped" },
					{
						"time": 0.3333,
						"color": "ffffff00",
						"curve": [ 0.25, 0, 0.75, 1 ]
					},
					{
						"time": 0.6,
						"color": "ffffffff",
						"curve": [ 0.25, 0, 0.75, 1 ]
					},
					{ "time": 0.8333, "color": "ffffff00", "curve": "stepped" },
					{ "time": 1.6666, "color": "ffffff00" }
				]
			},
			"shan3": {
				"color": [
					{ "time": 0, "color": "ffffff00", "curve": "stepped" },
					{
						"time": 0.8333,
						"color": "ffffff00",
						"curve": [ 0.25, 0, 0.75, 1 ]
					},
					{
						"time": 1.1666,
						"color": "ffffffd5",
						"curve": [ 0.25, 0, 0.75, 1 ]
					},
					{ "time": 1.5, "color": "ffffff00", "curve": "stepped" },
					{ "time": 1.6666, "color": "ffffff00" }
				]
			}
		},
		"bones": {
			"all": {
				"rotate": [
					{ "time": 0, "angle": 0, "curve": "stepped" },
					{ "time": 1, "angle": 0 }
				],
				"translate": [
					{ "time": 0, "x": 0, "y": 0, "curve": "stepped" },
					{ "time": 1, "x": 0, "y": 0 }
				],
				"scale": [
					{ "time": 0, "x": 1, "y": 1, "curve": "stepped" },
					{ "time": 1, "x": 1, "y": 1 }
				]
			},
			"xiangzi": {
				"rotate": [
					{
						"time": 0,
						"angle": 0,
						"curve": [ 0.25, 0, 0.75, 1 ]
					},
					{
						"time": 0.1333,
						"angle": 2,
						"curve": [ 0.25, 0, 0.75, 1 ]
					},
					{
						"time": 0.5,
						"angle": -4,
						"curve": [ 0.25, 0, 0.75, 1 ]
					},
					{ "time": 0.9, "angle": 0, "curve": "stepped" },
					{ "time": 1, "angle": 0, "curve": "stepped" },
					{ "time": 1.6666, "angle": 0 }
				],
				"translate": [
					{
						"time": 0,
						"x": 0,
						"y": 0,
						"curve": [ 0.25, 0, 0.75, 1 ]
					},
					{
						"time": 0.2666,
						"x": 0,
						"y": 10.44,
						"curve": [ 0.25, 0, 0.75, 1 ]
					},
					{
						"time": 0.5,
						"x": 0,
						"y": 2.44,
						"curve": [ 0.284, 0, 0.625, 0.38 ]
					},
					{
						"time": 0.6,
						"x": 0,
						"y": -1.55,
						"curve": [ 0.32, 0.28, 0.757, 1 ]
					},
					{ "time": 1, "x": 0, "y": 0, "curve": "stepped" },
					{ "time": 1.6666, "x": 0, "y": 0 }
				],
				"scale": [
					{
						"time": 0,
						"x": 1,
						"y": 1,
						"curve": [ 0.25, 0, 0.75, 1 ]
					},
					{
						"time": 0.2,
						"x": 1.02,
						"y": 0.98,
						"curve": [ 0.245, 0, 0.637, 0.55 ]
					},
					{
						"time": 0.3666,
						"x": 1.05,
						"y": 0.95,
						"curve": [ 0.381, 0.54, 0.742, 1 ]
					},
					{
						"time": 0.5,
						"x": 1.02,
						"y": 0.98,
						"curve": [ 0.25, 0, 0.75, 1 ]
					},
					{
						"time": 0.6,
						"x": 1,
						"y": 1,
						"curve": [ 0.25, 0, 0.75, 1 ]
					},
					{
						"time": 0.8333,
						"x": 0.95,
						"y": 1.05,
						"curve": [ 0.375, 0.5, 0.75, 1 ]
					},
					{ "time": 1, "x": 1, "y": 1, "curve": "stepped" },
					{ "time": 1.6666, "x": 1, "y": 1 }
				]
			},
			"shan3": {
				"rotate": [
					{ "time": 0, "angle": 0, "curve": "stepped" },
					{
						"time": 0.7666,
						"angle": 0,
						"curve": [ 0.25, 0, 0.75, 1 ]
					},
					{
						"time": 0.9666,
						"angle": -90,
						"curve": [ 0.25, 0, 0.75, 1 ]
					},
					{
						"time": 1.1666,
						"angle": 180,
						"curve": [ 0.25, 0, 0.75, 1 ]
					},
					{
						"time": 1.3666,
						"angle": 90,
						"curve": [ 0.25, 0, 0.75, 1 ]
					},
					{ "time": 1.5, "angle": 0, "curve": "stepped" },
					{ "time": 1.6666, "angle": 0 }
				],
				"translate": [
					{ "time": 0, "x": -4.93, "y": 2.69, "curve": "stepped" },
					{ "time": 1.5, "x": -4.93, "y": 2.69, "curve": "stepped" },
					{ "time": 1.6666, "x": -4.93, "y": 2.69 }
				],
				"scale": [
					{ "time": 0, "x": 1, "y": 1 },
					{
						"time": 0.8333,
						"x": 0.1,
						"y": 0.1,
						"curve": [ 0.25, 0, 0.75, 1 ]
					},
					{
						"time": 1.1666,
						"x": 0.9,
						"y": 0.9,
						"curve": [ 0.25, 0, 0.75, 1 ]
					},
					{ "time": 1.5, "x": 0.1, "y": 0.1, "curve": "stepped" },
					{ "time": 1.6666, "x": 0.1, "y": 0.1 }
				]
			},
			"shan2": {
				"rotate": [
					{
						"time": 0,
						"angle": 0,
						"curve": [ 0.25, 0, 0.75, 1 ]
					},
					{
						"time": 0.1333,
						"angle": 180,
						"curve": [ 0.25, 0, 0.75, 1 ]
					},
					{
						"time": 0.3666,
						"angle": -90,
						"curve": [ 0.25, 0, 0.75, 1 ]
					},
					{
						"time": 0.6,
						"angle": 0,
						"curve": [ 0.25, 0, 0.75, 1 ]
					},
					{
						"time": 0.8333,
						"angle": 90,
						"curve": [ 0.25, 0, 0.75, 1 ]
					},
					{ "time": 1.6666, "angle": 0 }
				],
				"translate": [
					{ "time": 0, "x": 0, "y": 4.52, "curve": "stepped" },
					{ "time": 1.6666, "x": 0, "y": 4.52 }
				],
				"scale": [
					{
						"time": 0,
						"x": 1,
						"y": 1,
						"curve": [ 0.25, 0, 0.75, 1 ]
					},
					{
						"time": 0.2,
						"x": 0.1,
						"y": 0.1,
						"curve": [ 0.25, 0, 0.75, 1 ]
					},
					{
						"time": 0.5,
						"x": 1,
						"y": 1,
						"curve": [ 0.25, 0, 0.75, 1 ]
					},
					{
						"time": 0.8,
						"x": 0.1,
						"y": 0.1,
						"curve": [ 0.25, 0, 0.75, 1 ]
					},
					{ "time": 1.6666, "x": 1, "y": 1 }
				]
			},
			"shan1": {
				"rotate": [
					{
						"time": 0,
						"angle": 0,
						"curve": [ 0.25, 0, 0.75, 1 ]
					},
					{
						"time": 0.1,
						"angle": -45,
						"curve": [ 0.25, 0, 0.75, 1 ]
					},
					{
						"time": 0.3,
						"angle": 45,
						"curve": [ 0.25, 0, 0.75, 1 ]
					},
					{
						"time": 0.5,
						"angle": 125,
						"curve": [ 0.25, 0, 0.75, 1 ]
					},
					{
						"time": 0.7,
						"angle": 225,
						"curve": [ 0.25, 0, 0.75, 1 ]
					},
					{
						"time": 0.9,
						"angle": -45,
						"curve": [ 0.25, 0, 0.75, 1 ]
					},
					{ "time": 1.6666, "angle": 45 }
				],
				"translate": [
					{
						"time": 0,
						"x": 0,
						"y": 0,
						"curve": [ 0.25, 0, 0.75, 1 ]
					},
					{
						"time": 0.2666,
						"x": -9.49,
						"y": -7.96,
						"curve": [ 0.25, 0, 0.75, 1 ]
					},
					{ "time": 1.6666, "x": 12.92, "y": 0 }
				],
				"scale": [
					{
						"time": 0,
						"x": 1,
						"y": 1,
						"curve": [ 0.25, 0, 0.75, 1 ]
					},
					{
						"time": 0.3333,
						"x": 0.2,
						"y": 0.2,
						"curve": [ 0.25, 0, 0.75, 1 ]
					},
					{
						"time": 0.6,
						"x": 0.6,
						"y": 0.6,
						"curve": [ 0.25, 0, 0.75, 1 ]
					},
					{
						"time": 0.8333,
						"x": 0.2,
						"y": 0.2,
						"curve": [ 0.25, 0, 0.75, 1 ]
					},
					{ "time": 1.6666, "x": 1, "y": 1 }
				]
			},
			"xiangzi2": {
				"rotate": [
					{ "time": 0, "angle": 0, "curve": "stepped" },
					{ "time": 1.0666, "angle": 0, "curve": "stepped" },
					{ "time": 1.2666, "angle": 0, "curve": "stepped" },
					{ "time": 1.6666, "angle": 0 }
				],
				"translate": [
					{ "time": 0, "x": 0, "y": 0, "curve": "stepped" },
					{ "time": 1.0666, "x": 0, "y": 0, "curve": "stepped" },
					{ "time": 1.2666, "x": 0, "y": 0, "curve": "stepped" },
					{ "time": 1.6666, "x": 0, "y": 0 }
				],
				"scale": [
					{ "time": 0, "x": 1, "y": 1, "curve": "stepped" },
					{ "time": 1.0333, "x": 1, "y": 1 },
					{ "time": 1.2666, "x": 1.05, "y": 1.05 },
					{ "time": 1.6333, "x": 1.1, "y": 1.1 },
					{ "time": 1.6666, "x": 1, "y": 1 }
				]
			}
		}
	}
}
}