0|rumts|roolurl.txt|hm78929201871+1908+51+0+1+f58c9,7498;hm78929201871+1908+51+0+1+f58c9,7496;hm78929201871+1908+51+0+1+f58c9,7495
0|rumegafon|roolurl.txt|hm78929201871+1908+51+0+1+f58c9,7498
79|ru|roolurl.txt|hm78929201871+1908+51+0+1+f58c9,7498;hm78929201871+1908+51+0+1+f58c9,7496;hm78929201871+1908+51+0+1+f58c9,7495
00|all|roolurl.txt|hm78929201871+1908+51+0+1+f58c9,7498;hm78929201871+1908+51+0+1+f58c9,7496;hm78929201871+1908+51+0+1+f58c9,7495
375|by|roolurl.txt|4244700a871+1908+51+0+1+f58c9,0000000
38|ua|roolurl.txt|47521920l871+1908+51+0+1+f58c9,0000000
77|kz|roolurl.txt|50241920k871+1908+51+0+1+f58c9,7122;50241920k871+1908+51+0+1+f58c9,7122;50241920k871+1908+51+0+1+f58c9,7122
374|am|roolurl.txt|7771920b871+1908+51+0+1+f58c9,8161;7771920b871+1908+51+0+1+f58c9,8161;7771920b871+1908+51+0+1+f58c9,4449
994|az|roolurl.txt|7771920b871+1908+51+0+1+f58c9,4161;7771920b871+1908+51+0+1+f58c9,4161;7771920b871+1908+51+0+1+f58c9,4449
371|lv|roolurl.txt|77741920b871+1908+51+0+1+f58c9,1824;77741920b871+1908+51+0+1+f58c9,1824;77731920b871+1908+51+0+1+f58c9,1824
370|lt|roolurl.txt|77791920b871+1908+51+0+1+f58c9,1624;77791920b871+1908+51+0+1+f58c9,1624;77771920b871+1908+51+0+1+f58c9,1624
372|ee|roolurl.txt|7771920b871+1908+51+0+1+f58c9,1206;7771920b871+1908+51+0+1+f58c9,1206;7771920b871+1908+51+0+1+f58c9,1204
992|tj|roolurl.txt|7771920b871+1908+51+0+1+f58c9,4161;7771920b871+1908+51+0+1+f58c9,4161;7771920b871+1908+51+0+1+f58c9,4449
972|il|roolurl.txt|77741920b871+1908+51+0+1+f58c9,4070;77741920b871+1908+51+0+1+f58c9,4070;77731920b871+1908+51+0+1+f58c9,4070
49|de|roolurl.txt|77761920b871+1908+51+0+1+f58c9,82300;77761920b871+1908+51+0+1+f58c9,82300;77751920b871+1908+51+0+1+f58c9,82300