Day;Bad;Average;Good;SD
0;37;76;94;32.22645976
1;84;99;100;21.40410473
2;47;92;98;31.21524297
3;44;87;96;30.84284268
4;67;90;97;23.89656187
5;33;77;95;30.75918438
6;57;89;96;27.31850263
7;9;77;94;36.94053002
8;59;90;96;25.92877761
9;63;91;97;24.72906701
10;67;91;97;25.02035622
11;70;91;97;22.7981609
12;50;89;97;26.21130672
13;62;90;97;24.15751813
14;73;93;98;21.90569599
15;73;92;98;21.16945562
16;67;92;98;23.39243443
17;76;93;98;20.63740835
18;70;93;98;22.79778516
19;75;93;98;20.90066225
20;77;94;99;20.71618911
21;78;94;99;20.62729671
22;70;93;99;23.07573632
23;74;94;99;21.92069335
24;79;95;99;20.58303963
25;80;95;99;20.11790233
26;80;95;99;20.58333792
27;82;95;100;19.91805764
28;80;95;100;21.52428886
29;82;96;100;20.33029199
30;79;95;100;22.51898896