Order [translatable]#What? [translatable]#Num of Pizza#[Toppings 1a|Toppings 1b][Toppings 2a|Toppings 2b][Toppings 3a|Toppings 3b [comment]]#Flags#Weight#Chapter#ID
J'ai besoin d'une pizza sans rien dessus.#Ouais, juste de la croûte.#1#[none]##10#1#1
Une pizza plate s’il vous plaît.#Rien dessus. #1#[none]##10#1#2
Une pizza aussi belle que le lever du soleil. #Une pizza au fromage. Vous savez? Comme un beau soleil! Vous ne m'avez pas l'air d'être très poétique, n'est-ce pas?#1#[sa, ch]##1#1#3
De la sauce. Du fromage. Allez-y. #De la sauce ! Du fromage ! À vous !!! #1#[sa, ch]##1#1#4
Une au fromage. Tout simplement.#Une au fromage. Tout simplement.#1#[sa, ch]##1#1#5
Une pizza au fromage. N’oubliez pas la sauce. Parfois ils oublient la sauce.#Je suis sérieux, n’oubliez pas la sauce. J’en ai besoin avec mon fromage.#1#[sa, ch]##1#1#6
Je dois me débarrasser d’une tonne de souris. Une pizza au fromage s’il vous plaît.#Je n’arrive pas à les déloger de force. Peut-être qu’en les soudoyant ça marchera.#1#[sa, ch]##1#1#7
J’ai besoin d’une pizza. Mais ne vous embêtez pas à rajouter de vos garnitures de luxe. Juste de la sauce et du fromage.#Juste avec de la sauce et du fromage.#1#[sa, ch]##1#1#8
J’ai un aller simple pour Fromage Ville ce soir. #Une pizza individuelle au fromage !#1#[sa, ch]##1#1#9
Je voudrais une pizza.#Oh, pardon. Juste une pizza au fromage.#1#[sa, ch]##1#1#10
Au fromage s'il vous plaît !#S’il vous plaît ! Au fromage !#1#[sa, ch]##1#1#11
Je voudrais une pepperoni, sans pepperoni.#Juste du fromage et de la sauce tomate pour moi.#1#[sa, ch]##1#1#12
Fromage.#Juste une pizza au fromage.#1#[sa, ch]##1#1#13
Fromage frometon fromage frometon fromage.#Fromage ?#1#[sa, ch]##1#1#14
Oui bonjour. Pizza au fromage.#Pizza au fromage.#1#[sa, ch]##1#1#15
Bonjour. Je ne veux pas de pizza au pepperoni.#Je voudrais une pizza au fromage.#1#[sa, ch]##1#1#16
Deux pizzas au fromage, s'il vous plaît.#Pizza au fromage… deux.#2#[sa, ch][sa, ch]##1#1#17
Bonjour ! Je peux avoir une pepperoni ?#De la viande, du fromage, de la sauce tomate, et de la pâte.#1#[sa, ch, pe]##16#1#18
J'aimerais une pizza au pepperoni.#Je voudrais... une pizza….au pepperoni ?#1#[sa, ch, pe]##16#1#19
Pepperoni sans sauce.#Je ne peux pas être plus clair que ça. Pepperoni et fromage. Sauce? non.#1#[ch, pe]##16#1#20
Bonjour ! Vous allez bien ? Voyons. Hmmm. Je vais prendre... Allez, une pizza au pepperoni. Merci !#Vous êtes sourd ? Bien. J'ai dit que j'aimerais une pizza au pepperoni.#1#[sa, ch, pe]##16#1#21
Est-ce que je peux juste avoir une pepperoni, s'il vous plaît ?#Vous plaisantez ? Je l’ai demandé au pepperoni. J'aimerais une pizza avec des rondelles de porc et de bœuf légèrement fumées.#1#[sa, ch, pe]##16#1#22
Pepperoni.#... Pepperoni.#1#[sa, ch, pe]##16#1#23
Et Une, et Deux, et Trois Pepperonis !#Trois pizzas au pepperoni.#3#[sa, ch, pe][sa, ch, pe][sa, ch, pe]##16#1#24
Mon frère déteste les pepperonis. Je vais prendre une pepperoni.#Oui, c'est horrible. Mais c’est pas grave.#1#[sa, ch, pe]##16#1#25
Une pizza au... macaroni ?#Ha ha ha ! Oups. Je voulais dire pepperoni.#1#[sa, ch, pe]##16#1#26
Une pizz' !#Ce que je veux ? Une pizza au pepperoni.#1#[sa, ch, pe]##16#1#27
Hé, je veux deux pepp'.#Deux pizzas au pepperoni.#2#[sa, ch, pe][sa, ch, pe]##16#1#28
S'il vous plaît, je peux avoir une pepperoni sans fromage ?#Pas de fromage avec le pepperoni, s'il vous plaît.#1#[sa, pe]##16#1#29
J'aimerais une pepperoni, sans laitage.#Ne mettez pas de fromage avec le pepperoni.#1#[sa, pe]##16#1#30
Une pizza au fromage sans sauce tomate pour moi.#Je voudrais une pizza au fromage, sans sauce tomate.#1#[ch]##10#1#31
Bonjour. Je peux avoir une pizza au pepperoni, mais sans sauce tomate ?#Juste du pepperoni, du fromage et de la pâte.#1#[ch, pe]##16#1#32
Une pizza au fromage, mais sans sauce tomate.#"Sans", ça veut dire "pas avec". Sans sauce tomate, s'il vous plaît.#1#[ch]##10#1#33
J'ai besoin de deux pizzas au pepperoni, dont une sans fromage !#Au pepperoni. Une pizza au pepperoni sans fromage.#2#[sa, ch, pe][sa, pe]##16#1#34
Salut ! J'ai un service à vous demander. J'aimerais commander une pizza au pepperoni, mais je ne veux pas de fromage.#Oh pardon. Je voudrais une pepperoni sans fromage.#1#[sa, pe]##16#1#35
Je voudrais une pepperoni sans fromage.#Je ne digère pas les laitages, merci de me le rappeler.#1#[sa, pe]##16#1#36
Hum...Je peux avoir une pizza au pepperoni sans fromage ni sauce ?#Je veux dire, ne mettez pas de fromage ni de sauce tomate.#1#[pe]##16#1#37
Du pepp', sans frometon.#Une pepperoni sans fromage...#1#[sa, pe]##16#1#38
Je peux avoir une pizza moitié pepperoni, moitié fromage ?#J'aimerais des pepperonis sur une moitié de la pizza, et juste du fromage sur l'autre moitié.#1#[sa, ch|sa, ch, pe]##1#1#39
Salut. Je voudrais une pepperoni mais sans pepperoni d'un côté.#Yo, j'veux moitié pepp', moitié fromage, mon pote.#1#[sa, ch|sa, ch, pe]##1#1#40
Moitié pepp', moitié frometon !#Moitié pepperoni, moitié fromage.#1#[sa, ch|sa, ch, pe]##1#1#41
Salut... Euh... J'aimerais une pepperoni... Euh, moitié pepperoni... Fromage sur l'autre moitié.#Pardon... Moitié pepperoni moitié fromage...#1#[sa, ch|sa, ch, pe]##1#1#42
Salut... Du fromage... moitié pepperoni...#Euh... Moitié fromage... Moitié pepperoni...#1#[sa, ch|sa, ch, pe]##1#1#43
Bonjour. Je voudrais une pizza moitié fromage, moitié salami.#Oh. Je veux une pizza au pepperoni. Moitié fromage, moitié pepperoni.#1#[sa, ch|sa, ch, pe]##1#1#44
Je voudrais une pizza au fromage, avec une moitié sans sauce. #Ma pizza ? Ne mettez pas de sauce sur une moitié.#1#[sa, ch|ch]##1#1#45
Bon alors, pour ma pizza, j'aimerais du fromage sur une moitié et des pepperonis sans fromage sur l'autre.#Est-ce que vous allez vraiment me faire répéter ? Sur une moitié, de la sauce tomate et du fromage, et sur l'autre moitié, de la sauce tomate et des pepperonis.#1#[sa, ch|sa, pe]##1#1#46
Salut, comment ça va ? J'ai besoin d'une pepperoni, la moitié sans sauce tomate.#Juste une pizza au pepperoni, sans sauce tomate sur une moitié.#1#[ch, pe|sa, ch, pe]##16#1#47
Tout le monde se trompe sur ma commande. Je veux simplement une moitié pepperoni sans fromage, et une moitié fromage sans sauce tomate.#Rhalala... Moitié pepperoni, sans fromage. Moitié fromage sans sauce tomate.#1#[sa, pe|ch]##16#1#48
Salut... J'aimerais une moitié pepperoni et une moitié fromage, mais... le tout sans sauce tomate…#Je... J'aimerais moitié pepperoni, moitié fromage... Juste... Je n'aime pas la sauce tomate.#1#[ch, pe|ch]##16#1#49
J'ai besoin d'une pizza moitié pepperoni et avec juste de la sauce tomate sur l'autre moitié.#Alors... Pas de fromage ni de pepperoni sur une moitié. Mon père aime sa pizza comme ça, je ne sais pas pourquoi.#1#[sa|sa, ch, pe]##10#1#50
J'aimerais une pizza avec seulement de la sauce tomate ! En fait, mettez des pepperonis sur un côté !#Pas de fromage ! Mais moitié pepperoni !#1#[sa|sa, pe]##10#1#51
Est-il possible de ne pas avoir de fromage sur une moitié de ma pepperoni ?#J'ai dit : pas de fromage sur la moitié de la pizza.#1#[sa, pe|sa, ch, pe]##16#1#52
J'aimerais deux pizzas moitié pepp', moitié fromage.#Je ne veux pas une pizza au pepperoni et une pizza au fromage. J'aimerais deux pizzas moitié - moitié.#2#[sa, ch|sa, ch, pe][sa, ch|sa, ch, pe]##1#1#53
Une pizza à la saucisse. Saucisse. Le fromage, c'est sympa aussi.#Une pizza à la saucisse avec du fromage.#1#[sa, ch, sg]##30#1#54
Une pizza au pepperoni, et une à la saucisse.#Deux pizzas. Une au pepperoni et une à la saucisse.#2#[sa, ch, pe][sa, ch, sg]##16#1#55
Une pizza pepperoni - saucisse.#Une pizza pepperoni - saucisse.#1#[sa, ch, pe, sg]##30#1#56
Il était une fois un mec qui commandait une pizza pepperoni - saucisse. Ce mec, c'est moi.#J'essaie de commander une pizza au pepperoni et à la saucisse.#1#[sa, ch, pe, sg]##30#1#57
Bonjour ! Je voudrais une pepperoni, mais si vous avez aussi des saucisses, ce sera mieux !#J'aimerais une pizza pepperoni - saucisse, si possible.#1#[sa, ch, pe, sg]##30#1#58
J'aurais besoin d'une pizza avec du pepperoni, du fromage et de la saucisse, et d'une pizza avec du pepperoni, du fromage et de la saucisse.#J'aurais besoin d'une pizza avec du pepperoni, du fromage et de la saucisse, et d'une pizza avec du pepperoni, du fromage et de la saucisse.#2#[sa, ch, pe, sg][sa, ch, pe, sg]##30#1#59
Deux pizzas. Saucisse pour les deux.#Deux pizzas à la saucisse.#2#[sa, ch, sg][sa, ch, sg]##30#1#60
Saucisse.#Une pizza à la saucisse.#1#[sa, ch, sg]##30#1#61
S'il vous plaît, je voudrais moitié pepperoni moitié saucisse.#Deux garnitures, c'est trop compliqué pour vous ? Moitié pepperoni, moitié saucisse.#1#[sa, ch, sg|sa, ch, pe]##30#1#62
Une pepperoni - saucisse.#Saucisse et macaroni. Euh... Pepperoni.#1#[sa, ch, pe, sg]##30#1#63
Je voudrais une pizza à la saucisse sans sauce, ah ah !#Une pizza à la saucisse, mais sans sauce tomate, hein !#1#[ch, sg]##30#1#64
Aujourd’hui je me sens de manger une pizza à la viande. Mais pas de la viande de luxe hein.#Juste de la saucisse et des pepperoni. Les viandes classiques quoi.#1#[sa, ch, pe, sg]##30#1#65
J'aimerais que vous fassiez une pizza moitié pepperoni et moitié saucisse, sans fromage.#Moitié pepperoni, moitié saucisse, sans fromage s'il vous plaît.#1#[sa, sg|sa, pe]##30#1#66
Vous êtes prêt ? Je voudrais une pizza au pepperoni et à la saucisse.#Je vous ai tout expliqué ! Pepperoni et saucisse.#1#[sa, ch, pe, sg]##30#1#67
Salut. Saucisse.#Oui.#1#[sa, ch, sg]##30#1#68
Je vais avoir besoin d'une pizza au fromage et à la saucisse, et d'une pizza à la saucisse et au fromage.#Du fromage et de la saucisse sur les deux !#2#[sa, ch, sg][sa, ch, sg]##30#1#69
Je voudrais une pizza avec des pepperoni, mais aussi avec de la saucisse.#C’est une pizza au pepperoni et à la saucisse !#1#[sa, ch, pe, sg]##30#1#70
Salut mon pote. Aujourd'hui ce sera une pizza au pepperoni et à la saucisse.#Pepperoni et saucisse.#1#[sa, ch, pe, sg]##30#1#71
Le pepperoni c'est super, mais la saucisse c'est mieux !#Une pizza à la saucisse !#1#[sa, ch, sg]##30#1#72
Salut l'ami, j'aimerais une pizza aux champignons et au pepperoni, s'il vous plaît.#Salut, ami distrait, j'aimerais une pizza aux champignons et au pepperoni s'il vous plaît.#1#[sa, ch, pe, mu]##45#1#73
J'aimerais commander une pizza aux champignons !#Comme Mario !#1#[sa, ch, mu]##45#1#74
Je voudrais une pizza au champéroni !#Champignons et pepperoni.#1#[sa, ch, pe, mu]##45#1#75
Deux pizzas aux champignons. Merci beaucoup champ...ion. Hé hé.#Deux pizzas aux champignons.#2#[sa, ch, mu][sa, ch, mu]##45#1#76
Donnez-moi la pizza à la truffe.#Des truffes ? Des champignons ?#1#[sa, ch, mu]##45#1#77
Je peux avoir des champignons... sur ma pizza ?#Pardon. Aux champignons.#1#[sa, ch, mu]##45#1#78
Le fromage mélangé aux champignons, ça a un goût bizarre.#Une pizza aux champignons sans fromage pour moi.#1#[sa, mu]##45#1#79
Moitié pepperoni moitié champignons, c'est comme ça que ça se passe.#Moitié pepperoni moitié champignons.#1#[sa, ch, mu|sa, ch, pe]##45#1#80
Est-ce que je peux avoir deux pizzas aux champignons, s'il vous plaît ?#Je vais remplacer les roues de mon vélo par deux pizzas aux champignons !#2#[sa, ch, mu][sa, ch, mu]##45#1#81
Excusez-moi. J’en voudrais une moitié pepperoni moitié champignons, et sans fromage.#Moitié pepperoni, moitié champignons, sans fromage nulle part. #1#[sa, mu|sa, pe]##45#1#82
Hé, euh... vous savez, euh... j'aimerais un truc aux champignons... ouais... une pizza aux champignons.#Ouais, euh... Une pizza aux champignons.#1#[sa, ch, mu]##45#1#83
Des champignons, de la saucisse, du pepperoni, du fromage. Mettez tout ça dans ma pizza, s'il vous plaît !#Vous n'avez pas compris, vraiment ? Pourtant c'était très clair.#1#[sa, ch, pe, sg, mu]##45#1#84
J'ai besoin de deux pizzas au pepperoni, dont une avec des champignons.#Une pizza pepperoni - champignons, et une au pepperoni.#2#[sa, ch, pe][sa, ch, pe, mu]##16#1#85
Yo, ça roule ? Une aux champignons et à la saucisse pour moi.#Une pizza aux champignons et à la saucisse.#1#[sa, ch, sg, mu]##45#1#86
Hé, une pizza moitié saucisse, moitié champignons.#Moitié saucisse, moitié champignons.#1#[sa, ch, mu|sa, ch, sg]##45#1#87
Une pizza aux champi-pis !#Trois pizzas aux champignons.#3#[sa, ch, mu][sa, ch, mu][sa, ch, mu]##45#1#88
Puis-je avoir une pizza moitié champignons, moitié pepperoni et saucisse ?#Moitié champignons, moitié pepperoni et saucisse.#1#[sa, ch, mu|sa, ch, pe, sg]##45#1#89
Euh... J'aime les champignons, mais j'aime aussi les saucisses... Est-ce que je peux avoir les deux ?#Une pizza aux champignons et à la saucisse.#1#[sa, ch, sg, mu]##45#1#90
J'organise une fête avec des champignons et de la saucisse. Le fromage n'est pas invité.#Je voudrais une pizza aux champignons et à la saucisse, sans fromage.#1#[sa, sg, mu]##45#1#91
L'olive, c'est ma vie.#Une pizza aux olives.#1#[sa, ch, ol]##80#1#92
J'ai besoin d'un peu d'olives !#Des olives sur ma pizza !#1#[sa, ch, ol]##80#1#93
J'aimerais une pizza au pepperoni avec des olives sur une moitié, s'il vous plaît.#J'aimerais une pizza au pepperoni, mais avec des olives en plus sur une moitié.#1#[sa, ch, pe|sa, ch, pe, ol]##16#1#94
Que des olives. Pas de sauce tomate.#Est-ce que c'est une blague ?#1#[ch, ol]##80#1#95
J'aimerais avoir une pizza aux olives sans fromage, j'aime bien, on dirait une coccinelle.#Parce que c'est rouge... Et ça fait des pois... Bref, oubliez.#1#[sa, ol]##80#1#96
Est-ce que je pourrais avoir une pizza aux olives et au pepperoni ? Merci.#Des olives et du pepperoni.#1#[sa, ch, pe, ol]##80#1#97
Tout le monde prend de la pizza au pepperoni, mais moi je ne vois que les olives !#Une pizza aux olives !#1#[sa, ch, ol]##80#1#98
J'ai besoin d'une pizza avec du pepperoni, du fromage, des champignons, des olives et de la saucisse, et d'une pizza avec seulement du fromage.#Certaines personnes sont plus complexes que d'autres.#2#[sa, ch][sa, ch, pe, sg, ol, mu]##1#1#99
Les grecs anciens se badigeonnaient d'huile d'olive pour se laver. C'est bizarre, non ?#Vous savez, comme un savon. Enfin bref. Je voudrais une pizza aux olives...#1#[sa, ch, ol]##80#1#100
Je ne savais pas que les olives étaient des fruits.#C'est toujours délicieux ! Puis-je avoir une pizza aux olives ?#1#[sa, ch, ol]##80#1#101
Deux pizzas aux olives.#Deux pizzas avec des olives dessus.#2#[sa, ch, ol][sa, ch, ol]##80#1#102
Plein d'olives ! Des olives et de la saucisse ! Trois pizzas !#Trois pizzas avec des olives et de la saucisse !#3#[sa, ch, sg, ol][sa, ch, sg, ol][sa, ch, sg, ol]##80#1#103
Deux pizzas aux olives et au pepperoni sans fromage !#Ne mettez pas de fromage dans ma pizza au pepperoni et aux olives.#2#[sa, pe, ol][sa, pe, ol]##80#1#104
Moitié saucisse et olives et moitié saucisse et pepperoni !#Moitié saucisse et olives et moitié saucisse et pepperoni !#1#[sa, ch, sg, ol|sa, ch, pe, sg]##80#1#105
Salut... Champignons et olives... Si c'est possible...#... Des champignons... Et des olives...#1#[sa, ch, mu, ol]##80#1#106
Euuuh... ... ... ... O... Olives ?#Oui, Hum... Une pizza... aux olives.#1#[sa, ch, ol]##80#1#107
Bon, moitié pepperoni et oignons, et moitié olives. Mais sans fromage.#Moitié pepperoni et oignons. Moitié olives. Le tout sans fromage.#1#[sa, ol|sa, pe, on]##80#1#108
Moitié olives et moitié oignons pour moi, merci.#Juste, je n'aime pas qu'ils se mélangent, d'accord ?#1#[sa, ch, ol|sa, ch, on]##80#1#109
Je déteste les poivrons et les champignons. Donnez-moi une... OOPS !#Oignons, Olives, Pepperoni et Saucisse. Une OOPS quoi ! Ha ha !#1#[sa, ch, pe, sg, ol, on]##100#1#110
Puis-je avoir une pizza aux olives et aux oignons, et aussi avec des champignons s'il vous plaît ?#Des olives, des oignons et des champignons s'il vous plaît.#1#[sa, ch, mu, ol, on]##100#1#111
Je vais prendre la double O ! Olives et Oignons !#Des olives et des oignons !#1#[sa, ch, ol, on]##100#1#112
Coucou, je voudrais une pizza moitié olives et oignons et moitié pepperoni.#J'ai besoin d'une pizza moitié olives et oignons, moitié pepperoni.#1#[sa, ch, pe|sa, ch, ol, on]##16#1#113
Champignolivoignon !#J'aimerais une pizza avec des champignons, des olives et des oignons.#1#[sa, ch, mu, ol, on]##100#1#114
J'adore l'odeur des oignons et des champignons quand ils cuisent.#Je parie qu'ils sentent encore meilleur sur une pizza cuite au four.... Champignons et oignons, s'il vous plaît !#1#[sa, ch, mu, on]##100#1#115
Puis-je avoir une pizza avec moitié saucisses et oignons, et moitié olives et champignons ?#Moitié saucisses oignons. Moitié olives champignons.#1#[sa, ch, sg, on|sa, ch, mu, ol]##100#1#116
Il y a un ours dans ma voiture ! Je ferais mieux de prendre une pizza aux oignons.#Les ours détestent les oignons, hein ?#1#[sa, ch, on]##100#1#117
Une pizza aux oignons s’il vous plaît. J’ai un rendez-vous galant.#J'aime pas les rendez-vous galants et j'aimerais en finir au plus vite.#1#[sa, ch, on]#d1#100#1#118
J'aimerais une pizza pleine d'oignons.#Ah oui. Des oignons. Une pizza aux oignons.#1#[sa, ch, on]##100#1#119
Je voudrais trois pizzas aux oignons. Une avec des pepperonis.#Trois pizzas aux oignons s'il vous plaît. Dont une avec des pepperonis.#3#[sa, ch, on][sa, ch, on][sa, ch, pe, on]##100#1#120
Les oignons et les pepperoni, ça va bien ensemble, hein ?#Les deux ingrédients sont ronds...#1#[sa, ch, pe, on]##100#1#121
Je voudrais une pizza au fromage, mais j'aimerais bien aussi des oignons et des pepperonis.#Du pepperoni et des oignons sur ma pizza s'il vous plaît !#1#[sa, ch, pe, on]##100#1#122
Qu'est-ce que je voulais, déjà ? Ah oui, moitié pepperoni moitié oignons.#Moitié pepperoni, moitié oignons.#1#[sa, ch, pe|sa, ch, on]##16#1#123
Deux pizzas au pepperoni. Mais pas d'oignons sur la deuxième.#Une seule pizza avec des oignons ! Il ne faut pas abuser des bonnes choses...#2#[sa, ch, pe][sa, ch, pe, on]##16#1#124
Juste des oignons là-dessus. Rien d'autre.#Ouais… Juste des oignons.#1#[on]##100#1#125
Est-ce que vous saviez que les Égyptiens de l'antiquité vouaient un culte aux oignons ? Leur forme sphérique et concentrique symbolisait la jeunesse éternelle.#Et bien, c'est intéressant. Une pizza aux oignons, s'il vous plaît.#1#[sa, ch, on]##100#1#126
Deux pizzas. Une aux champignons et une aux oignons.#ChampOignons ! #2#[sa, ch, on][sa, ch, mu]##100#1#127
Je suis venu pour une pizza aux oignons et aux champignons.#Oignons et champignons.#1#[sa, ch, mu, on]##100#1#128
Oignons et champignons. Rien de plus, rien de moins !#Oignons et champignons ! Rien de plus, rien de moins !#1#[mu, on]##100#1#129
Deux pizzas avec du pepperoni et des oignons.#Deux pizzas au pepperoni et aux oignons.#2#[sa, ch, pe, on][sa, ch, pe, on]##100#1#130
Pour ma pizza, j'aimerais une moitié avec des champignons et une moitié avec des oignons.#Moitié champignons, moitié oignons.#1#[sa, ch, on|sa, ch, mu]##100#1#131
J'ai une commande un peu folle. Je veux des oignons et de la saucisse dans ma pizza.#Attention, ma commande est un peu délirante. Je voudrais des oignons ET de la saucisse.#1#[sa, ch, sg, on]##100#1#132
J'aimerais de ces délicieux oignons. Et aussi du pepperoni et de la saucisse, s'il vous plaît.#J'aimerais des oignons, du pepperoni et de la saucisse.#1#[sa, ch, pe, sg, on]##100#1#133
Coucou les poivrons !#Une pizza aux poivrons, c'est noté ?#1#[sa, ch, bp]##150#1#134
Du poivron pour bibi !#Des poivrons pour moi.#1#[sa, ch, bp]##150#1#135
Puis-je avoir juste des poivrons sans sauce tomate ?#Des poivrons, sans sauce tomate.#1#[ch, bp]##150#1#136
Je vais prendre du pepperoni... et de la saucisse... et... des champignons... des oignons... des olives... et... des poivrons...#Pepp’, sauce, champs, ‘nions, ‘lives, ‘vrons…#1#[sa, ch, pe, sg, mu, ol, on, bp]##20#1#137
Pizza végétarienne. Fais-en deux.#Deux pizza avec champignons, légumes et fruits.#2#[ch, vegan][ch, vegan]##150#1#138
Une pizza végétarienne.#Légumes... fruits... champignons... #1#[ch, vegan]##150#1#139
Pizza moitié viande, moitié végétative.#Bien. Un coté avec toutes les viandes. L'autre moitié avec légumes, fruits et champignons.#1#[sa, ch, meats|ch, vegan]##30#1#140
Une pizza végan, s'il vous plaît.#Tous les fruits, légumes et champignons, mais pas de fromage.#1#[vegan]##100#1#141
Je prendrais une royale sans basilic !#Ouai. Tout de la sauce au poivrons. Pas de basilic.#1#[sa, ch, pe, sg, mu, ol, on, bp]##150#1#142
Je peux en avoir une avec des oignons et une autre au peperonni avec des saucisses?#Une pizza aux oignons et une peperonni avec des saucisses.#2#[sa, ch, on][sa, ch, pe, sg]##150#1#143
Je voudrais une pizza végan, mais sans basilic.#Tous les légumes, fruits, champignons, mais sans fromage. Sans basilic non plus.#1#[vegan, -bl]##100#1#144
Non, le véganisme ne donne pas de super-pouvoirs… Est-ce que je peux avoir une pizza végétarienne ?#Humm.. champignons, fruits et légumes. Sans fromage.#1#[vegan]##100#1#145
Deux pizzas royales, mais sur l'une d'elle la moitié sans pepperoni !#Pepperoni, saucisse, oignons, poivrons, olives, champignons sur deux pizzas. Sauf sur une des moitiés. Pas de pepperoni sur cette moitié.#2#[sa, ch, pe, sg, mu, ol, on, bp][sa, ch, pe, sg, mu, ol, on, bp|sa, ch, sg, mu, ol, on, bp]##20#1#146
Puis-je avoir une pizza royale ?#La pizza royale. Pepperoni, saucisse, oignons, poivrons, olives, champignons.#1#[sa, ch, pe, sg, mu, ol, on, bp]##20#1#147
J’ai besoin de cette pizza deluxe.#La deluxe ? La royale ? Peu importe. J’en veux une avec pepperoni, saucisse, oignons, poivrons, olives, champignons.#1#[sa, ch, pe, sg, mu, ol, on, bp]##20#1#148
Un combo royal !#Peeperoni, oui ! Saucisses, oui ! Oignons, oui ! Champignons, oui ! Poivrons, oui !#1#[sa, ch, pe, sg, mu, ol, on, bp]##20#1#149
Une altesse royale suprême deluxe, s'il vous plaît.#Pepperoni, saucisse, fromage, oignons, poivrons, sauce, olives, champignons.#1#[sa, ch, pe, sg, mu, ol, on, bp]##20#1#150
Il me faut une de ces galettes plates.#Vous savez ? Une galette avec pepperoni et poivrons.#1#[pe, bp]##150#1#151
Des poivrons, des saucisses, mais sans saucisse !#Suis-je bête ? Juste des poivrons.#1#[sa, ch, bp]##150#1#152
Moitié pepperoni et poivrons, moitié champignons puants !#Poivrons et pepperoni d’un côté. Champignons de l’autre côté, le côté qui pue.#1#[sa, ch, pe, bp|sa, ch, mu]##150#1#153
Une pizza aux oignons, une pizza aux poivrons, une pizza aux champignons. Saucisse sur les trois.#Une pizza aux oignons, une pizza aux poivrons, peu importe la couleur et une pizza aux champignons. Saucisse sur les trois.#3#[sa, ch, sg, mu][sa, ch, sg, on][sa, ch, sg, bp]##45#1#154
Je suis AUBsédé à l’idée d’essayer ce nouvel ingrédient dont j’ai tant entendu parler !#Excusez-moi, c’est bien ici que vous mettez des aubergines sur les pizzas ?#1#[sa, ch, ep]##250#1#155
Faites-moi une aubergissime pizza!#Désolé, mauvais jeux de mot. Une pizza au fromage avec de l’aubergine fera l’affaire.#1#[sa, ch, ep]##250#1#156
Je peux avoir deux pizzas avec le … gros truc violet ?#Ah, ça a un nom bizarre. C’était quoi déjà … AUBERGINE ! Deux pizzas à l’aubergine !#2#[sa, ch, ep][sa, ch, ep]##250#1#157
J'ai entendu dire qu'il faut mettre du fromage et de la marinara sur les aubergines pour les rendre plus savoureuses, mais pas l'inverse.#Je suppose que ça vaut le coup d'essayer. Je prendrai une pizza au fromage avec des aubergines !#1#[sa, ch, ep]##250#1#158
Vous sentez ? Cette odeur. Un peu mauvaise. Une mauvaise odeur qui sent mauvais.#DES ANCHOIS !#1#[sa, ch, an]##200#2#159
La vie est super, mieux que sur la terre, il faut qu’ça cuise.#J’ai une petite sirène à la maison qui voudrait une pizza aux anchois.#1#[sa, ch, an]##200#2#160
Une moitié de galette au fromage et une moitié de galette à la sauce. En double.#Deux moitié sauce, moitié fromage.#2#[ch|sa][ch|sa]##1#2#161
Je voudrais une pizza avec poivrons, oignons, pepperoni et olives. Avec les pepperoni et les oignons seulement sur une moitié.#Poivrons et olives avec poivrons d’un côté et oignons de l’autre.#1#[sa, ch, pe, ol, bp|sa, ch, ol, on, bp]##255#2#162
Je voudrais une pizza moitié bacon, saucisses et moitié peeperoni et jambon. Faites attention de mettre le bacon et le jambon d’une côté et le pepperoni et la saucisse de l’autre.#J’en voudrais une moitié jambon et bacon, et moitié pepperoni et saucisse.#1#[sa, ch, pe, sg|sa, ch, hm, bn]##30#2#163
Je voudrais une pizza, mais sans garniture animale, végétale ou minérale.#Rien que des champs !#1#[sa, ch, mu]##45#2#164
Je fais une soirée plage, mais je ne veux pas d’une pizza hawaïenne traditionnelle. Je voudrais trois Cochons Fruités Suprême.#Si c’est fruité ou que c’est du cochon, mettez-le sur la pizza.#3#[sa, ch, pe, sg, ol, bp, pi, hm, bn][sa, ch, pe, sg, ol, bp, pi, hm, bn][sa, ch, pe, sg, ol, bp, pi, hm, bn]##155#2#165
Ma pizza préférée est à la viande, mais j'aime aussi les olives. Pouvez-vous en ajouter ?#Donc, je veux juste vos viandes de base : pepperoni, saucisse, jambon et bacon. Mais ajoutez aussi des olives !#1#[sa, ch, pe, sg, ol, hm, bn]##350#2#166
Je vais prendre une pizza Loup de Mer.#C’est une pizza avec olives et anchois.#1#[sa, ch, ol, an]##250#2#167
Donnez-moi une Main Verte.#Poivrons et Basilic.#1#[sa, ch, bp, bl]##200#2#168
Je voudrais une pizza moitié Loup de Mer et moitié Cochon Fruité. Mais je ne veux aucune garniture qu’on trouve dans une Main Verte.#Moitié olives et anchois, et moitié olives, poivrons, ananas, pepperoni, saucisse, jambon et bacon. Mais sans poivrons.#1#[sa, ch, ol, an|sa, ch, pe, sg, ol, pi, hm, bn]##300#2#169
Ma soeur est végétarienne, mais elle n’aime ni les légumes ni les fruits. Par contre elle aime les champignons, mais pas sur les pizzas.#Ma soeur voudrait une pizza sans viande, sans fruit, sans légumes et sans champignons.#1#[sa, ch]##1#2#170
Une moitié fromage et l’autre pepperoni. Les deux moitiés avec du fromage. En deux fois.#Deux pizzas au fromage. J’étais un peu perdu.#2#[sa, ch][sa, ch]##1#2#171
J'en veux une demi-fruit et champignon et l'autre moitié viande.#Fruits et champignons sur la moitié d'une pizza au fromage, et juste de la viande sur l'autre moitié.#1#[sa, ch, mu, fruits|sa, ch, meats]##155#2#172
Je voudrais une paire de pizzas au poisson et sans légumes.#Deux pizzas aux fruits, champignons et fruits de mer.#2#[sa, ch, fruits, mu, seafood][sa, ch, fruits, mu, seafood]##350#2#173
J’en voudrais une au porc. Vous embêtez pas avec la sauce ou le fromage ou le poisson.#Je veux juste des garnitures de porc sur de la pâte.#1#[pe, sg, hm, bn]##350#2#174
J’ai une intolérance au lactose, mais j’aime tout le reste.#Je veux tout sauf du fromage.#1#[sa, pe, sg, mu, ol, on, bp, pi, hm, bn, an, bl]##350#2#175
Je voudrais une pizza moitié bacon et jambon.#Peu importe ce qu’il y a sur l’autre moitié. Enfin mettez juste du fromage.#1#[sa, ch, hm, bn|sa, ch]##350#2#176
Champignons, anchois et ananas. Drôle de combinaison.#J’vais le tenter !#1#[sa, ch, mu, pi, an]##350#2#177
Une pizza PAP, siouplé !#Pepperoni, ananas et poivrons. Merci.#1#[sa, ch, pe, bp, pi]##200#2#178
Oignons et olives pour moi. En plus de la sauce et du fromage bien sûr.#Je voudrais des oignons et des olives sur ma pizza.#1#[sa, ch, ol, on]##350#2#179
Une pizza bacon bien grasse.#Mettez du bacon sur une pizza quoi.#1#[sa, ch, bn]##200#2#180
Je prendrais une moitié pepperoni pour le dîner, avec l’autre moitié saucisse, bacon, que je mangerai au petit-déjeuner.#Une moitié pepperoni pour le dîner. L’autre moitié saucisse, bacon pour le petit-déjeuner.#1#[sa, ch, pe|sa, ch, sg, bn]##200#2#181
Je vais partager une pizza avec mon chat.#Une moitié avec des olives, l’autre avec des anchois.#1#[sa, ch, ol|sa, ch, an]##200#2#182
Je prendrais une pizza sucrée-salée avec ananas et olives. S’il vous plaît.#Ananas et olives sur ma pizza.#1#[sa, ch, ol, pi]##200#2#183
Ne le dites à personne, mais je voudrais une pizza à l’ananas.#Chuuuut.#1#[sa, ch, pi]##200#2#184
Je voudrais deux pizzas.#Une pepperoni, saucisse, et une ananas et jambon.#2#[sa, ch, pe, sg][sa, ch, hm, pi]##30#2#185
Je voulais manger une omelette, mais puisque c’est une pizzeria, je prendrais une pizza petit-déj'.#Oignon, champignons, saucisses, bacon, jambon. Tu sais? Des trucs d'omelette ?#1#[sa, ch, sg, mu, on, hm, bn]##350#2#186
Je veux une pizza moitié fromage, moitié…#pepperoni, basilic, champignons, saucisses et poivrons.#1#[sa, ch|sa, ch, pe, sg, mu, bp, bl]##100#2#187
Donnez-moi un truc au poisson !#J’aurais préféré du thon épicé mais les anchois, ça passe.#1#[sa, ch, an]##250#2#188
J’ai une envie de jambon et de saucisse.#Pizza jambon et saucisse.#1#[sa, ch, sg, hm]##200#2#189
J’ai besoin d’une pizza ananas, presto !#Pizza plus ananas, pas de temps à perdre !#1#[sa, ch, pi]##150#2#190
J’essaie d’amadouer la chèvre du quartier. Basilic, olives et oignons, s’il vous plaît.#Les chèvres aiment le basilic, les oignons et les olives, n’est-ce pas ?#1#[sa, ch, ol, on, bl]##200#2#191
J’ai besoin d’une pizza assortie à mon jardin.#Poivrons, oignons, olives et basilic.#1#[sa, ch, ol, on, bp, bl]##200#2#192
Trois pizzas. Une avec des fruits, une avec des légumes et de la sauce, une avec de la viande et du fromage.#La premiere aux fruits : ananas, poivrons et olives. Puis, une pizza végétarienne sans fromage. Et enfin, donnez-moi toutes vos viandes sur du fromage.#3#[sa, ch, fruits][sa, veggies][ch, meats]##300#2#193
Je vais prendre une pizza méga garnie.#Une pizza royale avec toutes vos viandes, vos légumes, et vos fruits.#1#[sa, ch, mu, meats, veggies, fruits]##350#2#194
Une pizza simple, s’il vous plaît.#Pizza. Simple. Cela inclut simplement le fromage et la sauce.#1#[sa, ch]##1#2#195
Je voudrais une pizza au fromage et une galette.#Une pizza au fromage et une pizza sans rien dessus en fait.#2#[sa, ch][none]##1#2#196
Je voudrais une moitié fromage sans sauce et l’autre moitié sans rien.#Pas de sauce, moitié fromage. Rien d’autre.#1#[ch|none]##10#2#197
Je voudrais une pizza qui baisserait le risque de maladies cardio-vasculaires, le diabète de type 2, l’obésité et quelques cancers… avec du basilic.#Je voulais dire une pizza au blé complet… avec du basilic.#1#[sa, ch, bl, wt]##350#2#198
De la viande avec du blé que je puisse manger, siouplé !#Une pizza à la viande sur du blé complet.#1#[ch, sa, pe, sg, hm, bn, an, wt]##350#2#199
Viande et fromage. Pas de sauce. Pas de fruits de mer.#Pas de champignon non plus.#1#[ch, pe, sg, hm, bn]##350#2#200
Donne-moi une pizza poivrons oignons, frère.#Des poivrons et des oignons sur une pizza.#1#[sa, ch, on, bp]##350#2#201
Trois pizzas aux champignons pour [ce charmant: guy: cette charmante: girl].#Avez-vous compris ? [ce charmant: guy: cette charmante: girl] Champignons Vous voyez c'est un jeu de mots .#3#[sa, ch, mu][sa, ch, mu][sa, ch, mu]##45#2#202
J’entraîne un phoque, j’aurais besoin d’anchois sur une pâte.#Je vous le jure, il y a un phoque dehors.#1#[an]##250#2#203
Des saucisses avec des champignons recouvert de basilic, très appétissant.#C’est ce que je vais prendre.#1#[sa, ch, sg, mu, bl]##200#2#204
Je veux manger un ananas sous l’océan.#Ananas et anchois.#1#[sa, ch, pi, an]##350#2#205
J’ai un rancard que je veux saboter. J’aurais besoin d’un pizza aux anchois et aux oignons.#Si vous aviez de l'ail, vous auriez pu faire une Pizz’ail !#1#[sa, ch, on, an]#d2#100#2#206
J’ai besoin d’une pizza aux oignons et aux anchois pour faire de ce rencard, un rencard mémorable.#La pizza préférée de mon rencard, c’est la Pizz’ail.#1#[sa, ch, on, an]#d3#100#2#207
J’ai besoin d’une pizza à l’ananas pour savoir ce qu’en pense mon rencard.#Je n’ai pas encore choisi.#1#[sa, ch, pi]#d4#200#2#208
J’espère que c’est possible, est-ce que je pourrais avoir une pizza au bacon canadien ?#Oh, oui le jambon me convient aussi.#1#[sa, ch, hm]##200#2#209
Je voudrais quatre pizzas à la viande. Et n’essayez pas de me convaincre que les anchois sont comestibles.#Quoi quoi ?#1#[sa, ch, pe, sg, hm, bn]##350#2#210
Préparez-moi du bacon et du basilic sur du blé complet.#Je veux que vous prépariez une pizza avec du blé complet, du bacon et du basilic. Ensuite, mettez le tout au four.#1#[sa, ch, bn, bl, wt]##350#2#211
Moitié jambon et moitié fromage sur une pâte de blé.#Que du fromage sur l’autre moitié.#1#[sa, ch, hm, wt|sa, ch, wt]##300#2#212
Je voudrais un champ de poisson.#Anchois sur la pâte. Rien de plus.#1#[an, wt]##350#2#213
Une pâte de blé toute fromage.#C’est juste du fromage sur de la pâte de blé.#1#[ch, wt]##200#2#214
Je suis venu pour la sauce blé, chef.#Du blé et de la sauce, chef.#1#[sa, wt]##500#2#215
Servez-moi des saucisses sans sauce.#Une pizza saucisse, pas de sauce tomate.#1#[ch, sg]##30#2#216
Des herbes et des oignons sur du blé.#Pour les herbes ? Mettez du basilic. #1#[sa, ch, on, bl, wt]##300#2#217
Viens là petit poiscaille.#Trois pizzas aux anchois.#3#[sa, ch, an][sa, ch, an][sa, ch, an]##150#2#218
Je suis inscrit à un concours de mauvaise haleine.#Ce sera des oignons et des anchois pour moi.#1#[sa, ch, on, an]##120#2#219
Du blé entier et des oignons avec du basilic.#Des oignons et du basilic sur du blé complet. Sans sauce ni fromage.#1#[on, bl, wt]##300#2#220
Fromage et blé s’il vous plaît.#S’il vous plaît, du fromage et du blé.#1#[ch, wt]##200#2#221
Une Toute Garnie au blé complet, ça me plaît. Pas de viande.#Une Toute Garnie sans viande, sur du blé complet.#1#[sa, ch, mu, fruits, veggies, wt]##300#2#222
Je veux quelque chose de tropical.#Des Oranges ? Des Kiwis ?  Des Citrons ? ou bien des Ananas ?#1#[sa, ch, pi]##200#2#223
La garniture que je veux moi, ferait une belle maison pour une éponge de mer.#Qui vit dans un ananas dans la mer ?#1#[sa, ch, pi]##150#2#224
Je voudrais une pizza aux poivrons et ananas, s'il vous plaît. #Une pizza aux poivrons et ananas, s'il vous plaît. #1#[sa, ch, pi, bp]##200#2#225
Donne-moi de la viande carré.#Je veux ce Jambon !#1#[sa, ch, hm]##200#2#226
Jambon et pepperoni, s'il vous plait !#Une pizza jambon et pepperoni, s'il vous plait !#1#[sa, ch, hm, pe]##200#2#227
Je vais prendre un sandwich au jambon.#Oh ! Vous servez des pizzas? Je prendrai une au jambon.#1#[sa, ch, hm]##200#2#228
Je dois écrire un essai sur Hamlet, alors je suis ici pour faire des recherches.#C'est une pièce de théâtre sur le jambon n'est-ce pas ?#1#[sa, ch, hm]##200#2#229
Groin-Groin !! Je vais prendre du jambon !#Jambon, s'il vous plait !#1#[sa, ch, hm]##150#2#230
Je suis un végétarien, mais mon ami est un ogre ! Il ne mange que de la viande. Une pizza moitié olives et oignons, moitié jambon seulement , s'il vous plait !#Nous aimerions une pizza moitié olives et oignons, moitié jambon seulement même pas du fromage ou de la sauce !  #1#[sa, ch, ol, on|hm]##150#2#231
Je veux une pizza bacon !#BACON!#1#[sa, ch, bn]##200#2#232
J'essaie d'entrainer mon chien à jouer au frisbee. Peut-être bien qu'une pizza au bacon fera l'affaire ?#Une pizza bacon que je peux utiliser pour lui apprendre comment chercher.#1#[sa, ch, bn]##200#2#233
Je suis ici juste pour le Bacon ! Pourriez-vous m'en mettre sur un pain plat sans rien d'autre avec ?#Probablement je jetterai le pain plat après.#1#[bn]##200#2#234
'Le bacon' est beau dans l'œil de celui qui le regarde. Et je veux le voir .#J'ai très faim.#1#[sa, ch, bn]##200#2#235
Je viens de courir quatorze blocs, parce que j'ai senti le bacon !#Je vais prendre une pizza au bacon, s'il vous plait.#1#[sa, ch, bn]##200#2#236
Je veux une pizza, je veux que tu la sauce, que tu la fromage que tu la brûle qu'elle pue et que vous la laissez jouer avec le bacon.#Je vais prendre une pizza à l'oignon et au bacon.#1#[sa, ch, bn, on]##200#2#237
Les gens sous-estiment le pouvoir du basilic. Une au basilic, s'il vous plait.#Vous en êtes un, hein ? Une pizza au basilic s'il vous plait.#1#[sa, ch, bl]##200#2#238
Salutations, je suis un artiste visuel. Pour ma pizza, je voudrais voir une marée rouge au  bord d'une côte herbeuse.#Je vais faire passer mes idées pour les masses … encore une fois ! Une pizza moitié sauce, moitié fromage et basilic.#1#[sa|ch, bl]##200#2#239
Champion, donne moi des fibres.#Juste du pain complet.#1#[wt]##200#2#240
Je voudrais un plat au thon. Non ? Bien, que diriez-vous d'une pizza de blé complet au fromage ?#Fromage et sauce sur une pate de blé complet, s'il vous plait.#1#[sa, ch, wt]##200#2#241
J'en ai marre des restrictions de la société, mec ! Je veux quelque chose de sauvage ! Donne-moi une pizza au blé complet… sans sauce ni fromage, juste une moitié oignon et une saucisse! OHH QUE SI !#Arrête de perturber mon calme . Une Pizza moitié oignon, moitié saucisson sur une pate au blé complet. Rien de plus. Bon dieu !#1#[on, wt|sg, wt]##200#2#242
Je suis un régime sans gluten.#Pizza au blé, s'il vous plait !#1#[sa, ch, wt]##200#2#243
Je veux une pizza aux champignons, sur de la pâte brune. Du fromage côté champignons, de la sauce côté oignon.#Moitié champignon et moitié oignon fromage et de la sauce à pizza sur la pâte, s'il vous plait.#1#[wt, ch, mu|wt, sa, on]##200#2#244
Saviez-vous que 98% des espèces de poissions connues pondent des œufs ?#Désolé c'est un hasard, je voudrais une pizza aux anchois et aux aubergines.#1#[sa, ch, an, ep]##200#2#245
HAHAHAHA! Je prendrai la pizza Joker!#Hehe, pourquoi si sérieux ? c'est facile ! Poivrons verts, aubergines, pepperoni rouge !#1#[sa, ch, pe, bp, ep]##200#2#246
Puis-je avoir deux pizza carbonara, avec des aubergines à la places des œufs ?#Du bacon et des oignons sur une pizza au fromage. Normalement vous ajoutez un oeuf, mais l'aubergine fera l'affaire.#2#[sa, ch, on, bn, ep][sa, ch, on, bn, ep]##200#2#247
J'ai envie d'un petit-déjeuner, mais je n'arrive pas à me décider entres les pizza, le bacon et les œufs...#Bacon et œufs... ou peut-être une végétarienne avec du bacon ? Peut-on partager la poire en deux ?#1#[sa, ch, bn, ep]##200#2#248
J'aime le bacon, les saucisses et les œufs de bon matin ! mais je peux me contenter d'une alternative plus saine concernant les œufs.#Garder la viande, mais que diriez-vous d'y ajouter des aubergines ?#1#[sa, ch, sg, bn, ep]##200#2#249
Vous connaissez la ratatouille ? je veux ça mais sur une pizza !#Oh , c'est un plat végétarien. Il suffit de mettre des aubergines, des poivrons, des oignons et du basilic sur une pizza au fromage.#1#[sa, ch, on, bp, bl, ep]##200#2#250
Puis-je avoir deux pizzas Hawaïenne ? Mais mettez l'ananas seulement sur la moitié de chaque pizza.#Mes amis disent que mettre de l'ananas sur une pizza est une hérésie, donc mettez-en seulement sur un seul coté. Du jambon sur les deux par contre.#2#[sa, ch, pi, hm|sa, ch, hm][sa, ch, pi, hm|sa, ch, hm]##200#2#251
Je veux une pizza garnie de fruit. Avec des fruits de mers !#C'est une pizza avec des fruits, des olives, du poivre et de l'ananas. Et des crevettes, comme fruit de mer !#1#[sa, ch, ol, bp, pi, sh]##2500#3#252
Connaissez-vous les crevettes à l'ananas ? c'est délicieux ! je parie que ça doit être encore meilleur en pizza.#Je voudrais une pizza aux crevettes et ananas, s'il vous plait !#1#[sa, ch, pi, sh]##2500#3#253
Les gens adorent la pizza hawaïenne, mais une vraie pizza hawaiienne est garnie de crevettes à la place.#Oui, je l'ai dit ! Je veux une VRAIE pizza hawaïenne, avec des crevettes et de l'ananas !#1#[sa, ch, pi, sh]##2500#3#254
La pizza hawaïenne est délicieuse , mais je ne comprends pas pourquoi ils n'y ajoutent pas de crevettes !#Bien, les crevettes sont populaire à Hawaii et c'est succulent ! Probablement avec de l'ananas et du jambon aussi.#1#[sa, ch, pi, hm, sh]##2500#3#255
Il y a milles façon de les cuisiner. Au barbecue, bouillies, grillées, cuite au four, sautées, poêlées, panées, sautées...#Elles sont délicieuses, peu importe comment vous les avez cuites. Il me faut ces crevettes !#1#[sa, ch, sh]##2500#3#256
Hey, est-ce que vous faites des brochettes de crevettes ? Sinon , il suffit de mettre les ingrédients sur une pizza.#Bien évidemment des crevettes, puis, des oignons pour le croquant, et les champignons pour la saveur du terroir.#1#[sa, ch, on, mu, sh]##2500#3#257
Je voudrais une pizza aux gamberi avec des poivrons et du basilic, s'il vous plait.#Au cas où vous ne sauriez pas, gamberi veut dire crevette en italien !#1#[sa, ch, bp, bl, sh]##2500#3#258
Je voudrais deux pizza aux crevettes, s'il vous plait !#C'est juste deux pizza avec des crevettes.#2#[sa, ch, sh][sa, ch, sh]##2500#3#259
J'ai besoin d'un cocktail de crevettes avec du pain pour une fête. Mais... et si je pouvais combiner les deux ?#Donnez-moi juste une pizza avec de la sauce et des crevettes. Je pense que ça fera l'affaire.#1#[sa, sh]##2500#3#260
Donc, j'ai entendu que cet endroit sert des crevettes sur des pizzas. Je le croirai quand je le verrai !#Bien ? Avez-vous des crevettes ou non ? j'attends !#1#[sa, ch, sh]##2500#3#261
Cela pourrait être ringard de demander, mais puis-je avoir une pizza au mais ?#Ah, je veux juste du maïs sur ma pizza.#1#[sa, ch, co]##5000#3#262
Je voudrais deux pizza au maïs avec du bacon. Croustillante comme du bacon !#Le goût sucré du maïs va bien avec le salé du bacon. Et le croustillant quand il est cuit deux fois est tellement reconfortant !#2#[sa, ch, bn, co, wd][sa, ch, bn, co, wd]##5000#3#263
Vous avez du maïs, comme garniture de pizza ?! C'est trop bizarre ! Mais encore une fois...#Je suppose que j'ai vu pire. D'accord, donnons une chance au maïs.#1#[sa, ch, co]##5000#3#264
Quand je suis allé au Japon l'an dernier, j'ai mangé une pizza au maïs. Content de voir que vous l'avez aussi !#Il n'y a pas beaucoup de pizzerias qui servent de la pizza au maïs. C'est mon jour de chance !#1#[sa, ch, co]##5000#3#265
Oubliez les haineux, l'ananas et le maïs sur les pizzas c'est délicieux ! Mais peut-être pas en même temps....#Je veux de l'ananas et du maïs. Y a-t-il un moyen qu'ils soient sur la même pizza, mais séparés ?#1#[sa, ch, pi|sa, ch, co]##5000#3#266
Je vais peut-être à contre-courant, mais donnez-moi une pizza au maïs sur de la pâte de blé !#Compris ? Parce que le blé et le maïs sont des céréales... Puis-je avoir ma commande, s'il vous plaît ?#1#[wt, sa, ch, co]##5000#3#267
Trois pizzas, et je veux que vous fassiez du grain ici !#Trois pizzas au fromage avec de la pâte de blé et des grains de maïs.#3#[wt, sa, ch, co][wt, sa, ch, co][wt, sa, ch, co]##5000#3#268
Une licorne, s'il vous plaît !#C'est une pizza au fromage, mais avec du maïs dessus !#1#[sa, ch, co]##5000#3#269
J'ai essayé le maïs dans la soupe, le maïs dans le pain, le maïs en épi... mais le maïs sur une pizza ?#Mettez-moi du maïs sur ma pizza au fromage, et laissez-moi en juger.#1#[sa, ch, co]##5000#3#270
Vous pouvez me faire du pain au maïs complet ? J'en ai eu envie récemment.#Je veux juste du maïs sur de la pâte de blé, si possible. Désolé, c'est bizarre ?#1#[wt, co]##5000#3#271
C'est bizarre de demander du maïs sur une pizza ? Je suis juste très curieux à ce sujet.#Non, vous savez quoi ? Ce n'est pas bizarre. J'ai hâte d'essayer le maïs sur ma pizza !#1#[sa, ch, co]##5000#3#272
Le poulet parmigiana est excellent, mais la mozzarella est aussi parfaitement convenable.#Donnez-moi du poulet avec du fromage et de la sauce. Ensuite, mettez-les sur de la pâte à pizza.#1#[sa, ch, ck]##5000#3#273
Enfin, je peux avoir une pizza salade César au poulet !#Pas de sauce. Donnez-moi du fromage, du poulet et des anchois sur de la pâte. Et du basilic au lieu de la laitue !#1#[ch, bl, an, ck]##5000#3#274
Gagnant gagnant, dîner au poulet !#J'ai gagné quelques rounds dans mon jeu. Maintenant, je m'offre une pizza au poulet !#1#[sa, ch, ck]##5000#3#275
Je suis un fou du pollo ! Trois pizzas au pollo, por favor !#Désolé, j'ai une faim de loup. 3 pizzas au poulet, s'il vous plaît.#3#[sa, ch, ck][sa, ch, ck][sa, ch, ck]##5000#3#276
Si j'ai commandé une pizza au poulet, il n'y a pas d'os dedans... non ?#Non ? Bien, d'accord. Alors une pizza au fromage avec du poulet, s'il vous plaît.#1#[sa, ch, ck]##5000#3#277
Qu'est-ce qui est venu en premier, le poulet ou l'au... bergine ?#Je n'en suis pas sûr non plus, alors mettez-les sur une pizza !#1#[sa, ch, ep, ck]##5000#3#278
Pouvez-vous me donner une pizza au fromage avec des aubergines, des poivrons, des oignons,des champignons et du poulet ?#Aubergines, poivrons, oignons, champignons et poulet. C'est bizarre, mais croyez-moi. C'est bon !#1#[sa, ch, on, bp, mu, ep, ck]##5000#3#279
J'accompagne toujours le blanc de poulet avec du pain plat au fromage. Pourquoi n'ai-je jamais pensé à combiner les deux ?#C'est une si bonne combinaison. Poulet et fromage, ensemble sur du pain.#1#[ch, ck]##5000#3#280
Tu sais ce qui a l'air bien ? Une pizza au poulet, champignons et oignons. En fait, j'en prendrai deux !#Deux pizzas au poulet, champignons et oignons s'il vous plaît !#2#[sa, ch, mu, on, ck][sa, ch, mu, on, ck]##5000#3#281
Ma mère avait l'habitude de faire du poulet frit au bacon-cheddar. Sa cuisine me manque....#Pourriez-vous mettre du poulet, du bacon et du maïs sur une pizza au fromage ?#1#[sa, ch, bn, co, ck]##5000#3#282
Sur ma pizza, je veux du poulet. Mais aussi, ce que mangent les poulets !#La plupart des aliments pour poulets contiennent du maïs. Je suppose que c'est une anectote inutile, n'est-ce pas ?#1#[sa, ch, co, ck]##5000#3#283
Pas de douleur, pas de grain !#Les céréales me font mal au ventre ! Alors donnez-moi tout sauf de la pâte de blé et du maïs.#1#[sa, ch, pe, sg, mu, ol, on, bp, pi, hm, bn, an, bl, sh, ck]##5000#3#284
