Order [translatable]#What? [translatable]#Num of Pizza#[Toppings 1a|Toppings 1b][Toppings 2a|Toppings 2b][Toppings 3a|Toppings 3b [comment]]#Flags#Weight#Chapter#ID
何も乗ってないピザが1つ欲しいんだよね。#そう、生地だけ。#1#[none]##10#1#1
平たいピザを1つ。#何も乗せないで。#1#[none]##10#1#2
朝日のように美しいピザを1つよろしく。#チーズピザ1つだよ。太陽みたいなやつをさ。なんか上手く説明できないなあ。#1#[sa, ch]##1#1#3
ソース、チーズでゴー。#ソース！チーズ！以上！終わり！#1#[sa, ch]##1#1#4
チーズ1枚。シンプルであっさりしたやつね。#チーズ1枚。シンプルであっさりしたやつね。#1#[sa, ch]##1#1#5
チーズピザ1つ。ソースも忘れずに。前に忘られたことがあるんだよ。#こっちはマジなんだってば...ソース。それとチーズね。#1#[sa, ch]##1#1#6
ヤバいくらいネズミが家にいてさ。あ、チーズピザ1つよろしく。#力づくで追い出すのは無理だろうから、ワイロでも渡そうかなって。#1#[sa, ch]##1#1#7
ピザ1枚。でも、こじゃれたトッピングは勘弁ね。ソースとチーズだけでいいんだ。#ソースとチーズのみで。#1#[sa, ch]##1#1#8
今夜はチーズタウンでアゲてくぜっ！#チーズピザ1つ！#1#[sa, ch]##1#1#9
ピザ1枚のためにここにやってきたよ。#あっ、チーズピザ1つ。#1#[sa, ch]##1#1#10
チーズよろしく！#チーズよろしく！#1#[sa, ch]##1#1#11
ペパロニピザのペパロニ抜きを1つ頼んでもいい？#チーズとソースだけのっけて。#1#[sa, ch]##1#1#12
チーズ。#チーズピザ1枚だけ。#1#[sa, ch]##1#1#13
チーズチーズチーズチーズチーズ。#チーズ？#1#[sa, ch]##1#1#14
やあこんにちは。チーズピザで。#チーズピザ。#1#[sa, ch]##1#1#15
こんにちは。ペパロニピザが…欲しくない。#チーズピザ1枚ください。#1#[sa, ch]##1#1#16
チーズピザを２つ。#チーズピザ...２つ...#2#[sa, ch][sa, ch]##1#1#17
こんにちは！ペパロニを1つ。#ミート、チーズ、ソースと生地で。#1#[sa, ch, pe]##16#1#18
ペパロニピザ1つ。#あの...えっと...ペパロニピザを1つ...#1#[sa, ch, pe]##16#1#19
ペパロニピザ。ソース抜きで。#これ以上は説明出来ないよ。ペパロニとチーズだけ。ソース？いらないよ。#1#[ch, pe]##16#1#20
やあ！調子はどう？えっと...うーんと...よし！ペパロニピザを１つ！ありがとう！#聞こえなかった？ペパロニピザを1つって言ったんだよ。#1#[sa, ch, pe]##16#1#21
ペパロニ１つ！#うそでしょ？ペパロニだよ。やわらかくて、ちょっと香ばしくて、赤くて丸い、豚と牛のくんせい肉が乗ったピザだよ。#1#[sa, ch, pe]##16#1#22
ペパロニ。#...ペパロニ。#1#[sa, ch, pe]##16#1#23
１、２、３！ペパロニ！#ペパロニピザを3つ。#3#[sa, ch, pe][sa, ch, pe][sa, ch, pe]##16#1#24
弟はペパロニが嫌いなんだ。あ、私はペパロニ1つ。#なんか弟は好き嫌いがひどいんだよね。私は好きなのに。#1#[sa, ch, pe]##16#1#25
マカロニピザ。#はっはっは！間違えちゃった。ペパロニって言いたかったのにさ。#1#[sa, ch, pe]##16#1#26
ザ！#ん？注文？ペパロニピザ。#1#[sa, ch, pe]##16#1#27
どうも。ペパロ2。#ペパロニピザを２つ。#2#[sa, ch, pe][sa, ch, pe]##16#1#28
ペパロニのチーズ抜きを1つ。#ペパロニにチーズなしで。#1#[sa, pe]##16#1#29
ペパロニの乳製品抜き、1枚。#ペパロニにチーズ乗せないでね。#1#[sa, pe]##16#1#30
ソース抜きのチーズ1つで。#チーズピザって事、ソース抜きの。1枚ね。#1#[ch]##10#1#31
こんにちは。ソース抜きのペパロニピザって1枚注文できる？#ペパロニとチーズと生地だけ。#1#[ch, pe]##16#1#32
チーズピザ - ソース=注文。#抜きって事は引き算するってことさ。ソース乗せないでね。#1#[ch]##10#1#33
ペパロニピザを２つ、１つはチーズ抜きで！#ペパロニ1つとペパロニのチーズ抜きを1つ。#2#[sa, ch, pe][sa, pe]##16#1#34
こんにちは！お願いがあるんだけど...ペパロニピザのチーズ抜きって1枚注文できる？#あっ、ペパロニのチーズ抜きを1つってことさ。#1#[sa, pe]##16#1#35
ペパロニのチーズ抜き1枚。#あ、乳製品をうまく消化できない体質なんだ。#1#[sa, pe]##16#1#36
えっと…ペパロニピザ1枚頼んでもいい？チーズとソースは抜きで。#チーズとソースを乗せないペパロニピザ、って事ね。#1#[pe]##16#1#37
ペッパのチーなしで。#ペパロニ、チーズ抜き...#1#[sa, pe]##16#1#38
半分ペパロニ、もう半分はチーズのピザを1つ。#半分ペパロニで、もう半分はチーズだけにしてもらえるかな。#1#[sa, ch|sa, ch, pe]##1#1#39
やあ。半分だけペパロニが乗ってるペパロニピザを1枚ね。#ああ、半分ペパロニ、もう半分はチーズってことさ。数は1枚ね。#1#[sa, ch|sa, ch, pe]##1#1#40
ペーとチーのハーフ&ハーフ！#半分ペパロニ、もう半分はチーズ。#1#[sa, ch|sa, ch, pe]##1#1#41
ああ...あの...ペパロニ1枚で...ええっと半分はペパロニ...あとの半分はチーズ。#ええっと、半分ペパロニ、もう半分はチーズで...#1#[sa, ch|sa, ch, pe]##1#1#42
どうも...チーズ...半分ペパロニ...#うーん...半分チーズ...半分ペパロニ...#1#[sa, ch|sa, ch, pe]##1#1#43
こんにちは。半分チーズ、もう半分はサラミで。#あっ、ペパロニの事。半分チーズ、もう半分はペパロニ。#1#[sa, ch|sa, ch, pe]##1#1#44
チーズピザが1枚食べたいんだよね。半分ソース無しのやつが。#注文のピザはって？半分はソース塗らないで、って注文さ。#1#[sa, ch|ch]##1#1#45
えーっと、半分はチーズで、あとの半分はペパロニのチーズ抜きで。#えーまた言わなきゃいけないの？半分はソースとチーズのみで、あとの半分はソースとペパロニだけ。#1#[sa, ch|sa, pe]##1#1#46
どうも、元気？ペパロニ1つ、半分はソース抜きで。#ペパロニ1枚で半分はソースなし。#1#[ch, pe|sa, ch, pe]##16#1#47
みんな私の注文を間違えるんだよ。半分ペパロニのチーズ抜き、もう半分はチーズのソース抜きを1つ。#あーもう...半分はペパロニピザのチーズ抜き、もう半分はチーズピザのソース抜き。#1#[sa, pe|ch]##16#1#48
やあ...半分ペパロニ、もう半分はチーズのを1つ。あ、ソースなしで...#えっと...ペパロニピザとチーズピザのハーフ&ハーフが好きなんだよ...ただ...ソースが嫌いでさ。#1#[ch, pe|ch]##16#1#49
半分ペパロニであとの半分がソースだけのピザを1つ。#そうそう...半分チーズ抜き、もう半分はペパロニ抜きで。父の好みなんだ。#1#[sa|sa, ch, pe]##10#1#50
ソースだけのピザ1枚！あ、やっぱり半分だけペパロニ乗せて！#チーズ抜き！半分ペパロニピザで！#1#[sa|sa, pe]##10#1#51
チーズ半分抜きのペパロニってできる？#だから、半分はチーズ抜き。#1#[sa, pe|sa, ch, pe]##16#1#52
半分ペパロニ、もう半分はチーズのピザを２つ。#ペパロニ1枚、チーズ1枚、で分けちゃってるピザはいらない。そのハーフ＆ハーフを2枚。#2#[sa, ch|sa, ch, pe][sa, ch|sa, ch, pe]##1#1#53
ソーセージピザ。ソーセージ。チーズもあると最高。#チーズの乗ったソーセージピザを1つ。#1#[sa, ch, sg]##30#1#54
ペパロニピザを１つ、それとソーセージピザも1つ。#ピザ２つ。１つはペパロニ、もう１つはソーセージ。#2#[sa, ch, pe][sa, ch, sg]##16#1#55
ペパロニとソーセージを１つ。#ペパロニとソーセージを１つ。#1#[sa, ch, pe, sg]##30#1#56
なんと、かつてペパロニ＆ソーセージピザを頼んだ人間が居たらしい。誰かって？私だよ。#ペパロニ＆ソーセージを1枚オーダーしたいだけなんだけど。#1#[sa, ch, pe, sg]##30#1#57
やあ！ペパロニピザを1枚食べたいな。ソーセージも乗ってたらなお良いね！#もしできたらペパロニ＆ソーセージを1つ。#1#[sa, ch, pe, sg]##30#1#58
ペパロニとチーズとソーセージのピザを１つと、ペパロニとチーズとソーセージのピザを１つ。#ペパロニとチーズとソーセージのピザを１つと、ペパロニとチーズとソーセージのピザを１つ。#2#[sa, ch, pe, sg][sa, ch, pe, sg]##30#1#59
ピザを２つ。両方ともソーセージピザで。#ソーセージピザを２つ。#2#[sa, ch, sg][sa, ch, sg]##30#1#60
ソーセージ。#ソーセージピザ1つ。#1#[sa, ch, sg]##30#1#61
半分ペパロニ、もう半分はソーセージで。#トッピング２つってそんなにややこしいかな？半分ペパロニ。もう半分はソーセージ。#1#[sa, ch, sg|sa, ch, pe]##30#1#62
ソーセージプロボロー二を１つ。#ソーセージ＆プロボローニ。じゃなくて...ペパロニ。#1#[sa, ch, pe, sg]##30#1#63
ソース抜きのソーセージで。はっはっは！#ソーセージピザのソース抜き！はっはっは！#1#[ch, sg]##30#1#64
なんか肉だけのピザを食べたい日なんだよねえ。っていっても、たっかい肉を使ったやつじゃなくてさ。#ソーセージとペパロニだけのやつね。昔ながらのやつさ。#1#[sa, ch, pe, sg]##30#1#65
半分がペパロニ、もう半分がソーセージのチーズ抜きを1つ作ってほしい。#半分ペパロニ、もう半分はソーセージ。チーズは抜きで。#1#[sa, sg|sa, pe]##30#1#66
注文するよ。ペパロニとソーセージを1つ。#私のオーダー…伝わってるよね！ペパロニとソーセージだよ！#1#[sa, ch, pe, sg]##30#1#67
やあ。ソーー。#はい。#1#[sa, ch, sg]##30#1#68
チーズピザのソーセージ乗せと、ソーセージピザのチーズ乗せを1つずつ。#両方ともチーズとソーセージ！#2#[sa, ch, sg][sa, ch, sg]##30#1#69
ペパロニと～、ソーセージをのっけたやつさ。#ペパロニ＆ソーセージピザ！#1#[sa, ch, pe, sg]##30#1#70
どうも！今日のピザはペパロニとソーセージで。#ペパロニとソーセージ。#1#[sa, ch, pe, sg]##30#1#71
ペパロニも良いけど、ソーセージは最高！#ソーセージピザ！#1#[sa, ch, sg]##30#1#72
やあこんにちは。マッシュルームとペパロニのピザを1つ。#注文ちゃんと聞いてもらえるかな...マッシュルームとペパロニのピザを1つ。#1#[sa, ch, pe, mu]##45#1#73
マッシュルームピザを！#マリオみたいなやつ！#1#[sa, ch, mu]##45#1#74
ペパルームピザを1つ。#マッシュルームとペパロニ。#1#[sa, ch, pe, mu]##45#1#75
マッシュルームピザを２つ。ありがとうござい...マッシュ...フフフ。#マッシュルームピザ２つ。#2#[sa, ch, mu][sa, ch, mu]##45#1#76
トリュフピザくれ。#トリュフ？マッシュルーム？#1#[sa, ch, mu]##45#1#77
ピザにキノコ乗せてもらえますか？#ああごめん、マッシュルーム。#1#[sa, ch, mu]##45#1#78
チーズとマッシュルームって一緒に食べると変な味しない？#マッシュルームピザのチーズ抜きを1つ。#1#[sa, mu]##45#1#79
半分ペパロニに半分マッシュルームって最高だよね。#半分ペパロニでもう半分はマッシュルーム。#1#[sa, ch, mu|sa, ch, pe]##45#1#80
マッシュルームピザ２つもらえる？#キノコ自転車作るつもりなんだ！#2#[sa, ch, mu][sa, ch, mu]##45#1#81
注文していい？ペパロニとマッシュルームのハーフ&ハーフ、チーズ抜きを。#半分ペパロニ、もう半分はマッシュルーム。で、チーズ抜いてもらえるかな。#1#[sa, mu|sa, pe]##45#1#82
どうも、あの...えっと...あの...キノコのやつ...そうそう...マッシュルームピザ。#うん...えっと...マッシュルーム。#1#[sa, ch, mu]##45#1#83
マッシュルーム、ソーセージ、ペパロニ、チーズ。全部ピザに乗せちゃって！#本当に？韻を踏んで全部伝えられたかな。#1#[sa, ch, pe, sg, mu]##45#1#84
ペパロニピザを２つ。でも１つにはマッシュルームも乗せてほしい。#ペパロニマッシュルーム１つ、ペパロニ１つ。#2#[sa, ch, pe][sa, ch, pe, mu]##16#1#85
よー調子はどう？マッシュルームとソーセージをよろしくね。#マッシュルームとソーセージ。#1#[sa, ch, sg, mu]##45#1#86
よお、半分ソーセージ、もう半分がマッシュルームを１つ。#半分ソーセージともう半分はマッシュルーム。#1#[sa, ch, mu|sa, ch, sg]##45#1#87
ムッシャ・ムッシャ・ムッシャピザ～～。#あ、マッシュルームピザを３つ。#3#[sa, ch, mu][sa, ch, mu][sa, ch, mu]##45#1#88
半分がマッシュルーム、もう半分がペパロニ＆ソーセージピザを注文してもいいですか？#半分マッシュルーム、もう半分はペパロニとソーセージ。#1#[sa, ch, mu|sa, ch, pe, sg]##45#1#89
えっと...マッシュルームが好きで、でもソーセージも好きなんだ。両方もらえる？#マッシュルームとソーセージ。#1#[sa, ch, sg, mu]##45#1#90
マッシュルームとソーセージがパーティーするんだってさ！チーズは呼ばれてないけどね。#マッシュルームとソーセージのピザ、チーズ抜きを1つ。#1#[sa, sg, mu]##45#1#91
オリーブのために生きてるんだ。#オリーブピザ。#1#[sa, ch, ol]##80#1#92
やっぱオリーブもないとね！#オリーブ乗せて！#1#[sa, ch, ol]##80#1#93
ペパロニ1枚、半分にオリーブ乗せでよろしく。#全部ペパロニ、でも半分にはオリーブを。#1#[sa, ch, pe|sa, ch, pe, ol]##16#1#94
全部オリーブ。ソース抜きで。#めちゃくちゃにするつもりなの？#1#[ch, ol]##80#1#95
オリーブピザのチーズ抜きを1つ。ほら、てんとう虫みたいでしょ？#赤くて...水玉で...なんでもないや。#1#[sa, ol]##80#1#96
オリーブとペパロニのピザを１ついただけますか？よろしくお願いします。#オリーブとペパロニ。#1#[sa, ch, pe, ol]##80#1#97
みんなはペパロニ注文するけど、私はオリーブ派だな！#オリーブピザ！#1#[sa, ch, ol]##80#1#98
ペパロニ、チーズ、マッシュルーム、オリーブ、ソーセージのピザを1つ、あとチーズだけのやつも1つ。#ややこしい人もいるってことさ。#2#[sa, ch][sa, ch, pe, sg, ol, mu]##1#1#99
古代ギリシャ人は体をきれいにするためにオリーブオイルを体に塗ってたらしいよ。おかしいよね！#そうそう、石けんみたいにね。話は変わるけど、オリーブピザ1つ。#1#[sa, ch, ol]##80#1#100
オリーブが果物だって知らなかったよ。#今でもおいしい！オリーブピザ1ついい？#1#[sa, ch, ol]##80#1#101
オリーブピザを２つ。#オリーブ乗せのピザを２つ。#2#[sa, ch, ol][sa, ch, ol]##80#1#102
オリーブをいっぱい！オリーブとソーセージ！３つね！#オリーブとソーセージのピザを３つ！#3#[sa, ch, sg, ol][sa, ch, sg, ol][sa, ch, sg, ol]##80#1#103
オリーブとペパロニのチーズ抜きを２つ！#ペパロニとオリーブのピザにチーズ乗せないでね。#2#[sa, pe, ol][sa, pe, ol]##80#1#104
半分はソーセージとオリーブ、もう半分はソーセージとペパロニ！#半分はソーセージとオリーブ、もう半分はソーセージとペパロニ！#1#[sa, ch, sg, ol|sa, ch, pe, sg]##80#1#105
やあ...マッシュルームとオリーブ...もしその組み合わせが最高なら注文しようと思うんだけど。#...マッシュルーム...とオリーブ...#1#[sa, ch, mu, ol]##80#1#106
あの...オ...オリーブ？#うん...ええっと...オリーブピザ。#1#[sa, ch, ol]##80#1#107
オッケー、半分ペパロニとオニオンで、もう半分がオリーブのみ。あとチーズ抜きで。#半分はペパロニとオニオン、もう半分はオリーブのみ。チーズは全部抜いちゃって。#1#[sa, ol|sa, pe, on]##80#1#108
半分オリーブ、もう半分はオニオンで。#トッピング同士をくっつけないでね！#1#[sa, ch, ol|sa, ch, on]##80#1#109
ピーマンとマッシュルーム抜き、っていう注文は間違いなんだよね。分かる？#オニオンとオリーブとペパロ二とソーセージ。やっちゃった！ははは！#1#[sa, ch, pe, sg, ol, on]##100#1#110
オリーブとオニオンを1つ。あ、マッシュルームも乗せて。#オリーブとオニオンとマッシュルーム。#1#[sa, ch, mu, ol, on]##100#1#111
「O」コンボ。オリーブとオニオン！#オリーブとオニオン！#1#[sa, ch, ol, on]##100#1#112
やあ、どうも！半分オリーブとオニオン、もう半分がペパロニのピザを1つ。#半分はオリーブとオニオン、もう半分はペパロニのを1つ。#1#[sa, ch, pe|sa, ch, ol, on]##16#1#113
モー！#別に牛のマネじゃないよ。マッシュルームとオリーブとオニオンを。#1#[sa, ch, mu, ol, on]##100#1#114
焼いたオニオンとマッシュルームの匂いが大好きなんだよね。#ピザに乗せて焼いたらもっといい匂いがするだろうなあ…マッシュルーム＆オニオンのピザ、よろしく！#1#[sa, ch, mu, on]##100#1#115
半分ソーセージとオニオン、もう半分がオリーブとマッシュルームのピザって注文できる？#半分ソーセージとオニオンで、もう半分はオリーブとマッシュルーム。#1#[sa, ch, sg, on|sa, ch, mu, ol]##100#1#116
車に熊がいるんだ！オニオンピザを買った方がいいよね、きっと。#熊って玉ねぎ嫌いでしょ？#1#[sa, ch, on]##100#1#117
オニオンピザよろしく。実は後でデートがあるんだ。#デート嫌いなんだよね。#1#[sa, ch, on]#d1#100#1#118
カブのピザを。#あっ、オニオン。オニオンピザ。#1#[sa, ch, on]##100#1#119
オニオンを３つ。１つはペパロニも乗せて。#オニオンピザ３つ。そのうちの１つにはペパロニも。#3#[sa, ch, on][sa, ch, on][sa, ch, pe, on]##100#1#120
オニオンとペパロニって合うよね？#２つとも丸い形だと思うんだけど。#1#[sa, ch, pe, on]##100#1#121
チーズピザを1つ。オニオンとペパロニも乗せてほしいなあ。#ペパロニとオニオンの乗ったピザ。#1#[sa, ch, pe, on]##100#1#122
えーっと、何だっけ？あっ、そうだ半分ペパロニ、半分オニオンだった。#半分ペパロニともう半分はオニオン。#1#[sa, ch, pe|sa, ch, on]##16#1#123
ペパロニピザを２つ。１つはオニオンも。#１つだけにタマネギ！両方に乗せちゃったらダメネギ...#2#[sa, ch, pe][sa, ch, pe, on]##16#1#124
できればさ、オニオンだけ、ピザの上にね。他はいらないから。#うーん...オニオンだけで。#1#[on]##100#1#125
古代エジプト人が玉ねぎを崇拝してたって知ってる？あの丸い形と輪っかが永遠の若さの象徴だったんだって。#私は面白いと思うんだよね。オニオンピザを１つ！#1#[sa, ch, on]##100#1#126
ピザを２つ。１つはマッシュルーム、もう１つはオニオンで。#マッシュルームとオニオンの戦争だね！#2#[sa, ch, on][sa, ch, mu]##100#1#127
オニオンとマッシュルームのピザが欲しいんだよねー。#オニオンとマッシュルーム。#1#[sa, ch, mu, on]##100#1#128
オニオンとマッシュルーム。それだけ！#オニオンとマッシュルーム！それ以上でもそれ以下でもないよ！#1#[mu, on]##100#1#129
ピザを２つ。両方ともペパロニとオニオンで。#ペパロニとオニオンのピザを2つください。#2#[sa, ch, pe, on][sa, ch, pe, on]##100#1#130
半分マッシュルーム、もう半分はオニオンが乗ったピザを1つ。#半分マッシュルーム、もう半分はオニオン。#1#[sa, ch, on|sa, ch, mu]##100#1#131
ちょっと複雑なオーダーなんだけど、ソーセージとオニオンが両方乗ったピザを。#どう？びっくりした？オニオンとソーセージだよ。#1#[sa, ch, sg, on]##100#1#132
美味しい美味しいオニオンを。あとペパロニとソーセージもよろしく。#オニオンとペパロニとソーセージ。#1#[sa, ch, pe, sg, on]##100#1#133
ピンポーン！#ピーマン！分かった？#1#[sa, ch, bp]##150#1#134
ピーマンヲワタシニクダサイ。#ピーマンで。#1#[sa, ch, bp]##150#1#135
ピーマンのソース抜きを注文してもいいですか？#ピーマンのソース抜き。#1#[ch, bp]##150#1#136
ペパロニ...あとソーセージ...と...マッシュルームと...オニオンと...オリーブ...とピーマンを。#ペパ...ソー...マッシ...オニ...オリ...ピー...#1#[sa, ch, pe, sg, mu, ol, on, bp]##20#1#137
ベジタリアンピザ。枚数は2枚で。#マッシュルーム、野菜、フルーツを乗せたのを2枚ってことさ。#2#[ch, vegan][ch, vegan]##150#1#138
ベジタリアンピザで。#野菜...フルーツ...マッシュルーム...#1#[ch, vegan]##150#1#139
半分肉ピザ、もう半分を野菜ピザで。#えーっと、片側が肉全部乗せ。で、もう半分を野菜、フルーツ、マッシュルームって感じさ。#1#[sa, ch, meats|ch, vegan]##30#1#140
ビーガンピザを。よろしく。#フルーツ、野菜、マッシュルーム、全部乗せで！チーズは抜きね。#1#[vegan]##100#1#141
バジル以外を全部乗せたやつを1枚よろしく。#うん、ソースからピーマンまでトッピング全種類乗せでよろしくね。でもバジルは抜きで。#1#[sa, ch, pe, sg, mu, ol, on, bp]##150#1#142
オニオンのっけたのを1枚と、ペパロニ・ソーセージのを1枚もらえる？#オニオンピザ1枚、ペパロニ・ソーセージピザを1枚ってことね。#2#[sa, ch, on][sa, ch, pe, sg]##150#1#143
ビーガンピザにしようかな。あ、バジルは抜いてね。#全種類の野菜、フルーツ、マッシュルームを乗せてってことさ。あっ、チーズとバジルは抜きで。#1#[vegan, -bl]##100#1#144
オラにビーガンパワーを分けてくれっ！ってことでビーガンピザもらえる？#ううう...マッシュルーム、フルーツ、野菜。チーズ抜き。#1#[vegan]##100#1#145
全部乗せを２つ。でも１つの半分はペパロニ抜きで！#ペパロニ、ソーセージ、オニオン、ピーマン、オリーブ、マッシュルームをトッピングしたのを2つ。あ、1枚の半分にはペパロニ乗せないで。#2#[sa, ch, pe, sg, mu, ol, on, bp][sa, ch, pe, sg, mu, ol, on, bp|sa, ch, sg, mu, ol, on, bp]##20#1#146
全部乗せピザを注文してもいいですか？#シュプリームで。ペパロニ、ソーセージ、オニオン、ピーマン、オリーブ、マッシュルームね。#1#[sa, ch, pe, sg, mu, ol, on, bp]##20#1#147
デラックスでよろしく。#デラックス？シュプリーム？呼び方はなんでもいいや。ペパロニ、ソーセージ、オニオン、ピーマン、オリーブ、マッシュルームのやつをくれればいいのさ！#1#[sa, ch, pe, sg, mu, ol, on, bp]##20#1#148
ウォンボコンボを１つ！#ペパロニ、イェー！ソーセージ、イェー！オリーブ、イェー！マッシュルーム、イェー！ピーマン、イェー！#1#[sa, ch, pe, sg, mu, ol, on, bp]##20#1#149
いわゆる、スーパーデューパーシュプリームエクストリームを！#ペパロニ、ソーセージ、チーズ、オニオン、ピーマン、ソース、オリーブ、マッシュルーム。#1#[sa, ch, pe, sg, mu, ol, on, bp]##20#1#150
スパイシーなフラットブレッドで。#えっと、ペパロニとピーマンのピッツァだよ。チーズとソースは抜きね。#1#[pe, bp]##150#1#151
ピーマンとソーセージ。やっぱソーセージは抜きで！#私は人形...ピーマンのみで。#1#[sa, ch, bp]##150#1#152
半分はペパとピー、もう半分はくっさいマッシュルームで！#片側がペパロニとピーマン。で、もう片側がマッシュルーム。くっサイドね。#1#[sa, ch, pe, bp|sa, ch, mu]##150#1#153
オニオンピザ1つ。ピーピザ1つ。マッシュルームピザ1つ。3つともソーセージ乗っけて。#オニオンピザ1つ。ピーマンピザ1つ。マッシュルームピザ1つ。3つとも全部ソーセージを乗っけて。#3#[sa, ch, sg, mu][sa, ch, sg, on][sa, ch, sg, bp]##45#1#154
この新食材にトライできると聞いてすっごくワクワクしてナス！#すいません、このお店ではナスをピザに乗せてますか？#1#[sa, ch, ep]##250#1#155
「ナスばらしい」って思えるようなピザをつくって！#ごめん、しょうもないダジャレだったね。えーと、チーズピザにナスを乗っけたのをよろしく。#1#[sa, ch, ep]##250#1#156
ピザを2枚、トッピングはえっと…紫色したでっかいトマトみたいなやつ？で。#おっ、なんかその食材変わった名前らしいね…「ナス」っていうのかあ！じゃあチーズピザにそのナスをトッピングしたのを2枚で！#2#[sa, ch, ep][sa, ch, ep]##250#1#157
ナスにチーズとマリナラソースを乗せると美味しい、って聞いたことがあるんだ。でもその逆だとダメなんだってさ。#でも試してみる価値はあると思う。ナスをトッピングしたチーズピザ1枚よろしくね！#1#[sa, ch, ep]##250#1#158
この匂いわかる？この匂いだよ。いわゆる臭みってやつさ。最高の匂いがぷんぷん匂ってる。#アンチョビ！！！#1#[sa, ch, an]##200#2#159
ダーリンわたーしにピザを焼いーぃてぇ～♪#家にかわいい人魚がいてさ、アンチョビピザを食べたいって言ってるんだ。#1#[sa, ch, an]##200#2#160
チーズとソースのハーフ＆ハーフが食べたい。2枚ね。#チーズとソースのハーフ＆ハーフを2つってことさ。#2#[ch|sa][ch|sa]##1#2#161
ピーマン、オニオン、ペパロニ、オリーブのピザを1枚。で、ペパロニとオニオンをそれぞれ半面ずつのっけて。#ピーマンとオリーブを全面に乗せて、半面にペパロニ、もう半面にオニオンを乗せたピザってことさ。#1#[sa, ch, pe, ol, bp|sa, ch, ol, on, bp]##255#2#162
ベーコンとソーセージ、ペパロニとハムのハーフ＆ハーフを1つ。注意してほしいのは、片側はハムとベーコン、もう片側はペパロニとソーセージって点。#半分はベーコンとソーセージ、もう半分がペパロニとハムのハーフ＆ハーフを1枚ってことだよ。#1#[sa, ch, pe, sg|sa, ch, hm, bn]##30#2#163
ピザが1つほしいんだけどさ、動物性タンパク質、野菜、無機物はいっさい乗せないで欲しいんだ。#キノコだけってこと！#1#[sa, ch, mu]##45#2#164
ハワイアンなパーティーで、伝統的なハワイアンピザを食べてもつまんないでしょ？ってことで究極のフルーティー・ピッグピザ3つよろしく。#フルーツや豚肉はあるよね？それを乗せりゃ完成さ。#3#[sa, ch, pe, sg, ol, bp, pi, hm, bn][sa, ch, pe, sg, ol, bp, pi, hm, bn][sa, ch, pe, sg, ol, bp, pi, hm, bn]##155#2#165
ミート・ラバーズピザがお気に入りなんだあ。でもオリーブも好きなんだよね。それ組み合わせたのくれない？#えっと、まずは基本となる肉が食べたいんだ。ペパロニ、ソーセージ、ハム、ベーコン、がね。で、そこにオリーブを足して！#1#[sa, ch, pe, sg, ol, hm, bn]##350#2#166
ソルティー・セーラー1つ。#オリーブとアンチョビのピザさ。#1#[sa, ch, ol, an]##250#2#167
グリーン・ドリーム1つおーくーれー。#ピーマンとバジルのやつさ。#1#[sa, ch, bp, bl]##200#2#168
ソルティー・セーラーとフルーティー・ピッグのハーフ＆ハーフで。あ、グリーン・ドリームに使われてる具材は乗せないで。#片側がオリーブとアンチョビ、もう片側がオリーブ、ピーマン、パイナップル、ソーセージ、ハム、ベーコンさ。あ。ピーマンは抜いといて。#1#[sa, ch, ol, an|sa, ch, pe, sg, ol, pi, hm, bn]##300#2#169
姉がベジタリアンで...あ、正確に言うと野菜や果物は好きじゃなくて。姉が好きなのはキノコ。けど...ピザの上にのってるのはダメ。#つまり、姉が食べたがってるのは肉、果物、野菜、マッシュルーム無しのピザってことね。#1#[sa, ch]##1#2#170
チーズとペパロニのハーフ＆ハーフを用意して、全体にチーズをかけて、2倍にしたやつ。#チーズピザ2つってことさ。自分でもさっき何言ってたかよくわかんないや。#2#[sa, ch][sa, ch]##1#2#171
ハーフ＆ハーフを1枚。片側がフルーツ＆キノコピザで、もう片側が肉ピザのやつね。#チーズピザの片側にキノコとフルーツを乗せて、もう片側には肉を乗せたやつだよ。#1#[sa, ch, mu, fruits|sa, ch, meats]##155#2#172
魚菜食主義者向けのピザを2つ。野菜は抜きで。#果物、マッシュルーム、魚介類を乗せたピザを2枚、ってことね。#2#[sa, ch, fruits, mu, seafood][sa, ch, fruits, mu, seafood]##350#2#173
豚肉ピザが食べたいんだ。ソースやチーズ、魚介類は乗っけないでね。#豚肉を乗っけたピザがほしいってことさ。#1#[pe, sg, hm, bn]##350#2#174
乳製品がどうにも嫌いでさ～けどその他の物は全部好きさ。#チーズ以外の具材を全部乗っけたやつが食べたいんだ。#1#[sa, pe, sg, mu, ol, on, bp, pi, hm, bn, an, bl]##350#2#175
片側にベーコンとハムを乗っけたピザ1つ。#もう一方の側に乗せるものについては、まあ、チーズのみがいいかな。#1#[sa, ch, hm, bn|sa, ch]##350#2#176
マッシュルーム、アンチョビ、パイナップル。この組み合わせって変わってるよね。#食べてみたいのさ、そういうのを。#1#[sa, ch, mu, pi, an]##350#2#177
トリプル「P」のピザをちょうだい。#ペパロニ、ピーマン、パイナップルの乗ったピザを食べたいってことさ。#1#[sa, ch, pe, bp, pi]##200#2#178
オニオンとオリーブのみで。あ、チーズとソースももちろん使ってね。#オニオンとオリーブがトッピングされたピザが食べたいんだ。#1#[sa, ch, ol, on]##350#2#179
ベーコンピザで給油したいんだけど。#ピザにベーコン乗っけて。#1#[sa, ch, bn]##200#2#180
半分がペパロニで夕食用、もう半分がソーセージとベーコンで朝食用。こんなピザって注文できる？#半分がペパロニで、もう半分がソーセージとベーコンのピザ1つ。夕食用と朝食用のハーフ＆ハーフってかんじ。#1#[sa, ch, pe|sa, ch, sg, bn]##200#2#181
猫と一緒にピザを食べようかな。#オリーブとアンチョビのハーフ＆ハーフを1つ。#1#[sa, ch, ol|sa, ch, an]##200#2#182
甘じょっぱいパイナップルとオリーブのピザを1つよろしく。#パイナップルとオリーブのピザってことさ。#1#[sa, ch, ol, pi]##200#2#183
誰にも言わないで。パイナップルピザが欲しい。#しーーーーー。#1#[sa, ch, pi]##200#2#184
ピザを2枚食べたい。#ペパロニとソーセージのを1枚、パイナップルとハムのを1枚。#2#[sa, ch, pe, sg][sa, ch, hm, pi]##30#2#185
全部入りのオムレツが食べたいんだけど、ここってピザ屋だったよね。んー、じゃあ朝食ピザ1枚よろしく。#オニオン、マッシュルーム、ソーセージ、ベーコン、ハム。わかるでしょ？オムレツの具さ。#1#[sa, ch, sg, mu, on, hm, bn]##350#2#186
半分がチーズでもう半分が...#もう半分がペパロニ、バジル、マッシュルーム、ソーセージ、ピーマンを乗せたピザを1つ。#1#[sa, ch|sa, ch, pe, sg, mu, bp, bl]##100#2#187
魚っぽいピザをくれ！#ほんとはスパイシーなツナがいいんだけど、まあアンチョビでもいけるでしょ。#1#[sa, ch, an]##250#2#188
ハムとソーセージを望んでやまないよ。#ハムとソーセージのピザね。#1#[sa, ch, sg, hm]##200#2#189
パイナップル・ピザ鉄道の特急切符一枚！#ピザにパイナップルを乗せるんだ。時間が無いよ急いで！#1#[sa, ch, pi]##150#2#190
ヤギと友達になりたいんだ。ってことでバジル、オリーブ、オニオンでよろしく。#ヤギはバジル、オリーブ、オニオンが好きでしょ？#1#[sa, ch, ol, on, bl]##200#2#191
ガーデンで食べられるピザが欲しいんだ。#ピーマン、オニオン、オリーブにバジルでよろしく。#1#[sa, ch, ol, on, bp, bl]##200#2#192
ピザ3つ。1つ目は果物、2つ目は野菜とソース、3つ目は肉とチーズで。#1つ目はフルーツで「パイナップル、ピーマン、オリーブ」ね。で、2つ目がチーズ抜きの野菜ピザ。3つ目は肉全種類とチーズのみ、ね。#3#[sa, ch, fruits][sa, veggies][ch, meats]##300#2#193
フル装備のピザを1つもらえるかな。#モントリオールのスラングをワークスピザに。#1#[sa, ch, mu, meats, veggies, fruits]##350#2#194
プレーンなピザをくれ。#プレーンピザ。チーズ＆ソースってことだよ。#1#[sa, ch]##1#2#195
チーズピザ1つと、パンの耳1つ。#チーズピザを1枚と、何も乗っけてないピザを1枚ってことさ。#2#[sa, ch][none]##1#2#196
半分がチーズのパンで、もう半分がただのパン。これが注文さ。#ノーソース。ハーフチーズ。他は無し。#1#[ch|none]##10#2#197
心臓病、2型糖尿病、肥満、ガンを予防するピザを1つ...バジルも忘れずに。#小麦のピザさ、好きなのは...あとバジルも。#1#[sa, ch, bl, wt]##350#2#198
熱い肉が乗った厚い小麦ピザを食べたいねえ。#小麦の生地に肉乗せたピザよろしく。#1#[ch, sa, pe, sg, hm, bn, an, wt]##350#2#199
肉＆チーズよろしく。ソースは抜き。シーフードも無しで。#ついでにマッシュルームも無しね。#1#[ch, pe, sg, hm, bn]##350#2#200
ピーマンとオニオン、ファム。#ピーマンとオニオンのピザってことさ。#1#[sa, ch, on, bp]##350#2#201
ムキムキの人が住んでる部屋の差し入れ用に、マッシュルームピザ3枚よろしく。#えっ、わかんない？マッチョルーム。マッシュルーム。しゃれだよ。#3#[sa, ch, mu][sa, ch, mu][sa, ch, mu]##45#2#202
今アザラシに芸を仕込んでるんだ。それでアンチョビピザが必要でさ。#え、知らないの？アザラシの脂肪ってピザで出来てるんだよ。#1#[an]##250#2#203
ソーセージとマッシュルームのピザにちょっとバジルを添えて...くぅーたまんないよね～。#だから、それ作ってね。#1#[sa, ch, sg, mu, bl]##200#2#204
海の中で魚に囲まれながらパイナップルピザ食べたーい。#パイナップルとアンチョビってことさ。#1#[sa, ch, pi, an]##350#2#205
オニオンとアンチョビのピザ1つ。デートを失敗させたくてさ。#ニンニクもあれば、スティンキー・ピート・ピザを注文するんだけどね。#1#[sa, ch, on, an]#d2#100#2#206
オニオンとアンチョビのピザでこのデートを二度と忘れられない思い出にしてやりたいんだ。#デートの時に食べるなら、やっぱスティンキー・ピートだよね。#1#[sa, ch, on, an]#d3#100#2#207
パイナップルピザでデートをどっちの方向に進めるか考えたいんだ。#まだ答えは出てないよ。#1#[sa, ch, pi]#d4#200#2#208
注文は～えっと...いや、決めてないわけじゃないよ。よし、カナディアンベーコンのピザもらえる？#ああ、ハムでいいよ。#1#[sa, ch, hm]##200#2#209
肉ピザ4つ。アンチョビは勘弁。とても食べられないよ。#「何ですか」ってどういうことさ？#1#[sa, ch, pe, sg, hm, bn]##350#2#210
小麦生地の上でベーコンとバジルを焼きあげて。#小麦の生地にベーコンとバジルをトッピングして、オーブンで焼くだけ。OK？#1#[sa, ch, bn, bl, wt]##350#2#211
半分ハムとチーズ。生地は小麦で。#片っぽはチーズだけってことさ。#1#[sa, ch, hm, wt|sa, ch, wt]##300#2#212
魚を畑一面に広げたやつ1つ。#アンチョビを小麦生地に乗せたやつで。他は何もいらない。#1#[an, wt]##350#2#213
チーズィーな小麦ピザ。#小麦生地にチーズだけをトッピングしたやつね。ソースは抜きで。#1#[ch, wt]##200#2#214
イエッサー！私は小麦とソースのためにこちらへ送られて来たのであります！#サー、イエッサー！小麦とソースであります！#1#[sa, wt]##500#2#215
ソースレスソーセージピザをもらえるかな。#ソース抜きのソーセージピザね。#1#[ch, sg]##30#2#216
生地は小麦で、ハーブとオニオン。#ハーブって何って？バジルのことだよ。#1#[sa, ch, on, bl, wt]##300#2#217
フィッシー・フィッシー・フィッシー。#アンチョビピザ3つで。#3#[sa, ch, an][sa, ch, an][sa, ch, an]##150#2#218
口臭王決定戦に出ようと思ってるんだ。#オニオンとアンチョビのピザね。#1#[sa, ch, on, an]##120#2#219
穀物だけで出来た生地にオニオンとバジルをのっけたのをよろしく。#生地は小麦で、オニオンとバジル乗っけて。チーズとソースは無しね。#1#[on, bl, wt]##300#2#220
もしよろしければ、小麦の生地にチーズで。#小麦の生地にチーズをトッピングです。よろしくお願いします。#1#[ch, wt]##200#2#221
小麦生地のワークスピザで。肉はダメ。#全部乗せから肉を抜いたのだよ。生地は小麦でね。#1#[sa, ch, mu, fruits, veggies, wt]##300#2#222
なんかこう、トロピカルなやつが欲しいんだよね。#オレンジ？キウイ？レモン？あー、それかパイナップルとか？#1#[sa, ch, pi]##200#2#223
求めてるトッピングはさ、海底のカイメンにぴったりの住み家を作れちゃうようなやつさ。#海の底のパイナップルに住んでるのは誰だと思う？#1#[sa, ch, pi]##150#2#224
パイナップルとピーマンを乗せたピザが一枚欲しいです。よろしく。#パイナップルとピーマンだよ。よろしくね！#1#[sa, ch, pi, bp]##200#2#225
その角切り肉、ちょーだい。#そのハムが欲しいんだよ。ファムファム。#1#[sa, ch, hm]##200#2#226
ハムとペッパー、よろしくぅ！#ハムとペパロニ乗っけたピザさ。よろしく！#1#[sa, ch, hm, pe]##200#2#227
サンドイッチのハムサミーを一枚。#あっ、ピザ屋なのここ？じゃあ、ハムピザを一枚で。#1#[sa, ch, hm]##200#2#228
ハムレットをテーマにレポートを書かなきゃいけなくてさ。で、ここでリサーチさせてもらおっかな、って。#え、あれってハムについての劇じゃないの？#1#[sa, ch, hm]##200#2#229
ブーブー！ブーブー！ハム一枚！#ハム一枚、ちょぶたい！#1#[sa, ch, hm]##150#2#230
私はベジタリアンで、友達は鬼なんだ。えっと、友達は肉しか食べないって意味ね。片側にオリーブとオニオン、もう片側にはハムだけを乗せたピザ1枚よろしく。#片側にオリーブとオニオン、もう片側にハムだけを乗せたピザを1枚欲しいんだ。ハムだけの側は、チーズとソースも抜きね！#1#[sa, ch, ol, on|hm]##150#2#231
ベーコンが食べたくてウズウズするう！#「ベーコン」ピザだよ！#1#[sa, ch, bn]##200#2#232
飼ってるワンコにフリスビーを教えこもうと思ってるんだ。ベーコンピザを使えばうまくいかないかな？#犬に「取ってこい！」を教えられそうなベーコンピザを1枚よろしくね。#1#[sa, ch, bn]##200#2#233
ベーコンを求めてここにたどり着いたんです。生地にベーコンだけ乗っけて、他は一切無し。こんなピザを1枚お願いします。#きっと最後は生地の部分だけポイっ、ってしちゃうだろうなあ。#1#[bn]##200#2#234
ベーコンってのは好みが分かれる食べ物らしいね。だから、自分の口で試してみたいな。#あー、めちゃお腹すいたあ。#1#[sa, ch, bn]##200#2#235
はぁはぁ、14丁目先からここに走ってきたよ。だって、ベーコンの匂いがしたから！#ベーコンピザ1枚、よろしく。#1#[sa, ch, bn]##200#2#236
ピザ1枚よろしく。ソースを塗って、チーズを乗せて、こんがり焼いて、匂いを嗅いで、牧場に持っていって、ベーコンと一緒に楽しもう。#オニオン乗っけたベーコンピザ1枚。#1#[sa, ch, bn, on]##200#2#237
バジルの良さをみんなわかってないんだよ。ってことでバジルピザ1枚よろしく。#えっ、あんたもその1人だって？うーん…まあとにかく、バジルピザ1枚よろしく。#1#[sa, ch, bl]##200#2#238
ごきげんよう、私は視覚芸術の世界に生きるアーティストだ。紅き潮の流れが緑の生い茂る海岸に打ち寄せる...この光景をピザで見せてくれないか。#ああ、私の素晴らしい発想を俗物向けの表現にしなければならないとは...もう一度言うぞ！片側がソースのみ、もう片側がチーズとバジルのみ、だ。#1#[sa|ch, bl]##200#2#239
食物繊維で殴ってみな、チャンピオン。#小麦の生地だけで頼む、ってことさ。#1#[wt]##200#2#240
マグロのキャセロールが食べたいなあ。えっ、無いの？えーっと、じゃあ小麦生地のチーズピザは1枚ある？#小麦の生地にソースとチーズ。これを1枚よろしく。#1#[sa, ch, wt]##200#2#241
窮屈な社会にはウンザリなんだよ、メーン！なんかワイルドなものが食べてえなあ！ってことで...小麦の生地で...ソース抜き、チーズ抜き、片側がオニオンだけ、もう片側がソーセージだけのピザを1枚！ウェーーーイイィィィ！#オレのチルタイムをサゲんの止めてくんね？小麦生地で片側がオニオンだけ、もう片側がソーセージだけ。他はなーんにもなし！ウェイ？#1#[on, wt|sg, wt]##200#2#242
今、小麦ダイエット中なんだあ。#小麦ピザを1枚、おねがい！#1#[sa, ch, wt]##200#2#243
マッションピザを茶色い生地で1枚。チーズはマッシュ側、ソースはオニオン側でよろしく。#片側がマッシュルーム＆チーズ、もう片側がオニオン＆ソースのピザを小麦の生地で作って、ってことさ。#1#[wt, ch, mu|wt, sa, on]##200#2#244
地球上で発見されてる魚の98%は卵生だって知ってた？#ごめん、これまだ証明されてないんだった。ところで、アンチョビ＆ナスのピザ1つ。#1#[sa, ch, an, ep]##200#2#245
はっはっはっは！！！ジョーカーピザを1枚よろしく！#へへへ、どうしたのさそんなに考えこんじゃって。簡単だよ、緑のピーマン、紫のナス、赤いペパロニ、のピザさ！#1#[sa, ch, pe, bp, ep]##200#2#246
カルボナーラピザを2枚注文してもいい？あ、卵のかわりにナスを使ってね。#チーズピザにベーコンとオニオンをトッピング。いつもなら卵をその上に乗せるけど、かわりにナスを乗せてね。#2#[sa, ch, on, bn, ep][sa, ch, on, bn, ep]##200#2#247
今は朝食の時間、って気分！でもピザを食べるか、ベーコンエッグを食べるか決められないんだよね…#ベーコンエッグ…それか野菜を1つベーコンと一緒にってのは？どこかでそれと出会えないかな？#1#[sa, ch, bn, ep]##200#2#248
ベーコン、ソーセージ、卵を朝に食べるのが大好きなんだよ！けど卵のかわりになる体にいい食べ物があるなら、それでもいいね。#肉は絶対キープさ。で、そこにナスも乗せてみるってのはどうだろう？#1#[sa, ch, sg, bn, ep]##200#2#249
ラタトゥイユって知ってる？それをピザに乗っけて食べたいんだよね！#ああ、つまりベジタリアン料理ってことさ。ナス、ピーマン、オニオン、バジルをチーズピザに乗っけたやつね。#1#[sa, ch, on, bp, bl, ep]##200#2#250
ハワイアンピザを2枚いいかな？でもパイナップルは2枚それぞれの半面だけに乗っけて欲しいな。#友達がさ、ピザにパイナップルは品がない、って言ってるんだ。だからパイナップルは半面だけね。ハムはもちろん両方に乗っけてね。#2#[sa, ch, pi, hm|sa, ch, hm][sa, ch, pi, hm|sa, ch, hm]##200#2#251
全面に果物が乗っかったピザを1枚食べたいな。海の幸も含めて、ね！#まずチーズピザにオリーブ、ピーマン、パイナップルを乗っけてね。それから海の幸エビもね！枚数は1枚でよろしく！#1#[sa, ch, ol, bp, pi, sh]##2500#3#252
パイナップル＆エビって食べたことある？すごく美味しいんだよ！ピザに乗せて食べたらもっと美味しいだろうなあ。#エビとパイナップルを乗っけたピザを1枚、よろしく！#1#[sa, ch, pi, sh]##2500#3#253
ハワイアンピザを好きな人って多いよね。けど本物のハワイアンピザにはエビがかわりに使われてるんだ。#そう、「本物のハワイアンピザ」って言ったのさ！エビとパイナップルを使ったやつね！#1#[sa, ch, pi, sh]##2500#3#254
ハワイアンピザは素晴らしいピザだよ。けどなんでエビを乗せないのか理解できないんだよ！#まあ、ハワイじゃエビは人気あるんだけどね。すごく美味しいし。そこにパイナップルとハムを一緒に組み合わせても美味しいだろうけどさ。#1#[sa, ch, pi, hm, sh]##2500#3#255
調理の方法は星の数ほどあるよ。バーベキュー、茹でる、あぶる、焼く、炒める、浅く揚げる、深く揚げる、強火でさっと炒める…ってね#どんな調理の仕方でも美味しいよ！実際そのやり方全部でエビを食べたことあるしね！#1#[sa, ch, sh]##2500#3#256
やあ、エビのケバブって置いてあるかい？無いなら、その材料を乗っけたピザを1枚よろしく。#えーと、まずエビ。それから歯ごたえを出すためにオニオン。で、大地の香りを出すためのマッシュルーム、ってとこさ。#1#[sa, ch, on, mu, sh]##2500#3#257
ガンベリ、ピーマン、バジルを乗せたピザを1枚ください。#ああ、ガンベリってのはイタリア語でエビのことさ！#1#[sa, ch, bp, bl, sh]##2500#3#258
ビーエーピザを2枚、よろしく！#ビーエーの乗ったピザを2枚だよ。ああ、普通の人はエビって呼ぶのかな。とにかく、エビのピザ2枚で。#2#[sa, ch, sh][sa, ch, sh]##2500#3#259
エビのカクテルをパンと一緒にパーティーで出さなきゃいけないんだ。でも、もしその二つを組み合わせられるとしたら？#ソースとエビのピザを1枚だけたのむ。きっと上手くいくはず！#1#[sa, sh]##2500#3#260
エビを乗っけたピザをこの店で出してるって噂を聞いたんだ。まあ、見てみないことには信じられないけど。#うん？結局エビピザはあるの？ないの？待たせないで欲しいなあ！#1#[sa, ch, sh]##2500#3#261
こーんなピザを注文するのはアレかな、って気がするけど、コーンピザを1枚頼んでもいいかな？#あっトウモロコシ丸ごと一本は勘弁ね…コーンを何粒か乗っけたピザを1枚作ってくれればそれでいいから。#1#[sa, ch, co]##5000#3#262
コーンとベーコンを乗っけたピザを2枚。生地はベーコンみたいにカリッカリに焼き上げて欲しいな！#コーンの甘さがベーコンのおいしそうな香りとマッチするんだよ。それに2度焼きした歯ごたえの良い生地が合わされば大満足さ！#2#[sa, ch, bn, co, wd][sa, ch, bn, co, wd]##5000#3#263
ピザのトッピングにコーンがあるの？！それってすっごく変だよ！けどまあその…#悪い方に考えすぎだったかも。OK、じゃあコーンをちょっと試してみるとしようか。#1#[sa, ch, co]##5000#3#264
去年日本に行った時にさ、コーンのトッピングされたピザを食べたんだ。この店にもあるって聞いて、嬉しいよ！#コーンピザを出してるピザ屋さんってあんまりないんだよねえ。これってチャンスだよね！#1#[sa, ch, co]##5000#3#265
アンチのことなんか忘れな。パイナップルとコーンがピザの上で揃い踏み！けど肩を抱き寄せて一緒にはならない…#パイナップルとコーン両方必要だ。1枚のピザでそいつらが別々の場所にいられる方法はあんのか？#1#[sa, ch, pi|sa, ch, co]##5000#3#266
俺は穀物に反抗しにここへ来たのかも知れねえ。けどよ、小麦生地のコーンピザが1枚欲しいのさ！#ああ、分かってんだろ？小麦とコーンは穀物…注文よろしく頼むぜ。#1#[wt, sa, ch, co]##5000#3#267
ピザ3枚だ。そいでそいつを穀物まみれにして欲しいのさ！#コーンを乗っけた小麦生地のチーズピザを3枚ってことだよ。#3#[wt, sa, ch, co][wt, sa, ch, co][wt, sa, ch, co]##5000#3#268
ユニコーンピザを1枚、たのむ！#チーズピザにコーンをトッピングしたのを1枚ってことさ！#1#[sa, ch, co]##5000#3#269
コーン入りスープ、コーン入りパン、トウモロコシ丸ごと、は食べたことがある。でも、コーンピザはというと…#チーズピザにコーンを乗っけてくれ。で、その味を審査してみるさ。#1#[sa, ch, co]##5000#3#270
穀物たっぷりのトウモロコシパンを何枚か頼めるかい？最近それが食べたくてたまらないんだよ。#可能ならば、小麦生地にコーンをトッピングしたのを1枚。えっと、おかしな注文だろうか？#1#[wt, co]##5000#3#271
コーンを乗っけたピザを注文するのっておかしなことかな？そのことがかなり気になっててさ。#えっ、わかってるでしょ？おかしくはないよね。とにかく、ピザの上に乗ったコーンを食べられることにワクワクしてるんだ！#1#[sa, ch, co]##5000#3#272
チキンパルミジャーナは素晴らしい料理さ。けどモッツァレラだって組み合わせには完璧なものさ。#チキンとチーズとソースをピザの上で組み合わせてくれ。#1#[sa, ch, ck]##5000#3#273
ようやく、チキンシーザーサラダピザが食べられる！#ソースは無しで。チーズ、チキン、アンチョビを乗せて。で、レタスのかわりにバジルを乗せて完成さ！枚数は1枚で！#1#[ch, bl, an, ck]##5000#3#274
勝った！勝った！夕飯はピザ勝だ！！#えーと、PizzaUBGってゲームで何回か勝てたのさ。で、自分のご褒美にチキンピザを1枚食べようかな、って！#1#[sa, ch, ck]##5000#3#275
ニワトリ中毒なんだよ！ニワトリピザを3枚、よろしく！#ごめん、お腹が空きすぎてて、チキンピザを3枚、よろしくね。#3#[sa, ch, ck][sa, ch, ck][sa, ch, ck]##5000#3#276
チキンピザを1枚注文したとして、もちろん骨はそこに一切入ってない・・よね？#ないんだね？ああ、なら良かった。じゃあチキンをトッピングしたチーズピザを1枚、よろしく。#1#[sa, ch, ck]##5000#3#277
ニワトリが先か卵…いやナスが先か？#よく分かんないんだよねえそこんとこ。ってことでチキンとナス、両方乗せたピザを1枚！#1#[sa, ch, ep, ck]##5000#3#278
ナス、ピーマン、オニオン、マッシュルーム、チキンをトッピングしたチーズピザを1枚もらえますか？#ナス、ピーマン、オニオン、マッシュルーム、それからチキン。おかしな組み合わせかもしれないけど、私を信じて。絶対美味しいから！#1#[sa, ch, on, bp, mu, ep, ck]##5000#3#279
いつもチーズィーなピザを食べた後は鳥のむね肉で栄養を補ってるんだ。けど、どうして今までその2つを組み合わせてみなかったんだろう？#絶対良い組み合わせだよね。そういうことで、チキンとチーズをトッピングしたピザをよろしく。#1#[ch, ck]##5000#3#280
良いハーモニーのするものってわかるかい？チキン、マッシュルーム、オニオンを乗せたピザがそうさ。で、それを2枚よろしく！#チキン、マッシュルーム、オニオンを乗せたピザ2枚、頼むよ！#2#[sa, ch, mu, on, ck][sa, ch, mu, on, ck]##5000#3#281
母さんはフライドチキンとベーコンチェダー・コーンキャセロールをよく作ってくれた。ああ、あの味が恋しい…#だからさ、チーズピザにチキン、ベーコン、コーンを乗せたのを一枚どうにかして作ってくれないかな？#1#[sa, ch, bn, co, ck]##5000#3#282
チキンを乗せたピザが欲しいな。ああ、そのニワトリのエサになってるやつも乗せてね！#ニワトリのエサにはほとんど場合コーンが含まれてるのさ。役に立たないけど、面白いトリビアでしょ？#1#[sa, ch, co, ck]##5000#3#283
穀物無ければ痛みも無し！#穀物を食べると腹痛になるんだよ！だから、小麦生地とコーン以外のトッピングを全部乗せたピザを頼む。#1#[sa, ch, pe, sg, mu, ol, on, bp, pi, hm, bn, an, bl, sh, ck]##5000#3#284
