Order [translatable]#What? [translatable]#Num of Pizza#[Toppings 1a|Toppings 1b][Toppings 2a|Toppings 2b][Toppings 3a|Toppings 3b [comment]]#Flags#Weight#Chapter#ID
Quiero una pizza sin nada.#Sí, solo la masa.#1#[none]##10#1#1
Una pizza de pan, gracias.#Sin nada. #1#[none]##10#1#2
Una pizza tan hermosa como el sol al amanecer. #Una de queso. Ya sabes, dorada como el sol. No te va la poesía, ¿no?#1#[sa, ch]##1#1#3
Salsa. Queso. Ya. #¡Salsa! ¡Queso¡ ¡¡¡Ya!!! #1#[sa, ch]##1#1#4
Una de queso. Simple y llanamente.#Una de queso. Simple y llanamente.#1#[sa, ch]##1#1#5
Una pizza de queso. No te olvides de la salsa. Sé de unos cuantos que se olvidan.#Va en serio. Esa salsa. La necesito en mi queso.#1#[sa, ch]##1#1#6
Tengo que librarme de un montón de ratones. Una de queso, gracias.#Obligarlos a salir no funciona, así que probaré con un soborno.#1#[sa, ch]##1#1#7
Quiero una pizza, pero déjate de ingredientes pijos: solo salsa y queso.#Solo salsa y queso.#1#[sa, ch]##1#1#8
Esta noche hago parada en Villa Queso. #¡Pizza de queso para una persona!#1#[sa, ch]##1#1#9
Vengo a por una pizza.#Vaya, perdóname. Que sea de queso.#1#[sa, ch]##1#1#10
¡Quiero queso!#¡Dame queso!#1#[sa, ch]##1#1#11
¿Puedo pedir una de pepperoni sin pepperoni?#Ponle solo queso y salsa.#1#[sa, ch]##1#1#12
Queso.#Una de queso y listo.#1#[sa, ch]##1#1#13
Queso, queso, queso, queso, queso.#¿Queso?#1#[sa, ch]##1#1#14
Sí, hola. Pizza de queso.#Pizza de queso.#1#[sa, ch]##1#1#15
Hola. Querría no pedirte una de pepperoni.#Quiero una de queso.#1#[sa, ch]##1#1#16
Dos pizzas de queso.#Pizza de queso… Dos…#2#[sa, ch][sa, ch]##1#1#17
¡Hola! Quiero una de pepperoni.#Pepperoni, queso, salsa y masa.#1#[sa, ch, pe]##16#1#18
Querría una pizza de pepperoni.#Digo... que… quiero… una... pizza de pepperoni.#1#[sa, ch, pe]##16#1#19
Pepperoni sin salsa.#No puedo decirlo más claro. Pepperoni y queso. ¿Salsa? No.#1#[ch, pe]##16#1#20
¡Hola! ¿Qué tal? A ver, quiero una pizza. ¿De qué? De pepperoni. ¡Gracias!#Supongo que no me has oído. Vale. He dicho que quiero una pizza de pepperoni.#1#[sa, ch, pe]##16#1#21
¿Puedes ponerme una de pepperoni?#¿Me estás tomando el pelo? Pepperoni. Una pizza con trozos de ese suave y delicioso pepperoni rojo.#1#[sa, ch, pe]##16#1#22
Pepperoni.#... Pepperoni.#1#[sa, ch, pe]##16#1#23
¡Una, dos y tres! ¡Pepperoni!#Tres pizzas de pepperoni.#3#[sa, ch, pe][sa, ch, pe][sa, ch, pe]##16#1#24
Mi hermano odia el pepperoni. Ponme una de pepperoni.#Sí, ya sé que está mal, pero me da igual.#1#[sa, ch, pe]##16#1#25
Pizza de canelloni.#¡Jaja! Vaya, quería decir pepperoni.#1#[sa, ch, pe]##16#1#26
Pizza.#¿Sabes lo que es una pizza? Pues ponme una de pepperoni.#1#[sa, ch, pe]##16#1#27
Oye, ponme dos de pep.#Dos pizzas de pepperoni.#2#[sa, ch, pe][sa, ch, pe]##16#1#28
¿Puedes ponerme una de pepperoni sin queso?#Nada de queso en mi pizza de pepperoni.#1#[sa, pe]##16#1#29
Una de pepperoni sin lácteos.#No le pongas queso a mi pizza de pepperoni.#1#[sa, pe]##16#1#30
Una de queso sin salseo.#Digo que una pizza de queso sin salsa.#1#[ch]##10#1#31
Hola. Una de pepperoni, pero sin nada de salsa.#Solo pepperoni, queso y masa.#1#[ch, pe]##16#1#32
Pizza de queso, cero salsa.#Cero significa nada. No le pongas salsa.#1#[ch]##10#1#33
Quiero dos pizzas de pepperoni, ¡una que sea sin queso!#Una de pepperoni y otra de pepperoni sin queso.#2#[sa, ch, pe][sa, pe]##16#1#34
¡Hola! ¿Puedo pedirte un favor? Ponme una pizza de pepperoni, pero sin nada de queso.#Lo que quiero decir es que me pongas una de pepperoni sin queso.#1#[sa, pe]##16#1#35
Quiero una de pepperoni sin queso.#Mi cuerpo no tolera bien los lácteos, gracias por recordármelo.#1#[sa, pe]##16#1#36
Um... ¿Me puedes hacer una pizza de pepperoni sin queso ni salsa?#Quiero decir que no le pongas ni queso ni salsa a la pizza.#1#[pe]##16#1#37
A mí no me la dan con queso. Quiero una de pepperoni.#Pepperoni sin queso...#1#[sa, pe]##16#1#38
¿Puedes prepararme una pizza mitad de pepperoni y mitad de queso?#Quiero una pizza mitad de pepperoni y otra mitad de queso solamente.#1#[sa, ch|sa, ch, pe]##1#1#39
Hola. Quiero una de pepperoni, pero sin pepperoni en una mitad.#Solo quiero una mitad de pep y una mitad de queso, colega.#1#[sa, ch|sa, ch, pe]##1#1#40
Una peque ¡Mitad de pe y mitad de que!#Mitad de pepperoni y mitad de queso.#1#[sa, ch|sa, ch, pe]##1#1#41
Hola. Déjame pensar… Quiero una pepperoni… Bueno, mitad de pep… y la otra mitad de queso.#Perdón… Mitad de pepperoni y mitad de queso…#1#[sa, ch|sa, ch, pe]##1#1#42
Ey… Queso… y mitad de pepperoni.#Esto… Mitad de queso… y mitad de pepperoni…#1#[sa, ch|sa, ch, pe]##1#1#43
Hola. Quiero una mitad de queso y mitad de salami.#Ah. Quería decir pepperoni. Mitad de queso y mitad de pepperoni.#1#[sa, ch|sa, ch, pe]##1#1#44
Querría una de queso sin salsa en una mitad. #¿A mi pizza? No le pongas salsa en una mitad.#1#[sa, ch|ch]##1#1#45
Vale, pues quiero una pizza con una mitad de queso y la otra mitad de pepperoni sin queso.#¿En serio voy a tener que repetírtelo? Una mitad solo con salsa y queso y la otra con salsa y pepperoni.#1#[sa, ch|sa, pe]##1#1#46
¡Hola! ¿Cómo va la cosa? Quiero una de pepperoni con una mitad sin salsa.#Solo una de pepperoni, sin salsa en una mitad.#1#[ch, pe|sa, ch, pe]##16#1#47
Todo el mundo me toma mal el pedido. Tan solo quiero una mitad de pepperoni sin queso y una mitad de queso sin salsa.#Madre mía… Mitad de pepperoni sin queso. Mitad de queso sin salsa.#1#[sa, pe|ch]##16#1#48
Hola… Ponme una mitad de pepperoni y una mitad de queso, pero… ¿podrías no echarle salsa?#Me… me gustaría pedir una de pepperoni, con una mitad de queso… No… no me gusta la salsa.#1#[ch, pe|ch]##16#1#49
Quiero una pizza que sea mitad pepperoni y mitad salsa.#Sí, sin queso o pepperoni en una mitad. A mi padre le gusta así por alguna razón.#1#[sa|sa, ch, pe]##10#1#50
¡Ponle solo salsa a mi pizza! Bueno, ¡mejor échale pepperoni en una mitad!#¡Sin queso y con una mitad de pepperoni!#1#[sa|sa, pe]##10#1#51
¿Podrías dejar una mitad sin queso en mi pizza de pepperoni?#Digo que dejes una mitad de la pizza sin queso.#1#[sa, pe|sa, ch, pe]##16#1#52
Quiero dos pizzas mitad de pepperoni y mitad de queso.#No quiero una de pepperoni y una de queso. Quiero dos que sean mitad y mitad.#2#[sa, ch|sa, ch, pe][sa, ch|sa, ch, pe]##1#1#53
Una pizza de salchichas. Sí, salchichas. El queso también me mola.#Una pizza de salchichas y queso.#1#[sa, ch, sg]##30#1#54
Una pizza de pepperoni y una pizza de salchichas.#Dos pizzas. Una con pepperoni y la otra con salchichas.#2#[sa, ch, pe][sa, ch, sg]##16#1#55
Una de pepperoni y salchichas.#Una de pepperoni y salchichas.#1#[sa, ch, pe, sg]##30#1#56
Había una vez un humano que pidió una de pepperoni y salchichas. Ese humano soy yo.#Lo que intento es pedirte una de pepperoni y salchichas.#1#[sa, ch, pe, sg]##30#1#57
¡Hola! Quiero una de pepperoni, pero si tienes ponle también salchichas. ¡Eso sería incluso mejor!#Si es posible, me gustaría una de pepperoni y salchichas.#1#[sa, ch, pe, sg]##30#1#58
Quiero una pizza con pepperoni, queso y salchichas y otra pizza con pepperoni, queso y salchichas.#Quiero una pizza con pepperoni, queso y salchichas y otra pizza con pepperoni, queso y salchichas.#2#[sa, ch, pe, sg][sa, ch, pe, sg]##30#1#59
Dos pizzas. Ambas de salchichas.#Dos pizzas de salchichas.#2#[sa, ch, sg][sa, ch, sg]##30#1#60
Salchichas.#Una pizza de salchichas.#1#[sa, ch, sg]##30#1#61
¿Puedes ponerme mitad de pepperoni y mitad de salchichas?#¿Te resulta muy complicado ponerle dos ingredientes? Mitad de pepperoni. Mitad de salchichas.#1#[sa, ch, sg|sa, ch, pe]##30#1#62
Una de salchichas y provoloni.#Salchichas y provoloni. Quiero decir… pepperoni.#1#[sa, ch, pe, sg]##30#1#63
¡Una de salchichas sin salseo! ¡Jaja!#Salchichas, pero sin salsa. ¡Ja!#1#[ch, sg]##30#1#64
Hoy es uno de esos días de pizza a tope de carne. Eso sí, nada de carnes pijas.#Solo salchicha y pepperoni. Lo clásico.#1#[sa, ch, pe, sg]##30#1#65
¿Podrías preparar una pizza sin queso que sea mitad de pepperoni y mitad de salchichas?#Mitad de pepperoni, mitad de salsa y nada de queso.#1#[sa, sg|sa, pe]##30#1#66
¡Prepárate para mi pedido! Quiero una de pepperoni y salchichas.#¡Te dije que te preparases! Una de pepperoni y salchichas.#1#[sa, ch, pe, sg]##30#1#67
Hola. Salchichitas.#Sí.#1#[sa, ch, sg]##30#1#68
Mi cuerpo me pide una de queso con salchichas y una de salchichas con queso.#¡Las dos con queso y salchichas!#2#[sa, ch, sg][sa, ch, sg]##30#1#69
Quiero una pizza con pepperoni, pero también con salchicha.#¡La pizza tendrá pepperoni y salchicha!#1#[sa, ch, pe, sg]##30#1#70
Hola, colega. Hoy toca una de pepperoni y salchichas.#Pepperoni y salchichas.#1#[sa, ch, pe, sg]##30#1#71
¡El pepperoni es genial, pero las salchichas son mejores!#¡Pizza de salchichas!#1#[sa, ch, sg]##30#1#72
Hola, colega. Ponme una pizza de champiñones y pepperoni.#Hola de nuevo, persona amigable que no me presta atención. Quiero una pizza de champiñones y pepperoni.#1#[sa, ch, pe, mu]##45#1#73
¿Podría prepararme una pizza de champiñones?#¡Como Mario!#1#[sa, ch, mu]##45#1#74
Una pizza de champironi.#Champiñones y pepperoni.#1#[sa, ch, pe, mu]##45#1#75
Dos pizzas de champiñones. Gracias de todo champiñón. Jeje.#Dos pizzas de champiñones.#2#[sa, ch, mu][sa, ch, mu]##45#1#76
Ponme una pizza de trufas.#¿Trufas? ¿Champiñones?#1#[sa, ch, mu]##45#1#77
¿Tienes setas? Quiero un toque mágico en mi pizza.#Perdón, ponme champiñones.#1#[sa, ch, mu]##45#1#78
El queso y los champiñones saben raro juntos.#Para mí una pizza de champiñones sin queso.#1#[sa, mu]##45#1#79
Media de pepperoni y media de champiñones. Eso es así.#Media de pepperoni y media de champiñones.#1#[sa, ch, mu|sa, ch, pe]##45#1#80
¿Puedes prepararme dos pizzas de champiñones?#¡Voy a construir una bicicleta de champiñones!#2#[sa, ch, mu][sa, ch, mu]##45#1#81
Perdona, ponme media de pep y media de champiñón, sin queso.#Media de pepperoni y media que champiñón, sin queso en ninguna. #1#[sa, mu|sa, pe]##45#1#82
Oye, busco setas. No sé si me entiendes. Algo mágico para la pizza.#Sí… Esto… Champiñones.#1#[sa, ch, mu]##45#1#83
Champiñones, salchichas, pepperoni y queso. ¡En mi pizza, quiero todo eso!#¿En serio? Lo he dicho con rima y todo.#1#[sa, ch, pe, sg, mu]##45#1#84
Quiero dos pizzas de pepperoni, pero una que sea con champiñones.#Una de pepperoni y champiñones y otra de pepperoni.#2#[sa, ch, pe][sa, ch, pe, mu]##16#1#85
¿Qué tal te va la vida? Una de champiñones y salchichas por aquí.#Champiñones y salchichas.#1#[sa, ch, sg, mu]##45#1#86
Ey, una mitad de salchichas y mitad de champiñones.#Mitad de salchichas y mitad de champiñones.#1#[sa, ch, mu|sa, ch, sg]##45#1#87
Champi-champi-champi pizzas.#Tres pizzas de champiñones.#3#[sa, ch, mu][sa, ch, mu][sa, ch, mu]##45#1#88
¿Puedes ponerme mitad de champiñones y mitad de pepperoni y salchichas?#Mitad de champiñones y mitad de pepperoni y salchichas.#1#[sa, ch, mu|sa, ch, pe, sg]##45#1#89
Hum… Me gustan los champiñones, pero también las salchichas… ¿Puedo pedir ambos?#Champiñones y salchichas.#1#[sa, ch, sg, mu]##45#1#90
Los champiñones y las salchichas se van de fiesta. El queso no está invitado.#Quiero una pizza de champiñones y salchichas sin queso.#1#[sa, sg, mu]##45#1#91
Vivo por y para las aceitunas.#Una de aceitunas.#1#[sa, ch, ol]##80#1#92
¡Necesito hacerme con unas cuantas de esas aceitunas!#¡Aceitunas en la pizza!#1#[sa, ch, ol]##80#1#93
Quiero una de pepperoni con aceitunas en una mitad.#Todo pepperoni y mitad con aceitunas.#1#[sa, ch, pe|sa, ch, pe, ol]##16#1#94
Todo aceitunas. Sin salsa.#¿Te estás quedando conmigo?#1#[ch, ol]##80#1#95
Quiero una pizza de aceitunas sin queso, para que se parezca a una mariquita.#Es un insecto rojo… con puntos… Bah, da igual.#1#[sa, ol]##80#1#96
¿Puedes ponerme una pizza de aceitunas y pepperoni? Gracias.#Aceitunas y pepperoni.#1#[sa, ch, pe, ol]##80#1#97
La gente siempre pide pepperoni, ¡pero yo soy más de aceitunas!#¡Una pizza de aceitunas!#1#[sa, ch, ol]##80#1#98
Quiero una pizza con pepperoni, queso, champiñones, aceitunas y salchichas. También quiero otra solo con queso.#Algunas personas somos más complejas que otras.#2#[sa, ch][sa, ch, pe, sg, ol, mu]##1#1#99
Los antiguos griegos solían frotarse el cuerpo con aceite de oliva para asearse. ¡Eran bastante raros!#Ya sabes, como si fuese jabón. Da igual… ¿Puedo pedir una de aceitunas?#1#[sa, ch, ol]##80#1#100
No sabía que las aceitunas eran fruta en realidad.#¡Siguen estando riquísimas! ¿Puedo pedir una de aceitunas?#1#[sa, ch, ol]##80#1#101
Dos pizzas de aceitunas.#Dos pizzas con aceitunas.#2#[sa, ch, ol][sa, ch, ol]##80#1#102
¡Muchas aceitunas! ¡Aceitunas y salchichas! ¡Tres pizzas!#¡Tres pizzas con aceitunas y salchichas!#3#[sa, ch, sg, ol][sa, ch, sg, ol][sa, ch, sg, ol]##80#1#103
¡Dos pizzas de aceitunas y pepperoni sin queso!#No le pongas queso a mis pizzas de pepperoni y aceitunas.#2#[sa, pe, ol][sa, pe, ol]##80#1#104
¡Mitad de salchichas y aceitunas y mitad de salchichas y pepperoni!#¡Mitad de salchichas y aceitunas y mitad de salchichas y pepperoni!#1#[sa, ch, sg, ol|sa, ch, pe, sg]##80#1#105
Oye… Champiñones y aceitunas… si te parece bien…#… Champiñones… y aceitunas…#1#[sa, ch, mu, ol]##80#1#106
Hum… A… ¿aceitunas?#Sí… hum… Una pizza de aceitunas.#1#[sa, ch, ol]##80#1#107
Vale, media de pep y cebolla y media de aceitunas; pero que sea sin queso. #Media de pep y cebolla y media de aceitunas. Todo sin queso.#1#[sa, ol|sa, pe, on]##80#1#108
Mitad de aceitunas y mitad de cebolla para mí.#Lo que no me gusta es que estén una encima de otra, ¿vale?#1#[sa, ch, ol|sa, ch, on]##80#1#109
Soy una persona sencilla. No le pongas pimiento ni champiñones, pero...#Ponle cebolla, aceitunas, pepperoni y salchichas. Algo sencillo. ¡Jaja!#1#[sa, ch, pe, sg, ol, on]##100#1#110
Querría una pizza de aceitunas y cebolla. Ponle también champiñones.#Aceitunas, cebolla y champiñones.#1#[sa, ch, mu, ol, on]##100#1#111
¡Ponme una de aceitunas que me haga llorar! ¡Échale cebolla!#¡Aceitunas y cebolla!#1#[sa, ch, ol, on]##100#1#112
Hola, quiero una mitad de aceitunas y cebolla y una mitad de pepperoni.#Quiero una mitad de aceitunas y cebolla y una mitad de pepperoni.#1#[sa, ch, pe|sa, ch, ol, on]##16#1#113
Chamtunabolla!#No es que hable rápido. Necesito champiñones, aceitunas y cebollas.#1#[sa, ch, mu, ol, on]##100#1#114
Me encanta el olor de la cebolla y los champiñones cuando los cocinas.#Seguro que huelen todavía mejor cuando los cocinas en una pizza. Cebolla y champiñón, ¡gracias!#1#[sa, ch, mu, on]##100#1#115
¿Podrías ponerme una pizza mitad de salchicha y cebolla y mitad de aceituna y champiñón?#Mitad de salchicha y cebolla y mitad de aceituna y champiñón.#1#[sa, ch, sg, on|sa, ch, mu, ol]##100#1#116
¡Hay un oso en mi coche! Quizá deba pedir una pizza de cebolla.#Los osos odian la cebolla, ¿verdad?#1#[sa, ch, on]##100#1#117
Pizza de cebolla, gracias. Tengo una cita.#No me gustan las citas.#1#[sa, ch, on]#d1#100#1#118
Una pizza de chalota.#Ah, cierto. Cebolla. Una pizza de cebolla.#1#[sa, ch, on]##100#1#119
Necesito tres de cebolla. Una con pepperoni.#Tres pizzas de cebolla. Una de ellas con pepperoni.#3#[sa, ch, on][sa, ch, on][sa, ch, pe, on]##100#1#120
La cebolla y el pepperoni pegan, ¿no?#Eso creo, ambos son redondos.#1#[sa, ch, pe, on]##100#1#121
Quiero una pizza de queso, pero también con cebolla y pepperoni.#Mi pizza que lleve pepperoni y cebolla.#1#[sa, ch, pe, on]##100#1#122
¿Qué es lo que quería? Ah, sí, una mitad de pepperoni y mitad de cebolla.#Mitad de pepperoni y mitad de cebolla.#1#[sa, ch, pe|sa, ch, on]##16#1#123
Quiero dos de pepperoni, pero ponle cebolla a una.#¡Solo una con cebolla! Si pones cebolla en las dos, vamos a tener problemas.#2#[sa, ch, pe][sa, ch, pe, on]##16#1#124
Si puedes, a esa solo cebolla. Nada más.#Mmm... Solo cebolla.#1#[on]##100#1#125
¿Sabías que es probable que los antiguos egipcios adorasen a la cebolla? Su forma esférica y sus anillos concéntricos puede que simbolicen la eterna juventud.#A mí me parece interesante. ¡Una pizza de cebolla!#1#[sa, ch, on]##100#1#126
Dos pizzas. Una de champiñones y otra de cebolla.#¡Una batalla entre champiñones y cebollas!#2#[sa, ch, on][sa, ch, mu]##100#1#127
Vengo a por una de cebolla y champiñón.#Cebolla y champiñón.#1#[sa, ch, mu, on]##100#1#128
Cebolla y champiñón. ¡Nada más y nada menos!#¡Cebolla y champiñón! ¡Nada más y nada menos!#1#[mu, on]##100#1#129
Dos pizzas. Las dos con pepperoni y cebolla.#Dos pizzas de pepperoni y cebolla.#2#[sa, ch, pe, on][sa, ch, pe, on]##100#1#130
Ponme una pizza mitad de champiñones y mitad de cebolla.#Mitad de champiñones y mitad de cebolla.#1#[sa, ch, on|sa, ch, mu]##100#1#131
Un pedido un poco extravagante: pizza con cebolla y salchichas.#¿Te acaban de saltar los plomos con mi pedido? Cebolla y salchichas.#1#[sa, ch, sg, on]##100#1#132
Dame de esa cebolla rica, rica. También pepperoni y salchichas.#Cebolla, pepperoni y salchichas.#1#[sa, ch, pe, sg, on]##100#1#133
¡Pi, pi!#Pimientos, ¿lo pillas?#1#[sa, ch, bp]##150#1#134
Ponme una de pimientos vip que esté a mi altura.#Una de pimientos.#1#[sa, ch, bp]##150#1#135
¿Puedo pedir una de pimientos sin salsa?#Pimientos y sin salsa.#1#[ch, bp]##150#1#136
Quiero pepperoni… y salchichas… y… champiñones… y cebolla… y aceitunas… y… pimiento…#Pep... Salch... Champ... Ceb... Ace... Pi...#1#[sa, ch, pe, sg, mu, ol, on, bp]##20#1#137
Pizza vegetariana. Que sean dos.#Dos pizzas con champis, verdura y fruta.#2#[ch, vegan][ch, vegan]##150#1#138
Pizza vegetariana.#Verduritas... fruta... champiñones...#1#[ch, vegan]##150#1#139
Mitad de carne y mitad vegetativa.#Pues, échale toda la carne a media. La otra media con verdura, fruta y champiñón.#1#[sa, ch, meats|ch, vegan]##30#1#140
Una pizza vegana.#A tope de fruta, verdura y champiñón, pero sin queso.#1#[vegan]##100#1#141
Ponme una suprema sin pizca de albahaca.#Sí. Desde salsa hasta pimientos. Sin albahaca.#1#[sa, ch, pe, sg, mu, ol, on, bp]##150#1#142
¿Me pones una con cebolla y una con pep y salchicha?#Una de cebolla, otra con pep y salchichas.#2#[sa, ch, on][sa, ch, pe, sg]##150#1#143
Me vas a poner una pizza vegana, pero sin albahaca.#Todo verdura, fruta y champiñónes. Y sin queso. Albahaca tampoco.#1#[vegan, -bl]##100#1#144
No, no tengo poderes veganos… pero, ¿puedo pedir una pizza vegana?#En fin... champiñón, fruta y verdura. Sin queso.#1#[vegan]##100#1#145
Dos pizzas supremas, ¡pero la mitad de una de ellas sin pepperoni!#Pepperoni, salchicha, cebolla, pimiento, aceituna champiñón: dos pizzas. Excepto en esa mitad. No le eches pepperoni a esa.#2#[sa, ch, pe, sg, mu, ol, on, bp][sa, ch, pe, sg, mu, ol, on, bp|sa, ch, sg, mu, ol, on, bp]##20#1#146
¿Puedo pedir una suprema?#La pizza suprema: pepperoni, salchicha, cebolla, pimiento, aceituna y champiñón.#1#[sa, ch, pe, sg, mu, ol, on, bp]##20#1#147
Quiero una pizza deluxe.#¿Deluxe? ¿Suprema? Lo que sea. Vale con que le pongas pepperoni, salchicha, cebolla, pimiento, aceituna, champiñón.#1#[sa, ch, pe, sg, mu, ol, on, bp]##20#1#148
¡Márcate un combo!#¡Pepperoni, sí! ¡Salchicha, sí! ¡Cebolla, sí! ¡Aceituna, sí! ¡Champiñón, sí! ¡Pimiento, sí!#1#[sa, ch, pe, sg, mu, ol, on, bp]##20#1#149
Ponme una de esas supremas superextremas.#Pepperoni, salchicha, queso, cebolla, pimiento, salsa, aceituna y champiñón.#1#[sa, ch, pe, sg, mu, ol, on, bp]##20#1#150
Mi cuerpo me pide esa masa picante.#Ya sabes: pan de pizza con pepperoni y pimientos.#1#[pe, bp]##150#1#151
Pimiento y salchichas, ¡pero sin salchichas!#Tengo una tontuna... Solo pimiento.#1#[sa, ch, bp]##150#1#152
¡Mitad de pepperoni y pimiento y mitad de champiñón oloroso!#Pimiento y pepperoni en una mitad. Champiñón en la otra mitad, en la olorosa.#1#[sa, ch, pe, bp|sa, ch, mu]##150#1#153
Una pizza de cebolla. Una pizza de pimientos. Una pizza de champiñón. Ponle salchicha a las tres.#Una pizza de cebolla. Una pizza de pimiento. Una pizza de champiñón. Ponle salchicha a las tres.#3#[sa, ch, sg, mu][sa, ch, sg, on][sa, ch, sg, bp]##45#1#154
¡Todos están deseando ponerse «morados» con ese ingrediente nuevo!#Perdona, ¿es aquí donde le ponen berenjena a la pizza?#1#[sa, ch, ep]##250#1#155
¡Hazme una pizza de berenjena que me quite las penas!#Disculpa, menuda poesía me he marcado. Una de queso con berenjena.#1#[sa, ch, ep]##250#1#156
¿Me pones dos pizzas del… tomate ese morado?#Tenía un nombre raro. ¿Vendejena? ¿Berajena?... ¡Berenjena! ¡Dos pizzas de queso con berenjena!#2#[sa, ch, ep][sa, ch, ep]##250#1#157
He oído alguna vez lo de ponerle queso y salsa marinara a la berenjena para que esté más buena, pero nunca al revés.#Por probar no pierdo nada. ¡Una pizza de queso con berenjena!#1#[sa, ch, ep]##250#1#158
¿Hueles eso? Ese olor. Ese aroma oloroso. Una fragancia olorosa que huele a mar.#¡¡¡ANCHOAS!!!#1#[sa, ch, an]##200#2#159
Tú crees que en otros lados las pizzas más buenas son.#Una sirenita me espera en casa y necesita una pizza de anchoas.#1#[sa, ch, an]##200#2#160
Ponme mitad de pan con queso y mitad de pan con salsa. Que sean dos.#Dos mitad salsa y queso.#2#[ch|sa][ch|sa]##1#2#161
Quiero una pizza con pimiento, cebolla, pepperoni y aceitunas, mitad con pepperoni y mitad con aceitunas.#Y ponle aceitunas y pimiento en la mitad de pepperoni, y cebolla y pimiento en la mitad de aceitunas.#1#[sa, ch, pe, ol, bp|sa, ch, ol, on, bp]##255#2#162
Quiero una pizza que sea mitad de beicon y salchicha y mitad de pepperoni y jamón, pero asegúrate de poner jamón y beicon en una mitad y pepperoni y salchicha en la otra.#Quiero una mitad de jamón y beicon y mitad de pepperoni y salchicha.#1#[sa, ch, pe, sg|sa, ch, hm, bn]##30#2#163
Ponme una pizza, pero no le eches nada animal, vegetal o mineral.#¡Nada excepto funghi!#1#[sa, ch, mu]##45#2#164
Tengo una fiesta luau, pero no quiero una pizza hawaiana tradicional: quiero tres de tus nuevas pizzas de Cerdito tropical.#Si es fruta o un producto porcino, échalo en la pizza.#3#[sa, ch, pe, sg, ol, bp, pi, hm, bn][sa, ch, pe, sg, ol, bp, pi, hm, bn][sa, ch, pe, sg, ol, bp, pi, hm, bn]##155#2#165
Mi pizza favorita es una carnívora, pero también me gustan las aceitunas. ¿Puedes echarle?#A ver, quiero carne: pepperoni, salchichas, jamón y beicon. ¡Pero échale aceitunas también!#1#[sa, ch, pe, sg, ol, hm, bn]##350#2#166
Quiero una Lobo de mar.#Es decir, una pizza de aceituna y anchoa.#1#[sa, ch, ol, an]##250#2#167
Dame una Piensa en verde.#Pimiento y albahaca.#1#[sa, ch, bp, bl]##200#2#168
Me pones una pizza que sea mitad Lobo de mar y mitad Cerdito tropical, pero no quiero ninguno de los ingredientes que le pones a la Piensa en verde.#Mitad de aceituna y anchoa y mitad de aceituna, pimiento, piña, pepperoni, salchicha, jamón y beicon. Pero no le eches pimiento.#1#[sa, ch, ol, an|sa, ch, pe, sg, ol, pi, hm, bn]##300#2#169
Mi hermana es vegetariana, aunque no le gustan ni la fruta ni la verdura. Le gustan los champiñones... pero no en la pizza.#Mi hermana quiere una pizza sin carne, fruta, verdura, o champiñones.#1#[sa, ch]##1#2#170
Una mitad queso y mitad pepperoni. Mejor dos mitades de queso. Dos veces.#Dos pizzas de queso. No sé en qué estaba pensando antes.#2#[sa, ch][sa, ch]##1#2#171
Quiero una mitad de fruta y funghi y otra mitad de carne.#Fruta y champiñones en la mitad de una pizza de queso y solo carne en la otra mitad.#1#[sa, ch, mu, fruits|sa, ch, meats]##155#2#172
Póngame un par de pizzas pescetarianas sin verduras.#Dos pizzas con fruta, champiñones y marisco.#2#[sa, ch, fruits, mu, seafood][sa, ch, fruits, mu, seafood]##350#2#173
Ponme una pizza porcina. No te molestes en echarle salsa, queso o pescadito.#Solo quiero productos porcinos y pan.#1#[pe, sg, hm, bn]##350#2#174
Soy intolerante a la lactosa, pero me gusta todo lo demás.#Quiero de todo menos queso.#1#[sa, pe, sg, mu, ol, on, bp, pi, hm, bn, an, bl]##350#2#175
Solo quiero una pizza mitad beicon y jamón.#No me importa lo qué le pongas a la otra mitad, solo queso, por ejemplo.#1#[sa, ch, hm, bn|sa, ch]##350#2#176
Champiñón, anchoa y piña. Menuda mezcla.#Veamos qué tal.#1#[sa, ch, mu, pi, an]##350#2#177
Pizza de las tres P, gracias.#Pepperoni, pimiento y piña, gracias.#1#[sa, ch, pe, bp, pi]##200#2#178
Ponme solo cebolla y aceitunas, además de queso y salsa, claro.#Querría una pizza de cebolla y aceituna.#1#[sa, ch, ol, on]##350#2#179
Marchando una de panceta para mi panza.#Ponle beicon a la pizza.#1#[sa, ch, bn]##200#2#180
Quiero una media de pizza pepperoni para cenar y otra media de salchicha y beicon. Me la voy a guardar para un desayuno inglés.#Mitad de pepperoni para cenar y mitad de salchicha y beicon para un desayuno inglés.#1#[sa, ch, pe|sa, ch, sg, bn]##200#2#181
Voy a compartir la pizza con mi gato.#Ponme mitad de aceitunas y mitad de anchoas.#1#[sa, ch, ol|sa, ch, an]##200#2#182
Ponme un pizza agridulce de piña y aceituna, gracias.#Pizza con piña y aceituna.#1#[sa, ch, ol, pi]##200#2#183
No se lo digas a nadie, pero quiero una pizza de piña.#Shhhh.#1#[sa, ch, pi]##200#2#184
Quiero dos pizzas.#Una de pepperoni y salchicha y otra de piña y jamón.#2#[sa, ch, pe, sg][sa, ch, hm, pi]##30#2#185
Quería una tortilla con todo, pero al ser un sitio de pizzas, ponme una pizza de desayuno inglés.#Cebolla, champiñón, salchicha, bacon, jamón. Ya sabes, ingredientes para la tortilla.#1#[sa, ch, sg, mu, on, hm, bn]##350#2#186
Ponme una pizza con una mitad de queso y la otra...#Con pepperoni, albahaca, champiñón, salsa y pimiento.#1#[sa, ch|sa, ch, pe, sg, mu, bp, bl]##100#2#187
¡Una pizza que corte el bacalao!#Esperaba que tuviera atún picante, pero me conformaré con las anchoas.#1#[sa, ch, an]##250#2#188
Tengo antojo de jamón y salchicha.#Pizza de jamón y salchicha.#1#[sa, ch, sg, hm]##200#2#189
¡Exijo una pizza con piña de inmediato!#Pizza acompañada de piña, ¡presto!#1#[sa, ch, pi]##150#2#190
Intento entablar amistad con una cabra vecina. Albahaca, aceituna y cebolla, gracias.#A las cabras les gusta la albahaca, aceituna y cebolla, ¿no?#1#[sa, ch, ol, on, bl]##200#2#191
Necesito una pizza a juego con mi jardín.#Pimiento, cebolla, aceituna y albahaca.#1#[sa, ch, ol, on, bp, bl]##200#2#192
Tres pizzas. Una de frutos, una de verduras y salsa y una con carne y queso.#En primer lugar, la de frutos: piña, pimientos y aceitunas. Luego, una de verduras sin queso. Por último, pon todas las carnes sobre una base de solo queso.#3#[sa, ch, fruits][sa, veggies][ch, meats]##300#2#193
Una pizza con todos los avíos.#Así es como se dice en mi tierra.#1#[sa, ch, mu, meats, veggies, fruits]##350#2#194
Una pizza sencilla, gracias.#Pizza. Sencilla. El queso y la salsa se dan por supuestos.#1#[sa, ch]##1#2#195
Querría una pizza de queso con una mitad sin nada.#Una de queso y una pizza sin nada.#2#[sa, ch][none]##1#2#196
Querría una mitad de queso y la otra mitad solo masa.#Sin salsa. Mitad queso. Ya está.#1#[ch|none]##10#2#197
Querría una pizza que me ayude a reducir el riesgo de enfermedades del corazón, diabetes del tipo 2, obesidad y algunos tipos de cáncer... con albahaca.#Lo que quiero es la integral... con albahaca.#1#[sa, ch, bl, wt]##350#2#198
Para mi sustento, hornea carne sobre ese trigo tierno.#Pizza de carne integral.#1#[ch, sa, pe, sg, hm, bn, an, wt]##350#2#199
Carne y queso. Nada del mar, ni salseo.#Tampoco champiñones.#1#[ch, pe, sg, hm, bn]##350#2#200
Dame una de pimiento y cebolla, colega.#Pimiento y cebolla en la pizza.#1#[sa, ch, on, bp]##350#2#201
Tres pizzas de setas para mi colega de todo [m:champiñón:f:champiñón].#¿Lo pillas? Es mi colega de [m:champiñón:f:champiñón]. Corazón = champiñón.#3#[sa, ch, mu][sa, ch, mu][sa, ch, mu]##45#2#202
Intento entrenar a una foca, ponle solo anchoas a la masa.#En serio, hay una foca ahí fuera.#1#[an]##250#2#203
Una de salchicha y champiñón con un poco de albahaca no suena nada mal.#Así que me pido una.#1#[sa, ch, sg, mu, bl]##200#2#204
Quiero comerme una piña debajo del mar.#Piña y anchoas.#1#[sa, ch, pi, an]##350#2#205
Necesito una pizza de cebolla y anchoas para arruinar esta cita.#Si tuvieses ajo en el menú, habría pedido una pizza del Oloroso Pete.#1#[sa, ch, on, an]#d2#100#2#206
Necesito una pizza de cebolla y anchoas para hacer de esta cita algo memorable.#La pizza favorita de mi cita es una Oloroso Pete.#1#[sa, ch, on, an]#d3#100#2#207
Necesito una pizza de piña para ver en qué bando del conflicto está mi cita.#Todavía no me he decidido.#1#[sa, ch, pi]#d4#200#2#208
No quiero ser una persona presuntuosa, pero ¿podrías prepararme una pizza con cinta de lomo?#Ah, el jamón está bien.#1#[sa, ch, hm]##200#2#209
Querría una pizza con cuatro carnes. No intentes colarme a las anchoas como algo comestible.#¿Cómo que qué?#1#[sa, ch, pe, sg, hm, bn]##350#2#210
Cocíname beicon y albahaca en una masa integral.#Quiero que le eches beicon y albahaca a una masa de pizza integral. Luego, hornéala.#1#[sa, ch, bn, bl, wt]##350#2#211
Integral, mitad de jamón y queso.#Ponle solo queso a la otra mitad.#1#[sa, ch, hm, wt|sa, ch, wt]##300#2#212
Ponme un trigal de pescado.#Anchoas e integral. Nada más.#1#[an, wt]##350#2#213
Pan integral con queso.#Integral, solo queso.#1#[ch, wt]##200#2#214
Vengo a por la salsa integral, mandamás.#Integral con salsa, mandamás.#1#[sa, wt]##500#2#215
Marchando una de salchicha sin salseo.#Pizza de salchicha sin salsa.#1#[ch, sg]##30#2#216
Integral con hierbas y cebolla.#¿Hierbas? Perdón. Albahaca.#1#[sa, ch, on, bl, wt]##300#2#217
Ven, pece-pece-pececito.#Tres de anchoas.#3#[sa, ch, an][sa, ch, an][sa, ch, an]##150#2#218
Participo en un concurso de mal aliento.#Cebolla y anchoa.#1#[sa, ch, on, an]##120#2#219
Grano entero con cebolla y albahaca.#Integral de cebolla y albahaca. Sin salsa ni queso.#1#[on, bl, wt]##300#2#220
Integral con queso, se lo ruego.#Se lo ruego: integral con queso.#1#[ch, wt]##200#2#221
Con una integral me vale, nada de carne.#Una pizza de labranza sin carne, íntegramente integral.#1#[sa, ch, mu, fruits, veggies, wt]##300#2#222
Quiero algo tropical.#¿Naranjas? ¿kiwis? ¿limones? ¿piña?#1#[sa, ch, pi]##200#2#223
Los ingredientes que quiero formarían una gran casa para una esponja que vive en el fondo del mar.#¿Quién vive en una piña debajo del mar?#1#[sa, ch, pi]##150#2#224
Me gustaría una pizza de piña y pimiento, por favor.#¡Piña y pimiento, por favor!#1#[sa, ch, pi, bp]##200#2#225
Dales los dados de carne.#Quiero ese jamón, familia.#1#[sa, ch, hm]##200#2#226
¡Jamón y pep, por favor!#¡Pizza de jamón y pepperoni, por favor!#1#[sa, ch, hm, pe]##200#2#227
Quiero un sándwich de jamón.#Oh, ¿haces pizza? Quiero una pizza de jamón.#1#[sa, ch, hm]##200#2#228
Tengo que escribir un articulo sobre Hamlet, así que estoy aquí para investigar.#¿Eso no es un obra sobre jamón?#1#[sa, ch, hm]##200#2#229
¡Oinc! ¡Oinc! ¡Quiero jamón!#¡Jamón, por favor!#1#[sa, ch, hm]##150#2#230
Soy [m:vegetariano:f:vegetariana], pero mi [m:amigo:f:amiga] es un ogro. Solo come carne. Media de aceitunas y cebolla, y media solo de jamón, por favor.#Nos gustaría una pizza que sea mitad de aceitunas y cebolla, y la otra mitad solo de jamón, esta mitad, ¡sin tomate ni queso!#1#[sa, ch, ol, on|hm]##150#2#231
¡Estoy [m:antojado:f:antojada] de beicon!#¡BEICON!#1#[sa, ch, bn]##200#2#232
Estoy intentando que mi perro traiga el frisbee. ¿Seguro que una pizza de beicon funcionaría?#Esa pizza de beicon la puedo usar para enseñarle a mi perro a buscar.#1#[sa, ch, bn]##200#2#233
Solo he venido por el beicon. ¿Podrías poner beicon en un pan, solo beicon?#Seguramente acabe tirando el pan.#1#[bn]##200#2#234
El beicon está en el ojo del espectador. Y quiero contemplarlo.#Estoy [m:hambriento:f:hambrienta].#1#[sa, ch, bn]##200#2#235
¡Acabo de correr catorce cuadras, porque olía el beicon!#Quiero una pizza de beicon, por favor.#1#[sa, ch, bn]##200#2#236
Quiero una pizza. Quiero que le pongas tomate, queso, que la cocines, que huela mal, que la lleves a la granja y la dejes jugar con el beicon.#Quiero una pizza de beicon con cebolla.#1#[sa, ch, bn, on]##200#2#237
La gente subestima el poder de la albahaca. Una de albahaca, por favor.#Tú también eres [m:uno:f:una] de ellos, ¿eh? Una pizza de albahaca, por favor.#1#[sa, ch, bl]##200#2#238
Saludos. Soy [m:un:f:una] artista visual. Para mi pizza, me gustaría ver una marea roja golpeando la orilla de una costa grasienta.#Resumiré mis ideas para las masas... ¡otra vez! Media de tomate, media de queso y albahaca.#1#[sa|ch, bl]##200#2#239
Dame  algo de fibra, campeón.#Sólo pan de trigo.#1#[wt]##200#2#240
Me gustaría una cazuela de atún. ¿No? Bueno, ¿qué tal una pizza de queso sobre trigo?#Queso y tomate en una masa de trigo, por favor.#1#[sa, ch, wt]##200#2#241
Estoy harto de las limitaciones de la sociedad, ¡hombre! ¡Quiero algo salvaje! Dame una... pizza de trigo... sin tomate, sin queso, solo con cebolla en una mitad y salchichas en la otra. ¡Oh sí!#Bastante fuera de lo normal, hombre. Media de cebolla, y media de salchichas sobre un masa de trigo. Nada más. Dios mío.#1#[on, wt|sg, wt]##200#2#242
Estoy en una dieta a base de trigo.#¡Pizza de trigo, por favor!#1#[sa, ch, wt]##200#2#243
Ponme una de cebiñón, masa morena. Queso en la mitad de champi y salsa en la mitad de cebolla.#Mitad de champiñón y mitad de cebolla con salsa y queso. Con masa integral. Gracias.#1#[wt, ch, mu|wt, sa, on]##200#2#244
Creo que nadie se ha puesto morado o le han salido escamas por comer esas cosas...#Perdona, cosas mías: una pizza con berenjenas y anchoas.#1#[sa, ch, an, ep]##200#2#245
¡JAJAJAJA! ¡Ponme una pizza «Joker»!#Jeje, ¿por qué esa cara tan seria? ¡Es fácil! Pimiento verde, berenjena morada y pepperoni rojo.#1#[sa, ch, pe, bp, ep]##200#2#246
¿Me pones dos carbonaras? En vez de huevo, moraditas, con berenjena.#Pizza de queso con beicon y cebolla. Normalmente se le echa huevo, pero el morado se lleva esta temporada: berenjena.#2#[sa, ch, on, bn, ep][sa, ch, on, bn, ep]##200#2#247
¡Soy de esa gente que se pone morada en el desayuno! No sé si beicon y huevos...#Igual beicon y alguna verdura que vaya bien. ¿Algo morado? A ver qué se te ocurre.#1#[sa, ch, bn, ep]##200#2#248
¡Me encantan el beicon, las salchichas y los huevos para desayunar! Pero igual puedo cambiar los huevos por algo más sano. Una verdura con un color para comer hasta ponerse morado.#Deja la carne, pero ponle también berenjena.#1#[sa, ch, sg, bn, ep]##200#2#249
¿Sabes lo que es el «ratatouille»? Pues quiero una pizza de eso.#Ah, pues es un plato vegetariano. Prepara una pizza de queso con berenjenas, pimientos, cebolla, albahaca.#1#[sa, ch, on, bp, bl, ep]##200#2#250
¿Me pones dos pizzas hawaianas? Pero a los dos le echas piña solo en una mitad.#Mis amigos dicen que echarle piña a la pizza es asqueroso, así que ponle solo a una mitad. Jamón en ambas mitades.#2#[sa, ch, pi, hm|sa, ch, hm][sa, ch, pi, hm|sa, ch, hm]##200#2#251
Quiero una pizza repleta de frutos. ¡También con fruto del mar!#Pues una pizza de queso con frutos: aceitunas, pimientos y piña. Y gambas, ¡son fruto del mar!#1#[sa, ch, ol, bp, pi, sh]##2500#3#252
¿Has probado alguna vez la piña con gambas? ¡Está buenísimo! Me juego lo que quieras a que sabe aún mejor en una pizza.#¡Quiero una pizza con gambas y piña! ¡Gracias!#1#[sa, ch, pi, sh]##2500#3#253
A la gente le encanta la pizza hawaiana, pero no saben que la hawaiana de verdad lleva gambas.#¡Me has oído bien! Quiero una pizza hawaiana DE VERDAD: ¡con gambas y piña!#1#[sa, ch, pi, sh]##2500#3#254
La pizza hawaiana está bien, ¡pero no entiendo por qué nadie le pone gambas!#Lo cierto es que la gamba es un ingrediente bastante popular en Hawái y además está de muerte. Igual con piña y jamón va bien.#1#[sa, ch, pi, hm, sh]##2500#3#255
Hay mil y una maneras de prepararlas. A la barbacoa, hervidas, al horno, a la plancha, salteadas, con sartén, rehogadas, fritas...#Están de escándalo, no importa cómo las prepares. ¡Me encantan las gambas!#1#[sa, ch, sh]##2500#3#256
Oye, ¿preparáis brochetas de gambas? Si no, ponme los ingredientes de la brocheta en una pizza.#Pues, a ver, obviamente lleva gamba. Luego, échale cebolla para el crujiente y champiñones para ese toque de campo.#1#[sa, ch, on, mu, sh]##2500#3#257
Ponme una pizza «gamberi» con pimientos y albahaca. Gracias.#Por si no lo sabías, ¡«gamberi» significa «gamba» en italiano!#1#[sa, ch, bp, bl, sh]##2500#3#258
¡Dame dos pizzas de langostinos! ¡Gracias!#Me basta con un par de pizzas con langostinos. O gambas, como quieras llamarlas.#2#[sa, ch, sh][sa, ch, sh]##2500#3#259
Tengo que llevar un cóctel de gambas y pan a una fiesta. Pero... ¿Y si combino las dos cosas?#Ponme una pizza con salsa y gambas. ¡Creo que con eso irá bien!#1#[sa, sh]##2500#3#260
¡He oído que en este sitio tenéis pizzas con gambas! Me lo creeré cuando lo vea.#Pero entonces, ¿tienes o no? ¡Estoy esperando!#1#[sa, ch, sh]##2500#3#261
Me encantan las aves y la comida. Mi favorito en ambos casos es la palomita de maíz.#Bueno, no te pongas así... Solo quiero que le eches maíz a la pizza.#1#[sa, ch, co]##5000#3#262
Quiero dos pizzas con maíz y beicon. Ah, y que sean crujientes como el beicon.#El sabor dulce del maíz le va tan bien al sabor del beicon... Y una masa cuando se hornea dos veces no tiene igual.#2#[sa, ch, bn, co, wd][sa, ch, bn, co, wd]##5000#3#263
¡¿Tienes maíz en la lista de ingredientes para pizzas?! ¡Vaya cosa tan rara! Pero bueno...#Supongo que he visto cosas peores. Vale, vamos a darle una oportunidad al maíz.#1#[sa, ch, co]##5000#3#264
El año pasado, en mi viaje a Japón, probé una pizza con maíz. ¡Me encanta que la tengáis aquí también!#No hay muchas pizzerías que pongan pizzas con maíz. ¡Esta es mi oportunidad!#1#[sa, ch, co]##5000#3#265
Ni caso a los «haters»,¡la piña y el maíz le van bien a la pizza! Aunque puede que no juntos...#Quiero piña y maíz. ¿Hay alguna forma de que la pizza lleve las dos cosas, pero por separado?#1#[sa, ch, pi|sa, ch, co]##5000#3#266
Puede que sea harina de otro costal, pero, ¿podrías prepararme una pizza de maíz con masa integral?#¿Lo pillas? Con el maíz se puede hacer harina y la masa integral lleva hari... ¿Me das la pizza para que pueda irme?#1#[wt, sa, ch, co]##5000#3#267
Tres pizzas con semillas para rato.#Quiero decir: tres pizzas de queso con masa integral y granos de maíz.#3#[wt, sa, ch, co][wt, sa, ch, co][wt, sa, ch, co]##5000#3#268
¡Quiero un maizal!#Sería una pizza de queso, ¡pero con maíz!#1#[sa, ch, co]##5000#3#269
He probado la sopa de maíz, el pan de maíz, mazorcas asadas, pero, ¿la pizza de maíz?#Échale maíz a una pizza de queso y veamos si me gusta.#1#[sa, ch, co]##5000#3#270
Oye, ¿podrías prepararme una pizza con semillas y pan de maíz? Hace tiempo que me viene apeteciendo.#Ponle maíz y que la masa sea integral. Perdona si suena un poco raro.#1#[wt, co]##5000#3#271
Hola, ¿te parece raro si pido una pizza con maíz? Me pica mucho la curiosidad.#¿Sabes qué? Que no me parece nada raro. ¡Menudas ganas de probar mi pizza!#1#[sa, ch, co]##5000#3#272
El pollo parmigiana está bien, aunque la mozarela también me vale.#Ponme pollo, queso y salsa en una masa de pizza.#1#[sa, ch, ck]##5000#3#273
¡Por fin lo conseguí: una ensalada César con pollo hecha pizza!#Sin salsa. Solo queso, pollo y anchoas. ¡Y ponle albahaca en vez de lechuga!#1#[ch, bl, an, ck]##5000#3#274
¡A ganar, a ganar! ¡Pollo para cenar!#¡He ganado unas cuantas rondas a las cartas y para celebrarlo me voy a pedir una pizza de pollo!#1#[sa, ch, ck]##5000#3#275
¡Estoy crazy por el chicken! Tres pizzas de chicken, please.#Sorry, me muero de hambre. 3 pizzas de pollo. Gracias.#3#[sa, ch, ck][sa, ch, ck][sa, ch, ck]##5000#3#276
Si me pido una pizza de pollo, no me encontraré ningún hueso... ¿No?#¿No? Muy bien, vale. Entonces una pizza de pollo. Gracias.#1#[sa, ch, ck]##5000#3#277
¿Al pollo le cae bien la berenjena?#Bueno, tampoco tienen que ser amigos. ¡Ponlos en la pizza y ya!#1#[sa, ch, ep, ck]##5000#3#278
¿Me pones una pizza de queso con berenjena, pimiento, cebolla, champiñón y pollo?#Berenjena, pimiento, cebolla, champiñón y pollo. Suena raro, pero confía en mí: ¡está de muerte!#1#[sa, ch, on, bp, mu, ep, ck]##5000#3#279
Siempre acompaño la pechuga de pollo con tostas de queso. ¿Por qué no se me ocurrió unir ambas cosas?#Una combinación estupenda. Pollo y queso, sobre pan.#1#[ch, ck]##5000#3#280
¿Sabes qué suena bien? Una pizza con pollo, champiñón y cebolla. ¿Y sabes qué? ¡Ponme dos!#Dos de pollo, champiñón y cebolla. ¡Gracias!#2#[sa, ch, mu, on, ck][sa, ch, mu, on, ck]##5000#3#281
Mi madre solía hacerme pollo frito con beicon, cheddar y maíz. Echo de menos sus platos...#Oye, ¿tú crees que podrías echarle un poco de pollo, beicon y maíz a una pizza de queso?#1#[sa, ch, bn, co, ck]##5000#3#282
Para mi pizza, échale pollo. ¡Y también lo que comen los pollos!#La mayoría de piensos para pollos contienen maíz. Supongo que como dato curioso es un tanto inútil, ¿no?#1#[sa, ch, co, ck]##5000#3#283
Los cereales no son para mí.#Me dan dolor de barriga. Ponme una pizza con todo, pero que no lleve maíz, ni sea con masa integral.#1#[sa, ch, pe, sg, mu, ol, on, bp, pi, hm, bn, an, bl, sh, ck]##5000#3#284
