Day/Tag#Image id#Text [translatable]#Random?#Requirements
2#1#Пиццерия не содержит слово пицца. Почему вам нет дела до этого и кто в этом виноват? Ответ может вас удивить.#1#
2#3#К другим новостям: С приближением пяти фестивалей начинок, местные производители пиццы подготавливают свои запасы начинок для беспрецедентного вкуса.#2#
2#4#Наконец, любители еды сходятся в процветающую пиццерию, которая предлагает идеальную пиццу на любой вкус. Побьют ли они лучшую пиццерию, Аликанте? Поглядим - увидим.#3#
-21#5#Скажи, что ты заболел и стой в очереди в День 'Половины с Половинкой' в это воскресенье. Половина пепперони, половина сыра, половина сосисок, половина грибов, все вкусно. #1#
-21#6#Ты собираешься, есть это? Ученые выяснили, что сыр содержит вещество, обычно встречающееся в коровьем желудке.#2#
-21#9#От нашего спонсора - Пиццерия Аликанте: Попробуйте одну из наших пяти тысяч пицц - и скажите нам, какие из них являются хорошими. Мы не можем решить.#3#
5#2#Вы считаете что информация, посвященная исключительно пицце слишком нишевая? Отзывы наших зрителей вас поразят.#1#
5#3#К другим новостям: Наши фестивали начинок предвещают новый золотой век пиццерий. Весь месяц мы будем пробовать разнообразные рецепты пиццы.#2#
5#20#От нашего спонсора - Стул О'Тул: Предоставляем первоклассную поддержку для ваших булок с 2004 года.#3#
7#10#Сегодня День 'Половины с Половинкой'! Ожидается, что все предприятия питания кроме пиццерий будут закрыты, так как весь город будет стоять в очередях за своими любимыми пиццами 'Половинка с Половинкой'. #1#
7#11#К другим новостям: Количество бездомных растет, так как многие продают свои вещи, чтобы посвятить свою жизнь пицце. #2#
7#9#От нашего спонсора - Пиццерия Аликанте: Мы гарантируем доставку в течение 30 минут или вашу пиццу не доставят вообще.#3#
9#14#Всем известно, что тесто появилось первым, но, что же появилось вторым? Был ли это сыр или соус?#1#
9#-#Наш критик пиццерий посетил новую пиццерию. Вот, что он сказал:#2#c1
9#17#От нашего спонсора - Замки Зака: Не иметь замка, это всё равно, что отдавать свои вещи за бесплатно. В любом случае, позвоните нам в Замки Зака!#3#
11#13#Слово 'Цa' теперь в словаре, но закрытие одной из пиццерий может поменять значение слова неудача.#1#
11#7#Ты собираешься, есть это? Новое исследование предполагает, что некоторые комбинации ингредиентов могут представлять потенциальную пользу для здоровья.#2#
11#9#От нашего спонсора - Пиццерия Аликанте: Теперь 100% без асбеста.#3#
14#19#Сегодня Фестиваль Сосисок! Позвоните и скажите, что заболели и стойте в очереди за пиццей с сосисками.#1#
14#18#К другим новостям: Судмедэксперты теперь верят в то, что Великий Чикагский пожар мог начаться из-за неисправных печей для пиццы. Насколько пожароопасна Ваша пиццерия?#2#
14#12#От нашего спонсора - Ремонт Печей Печкина: Мы не изобрели огонь, но мы держим его в одном месте с 2008 года#3#
16#21#Археологи обнаружили, что появление пиццы могло предшествовать появлению письменности.#1#
16#40#К другим новостям: Стояние в очереди на фестивалях становится новым модным упражнением. #2#
16#24#От нашего спонсора - Столики Толика: Люди не могут есть, если им некуда сесть!#3#
17#23#Математики считают, что рецепт пиццы может быть скрытым в значении числа π.#1#
17#-#Новая пиццерия открыта уже в течение нескольких недель. И у нас есть местный отзыв о ней:#2#l
17#17#От нашего спонсора - Замки Зака: Девять из десяти грабителей согласны - замки мешают их делу и помогают вашему. Звоните сегодня.#3#
19#15#Является ли моцарелла оптимальным выбором сыра в пицце? Некоторые эксперты не так уверенны.#1#
19#8#К другим новостям: Может ли человек питаться только пиццей? Послушайте, что скажут диетологи после слов от наших спонсоров.#2#
19#31#Заказывайте ваши пиццы пока солнечно. В конце недели ожидается ливень!#3#
21#32#Заголовок: Бездомный скормил пиццу медведям. Охранники выгнали мужчину из зоопарка, но не смогли забрали пиццу.#1#h5
21#32#Курьер доставил пиццу в медвежий вольер. Работники зоопарка спасли мужчину, но не осмелились забрать ужин у медведей.#1#h5
21#27#Ты собираешься, есть это? Появились новые драже, со вкусом пиццы, но в форме таблетки.#1#h0
21#34#Почти весь город посетил фестиваль Сосисок в предыдущую неделю, но многие ушли домой голодными.  Узнайте, как получить вашу лепешку на Грибном Фестивале сегодня! #2#
21#17#От нашего спонсора - Замки Зака: Вы устали от людей, приходящих в ваше здание, когда вас там нет? Позвоните, чтобы получить бесплатный образец сегодня!#3#
22#22#Путешествовал ли Марко Поло по миру в поисках лучшей пиццы? Многие историки начинают склоняться к этому.#1#
22#38#К другим новостям: Философы от пиццы давно спорят о волшебном соотношении. Есть ли оно, и если да, то могут ли там быть начинки?#2#
22#9#От нашего спонсора - Пиццерия Аликанте: Без глутамата натрия с 2003 года.#3#
24#-#Наш критик пиццы вернулся из новой пиццерии. Вот, что он сказал:#1#c2
24#31#Завтра весь день ожидается солнечная погода и ливни всю остальную неделю. Короче говоря: иди пиццу покупать пока не стало с неба капать. #2#
24#12#От нашего спонсора - Быстрые Печи Моменто: Хотите, вашу пиццу в один момент? Купи себе Моменто!#3#
26#8#Является ли пицца совершенной едой? Исследования говорят - да.#1#
26#11#К другим новостям: Популярность пиццы среди бездомных выросла, после того как таинственный бродяга построил себе приют из коробок от пиццы.#2#
26#20#От нашего спонсора - Стул О'Тул: Попробуйте наши стулья и расслабьте ноги.#3#
28#30#Сегодня погода теплая и солнечная - идеально подходит для кемпинга на 'Пикантном' фестивале.#1#
28#26#В Пиццериях обычно заканчиваются грибы во время Грибного фестиваля. Запасы грибов на складах взлетели; Цены на пиццу упали.#2#
28#9#От нашего спонсора - пиццерии Аликанте: Мы уравняем цену!#3#h0
28#28#Только что: Из местного зоопарка пропали медведи. Ничего не осталось, кроме обгрызенной корки от пиццы. Полиция в тупике.#3#h6
29#33#Горячая тема недели: Люди, которые не любят пиццу, и те, кто всё равно любят их самих.#1#
29#25#Местный житель был найден накрытым грибами после грибного фестиваля#2#
29#12#От нашего спонсора - Быстрые Печи Моменто: Представляем вам Моменто Блин Бластер VII. Такая быстрая Пицца бывает только в сказках.#3#
30#36#Сегодня, День Максимальной Комбо пиццы вломился в наш город! Кроме того, специальный гость - ПИЦЦАЗАВР!#1#
30#37#К другим новостям: Чикагский стиль или Нью-Йорка? Сегодня вечером мы позволим медведю выбрать.#2#
30#39#Криминальный Дозор: Местный житель использует вилку, чтобы есть пиццу.#3#
-3#29#Только что: Грабители воруют пепперони из незащищенных пиццерий. Полиция ведет расследование. #1#
-3#17#От нашего спонсора - Замки Зака: Есть ли у вас вещи стоящие дороже замка? Если так, тогда выбор очевиден. Позвоните в Замки Зака сегодня!#2#
-4#29#Только что: Пиццерию обокрали во второй раз. Грабители украли сосиски из магазина. У нас есть комментарий полиции: «Серьёзно?»#1#
-4#16#От нашего спонсора - Сигнализации Сигала: Вам бы понравилось, если бы полиция сама узнавала, когда кто-то крадёт ваши вещи, или же вы предпочитаете сообщать им об этом сами, когда уже слишком поздно?#2#
-5#-#Вот и все на сегодня. Хорошая пицца, отличная пицца.##
-6#10000#Вы можете сэкономить на поездке и воспроизвести вкус этой пиццы в домашних условиях просто намазывая кетчуп на черствый хлеб. 1/5##r1
-6#10000#Мои вкусовые рецепторы теперь навсегда испорчены соусом, это оставило шрамы в моей душе. 1/5##r1
-6#10000#Эта пицца была хуже, чем вегетарианская пицца Аликанте. 1/5##r1
-6#10000#Комбинируя сыр, соус и тесто, моя еда достигла словарного определения пиццы, но не определения съедобной. 2/5##r2
-6#10000#Моя пицца красивая на вид, но тяжеловатая на желудок. 2/5##r2
-6#10000#Мой друг рекомендовал это место. Мы больше не друзья... 2/5##r2
-6#10000#В моем блюде было больше начинки, чем теста. По крайней мере, пахло хорошо. 3/5##r3
-6#10000#Моя пицца была определенно лучше средней пиццы. 3/5##r3
-6#10000#Если вам нужна простая пицца, идите в это место. 3/5##r3
-6#10000#Моя пицца упала на землю. 3/5##r3
-6#10000#Мой заказ был только на 80% точным, но он был на 100% вкусным. 4/5##r4
-6#10000#ПИЦЦА!  О Боже!  МИЛЛИОН ЗВЕЗД. 4/5##r4
-6#10000#У меня был плохой день, потому что мой будильник не прозвонил, и я пропустил завтрак. К счастью я взял ланч. 4/5##r4
-6#10000#После визита в эту новую пиццерию, мое настроение улучшилось на один процент.  4/5##r4
-6#10000#Уберите сельдерей, лук и болгарский перец; здесь новая Святая Троица из сыра, соуса и теста, которая заставляет мой рот говорить - Аллилуйя. 4/5##r5
-6#10000#Ца такая ммм. Опицеренно. 5/5##r5
-6#10000#Пицца была так хороша, что отправила меня в пищевую кому. Я только что проснулся. 5/5##r5
-7##Я не могу описать их пиццу. Катастрофическое обслуживание. Я не был даже обслужен. ##r0, a1
-7##Я не могу описать их пиццу. Ужасное обслуживание. Я не был даже обслужен.##r0, a2
-7##Я опишу эту пиццу так. Раздражающая. Пахнет скунсом и вкус картона. Совершенно ужасно. Я дам 1/5.##r1, a1
-7##Я опишу эту пиццу так. Незавидная. Пахнет бабушкиным мылом и на вкус картон. Абсолютно ужасно. Я дам 1/5.##r1, a2
-7##Я опишу эту пиццу так. Не сбалансированная. Вкус пропадает почти мгновенно. Безжизненная. Я дам 2/5.##r2, a1
-7##Я опишу эту пиццу так. Неустойчивая. Вкус соуса исчез полностью. Бесчувственная. Я дам 2/5##r2, a2
-7##Я опишу эту пиццу так. Очень мягкая на вкус. Аромат отдает потом и дымом. Я дам 3/5.##r3, a1
-7##Я опишу эту пиццу так. Очень мягкая на вкус. Аромат отдает мускусом и сажей. Я дам 3/5.##r3, a2
-7##Я опишу эту пиццу так. Удовлетворительно. Равное соотношение сыра и соуса. Свежая. Я дам 4/5.##r4, a1
-7##Я опишу эту пиццу так. Удовлетворительно. Стабильное соотношение сыра и соуса. Хрустящая. Я дам 4/5.##r4, a2
-7##Я опишу эту пиццу так. Умопомрачительная ароматическая нотка перца. Незначительный дымный аромат, но интенсивный. Я дам 5/5.##r5, a1
-7##Я опишу эту пиццу так. Умопомрачительная ароматическая нотка перца. Крепкий на вкус соус, но интенсивный. Я дам 5/5.##r5, a2
31#41#Дворовая распродажа Аликанте: Выгодные цены на использованные ингредиенты, едва чистую посуду, и пустые коржи. Все должно быть продано - чтобы я мог косить свою лужайку.#1#
31#42#К другим новостям: Пиццачусетский Институт Вкусологии аттестован как самый вкусный институт в стране!#2#
31#43#Наконец, Теневые сообщества формируют имидж вашей пиццы! Кто они и какие у них права на это?#3#
35#44#Сегодня вечером на ПЕЧНОМ КАМНЕ: Последователи Священных Ингредиентов. Эксцентричный культ или опытный консорциум поставщиков, захватывающий рынок?#1#
35#45#К другим новостям: Банда Глубокая Тарелка угрожает поставщикам, в то же время Последователи Священных Ингредиентов не были замечены в запугивании. Соус должен течь!#2#
35#46#Наконец, студенты археологии из Питцер Дам раскопали гробницу Пиццианского фараона, Пеппертити.#3#
-12#48#Сегодня вечером на ПЕЧНОМ КАМНЕ: Грибы. Загнивание, было ли оно когда-либо вкусным?#1#a1
-12#49#От нашего спонсора - Мистические Предсказания Пиццы: Мы определим вашу судьбу за 30 минут или ваше будущее не определено.#2#a1
-12#50#Отдайте дань уважения королю трав и усладите свои вкусовые рецепторы королевским вкусом в эту Субботу на Фестивале Базилика.#1#a2
-12#51#К другим новостям: Учёные обнаружили поразительную связь между депрессией и недостаточным потреблением пиццы.#2#a2
-12#52#Наконец, Профессор из П.И.В. утверждает, что смерть Пеппертити, вероятно, наступила из-за недостатка пиццы.#3#a2
-16#53#Этот ингредиент в пицце снизит риск сердечных заболеваний, диабета второго типа, ожирения и некоторых форм рака.#1#a1
-16#54#Сегодня вечером на ПЕЧНОМ КАМНЕ: Ананасы! Они просто делают вашу пиццу мокрой или же они кусочки сладкого солнечного света в твоем рту?#2#a1
-16#55#От нашего спонсора: Дайте вашей печи немного любви с бесплатной оценкой модернизации от Печи Печкина.#3#a1
-16#56#Вытащите ваши карандаши из ваших ананасов и отметьте в ваших календарях - Ананасовый Фестиваль в эту Субботу!#1#a2
-16#57#Сегодня вечером на ПЕЧНОМ КАМНЕ: Оливки. От начинки для пиццы до сырья для топлива, что оливки могу дать ещё?#2#a2
-16#58#К другим новостям: "Пиццерийные Войны. Эпизод 5: Сотрудники Режут на Себя" бьёт рекорды сборов.#3#a2
-15#59#Цены на тесто на подъеме, несмотря на вероятность сползания сыра.#1#a1
-15#60#Сегодня вечером на ПЕЧНОМ КАМНЕ: Сладкий перец. Один цвет в спектре перца затмевает остальные, но который хорош для тебя?#2#a1
-15#61#К другим новостям: Организация Объединённых Наций обещает бороться с голодом, поставляя пиццу обедневшим народам.#3#a1
-15#62#Ожиданию конец, Пшеничный Фестиваль доставит пользу цельного зерна толерантным к глютену людям в эту Субботу!#1#a2
-15#63#Сегодня вечером на ПЕЧНОМ КАМНЕ: Лук. От неприятного запаха до слёз, вещи которые мы делаем с луком, который мы любим.#2#a2
-15#64#К другим новостям: Эксперты стараются изо всех сил расшифровать рецепты из свитков Соусовидцев.#3#a2
-19#65#Только что: Пеппертити пропала! Может быть, это древнее проклятие, предсказанное Соусовидцами?#1#
-19#66#К другим новостям: Местные пиццерии присоединились к популярному сервису обзоров: ЦаЧарт! #2#
-19#66#Песни звучат и пиццы летают. Похоже, у нас есть новый номер один.#3#y5
-19#66#Пиццерия обещает быструю доставку пиццы. Этот новый магазин может не быть лидером, но они быстро преуспевают.#3#y4
-19#66#Пиццерия не слишком преуспевающая, однако её патриотичные защитники заявляют о своей верности их пицце.#3#y3
-19#66#Пиццерия делает крошечные порции посредственной пиццы, что, если разобраться, не заслуживает упоминания.#3#y2
-19#66#Вероятно, места, где делают невкусную пиццу должны быть запрещены.#3#y1
-14#67#ПИВ едва побеждает Питцер Дам в горячем возвращении в четвертом четвертьфинале - подробности в одиннадцать!#1#a1
-14#68#Сегодня вечером на ПЕЧНОМ КАМНЕ: Являются ли анчоусы мясом, и должны ли вы ожидать что они будут на мясной пицце?#2#a1
-14#69#От нашего спонсора - Жизнь без Жуков: Мы досаждаем жукам, чтобы жуки не досаждали Вам!#3#a1
-14#70#Сплавайте за крошечной рыбкой с сильным ароматом на Фестиваль Анчоусов в эту Субботу!#1#a2
-14#71#К другим новостям: Прорыв в сыроделии может привести к появлению нового изолированного сыра, который не будет прожигать ваш рот насквозь.#2#a2
-14#72#От нашего спонсора - ЦаЧарт: Начерти график, построй диаграмму и оставь отзыв о твоей пицце!#3#a2
-13#73#Новые исследования обнаружили, что начинка из пиццы может убить вашего питомца!#1#a1
-13#74#Сегодня вечером на ПЕЧНОМ КАМНЕ: Канадский бекон, ветчина, и разница между ними, что может изменить вашу жизнь.#2#a1
-13#75#К другим новостям: Пиццачусетский Институт Вкусологии предоставляет стипендии молодым Пиццеделам.#3#a1
-13#76#Ослабьте ремни и приготовьтесь объедаться на Фестивале Свинины в это Воскресенье!#1#a2
-13#77#К другим новостям: есть пятидесяти процентная вероятность ливней на эти выходные, и 50% скидка на ваш второй кусок в участвующих пиццериях.#2#a2
-13#64#Наконец, археологи, исследуя древние кухни Начинкаммона, нашли свитки Соусовидцев.#3#a2
-17#78#Больше никаких запретов от священников и Соусовидцев, божественная комбинация ветчины и ананаса доступна для всех на Гавайском Фестивале в эту Субботу!#1#
-17#79#Сегодня вечером на ПЕЧНОМ КАМНЕ: Глубокая сковородка против плоского противня. Наши эксперты спорят на дебатах века.#2#
-17#72#От нашего спонсора - ЦаЧарт: Узнайте, какая пицца на вершине рейтинга!#3#
-9##Это выпуск новостей о пицце: Сегодня нет новостей!#1#
-9##Мы вернёмся к нашему обычному расписанию. Но вначале, слово нашим спонсорам!#1#
-9##Мы с сожалением сообщаем вам, что сегодня в мире пиццы нет никаких новостей. Но, пожалуйста, найдите время, чтобы послушать наших спонсоров!#1#
-9##Наше 24/7 вещание посвященное мировым новостям о пицце существует благодаря нашим зрителям таким как вы, и конечно же, нашим спонсорам.#1#
-9##В то время как наша команда собирает последние мировые новости о пицце, давайте дадим слово нашим спонсорам!#1#
-9##СРОЧНЫЕ НОВОСТИ: Нет никаких новостей! Но вместо этого, мы дадим слово нашим спонсорам!#1#
-10#74#Гав гав руфф боф воф руфф.#1#r2
-10#83#Руфф руфф гав вуф гав гав гав.#2#r2
-10#73#Руфф вуф вуф гав грррр.#3#r2
-10##Рудд ризза, реат ризза!#4#r2
-18#80#Только что: Юный шеф-повар бьется с пищевыми монстрами используя жвачку и черепашьи панцири.#1#a1
-22#85#Забавный факт! Диета, состоящая исключительно из мяса, углеводов и сыра, не является вредной для здоровья. #1#a1
-23#86#Забавный факт! В США, 1 из 8 Американцев ест пиццу каждый день, каждую секунду съедается около 350 ломтиков пиццы!#1#a1
-24#87#Сегодня в науке, энтомолог Тимоти Орегано открыл новый вид Божьей Коровки с желтым телом и красными точками, как пепперони на сыре.#1#a1
-24#87#Кроме того, жук выделяет защитную смесь, которая пахнет как свежеиспеченная пицца. Многие ученые считают что это, по иронии, сделало жука более уязвимым для хищников.#2#a1
-25#88#Пакмен. Были ли эти точки, которые он ел, на самом деле сырными дисками? Оказал ли его дизайн значительное влияние на классическую сырную пиццу, или это простое совпадение? Ещё по теме в 11!#1#a1
-25#88#Вишня, клубника, апельсин, яблоко и манго. Длинная рука плодовой индустрии и причина отсутствия в Пакмен овощей.#2#a1
-26#89#К другим новостям, популярная франшиза видеоигр Монстры Пиццы продала более миллиона единиц своей новейшей игры в первую неделю после релиза!#1#a1
-26#89#Игра следует за главным героем Кэшем Кетчупом и его приятелем Пиццачу, когда они путешествуют по миру, тренируя пицце-монстров, чтобы сразиться с озорной Командой Рикотты.#2#a1
-20#81#В заключении: Так же странно как она исчезла, Пеппертити вернулась, забрызганной соусом!#1#
-20#82#Какие еще тайны хранит прошлое о пицце и, если на то пошло, что хранит будущее? Полагаю, завтра мы узнаем.#2#
-11#83#Только что: Вредители заражают пиццерии по всему городу. Является ли ваше местное заведение общественного питания чистым? Это и многое другое после слов наших спонсоров.#1#a1
-11#84#Патруль по Предотвращению Поеданию Пиццы Паразитами: Мы обещаем защитить вашу пиццерию, поэтому ваша пицца свободна - от вредителей!#2#a1
-11#83#Результаты опроса: Вредители, которые досаждают местным пиццериям, предпочитают пепперони.#1#a2
-11#84#Первая Служба Безопасности и Контроля за Вредителями: мы сохраняем вашу пищу от вредителей, поэтому вам не нужно беспокоиться самим.#2#a2
46#114#Лучшее приложение о котором вы не слышали или пустая трата памяти телефона? Сегодня на канале, мы поговорим о горячей новинке недели: Пиццапедия.#1#ip1
46#114#Пицце-ориентированный словарь Пиццапедия, ожидаемое многими приложение, вышло показав низкие результаты, оно будет закрыто до конца этого года.#1#ip0
46#114#Мы не смогли связаться с создателем приложения чтобы получить комментарии. По словам владельца его последнего места проживания, с момента выселения о нем не было ничего слышно.#2#ip0
77#110#Оставайтесь с нами и смотрите интервью с основателем компании ЦаВрум Руфусом Голдворфом, кто, после многих лет будучи бездомным, совершенно потрясен успехом своего нового приложения!#1#iz1
77#109#От лохмотьев к богатству: как человек идёт от жизни на улице к тому, чтобы стать генеральным директором одной из самых быстрорастущих компаний в стране?#1#iz0
77#110#Не пропустите наше вдохновляющее интервью с Руфусом Голдворфом, где мы поговорим о том как ЦаВрум умудряется доставлять пиццу эффективно и с любовью одновременно.#2#iz0
-5#-#Вот и все на сегодня. Хорошая пицца, отличная пицца.##
-318#111#С возвращением божества наслаждения вкусом, Соусовидцы снова исчезли вернувшись в тень.#1#
-318#112#Далее: от штаб-квартиры тайного общества до места проведения Международной Конвенции по Пицце. Почему у одного участка земли столько истории?#2#
-301#90#ПиццаКон, крупнейшая мировая торговая выставка основанная на приготовлении и продаже продуктов из лепешек, посетит наш город уже в этом месяце!#1#
-301#91#С наплывом клиентов, спешащих в город, чтобы получить билеты и отели заранее на мероприятие, местные пиццерии должны ожидать, что их бизнес ожидает бум!#2#
-301#92#Получите значок ПиццаКон сегодня!#3#
-317#113#После чрезвычайно успешного тестового прогона в крупных городах по всей стране, ЦаВрум наконец-то прибыла в наш город!#1#
-317#113#Выберите места, в которых уже получили фирменные подогреватели пиццы. Будьте уверенны что скачали приложение на ваш МайПад сегодня!#2#
-317#116#От нашего спонсора - ЦаЧарт: Помогаем вам найти кратчайший путь к идеальной пицце.#3#
-302#90#ПиццаКон уже за углом. Если вы часто посещаемая пиццерия в городе, ожидайте увидеть приглашение на ПиццаПалузу, знаменитое состязание пекарей пиццы!#1#
-302#93#Доктор Кех, победитель ПиццаПалузы на протяжении пяти лет в подряд, будет участвовать снова. Должны ли мы ожидать другого результата в этом году?#2#
-303#94#Если вы планируете посетить ПиццаКон, не забудьте скачать приложение ВРейтинге, чтобы увидеть, где обосновалась ваша любимая пиццерия относительно остальных!#1#
-303#103#Пятизвездочный Ресторан "Амброзия", принадлежащий доктору Майклу Кеху, в настоящее время находится на первом месте и собирается выиграть конкурс в этом году.#2#
-303#115#Сегодня вечером на ПЕЧНОМ КАМНЕ: человечество зашло слишком далеко? Мы обсуждаем озорной ИИ, который совершал телефонные розыгрыши по всей стране.#3#
-304#95#Недавнее исследование задается животрепещущим вопросом: порозовеет ли ваша кожа, если есть слишком много креветок? Результаты не являются окончательными.#1#
-304#96#Продажи богатых на вкус морских продуктов взлетели до небес. Но, пожалуйста, воздержитесь от переедания, чтобы избежать боли в животе!#2#
-305#97#Креветки на пицце, популяризованные доктор Кехом в «Особом Летнем» меню, стали хитом в местных пиццериях.#1#
-305#97#Как результат, мы видим как такие компании как [Player’s Restaurant Name] набирают обороты в гонке ПиццаПалузы. Вы все можете объедаться там!#2#
-306#98#Мы беседовали с диетологом о пользе кукурузы и курятины в пицце. Он заявил, «В результате это будет… птичник.»#1#
-306#98#Тем не менее, PNN понимает важность и пропагандирует здоровый образ жизни. Обязательно попробуйте более здоровые начинки на вашей пицце сегодня!#2#
-307#99#Местные пиццерии такие как [Player’s Restaurant Name] начали предлагать кукурузу в качестве начинки, и результаты по-тря-са-ю-щи-е!#1#
-307#99#Такие рестораны отметили незначительный рост позиций ВРейтинге, но кукурузность каламбуров увеличилась на 1000%!#2#
-308#100#Местные пиццерии по-своему интерпретировали выражение «улыбнитесь, сейчас вылетит птичка». Куриные грудки приземлились как раз вовремя для ПиццаКон!#1#
-308#100#Обсуждаемый сегодня предприниматель, [Player’s Restaurant Name], один из тех кто первыми предложили это вкусное мясо в качестве начинки для пиццы. Убедитесь в этом сами!#2#
-319#85#Пицца со здоровыми протеинами созданная местной пиццерией теперь в тренде в социальных сетях после публикации известного атлета.#1#
-319#85#Если вы ещё не пробовали её, вы будете скучать по её потрясающим питательным качествам!#2#
-309#101#ПиццаКон идёт всего несколько дней, но местные жители уже имеют шанс получить первый взгляд на вероятный финал на ПиццаПалузе.#1#
-309#101#Будет ли доктор Майкл Кех, который занимал первую строчку ВРейтинге рекордные 24 недели, повержен идущей вверх [Player’s Restaurant Name]? Оставайтесь с нами чтобы узнать это!#2#
-310#102#Печи разгораются в отборочных на ПиццаКон для международной ПиццаПалузы! Но, похоже, они теряют жар в [Player’s Restaurant Name].#1#
-310#102#Сможет ли пиццерия, восходящий фаворит соревнования в этом году, восстановиться после поражения от доктора Майкла Кех’а?#2#
-311#102#[Player’s Restaurant Name] получил ничью с доктором Кехом, предыдущий исторический результат был зафиксирован на Квартальной Вечеринке Пекарей Штата в 1924!#1#
-311#102#Ни Кех ни отчаянная пиццерия не комментируют решение судей, хотя последняя прыгнула на второе место ВРейтинге!#2#
-321#90#День открытия ПиццаКон будет представлен знаменитыми лекторами, такими как генеральный директор ЦаВрум Руфус Голдворф и интернет-звезда Даяна Ломтик.#1#
-321#94#Не забудьте проголосовать за ваш любимый ресторан на ВРейтинге! Лучшие два финалиста сойдутся лицом к лицу на соревновании ПиццаПалузы!#3#
-320#118#Пиццерии по всему миру борются за право участвовать в миссии КосмикЦа, чтобы доставить первую пиццу на Марс.#1#
-320#118#Однако пуристы от пиццы обеспокоены тем что недостаточная гравитация может негативно сказаться на вкусе.#2#
-312#103#Финалисты PizzaCon международной ПиццаПалузы определены! ‘Амброзия’ Доктора Кеха с комфортом расположилась на первом месте ВРейтинге.#1#
-312#103#Ему придётся столкнуться с [Player’s Restaurant Name] в самых вкусных разборках в мире в эти выходные! Удачи вам обоим!#2#
-313#103#Финалисты PizzaCon международной ПиццаПалузы определены! ‘Амброзия’ Доктора Кеха с комфортом расположилась на первом месте ВРейтинге.#1#
-313#103#ПиццаПалуза гарантированно будет взрывом. Но мы не можем не думать о том, каким могло бы быть это соревнование, если бы в нем была новая отчаянная пиццерия.#2#
-314#104#ПиццаКон подходит к концу, а всемирно известный шеф-повар доктор Майкл Кех выиграл желанную награду Платиновый Корж.#1#
-314#104#Другие пиццерии делали сильные попытки к концу конвенции, но Кех стоит в одиночестве на вершине ВРейтинге.#2#
-315#105#Доктор Майкл Кех, дискредитированный предприниматель, который был известен созданием «идеальной пиццы», в настоящее время исчез и разыскивается за мошенничество.#1#
-315#106#Сегодня вечером на ПЕЧНОМ КАМНЕ: [Player’s Restaurant Name]. Их новообретенный успех основан на искусственном ароматизаторе, или это настоящее искусство? Подробнее в 11 часов.#2#
-316#107#‘Амброзия’ закрыла свои двери. Доктор Майкл Кех сообщил что он намерен посвятить остаток своей жизни поискам “идеального вкуса”.#1#
-316#108#К другим новостям: любители пиццы приходят толпами чтобы посетить [Player’s Restaurant Name], которая достигла первого места ВРейтинге. Это новый улучшенный рецепт или люди просто любят классику?#2#
