{
	"Orange_S":{"Name":"橘子","Icon":"Orange.png","Scale":0.5,"TaskIcon":"icontask_Orange","Fruit":"Orange","HasBubble":1,"Money":100, "HP":500, "Width":1, "Height":1, "ImageWidth":70, "ImageHeight":70, "CollideWidth":70, "CollideHeight":70,"HPBarY":30  ,"EffectOffsetY":-11},
	"Bubble_S":{"Name":"气泡","Icon":"paopao.png","Scale":0.5,"TaskIcon":"icontask_Bubble","HasBubble":1,"Money":100, "HP":200, "Width":1, "Height":1,"ImageWidth":70, "ImageHeight":70, "CollideWidth":70, "CollideHeight":70,"HPBarY":30  ,"EffectOffsetY":-11},
	
	"Bubble_11":{"Name":"气泡","Icon":"paopao.png","Scale":0.5,"TaskIcon":"icontask_Bubble","HasBubble":1,"Money":100, "HP":2000, "Width":1, "Height":1, "ImageWidth":70, "ImageHeight":70,"CollideWidth":70, "CollideHeight":70,"HPBarY":30  ,"EffectOffsetY":-11},
	"Bubble_22":{"Name":"大气泡","Icon":"paopao.png","Scale":1,"TaskIcon":"icontask_Bubble","HasBubble":1,"Money":400, "HP":8000, "Width":2, "Height":2, "ImageWidth":140, "ImageHeight":140,"CollideWidth":140, "CollideHeight":140,"HPBarY":50  ,"EffectOffsetY":-11},
	
	"Random_11":{"Name":"随机食物","Icon":"RandomFood.png","Scale":0.5,"TaskIcon":"icontask_RandomFood","Fruit":"Random","HasBubble":1,"Money":100, "HP":2000, "Width":1, "Height":1,"ImageWidth":70, "ImageHeight":70, "CollideWidth":70, "CollideHeight":70,"HPBarY":30  ,"EffectOffsetY":-11},
	"Random_22":{"Name":"随机大食物","Icon":"RandomFood.png","Scale":1,"TaskIcon":"icontask_RandomFood","Fruit":"Random","HasBubble":1,"Money":400, "HP":8000, "Width":2, "Height":2, "ImageWidth":140, "ImageHeight":140,"CollideWidth":140, "CollideHeight":140,"HPBarY":50  ,"EffectOffsetY":-11},
	"Orange_11":{"Name":"橘子","Icon":"Orange.png","Scale":0.5,"TaskIcon":"icontask_Orange","Fruit":"Orange","HasBubble":1,"Money":100, "HP":2000, "Width":1, "Height":1, "ImageWidth":70, "ImageHeight":70,"CollideWidth":70, "CollideHeight":70,"HPBarY":30  ,"EffectOffsetY":-11},
	"Orange_22":{"Name":"大橘子","Icon":"Orange.png","Scale":1,"TaskIcon":"icontask_Orange","Fruit":"Orange","HasBubble":1,"Money":400, "HP":8000, "Width":2, "Height":2, "ImageWidth":140, "ImageHeight":140,"CollideWidth":140, "CollideHeight":140,"HPBarY":50  ,"EffectOffsetY":-11},
	"IceCream_11":{"Name":"雪糕","Icon":"IceCream.png","Scale":0.5,"TaskIcon":"icontask_IceCream","Fruit":"IceCream","HasBubble":1,"Money":100, "HP":2000, "Width":1, "Height":1, "ImageWidth":70, "ImageHeight":70,"CollideWidth":70, "CollideHeight":70,"HPBarY":30  ,"EffectOffsetY":-11},
	"IceCream_22":{"Name":"大雪糕","Icon":"IceCream.png","Scale":1,"TaskIcon":"icontask_IceCream","Fruit":"IceCream","HasBubble":1,"Money":400, "HP":8000, "Width":2, "Height":2, "ImageWidth":140, "ImageHeight":140,"CollideWidth":140, "CollideHeight":140,"HPBarY":50  ,"EffectOffsetY":-11},
	"Meat_11":{"Name":"烤肉","Icon":"Meat.png","Scale":0.5,"TaskIcon":"icontask_Meat","Fruit":"Meat","HasBubble":1,"Money":100, "HP":2000, "Width":1, "Height":1,"ImageWidth":70, "ImageHeight":70, "CollideWidth":70, "CollideHeight":70,"HPBarY":30  ,"EffectOffsetY":-11},
	"Meat_22":{"Name":"大烤肉","Icon":"Meat.png","Scale":1,"TaskIcon":"icontask_Meat","Fruit":"Meat","HasBubble":1,"Money":400, "HP":8000, "Width":2, "Height":2, "ImageWidth":140, "ImageHeight":140,"CollideWidth":140, "CollideHeight":140,"HPBarY":50  ,"EffectOffsetY":-11},
	"Pear_11":{"Name":"梨子","Icon":"Pear.png","Scale":0.5,"TaskIcon":"icontask_Pear","Fruit":"Pear","HasBubble":1,"Money":100, "HP":2000, "Width":1, "Height":1, "ImageWidth":70, "ImageHeight":70,"CollideWidth":70, "CollideHeight":70,"HPBarY":30  ,"EffectOffsetY":-11},
	"Pear_22":{"Name":"大梨子","Icon":"Pear.png","Scale":1,"TaskIcon":"icontask_Pear","Fruit":"Pear","HasBubble":1,"Money":400, "HP":8000, "Width":2, "Height":2, "ImageWidth":140, "ImageHeight":140,"CollideWidth":140, "CollideHeight":140,"HPBarY":50  ,"EffectOffsetY":-11},
	
	"1_Low_11":{"Name":"鼻涕菇","Icon":"mushroom0.png","AnimName":"mushroom","HitAct":"hit","TaskIcon":"icontask_mushroom", "Money":100, "HP":2000, "Width":1, "Height":1, "ImageWidth":70, "ImageHeight":70,"CollideWidth":70, "CollideHeight":70,"HPBarY":30,"modeOffsetX":3,"EffectOffsetY":-11},
	"1_Low_21":{"Name":"藤蔓","Icon":"cirrus0.png","AnimName":"cirrus","HitAct":"hit","TaskIcon":"icontask_cirrus",  "Money":210, "HP":4000,"Width":2, "Height":1, "ImageWidth":132, "ImageHeight":70,"CollideWidth":140, "CollideHeight":70,"HPBarY":30,"modeOffsetY":7,"EffectOffsetY":-11},
	"1_Low_12":{"Name":"墓碑","Icon":"tombstone0.png","AnimName":"tombstone","HitAct":"hit","TaskIcon":"icontask_tombstone",  "Money":210, "HP":4000, "Width":1, "Height":2, "ImageWidth":65, "ImageHeight":101,"CollideWidth":70, "CollideHeight":140,"HPBarY":50,"modeOffsetY":-24,"EffectOffsetY":-46},
	"1_Low_22":{"Name":"眼睛花","Icon":"eyeflower0.png","AnimName":"eyeflower","HitAct":"hit","TaskIcon":"icontask_eyeflower",  "Money":440, "HP":8000, "Width":2, "Height":2, "ImageWidth":88, "ImageHeight":88,"CollideWidth":140, "CollideHeight":140 ,"HPBarY":40,"modeOffsetY":-15,"EffectOffsetY":-46},
	
	"1_High_11":{"Name":"呆南瓜","Icon":"pumpkin0.png","AnimName":"pumpkin","HitAct":"hit","TaskIcon":"icontask_pumpkin",  "Money":100, "HP":3000, "Width":1, "Height":1,"ImageWidth":70, "ImageHeight":70, "CollideWidth":70, "CollideHeight":70,"HPBarY":30,"modeOffsetX":3,"modeOffsetY":2,"EffectOffsetY":-11},
	"1_High_21":{"Name":"大王花","Icon":"rafflesia0.png","AnimName":"rafflesia","HitAct":"hit","TaskIcon":"icontask_rafflesia",  "Money":210, "HP":6000, "Width":2, "Height":1, "ImageWidth":119, "ImageHeight":60,"CollideWidth":140, "CollideHeight":70,"HPBarY":30 ,"EffectOffsetY":-11},
	"1_High_12":{"Name":"枯树桩","Icon":"stub0.png","AnimName":"stub","HitAct":"hit","TaskIcon":"icontask_stub",  "Money":210, "HP":6000, "Width":1, "Height":2, "ImageWidth":77, "ImageHeight":114,"CollideWidth":70, "CollideHeight":140,"HPBarY":40,"modeOffsetY":-28,"EffectOffsetY":-46},
	"1_High_22":{"Name":"噬人花","Icon":"humanflower0.png","AnimName":"humanflower","HitAct":"hit","TaskIcon":"icontask_humanflower","Money":440, "HP":12000, "Width":2, "Height":2, "ImageWidth":74, "ImageHeight":96,"CollideWidth":140, "CollideHeight":140,"HPBarY":30,"modeOffsetY":-22,"EffectOffsetY":-46},
	
	"Money1":{"Name":"小钱袋","Icon":"money10.png","AnimName":"money1","HitAct":"hit","TaskIcon":"icontask_money1","Money":1400, "HP":6000, "Width":1, "Height":1,"ImageWidth":70, "ImageHeight":70, "CollideWidth":70, "CollideHeight":70,"HPBarY":30,"modeOffsetY":5,"Descp1":"特殊障碍物：","Descp2":"破坏后可瞬间获得大量恐龙币。" ,"EffectOffsetY":-11},
	"Money2":{"Name":"大钱袋","Icon":"money20.png","AnimName":"money2","HitAct":"hit","TaskIcon":"icontask_money2","Money":3600, "HP":22000, "Width":2, "Height":2,"ImageWidth":70, "ImageHeight":70, "CollideWidth":140, "CollideHeight":140,"HPBarY":40,"modeOffsetY":5,"Descp1":"特殊障碍物：","Descp2":"破坏后可瞬间获得大量恐龙币。","EffectOffsetY":-46,
			"TuBiao":"qiandaitubiao_shuoming.png",	
			"ShuoMing":"daqiandai_shuoming.png","Zi":"shuomingzi04.png"	},
	"Cage" :{"Name":"牢笼","Icon":"cage0.png","AnimName":"cage","HitAct":"hit","TaskIcon":"icontask_cage","Money":400, "HP":4000,"Width":1, "Height":1,"ImageWidth":70, "ImageHeight":70, "CollideWidth":70, "CollideHeight":70,"HPBarY":30,"modeOffsetY":-7,"Descp1":"特殊障碍物：","Descp2":"破坏后才能建造被它困住的炮塔。"  ,"EffectOffsetY":-11,
			"Talk":
			[
			{"Who":0,"Content":"千帆把#神圣翼龙弓%锁起来了…"},
			{"Who":1,"Content":"别着急，打破#牢笼%就可以把炮塔夺回来！"},
			],
			"TuBiao":"laolongtubiao_shuoming.png",	
			"ShuoMing":"laolong_shuoming.png","Zi":"shuomingzi02.png"
			},
	"Bomb_1" :{"Name":"炸弹","Icon":"bomb0.png","AnimName":"bomb","HitAct":"hit","Fruit":"FruitBomb","TaskIcon":"icontask_bomb","Money":100, "HP":2000,"Width":1, "Height":1,"ImageWidth":55, "ImageHeight":66, "CollideWidth":70, "CollideHeight":70,"HPBarY":30,"modeOffsetY":0,"Descp1":"特殊障碍物：","Descp2":"爆炸时对周围造成大量伤害。" ,"EffectOffsetY":-11,
			"Talk":
			[
			{"Who":2,"Content":"小熠小心，千帆在这里设置了好多地雷！"},
			{"Who":1,"Content":"那是#炸弹%，打掉它们让千帆自食其果！"},
			],
			"TuBiao":"zhadan_shuoming.png",	
			"ShuoMing":"bomb_shuoming.png","Zi":"shuomingzi03.png"},
	"Trap" :{"Name":"陷阱","Icon":"bomb0.png","TaskIcon":"icontask_cage","CantBeAttack":1,"Money":400, "HP":4000, "Width":1, "Height":1,"ImageWidth":70, "ImageHeight":70,"CollideWidth":70, "CollideHeight":70,"HPBarY":30,"Descp1":"特殊障碍物：","Descp2":"不可选中，不可攻击。"  ,"EffectOffsetY":-11},
	
	"XiongDong" :{"Name":"熊洞","Icon":"cage0.png","TaskIcon":"icontask_xd",   "Money":440, "HP":4000,"Width":1, "Height":1,"ImageWidth":70, "ImageHeight":70, "CollideWidth":70, "CollideHeight":70, "MoneyGet":4, "MoneyCD":2,"Descp1":"特殊障碍物：","Descp2":"持续提供恐龙币，主动拆除可一次性获得大量恐龙币。" ,"EffectOffsetY":-11},
	"Fort" :{"Name":"堡垒模式","Icon":"","Money":400, "HP":200000, "Width":1, "Height":2,"ImageWidth":70, "ImageHeight":140,"CollideWidth":70, "CollideHeight":140,"HPBarY":100,"Descp1":"特殊模式：","Descp2":"保护基地并赶走千帆，获得胜利。" ,"EffectOffsetY":-11},
	"Boss" :{"Name":"堡垒模式","Icon":"Boss.png","Money":400, "HP":200000, "Width":1, "Height":2,"ImageWidth":70, "ImageHeight":140,"CollideWidth":70, "CollideHeight":140,"HPBarY":125,"Descp1":"特殊模式：","Descp2":"保护基地并赶走千帆，获得胜利。" ,"EffectOffsetY":-11,
			"Talk":
			[
			{"Who":0,"Content":"千帆又来了！向他#集中火力%！"},
			{"Who":1,"Content":"不过也要小心千帆的#突袭%！"},
			],"TuBiao":"donghua","ShuoMing":"baolei_shuoming.png","Zi":"shuomingzi01.png"},
			
	"Net" :{"Name":"冰块","Icon":"ice.png","TaskIcon":"icontask_ice","AnimName":"bingkuai","Money":100, "HP":10000,"Width":1, "Height":1,"ImageWidth":70, "ImageHeight":70, "CollideWidth":70, "CollideHeight":70 ,"modeOffsetY":0,"EffectOffsetY":-11},
	"Net2" :{"Name":"捕兽网","Icon":"paopao.png","TaskIcon":"icontask_net","AnimName":"net","Money":100, "HP":20000,"HPBarY":30,"Width":1, "Height":1,"ImageWidth":70, "ImageHeight":70,"CollideWidth":70, "CollideHeight":70 ,"EffectOffsetY":-11},
	"MapFengche":{"Icon":"paopao.png","AnimName":"fengche","ActName":"fengche2" }
}