{
	"Type":3,
	"Money":500,
	"Bg":"Level/Level_map/Bg_1.jpg",
	"ShowPhy":0,

	"StarTime":[
		{"Star2":240,"Star3":180},
		{"Star2":380,"Star3":240},
		{"Star2":200,"Star3":100}		
	],
	"NormalAddHp":1.4,
	"HardAddHp":1.7,
	"CrazyAddHp":2,
	
	"HPRate":1,
	"HPBase":9000,
	"HPBase2":9000,
	
	"FortHP":200000,
	
	"HitMe":1,
	"HitMeOffY":130,
	
	"Towers":[
		"YanHua","HuoChai","HuoGuo","PingGuoZhaDan","LengDong"
	],
	
	
	"QuestIntro":"保护大树的同时，击败乱扔东西的光头强",	
	"Quest2":[
	{"Type":102,"Args":"YanHua,40"}
	],
	"Quest3":[
	{"Type":201,"Args":"Net,2","Time":320},	
	{"Type":502},
	{"Type":501}
	],	
	
	"Home":{"File":"anim/home/home.ExportJson","Anim":"home","HPBarX":-45,"HPBarY":55},

	"MonsterCreaterNoWait":0,
	"Monsters":[
	[ 
			{"Type":"1_SlowRandom","HP":100,"Speed":140,"Count":3,"Time":0.7,"NextTime":0.7,"Wave":1},
			{"Type":"1_SlowRandom","HP":100,"Speed":140,"Count":3,"Time":0.7,"NextTime":4,"Wave":1}
		],
		[
		    {"Type":"1_SlowRandom","HP":200,"Speed":140,"Count":3,"Time":0.7,"NextTime":0.7,"Wave":2},
			{"Type":"1_SlowRandom","HP":200,"Speed":140,"Count":3,"Time":0.7,"NextTime":4,"Wave":2}
		],
		[
		    {"Type":"1_FastRandom","HP":300,"Speed":200,"Count":1,"Time":0.7,"HoneyMonster":"S_Honey,0.1","NextTime":0.7,"Wave":3},
			{"Type":"1_FastRandom","HP":300,"Speed":200,"Count":3,"Time":0.7,"NextTime":4,"Wave":3},
			{"Type":"1_FastRandom","HP":300,"Speed":200,"Count":4,"Time":0.7,"NextTime":4,"Wave":3}
		],
		[
		    {"Type":"1_FastRandom","HP":500,"Speed":200,"Count":4,"Time":0.7,"NextTime":0.7,"Wave":4},
			{"Type":"1_FastRandom","HP":500,"Speed":200,"Count":4,"Time":0.7,"NextTime":4,"Wave":4}
		],
		[
			{
				"Type":"FlyGuangTouQiang","HP":180000,"Speed":300,"Count":1,"Time":1,"NextTime":4,"Sound":"shuaguai.wav","MoveCount":2,"Wave":5,
				"Skill":
				[
					{"SkillType":2,"MonsterType":"Slow1","HP":900,"Speed":140,"MonsterTime":0.7,"MonsterCount":10}
				]
			}
		],
		[
		    {"Type":"1_SlowRandom","HP":1800,"Speed":140,"Count":5,"Time":0.7,"NextTime":0.7,"Wave":6},
			{"Type":"1_SlowRandom","HP":1800,"Speed":140,"Count":5,"Time":0.7,"NextTime":4,"Wave":6}
		],
		[
		    {"Type":"1_SlowRandom","HP":2200,"Speed":140,"Count":7,"Time":0.5,"NextTime":0.7,"Wave":7},
			{"Type":"1_SlowRandom","HP":2200,"Speed":140,"Count":8,"Time":0.5,"NextTime":4,"Wave":7}
		],
		[
		    {"Type":"1_SlowBossRandom","HP":10800,"Speed":100,"Count":1,"Time":0.7,"NextTime":1.5,"Wave":8},
			{"Type":"1_SlowBossRandom","HP":10800,"Speed":100,"Count":1,"Time":0.7,"NextTime":1.5,"Wave":8},
			{"Type":"1_SlowBossRandom","HP":10800,"Speed":100,"Count":1,"Time":0.7,"NextTime":1.5,"Wave":8},
			{"Type":"1_SlowBossRandom","HP":10800,"Speed":100,"Count":1,"Time":0.7,"NextTime":4,"Wave":8}
		],
		[
		    {"Type":"1_SlowRandom","HP":3000,"Speed":140,"Count":5,"Time":0.5,"NextTime":0.5,"SadSound":"GtqSad","Wave":9},
			{"Type":"1_SlowRandom","HP":3000,"Speed":140,"Count":5,"Time":0.5,"NextTime":4,"Wave":9}
		],
		[
			{
					"Type":"FlyGuangTouQiang","HP":180000,"Speed":300,"Count":1,"Time":1,"NextTime":4,"Sound":"shuaguai.wav","MoveCount":2,"Wave":10,
				"Skill":
				[
					{"SkillType":1}
				]
			}
		],
		[
		    {"Type":"1_FastRandom","HP":4000,"Speed":200,"Count":5,"Time":0.7,"NextTime":0.7,"Wave":11},
			{"Type":"1_SlowRandom","HP":5200,"Speed":140,"Count":5,"Time":0.7,"NextTime":4,"Wave":11}
		],
		[
		    {"Type":"1_SlowRandom","HP":6200,"Speed":140,"Count":5,"Time":0.7,"NextTime":0.7,"Wave":12},
			{"Type":"1_FastRandom","HP":4800,"Speed":200,"Count":5,"Time":0.7,"NextTime":4,"Wave":12}
		],
		[
		    {"Type":"1_SlowRandom","HP":7200,"Speed":140,"Count":5,"Time":0.7,"NextTime":0.7,"Wave":13},
			{"Type":"1_SlowRandom","HP":7200,"Speed":140,"Count":5,"Time":0.7,"NextTime":4,"Wave":13}
		],
		[
		    {"Type":"1_FastRandom","HP":5600,"Speed":200,"Count":5,"Time":0.7,"NextTime":0.7,"Wave":14},
			{"Type":"1_FastRandom","HP":5600,"Speed":200,"Count":5,"Time":0.7,"NextTime":4,"Wave":14}
		],
		[
			{
					"Type":"FlyGuangTouQiang","HP":180000,"Speed":300,"Count":1,"Time":1,"NextTime":4,"Sound":"shuaguai.wav","MoveCount":3,"Wave":15,
				"Skill":
				[
					{"SkillType":1},
					{"SkillType":2,"MonsterType":"Fast1","HP":3200,"Speed":200,"MonsterTime":0.7,"MonsterCount":15}
				]
			}
		],
		[
		    {"Type":"1_SlowRandom","HP":8200,"Speed":140,"Count":5,"Time":0.7,"NextTime":0.7,"Wave":16},
			{"Type":"1_SlowRandom","HP":8200,"Speed":140,"Count":5,"Time":0.7,"NextTime":4,"Wave":16}
		],
		[
		    {"Type":"1_SlowRandom","HP":9200,"Speed":140,"Count":10,"Time":0.7,"NextTime":0.7,"Wave":17},
			{"Type":"1_SlowRandom","HP":9200,"Speed":140,"Count":1,"Time":0.7,"NextTime":0.7,"Wave":17},
			{"Type":"1_SlowRandom","HP":9200,"Speed":140,"Count":10,"Time":0.7,"NextTime":4,"Wave":17}
		],
		[
			{"Type":"1_FastRandom","HP":8800,"Speed":140,"Count":5,"Time":0.7,"NextTime":0.7,"Wave":18},
			{"Type":"1_FastBossRandom","HP":26000,"Speed":200,"Count":1,"Time":0.7,"NextTime":4,"Wave":18}
		],
		[
		    {"Type":"1_SlowRandom","HP":11000,"Speed":140,"Count":5,"Time":0.7,"NextTime":0.7,"SadSound":"GtqFawei","Wave":19},
			{"Type":"1_SlowRandom","HP":11000,"Speed":140,"Count":5,"Time":0.7,"NextTime":4,"Wave":19}
		],
		[
			{
					"Type":"FlyGuangTouQiang","HP":180000,"Speed":300,"Count":1,"Time":1,"NextTime":4,"Sound":"shuaguai.wav","MoveCount":4,"Wave":20,
				"Skill":
				[
					{"SkillType":1},
					{"SkillType":2,"MonsterType":"SlowBoss1","HP":10000,"Speed":100,"MonsterTime":2,"MonsterCount":3},
					{"SkillType":1}
				]
			}
		]
	]
}