{
	"Type":3,
	"Money":1000,
	"Bg":"Level/Level_map/Bg_1.jpg",
	"ShowPhy":0,
	
	"StarTime":[
		{"Star2":430,"Star3":400},
		{"Star2":260,"Star3":240},
		{"Star2":2000,"Star3":1000}		
	],
	"HardAddHp":1.5,
	"CrazyAddHp":2,
	
	"HPRate":1,
	"HPBase":5000,
	"HPBase2":5000,
	
	"FortHP":30000,
	"IntroObj":"Boss",
	
	"HitMe":1,
	"HitMeOffY":130,
		
	"Tutorial":["AtkFort"],
	
	"Towers":[
		"HuoChai","PingGuoZhaDan","LengDong"
	],
	
	"Story":[
		{"Anim":"Bear2","Pos":"R","Msg":"FortX1","Snd":""},
		{"Anim":"Bear1","Pos":"L","Msg":"FortX2","Snd":""}
	],
	
	"QuestIntro":"",	
	
	"Quest2":[
	{"Type":201,"Args":"Pear_11,8","Time":180}
	],
	
	"Home":{"File":"anim/home/home.ExportJson","Anim":"home","HPBarX":-45,"HPBarY":-55},

	"MonsterCreaterNoWait":0,
	"Monsters":[
	[ 
			{"Type":"1_SlowRandom","HP":100,"Speed":140,"Count":5,"Time":0.7,"NextTime":0.7,"Wave":1},
			{"Type":"1_SlowRandom","HP":100,"Speed":140,"Count":5,"Time":0.7,"NextTime":4,"Wave":1}
		],
		[
		    {"Type":"1_SlowRandom","HP":200,"Speed":140,"Count":5,"Time":0.7,"NextTime":0.7,"Wave":2},
			{"Type":"1_SlowRandom","HP":200,"Speed":140,"Count":5,"Time":0.7,"NextTime":4,"Wave":2}
		],
		[
			{
				"Type":"FlyGuangTouQiang","HP":20000,"Speed":300,"Count":1,"Time":1,"NextTime":4,"Sound":"shuaguai.wav","MoveCount":2,"Wave":3,
				"Skill":
				[
					{"SkillType":2,"MonsterType":"Slow1","HP":400,"Speed":140,"MonsterTime":0.7,"MonsterCount":10}
				]
			}
		],
		[
		    {"Type":"1_FastRandom","HP":600,"Speed":200,"Count":5,"Time":0.7,"NextTime":0.7,"Wave":4},
			{"Type":"1_FastRandom","HP":600,"Speed":200,"Count":5,"Time":0.7,"NextTime":4,"Wave":4}
		],
		[
			{
				"Type":"FlyGuangTouQiang","HP":20000,"Speed":300,"Count":1,"Time":1,"NextTime":4,"Sound":"shuaguai.wav","MoveCount":2,"Wave":5,
				"Skill":
				[
					{"SkillType":2,"MonsterType":"Slow2","HP":800,"Speed":140,"MonsterTime":1,"MonsterCount":10}
				]
			}
		],
		[
		    {"Type":"1_SlowRandom","HP":1200,"Speed":140,"Count":5,"Time":0.7,"NextTime":0.7,"Wave":6},
			{"Type":"1_SlowRandom","HP":1200,"Speed":140,"Count":5,"Time":0.7,"NextTime":4,"Wave":6}
		],
		[
		    {"Type":"1_SlowRandom","HP":1600,"Speed":140,"Count":8,"Time":0.5,"NextTime":0.7,"Wave":7},
			{"Type":"1_SlowRandom","HP":1600,"Speed":140,"Count":8,"Time":0.5,"NextTime":4,"Wave":7}
		],
		[
			{
				"Type":"FlyGuangTouQiang","HP":20000,"Speed":300,"Count":1,"Time":1,"NextTime":4,"Sound":"shuaguai.wav","MoveCount":2,"Wave":8,
				"Skill":
				[
					{"SkillType":2,"MonsterType":"SlowBoss2","HP":8000,"Speed":100,"MonsterTime":1,"MonsterCount":5}
				]
			}
		],
		[
		    {"Type":"1_SlowRandom","HP":2400,"Speed":140,"Count":5,"Time":0.5,"NextTime":0.5,"SadSound":"GtqSad","Wave":9},
			{"Type":"1_SlowRandom","HP":2400,"Speed":140,"Count":5,"Time":0.5,"NextTime":4,"Wave":9}
		],
		[
			{
					"Type":"FlyGuangTouQiang","HP":20000,"Speed":300,"Count":1,"Time":1,"NextTime":4,"Sound":"shuaguai.wav","MoveCount":2,"Wave":10,
				"Skill":
				[
					{"SkillType":1}
				]
			}
		],
		[
		    {"Type":"1_SlowRandom","HP":3200,"Speed":140,"Count":5,"Time":0.7,"NextTime":0.7,"Wave":11},
			{"Type":"1_SlowRandom","HP":3200,"Speed":140,"Count":5,"Time":0.7,"NextTime":4,"Wave":11}
		],
		[
		    {"Type":"1_SlowRandom","HP":3600,"Speed":140,"Count":5,"Time":0.7,"NextTime":0.7,"Wave":12},
			{"Type":"1_SlowRandom","HP":3600,"Speed":140,"Count":5,"Time":0.7,"NextTime":4,"Wave":12}
		],
		[
			{
				"Type":"FlyGuangTouQiang","HP":20000,"Speed":300,"Count":1,"Time":1,"NextTime":4,"Sound":"shuaguai.wav","MoveCount":2,"Wave":13,
				"Skill":
				[
					{"SkillType":2,"MonsterType":"FastBoss2","HP":15000,"Speed":200,"MonsterTime":2,"MonsterCount":2}
				]
			}
		],
		[
		    {"Type":"1_FastRandom","HP":4400,"Speed":200,"Count":5,"Time":0.7,"NextTime":0.7,"HoneyMonster":"S_Honey,0.02","Wave":14},
			{"Type":"1_FastRandom","HP":4400,"Speed":200,"Count":5,"Time":0.7,"NextTime":4,"Wave":14}
		],
		[
			{
					"Type":"FlyGuangTouQiang","HP":20000,"Speed":300,"Count":1,"Time":1,"NextTime":4,"Sound":"shuaguai.wav","MoveCount":3,"Wave":15,
				"Skill":
				[
					{"SkillType":1},
					{"SkillType":2,"MonsterType":"Fast1","HP":4000,"Speed":200,"MonsterTime":1,"MonsterCount":10}
				]
			}
		]
	]
}