{
	"Type":1,
	"Money":500,
	"Bg":"Level/Level_map/Bg_1.jpg",
	"ShowPhy":0,
	
	"StarTime":[
		{"Star2":480,"Star3":420},
		{"Star2":480,"Star3":420},
		{"Star2":200,"Star3":100}		
	],
	"NormalAddHp":1.6,
	"HardAddHp":1.9,
	"CrazyAddHp":2,
	
	"Towers":[
		"YuSan","PingGuoZhaDan","LengGuang"
	],
	"Story":[
		{"Anim":"Bear2","Pos":"R","Msg":"Lv9X1","Snd":""},
		{"Anim":"Bear1","Pos":"L","Msg":"Lv9X2","Snd":""}
	],
	
    "IntroObj":"YuSan",
		
	"QuestIntro":"保护大树，免遭光头强的毒手",	
	"Quest2":[
	{"Type":102,"Args":"Hero,75"}
	],
	
	
	"Quest3":[
	{"Type":601,"Args":"Gun,2","Time":170},
	{"Type":102,"Args":"YuSan,35"},
	{"Type":501}
	],

	"Home":{"File":"anim/home/home.ExportJson","Anim":"home","HPBarX":20,"HPBarY":-20},
	
	"MonsterCreaterNoWait":0,
		"Monsters":
	    [
		
		
	    [
	        {"Type":"1_SlowRandom","HP":200,"Speed":140,"Time":0.7,"Count":3,"NextTime":0.7,"Wave":1},
			{"Type":"1_SlowRandom","HP":200,"Speed":140,"Time":0.7,"Count":3,"NextTime":4,"Wave":1}
		],
		[ 
			{"Type":"1_SlowRandom","HP":400,"Speed":140,"Time":0.7,"Count":3,"NextTime":0.7,"Wave":2},
			{"Type":"1_SlowRandom","HP":400,"Speed":140,"Time":0.7,"Count":3,"NextTime":4,"Wave":2}
		],
		[ 
			{"Type":"1_FastRandom","HP":420,"Speed":200,"Time":0.7,"Count":4,"NextTime":0.7,"Wave":3},
			{"Type":"1_FastRandom","HP":420,"Speed":200,"Time":0.7,"Count":4,"NextTime":4,"Wave":3}
		],
		[ 
			{"Type":"1_FastRandom","HP":560,"Speed":200,"Time":0.7,"Count":1,"NextTime":0.7,"Wave":4},
			{"Type":"1_FastRandom","HP":560,"Speed":200,"Time":0.7,"Count":7,"NextTime":4,"Wave":4}
		],
		[ 
			{"Type":"1_FastRandom","HP":700,"Speed":200,"Time":0.7,"Count":5,"NextTime":0.5,"Wave":5},			
			{"Type":"1_FastRandom","HP":700,"Speed":200,"Time":0.7,"Count":5,"NextTime":0.5,"Wave":5},
			{"Type":"1_FastBossRandom","HP":2000,"Speed":200,"Time":0.7,"Count":1,"NextTime":4,"Wave":5}
		],
		[ 
			{"Type":"1_SlowRandom","HP":1400,"Speed":140,"Time":0.7,"Count":5,"NextTime":0.7,"Wave":6},
			{"Type":"1_SlowRandom","HP":1400,"Speed":140,"Time":0.7,"Count":5,"NextTime":4,"Wave":6}
		],
		[ 
			{"Type":"1_SlowRandom","HP":1800,"Speed":140,"Time":0.7,"Count":5,"NextTime":0.7,"Wave":7},
			{"Type":"1_SlowRandom","HP":1800,"Speed":140,"Time":0.7,"Count":5,"NextTime":4,"Wave":7}
		],
		[ 
			{"Type":"1_FastRandom","HP":1540,"Speed":200,"Time":0.7,"Count":5,"NextTime":0.7,"Wave":8},
			{"Type":"1_FastRandom","HP":1540,"Speed":200,"Time":0.7,"Count":5,"NextTime":4,"Wave":8}
		],
		[ 
			{"Type":"1_FastRandom","HP":2100,"Speed":200,"Time":0.7,"Count":5,"NextTime":0.7,"SadSound":"GtqSad","Wave":9},
			{"Type":"1_FastRandom","HP":2100,"Speed":200,"Time":0.7,"Count":5,"NextTime":4,"Wave":9}
		],
		[ 
			{"Type":"1_SlowBossRandom","HP":10000,"Speed":100,"Time":0.7,"Count":1,"NextTime":2,"Wave":10},
			{"Type":"1_FastRandom","HP":2400,"Speed":200,"Time":0.7,"Count":10,"NextTime":4,"Wave":10}
		],
		[ 
			{"Type":"1_SlowRandom","HP":4000,"Speed":140,"Time":0.7,"Count":1,"NextTime":0.7,"HoneyMonster":"S_Honey,0.1","Wave":11},
			{"Type":"1_SlowRandom","HP":4000,"Speed":140,"Time":0.7,"Count":4,"NextTime":0.7,"Wave":11},
			{"Type":"1_SlowRandom","HP":4000,"Speed":140,"Time":0.7,"Count":5,"NextTime":4,"Wave":11}
		],
		[ 
			{"Type":"1_SlowRandom","HP":4600,"Speed":140,"Time":0.7,"Count":9,"NextTime":0.7,"Wave":12},
			{"Type":"1_SlowRandom","HP":4600,"Speed":140,"Time":0.7,"Count":1,"NextTime":4,"Drop":"Gift,1","Wave":12}
		],
		[ 
			{"Type":"1_FastRandom","HP":3700,"Speed":200,"Time":0.7,"Count":5,"NextTime":0.7,"Wave":13},
			{"Type":"1_FastRandom","HP":3700,"Speed":200,"Time":0.7,"Count":5,"NextTime":4,"Wave":13}
		],
		[ 
			{"Type":"1_FastRandom","HP":4200,"Speed":200,"Time":0.7,"Count":5,"NextTime":0.7,"Wave":14},
			{"Type":"1_FastRandom","HP":4200,"Speed":200,"Time":0.7,"Count":5,"NextTime":4,"Wave":14}
			
		],
		[ 
			{"Type":"1_SlowBossRandom","HP":20000,"Speed":100,"Time":0.7,"Count":1,"NextTime":1.5,"Wave":15},
			{"Type":"1_SlowBossRandom","HP":20000,"Speed":100,"Time":0.7,"Count":1,"NextTime":1.5,"Wave":15},
			{"Type":"1_SlowBossRandom","HP":20000,"Speed":100,"Time":0.7,"Count":1,"NextTime":1.5,"Wave":15},
			{"Type":"1_SlowBossRandom","HP":20000,"Speed":100,"Time":0.7,"Count":1,"NextTime":1.5,"Wave":15},
			{"Type":"1_SlowBossRandom","HP":20000,"Speed":100,"Time":0.7,"Count":1,"NextTime":4,"Wave":15}
			
		],
		
		[ 
			{"Type":"1_SlowRandom","HP":7800,"Speed":140,"Time":0.7,"Count":9,"NextTime":0.7,"Wave":16},
			{"Type":"1_SlowRandom","HP":7800,"Speed":140,"Time":0.7,"Count":1,"NextTime":4,"Wave":16}
			
		],
		[ 
			{"Type":"1_FastRandom","HP":5800,"Speed":200,"Time":0.7,"Count":5,"NextTime":0.7,"SadSound":"GtqFawei","Wave":17},
			{"Type":"1_FastRandom","HP":5800,"Speed":200,"Time":0.7,"Count":5,"NextTime":4,"Wave":17}
			
		],
		[ 
			{"Type":"1_FastRandom","HP":5200,"Speed":200,"Time":0.7,"Count":10,"NextTime":0.7,"Wave":18},
			{"Type":"1_SlowRandom","HP":7200,"Speed":120,"Time":0.7,"Count":10,"NextTime":0.7,"Wave":18},
			{"Type":"GuangTouQiang","HP":36000,"Speed":100,"Time":0.7,"Count":1,"NextTime":4,"Wave":18}
		]
	]
}