{
	"Type":3,
	"Money":700,
	"Bg":"Level/Level_map/Bg_1.jpg",
	"ShowPhy":0,
	
	"StarTime":[
		{"Star2":480,"Star3":420},
		{"Star2":480,"Star3":420},
		{"Star2":2000,"Star3":1000}		
	],
	"NormalAddHp":6,
	"HardAddHp":7.2,
	"CrazyAddHp":2,
	
	"HPRate":1,
	"HPBase":7000,
	"HPBase2":7000,
	
	"FortHP":200000,
	
	"HitMe":1,
	"HitMeOffY":110,
	
	"Towers":[
		"LengDong","PenSheQi","PingGuoZhaDan"
	],
	
	"QuestIntro":"",
	
	"Quest2":[
    {"Type":303,"Time":120}	
	],	

	"Home":{"File":"anim/home/home.ExportJson","Anim":"home","HPBarX":-45,"HPBarY":50},
	
	"MonsterCreaterNoWait":0,
		"Monsters":
	    [		
		[ 
			{"Type":"1_SlowRandom","HP":200,"Speed":140,"Time":1,"Count":3,"NextTime":1,"Wave":1},
			{"Type":"1_SlowRandom","HP":200,"Speed":140,"Time":1,"Count":3,"NextTime":4,"Wave":1}
		],
		[ 
			{"Type":"1_SlowRandom","HP":400,"Speed":140,"Time":1,"Count":4,"NextTime":1,"Wave":2},
			{"Type":"1_SlowRandom","HP":400,"Speed":140,"Time":1,"Count":4,"NextTime":4,"Wave":2}
		],
		[ 
			{"Type":"1_FastRandom","HP":600,"Speed":200,"Time":1,"Count":5,"NextTime":1,"Wave":3},
			{"Type":"1_FastRandom","HP":600,"Speed":200,"Time":1,"Count":5,"NextTime":4,"Wave":3}
		],
		[ 
			{"Type":"1_FastRandom","HP":800,"Speed":200,"Time":0.7,"Count":5,"NextTime":1,"Wave":4},
			{"Type":"1_FastRandom","HP":800,"Speed":200,"Time":0.7,"Count":5,"NextTime":4,"Wave":4}
		],
		[
			{
				"Type":"FlyGuangTouQiang","HP":200000,"Speed":300,"Count":1,"Time":1,"NextTime":4,"Sound":"shuaguai.wav","MoveCount":2,"FlyFruit":"Orange,-1,-50,50,30#IceCream,1,-50,50,30#Meat,1,-150,60,40","Wave":5,
				"Skill":
				[
					{"SkillType":1}
				]
			}
		],
		[ 
			{"Type":"1_FastRandom","HP":1000,"Speed":200,"Time":0.7,"Count":5,"NextTime":0.7,"Wave":6},
			{"Type":"1_FastRandom","HP":1000,"Speed":200,"Time":0.7,"Count":5,"NextTime":0.5,"Wave":6}
		],
		[ 
			{"Type":"1_FastRandom","HP":1800,"Speed":140,"Time":0.7,"Count":5,"NextTime":0.7,"Wave":7},
			{"Type":"1_FastRandom","HP":1800,"Speed":140,"Time":0.7,"Count":5,"NextTime":4,"Wave":7}
		],
		[ 
			{"Type":"1_SlowBossRandom","HP":8800,"Speed":140,"Time":1.5,"Count":1,"NextTime":1,"Wave":8},
			{"Type":"1_SlowBossRandom","HP":8800,"Speed":140,"Time":1.5,"Count":1,"NextTime":1,"Wave":8},
			{"Type":"1_SlowBossRandom","HP":8800,"Speed":140,"Time":1.5,"Count":1,"NextTime":1,"Wave":8},
			{"Type":"1_SlowBossRandom","HP":8800,"Speed":140,"Time":1.5,"Count":1,"NextTime":4,"Wave":8}
		],
		[
			{
				"Type":"FlyGuangTouQiang","HP":200000,"Speed":300,"Count":1,"Time":1,"NextTime":4,"Sound":"shuaguai.wav","MoveCount":3,"FlyFruit":"Pear,-1,-50,50,30#IceCream,1,-50,50,30#Meat,1,-150,60,40","Wave":9,
				"Skill":
				[
					{"SkillType":1},
					{"SkillType":2,"MonsterType":"Fast1","HP":1400,"Speed":200,"MonsterTime":0.7,"MonsterCount":10}
				]
			}
		],
		[ 
			{"Type":"1_FastRandom","HP":2000,"Speed":200,"Time":0.7,"Count":5,"NextTime":0.7,"Wave":10},
			{"Type":"1_FastRandom","HP":2000,"Speed":200,"Time":0.7,"Count":5,"NextTime":4,"Wave":10}
		],
		[ 
			{"Type":"1_FastRandom","HP":2500,"Speed":200,"Time":0.7,"Count":5,"NextTime":0.5,"Wave":11},
			{"Type":"1_FastRandom","HP":2500,"Speed":200,"Time":0.7,"Count":5,"NextTime":4,"Wave":11}
		],
		[ 
			{"Type":"1_FastRandom","HP":3000,"Speed":200,"Time":0.7,"Count":5,"NextTime":0.7,"Wave":12},
			{"Type":"1_FastRandom","HP":3000,"Speed":200,"Time":0.7,"Count":5,"NextTime":0.7,"Wave":12},
			{"Type":"1_FastBossRandom","HP":20000,"Speed":200,"Time":0.7,"Count":1,"NextTime":4,"HoneyMonster":"M_Honey,0.025","Wave":12}
		],
		[
			{
				"Type":"FlyGuangTouQiang","HP":200000,"Speed":300,"Count":1,"Time":1,"NextTime":4,"Sound":"shuaguai.wav","MoveCount":4,"FlyFruit":"Orange,-1,-50,50,30#IceCream,1,-50,50,30#Meat,1,-150,60,40","Wave":13,
				"Skill":
				[
					{"SkillType":1},
					{"SkillType":2,"MonsterType":"Fast1","HP":2800,"Speed":200,"MonsterTime":0.7,"MonsterCount":12},
					{"SkillType":1}
				]
			}
		],
		[ 
			{"Type":"1_FastRandom","HP":4000,"Speed":200,"Time":0.7,"Count":5,"NextTime":0.7,"Wave":14},
			{"Type":"1_FastRandom","HP":4000,"Speed":200,"Time":0.7,"Count":5,"NextTime":4,"Wave":14}
		],
		[ 
			{"Type":"1_FastRandom","HP":5000,"Speed":200,"Time":0.7,"Count":5,"NextTime":0.7,"SadSound":"GtqSad","Wave":15},
			{"Type":"1_FastRandom","HP":5000,"Speed":200,"Time":0.7,"Count":5,"NextTime":4,"Wave":15}
			
		],
		[ 
			{"Type":"1_FastRandom","HP":6000,"Speed":200,"Time":0.7,"Count":5,"NextTime":0.7,"SadSound":"GtqSad","Wave":16},
			{"Type":"1_FastRandom","HP":6000,"Speed":200,"Time":0.7,"Count":5,"NextTime":4,"Wave":16}
			
		],
		[ 
			{"Type":"1_FastBossRandom","HP":20000,"Speed":200,"Time":1,"Count":5,"NextTime":4,"Wave":17}
		],
		[
			{
				"Type":"FlyGuangTouQiang","HP":200000,"Speed":300,"Count":1,"Time":1,"NextTime":4,"Sound":"shuaguai.wav","MoveCount":6,"FlyFruit":"Pear,-1,-50,50,30#IceCream,1,-50,50,30#Meat,1,-150,60,40","Wave":18,
				"Skill":
				[
					{"SkillType":1},
					{"SkillType":2,"MonsterType":"Fast1","HP":4000,"Speed":200,"MonsterTime":0.7,"MonsterCount":12},
					{"SkillType":1},
					{"SkillType":2,"MonsterType":"Fast1","HP":4000,"Speed":200,"MonsterTime":0.7,"MonsterCount":12},
					{"SkillType":1}
				]
			}
		]
	]
}