{
	"Type":1,
	"Money":500,
	"Bg":"Level/Level_map/Bg_1.jpg",
	"ShowPhy":0,
	
	
    "StarTime":[
		{"Star2":240,"Star3":225},
		{"Star2":225,"Star3":215},
		{"Star2":200,"Star3":100}		
	],
	"NormalAddHp":1,
	"HardAddHp":1,
	"CrazyAddHp":2,
	
	"Towers":[
		"HuoChai","PingGuoZhaDan","PenSheQi"
	],
	
	"QuestIntro":"",
	
	"Quest2":[
	{"Type":501}	
	],
	
	"Home":{"File":"anim/home/home.ExportJson","Anim":"home","HPBarX":-45,"HPBarY":50},

	"MonsterCreaterNoWait":0,
	"Monsters":[
	    [
			{"Type":"1_SlowRandom","HP":10000,"Speed":100,"Time":0.7,"Count":1,"NextTime":0.7,"Drop":"Gift,1","FlyFruit":"IceCream,1,-50,50,30","Wave":1},
			{"Type":"1_SlowRandom","HP":10000,"Speed":100,"Time":0.7,"Count":1,"NextTime":4,"Wave":1}
		],
		[ 
			{"Type":"1_SlowRandom","HP":10000,"Speed":100,"Time":0.7,"Count":2,"NextTime":0.7,"Wave":2},
			{"Type":"1_SlowRandom","HP":10000,"Speed":100,"Time":0.7,"Count":2,"NextTime":4,"Wave":2}
		],
		[ 
			{"Type":"1_SlowRandom","HP":10000,"Speed":140,"Time":0.7,"Count":5,"NextTime":0.7,"Wave":3},
			{"Type":"1_SlowRandom","HP":10000,"Speed":140,"Time":0.7,"Count":5,"NextTime":4,"Wave":3}
		],
		[ 
			{"Type":"1_FastRandom","HP":10000,"Speed":200,"Time":0.7,"Count":4,"NextTime":4,"Wave":4}
		],
		[ 
			{"Type":"1_SlowBossRandom","HP":40000,"Speed":100,"Time":1,"Count":2,"NextTime":1,"Wave":5},
			{"Type":"1_SlowBossRandom","HP":40000,"Speed":100,"Time":1,"Count":2,"NextTime":4,"Wave":5}
		],
		[ 
			{"Type":"1_SlowRandom","HP":10000,"Speed":140,"Time":0.7,"Count":5,"NextTime":0.7,"Drop":"Honey,0.03","Wave":6},
			{"Type":"1_SlowRandom","HP":10000,"Speed":140,"Time":0.7,"Count":5,"NextTime":4,"Wave":6}
		],
		[ 
			{"Type":"1_SlowRandom","HP":10000,"Speed":100,"Time":0.5,"Count":10,"NextTime":0.5,"Wave":7},
			{"Type":"1_SlowRandom","HP":10000,"Speed":100,"Time":0.5,"Count":10,"NextTime":0.5,"Wave":7},
			{"Type":"1_SlowRandom","HP":10000,"Speed":100,"Time":0.5,"Count":10,"NextTime":4,"Wave":7}
		],
		[ 
			{"Type":"1_FastRandom","HP":10000,"Speed":200,"Time":0.7,"Count":1,"NextTime":0.7,"HoneyMonster":"S_Honey,0.1","Wave":8},
			{"Type":"1_SlowRandom","HP":10000,"Speed":140,"Time":0.7,"Count":9,"NextTime":4,"Wave":8}
		],
		[ 
			{"Type":"1_SlowBossRandom","HP":60000,"Speed":100,"Time":1,"Count":4,"NextTime":1,"SadSound":"GtqSad","Wave":9},
			{"Type":"1_SlowBossRandom","HP":60000,"Speed":100,"Time":1,"Count":4,"NextTime":4,"Wave":9}
		],
		[ 			
			{"Type":"GuangTouQiang","HP":100000,"Speed":100,"Time":0.7,"Count":1,"NextTime":4,"Wave":10}
		]
	]
}