{
	"Type":3,
	"Money":600,
	"Bg":"Level/Level_map/Bg_1.jpg",
	"ShowPhy":0,

	"StarTime":[
		{"Star2":270,"Star3":210},
		{"Star2":280,"Star3":220},
		{"Star2":200,"Star3":100}		
	],
	"NormalAddHp":10,
	"HardAddHp":12,
	"CrazyAddHp":2,
	
	"HPRate":1,
	"HPBase":9000,
	"HPBase2":9000,
	
	"FortHP":1000000,
	
	"HitMe":1,
	"HitMeOffY":110,
	
	"Towers":[
		"Random"
	],
	
	"RandomTowers":
	{
	"PingGuoZhaDan":500,"LengDong":400,"LengGuang":300,"HuoChai":500,"ZuQiu":400,"YuSan":300,"HuoGuo":400,"HuiXuanBiao":400,"YanHua":400,"MuChui":300,"PenSheQi":200,"MoneyBox":300
	},
	
	"QuestIntro":"保护大树的同时，击败乱扔东西的光头强",	
	"Quest2":[
	{"Type":2,"Args":"LengGuang,4"}
	],
	"Quest3":[
	{"Type":201,"Args":"Net,2","Time":320},	
	{"Type":502},
	{"Type":501}
	],	
	
	"Home":{"File":"anim/home/home.ExportJson","Anim":"home","HPBarX":-110,"HPBarY":-25},

	"MonsterCreaterNoWait":0,
	"Monsters":[
	[ 
			{"Type":"1_SlowRandom","HP":100,"Speed":140,"Count":3,"Time":0.7,"NextTime":0.7,"Wave":1},
			{"Type":"1_SlowRandom","HP":100,"Speed":140,"Count":3,"Time":0.7,"NextTime":4,"Wave":1}
		],
		[
		    {"Type":"1_SlowRandom","HP":200,"Speed":140,"Count":3,"Time":0.7,"NextTime":0.7,"Wave":2},
			{"Type":"1_SlowRandom","HP":200,"Speed":140,"Count":3,"Time":0.7,"NextTime":4,"Wave":2}
		],
		[
		    {"Type":"1_SlowRandom","HP":300,"Speed":140,"Count":1,"Time":0.7,"HoneyMonster":"S_Honey,0.1","NextTime":0.7,"Wave":3},
			{"Type":"1_SlowRandom","HP":300,"Speed":140,"Count":3,"Time":0.7,"NextTime":0.7,"Wave":3},
			{"Type":"1_SlowRandom","HP":300,"Speed":140,"Count":4,"Time":0.7,"NextTime":4,"Wave":3}
		],
		[
		    {"Type":"1_FastRandom","HP":500,"Speed":200,"Count":4,"Time":0.7,"NextTime":0.7,"Wave":4},
			{"Type":"1_FastRandom","HP":500,"Speed":200,"Count":4,"Time":0.7,"NextTime":4,"Wave":4}
		],
		[
			{
				"Type":"FlyGuangTouQiang","HP":400000,"Speed":300,"Count":1,"Time":1,"NextTime":4,"Sound":"shuaguai.wav","MoveCount":2,"Wave":5,
				"Skill":
				[
					{"SkillType":2,"MonsterType":"Slow1","HP":1000,"Speed":140,"MonsterTime":0.7,"MonsterCount":10}
				]
			}
		],
		[
		    {"Type":"1_SlowRandom","HP":1000,"Speed":140,"Count":5,"Time":0.7,"NextTime":0.7,"Wave":6},
			{"Type":"1_SlowRandom","HP":1000,"Speed":140,"Count":5,"Time":0.7,"NextTime":4,"Wave":6}
		],
		[
		    {"Type":"1_SlowRandom","HP":2200,"Speed":140,"Count":7,"Time":0.5,"NextTime":0.7,"Wave":7},
			{"Type":"1_SlowRandom","HP":2200,"Speed":140,"Count":8,"Time":0.5,"NextTime":4,"Wave":7}
		],
		[
		    {"Type":"1_SlowBossRandom","HP":10800,"Speed":100,"Count":1,"Time":0.7,"NextTime":1.5,"Wave":8},
			{"Type":"1_SlowBossRandom","HP":10800,"Speed":100,"Count":1,"Time":0.7,"NextTime":1.5,"Wave":8},
			{"Type":"1_SlowBossRandom","HP":10800,"Speed":100,"Count":1,"Time":0.7,"NextTime":1.5,"Wave":8},
			{"Type":"1_SlowBossRandom","HP":10800,"Speed":100,"Count":1,"Time":0.7,"NextTime":4,"Wave":8}
		],
		[
		    {"Type":"1_SlowRandom","HP":3000,"Speed":140,"Count":5,"Time":0.5,"NextTime":0.5,"SadSound":"GtqSad","Wave":9},
			{"Type":"1_SlowRandom","HP":3000,"Speed":140,"Count":5,"Time":0.5,"NextTime":4,"Wave":9}
		],
		[
			{
					"Type":"FlyGuangTouQiang","HP":400000,"Speed":300,"Count":1,"Time":1,"NextTime":4,"Sound":"shuaguai.wav","MoveCount":3,"Wave":10,
				"Skill":
				[
					{"SkillType":1},
					{"SkillType":1}
				]
			}
		],
		[
		    {"Type":"1_FastRandom","HP":3000,"Speed":200,"Count":5,"Time":0.7,"NextTime":0.7,"Wave":11},
			{"Type":"1_SlowRandom","HP":4200,"Speed":140,"Count":5,"Time":0.7,"NextTime":4,"Wave":11}
		],
		[
		    {"Type":"1_SlowRandom","HP":4800,"Speed":140,"Count":5,"Time":0.7,"NextTime":0.7,"Wave":12},
			{"Type":"1_FastRandom","HP":3400,"Speed":200,"Count":5,"Time":0.7,"NextTime":4,"Wave":12}
		],
		[
		    {"Type":"1_SlowRandom","HP":5400,"Speed":140,"Count":5,"Time":0.7,"NextTime":0.7,"Wave":13},
			{"Type":"1_SlowRandom","HP":5400,"Speed":140,"Count":5,"Time":0.7,"NextTime":4,"Wave":13}
		],
		[
		    {"Type":"1_FastRandom","HP":4200,"Speed":200,"Count":5,"Time":0.7,"NextTime":0.7,"SadSound":"GtqSad","Wave":14},
			{"Type":"1_FastRandom","HP":4200,"Speed":200,"Count":5,"Time":0.7,"NextTime":4,"Wave":14}
		],
		[
			{
					"Type":"FlyGuangTouQiang","HP":400000,"Speed":300,"Count":1,"Time":1,"NextTime":4,"Sound":"shuaguai.wav","MoveCount":3,"Wave":15,
				"Skill":
				[
					{"SkillType":1},
					{"SkillType":2,"MonsterType":"Fast1","HP":3200,"Speed":200,"MonsterTime":0.7,"MonsterCount":15}
				]
			}
		],
		[
		    {"Type":"1_SlowRandom","HP"	:7200,"Speed":140,"Count":5,"Time":0.7,"NextTime":0.7,"Wave":16},
			{"Type":"1_SlowRandom","HP":7200,"Speed":140,"Count":5,"Time":0.7,"NextTime":4,"Wave":16}
		],
		[
		    {"Type":"1_SlowRandom","HP":7800,"Speed":140,"Count":10,"Time":0.7,"NextTime":0.7,"Wave":17},
			{"Type":"1_SlowRandom","HP":7800,"Speed":140,"Count":1,"Time":0.7,"NextTime":0.7,"Wave":17},
			{"Type":"1_SlowRandom","HP":7800,"Speed":140,"Count":10,"Time":0.7,"NextTime":4,"Wave":17}
		],
		[
			{"Type":"1_FastRandom","HP":8000,"Speed":140,"Count":5,"Time":0.7,"NextTime":0.7,"Wave":18},
			{"Type":"1_FastBossRandom","HP":26000,"Speed":200,"Count":1,"Time":0.7,"NextTime":4,"Wave":18}
		],
		[
		    {"Type":"1_SlowRandom","HP":9000,"Speed":140,"Count":5,"Time":0.7,"NextTime":0.7,"SadSound":"GtqFawei","Wave":19},
			{"Type":"1_SlowRandom","HP":9000,"Speed":140,"Count":5,"Time":0.7,"NextTime":4,"Wave":19}
		],
		[
			{
					"Type":"FlyGuangTouQiang","HP":400000,"Speed":300,"Count":1,"Time":1,"NextTime":4,"Sound":"shuaguai.wav","MoveCount":4,"Wave":20,
				"Skill":
				[
					{"SkillType":1},
					{"SkillType":2,"MonsterType":"SlowBoss1","HP":10000,"Speed":100,"MonsterTime":2,"MonsterCount":3},
					{"SkillType":1}
				]
			}
		]
	]
}