{
	"Type":1,
	"Money":600,
	"Bg":"Level/Level_map/Bg_1.jpg",
	"ShowPhy":0,
	
	"StarTime":[
		{"Star2":360,"Star3":300},
		{"Star2":420,"Star3":360},
		{"Star2":2000,"Star3":1000}		
	],
	"NormalAddHp":2.5,
	"HardAddHp":3,
	"CrazyAddHp":2,
	
	"Towers":[
		"Random"
	],
	
	"RandomTowers":
	{
	"PingGuoZhaDan":500,"LengDong":400,"LengGuang":300,"HuoChai":500,"ZuQiu":400,"YuSan":300,"HuoGuo":400,"HuiXuanBiao":400,"YanHua":400,"MuChui":300,"PenSheQi":200,"MoneyBox":300
	},
	
	"QuestIntro":"保护大树，免遭光头强的毒手",	
	
	"Quest2":[
    {"Type":2,"Args":"MoneyBox,2"}
	
	],
	
	"Quest3":[
	{"Type":501},
	{"Type":502},
    {"Type":201,"Args":"2_High_22,2","Time":150}
	],
	
	"Home":{"File":"anim/home/home.ExportJson","Anim":"home","HPBarX":-110,"HPBarY":-20},

	
	"MonsterCreaterNoWait":0,
		"Monsters":
	    [
		
		
	    [
	        {"Type":"1_SlowRandom","HP":200,"Speed":140,"Time":0.7,"Count":3,"NextTime":0.7,"Wave":1},
			{"Type":"1_SlowRandom","HP":200,"Speed":140,"Time":0.7,"Count":3,"NextTime":4,"Wave":1}
		],
		[ 
			{"Type":"1_SlowRandom","HP":400,"Speed":140,"Time":0.7,"Count":3,"NextTime":0.7,"Wave":2},
			{"Type":"1_SlowRandom","HP":400,"Speed":140,"Time":0.7,"Count":3,"NextTime":4,"Wave":2}
		],
		[ 
			{"Type":"1_SlowRandom","HP":800,"Speed":140,"Time":0.7,"Count":4,"NextTime":0.7,"Wave":3},
			{"Type":"1_SlowRandom","HP":800,"Speed":140,"Time":0.7,"Count":4,"NextTime":4,"Wave":3}
		],
		[ 
			{"Type":"1_FastRandom","HP":800,"Speed":200,"Time":0.7,"Count":8,"NextTime":4,"Wave":4}
		],
		[ 
			{"Type":"1_SlowRandom","HP":1400,"Speed":140,"Time":0.7,"Count":5,"NextTime":0.7,"Wave":5},
			{"Type":"1_SlowRandom","HP":1400,"Speed":140,"Time":0.7,"Count":5,"NextTime":0.5,"Wave":5},
			{"Type":"1_SlowBossRandom","HP":10000,"Speed":100,"Time":0.7,"Count":1,"NextTime":0.5,"Wave":5},
			{"Type":"1_FastRandom","HP":1100,"Speed":200,"Time":0.7,"Count":5,"NextTime":4,"Wave":5}
		],
		[ 
			{"Type":"1_SlowRandom","HP":1800,"Speed":140,"Time":0.7,"Count":5,"NextTime":0.7,"Wave":6},
			{"Type":"1_SlowRandom","HP":1800,"Speed":140,"Time":0.7,"Count":5,"NextTime":4,"Wave":6}
		],
		[ 
			{"Type":"1_SlowRandom","HP":3100,"Speed":100,"Time":0.7,"Count":9,"NextTime":0.7,"Wave":7},
			{"Type":"1_SlowRandom","HP":3100,"Speed":100,"Time":0.7,"Count":1,"NextTime":4,"Wave":7}
		],
		[ 
			{"Type":"1_SlowRandom","HP":2600,"Speed":140,"Time":0.7,"Count":1,"HoneyMonster":"S_Honey,0.05","NextTime":0.7,"Wave":8},
			{"Type":"1_SlowRandom","HP":2600,"Speed":140,"Time":0.7,"Count":4,"NextTime":0.7,"Wave":8},
			{"Type":"1_SlowRandom","HP":2600,"Speed":140,"Time":0.7,"Count":5,"NextTime":4,"Wave":8}
		],
		[ 
			{"Type":"1_SlowRandom","HP":3000,"Speed":140,"Time":0.7,"Count":5,"NextTime":0.7,"SadSound":"GtqSad","Wave":9},
			{"Type":"1_SlowRandom","HP":3000,"Speed":140,"Time":0.7,"Count":5,"NextTime":4,"Wave":9}
		],
		[ 
			{"Type":"1_SlowRandom","HP":3600,"Speed":140,"Time":0.7,"Count":5,"NextTime":0.7,"Wave":10},
			{"Type":"1_SlowRandom","HP":3600,"Speed":140,"Time":0.7,"Count":5,"NextTime":0.5,"Wave":10},
			{"Type":"1_SlowBossRandom","HP":10000,"Speed":100,"Time":0.7,"Count":1,"NextTime":0.5,"Wave":10},
			{"Type":"1_SlowRandom","HP":3600,"Speed":140,"Time":0.7,"Count":5,"NextTime":4,"Wave":10}
		],
		[ 
			{"Type":"1_SlowRandom","HP":6000,"Speed":100,"Time":0.7,"Count":5,"NextTime":0.7,"Wave":11},
			{"Type":"1_SlowRandom","HP":6000,"Speed":100,"Time":0.7,"Count":5,"NextTime":4,"Wave":11}
		],
		[ 
			{"Type":"1_SlowRandom","HP":4800,"Speed":140,"Time":0.7,"Count":5,"NextTime":0.7,"Wave":12},
			{"Type":"1_SlowRandom","HP":4800,"Speed":140,"Time":0.7,"Count":5,"NextTime":4,"Wave":12}
		],
		[ 
			{"Type":"1_FastRandom","HP":3800,"Speed":200,"Time":0.7,"Count":10,"NextTime":4,"Wave":13}
		],
		[ 
			{"Type":"1_SlowRandom","HP":6000,"Speed":140,"Time":0.7,"Count":9,"NextTime":0.5,"Wave":14},
			{"Type":"1_SlowRandom","HP":6000,"Speed":140,"Time":0.7,"Count":1,"NextTime":4,"Drop":"Gift,1","Wave":14}
			
		],
		[ 
			{"Type":"1_FastBossRandom","HP":26000,"Speed":200,"Time":0.7,"Count":1,"NextTime":4,"Wave":15}
		],
		[ 
		    {"Type":"1_SlowRandom","HP":7200,"Speed":140,"Time":0.7,"Count":5,"NextTime":0.7,"Wave":16},
			{"Type":"1_SlowRandom","HP":7200,"Speed":140,"Time":0.7,"Count":5,"NextTime":4,"Wave":16}
		],
		[ 
			{"Type":"1_SlowRandom","HP":8000,"Speed":140,"Time":0.7,"Count":9,"NextTime":0.7,"Wave":17},
			{"Type":"1_SlowRandom","HP":8000,"Speed":140,"Time":0.7,"Count":1,"NextTime":4,"HoneyMonster":"S_Honey,0.05","Wave":17}
		],
		[ 
			{"Type":"1_FastRandom","HP":6300,"Speed":200,"Time":0.7,"Count":10,"NextTime":4,"Wave":18}
		],
		[ 
			{"Type":"1_SlowRandom","HP":10000,"Speed":140,"Time":0.7,"Count":5,"NextTime":0.7,"SadSound":"GtqFawei","Wave":19},
			{"Type":"1_SlowRandom","HP":10000,"Speed":140,"Time":0.7,"Count":5,"NextTime":4,"Wave":19}
		],
		[ 
			{"Type":"1_FastBossRandom","HP":22000,"Speed":200,"Time":0.7,"Count":1,"NextTime":0.5,"Wave":20},
			{"Type":"1_SlowRandom","HP":11000,"Speed":140,"Time":0.7,"Count":5,"NextTime":0.5,"Wave":20},
			{"Type":"1_SlowRandom","HP":11000,"Speed":140,"Time":0.7,"Count":5,"NextTime":2,"Wave":20},
			{"Type":"GuangTouQiang","HP":380000,"Speed":100,"Time":0.7,"Count":1,"NextTime":4,"Wave":20}
		]
	]
}