{
  "analyticsId": "feedAmsDashboardProFallback:Default",
  "version": 2,
  "uiSettings": {
    "scrollTip": {
      "enabled": false,
      "cardCountLimit": 1
    }
  },
  "slots": [
    [
      {
        "id": 16677,
        "weight": 1,
        "type": "CardPlaceholder",
        "color": "#000000",
        "analyticsId": "cta_card",
        "conditions": []
      }
    ],
    [
      {
        "icon": "@feed_ic_card_warning",
        "text": "${ignored_issues_description}",
        "title": "@feed_card_ignored_issues_title",
        "action": {
          "type": "DeepLinkAction",
          "color": "#f5203e",
          "label": "@feed_card_ignored_issues_btn_text",
          "intentAction": "com.avast.android.mobilesecurity.RUN_IGNORED_ISSUES"
        },
        "id": 16705,
        "weight": 1,
        "type": "CardSimpleTopic",
        "color": "#f5203e",
        "analyticsId": "ams_ignored_issues",
        "conditions": []
      }
    ],
    [
      {
        "icon": "@feed_ic_card_info",
        "text": "@feed_card_activity_log_description",
        "title": "${activity_log_title}",
        "action": {
          "type": "DeepLinkAction",
          "color": "#ff7800",
          "label": "@feed_card_ignored_issues_btn_text",
          "intentAction": "com.avast.android.mobilesecurity.RUN_ACTIVITY_LOG"
        },
        "id": 18063,
        "weight": 1,
        "type": "CardSimpleTopic",
        "color": "#ff7800",
        "analyticsId": "ams_activity_log",
        "conditions": [
          {
            "op": ">",
            "type": "AppVersion",
            "value": "5.5.0"
          }
        ]
      }
    ],
    [
      {
        "icon": "@ic_feed_scan",
        "text": "@feed_card_int_storage_scan_description",
        "title": "@feed_card_int_storage_scan_title",
        "action": {
          "type": "DeepLinkAction",
          "color": "#ff7800",
          "label": "@feed_card_int_storage_scan_btn_text",
          "intentAction": "com.avast.android.mobilesecurity.RUN_INTERNAL_STORAGE_SCAN"
        },
        "id": 17905,
        "weight": 1,
        "type": "CardSimpleTopic",
        "color": "#ff7800",
        "analyticsId": "ams_dl_internal_scan",
        "conditions": [
          {
            "op": "=",
            "type": "key_ams_storage_scan_inactive",
            "value": "true"
          },
          {
            "op": ">=",
            "type": "AppVersion",
            "value": "5.4.0"
          }
        ]
      }
    ],
    [
      {
        "icon": "@feed_ic_phone_scan",
        "text": "@feed_card_daily_scan_description",
        "title": "@feed_card_daily_scan_title",
        "action": {
          "type": "DeepLinkAction",
          "color": "#ff7800",
          "label": "@feed_card_daily_scan_btn_text",
          "package": "",
          "intentAction": "com.avast.android.mobilesecurity.RUN_SCHEDULE_SCAN_EVERY_DAY"
        },
        "topicIcon": "",
        "id": 17903,
        "weight": 1,
        "type": "CardSimpleTopic",
        "color": "#ff7800",
        "analyticsId": "daily-scan",
        "conditions": [
          {
            "op": ">=",
            "type": "AppVersion",
            "value": "5.10.1"
          },
          {
            "op": "=",
            "type": "key_ams_scheduled_scan_every_day",
            "value": "false"
          }
        ]
      }
    ],
    [
      {
        "icon": "@feed_ic_notif_on",
        "text": "@ad_feed_permanent_notification_promo_description",
        "title": "@ad_feed_permanent_notification_promo_title",
        "action": {
          "type": "DeepLinkAction",
          "color": "#ff7800",
          "label": "@ad_feed_permanent_notification_promo_button_label",
          "intentAction": "com.avast.android.mobilesecurity.DISPLAY_PERMANENT_NOTIFICATION_DIALOG"
        },
        "id": 16706,
        "weight": 1,
        "type": "CardSimpleTopic",
        "color": "#ff7800",
        "analyticsId": "custom_perma_notif",
        "conditions": [
          {
            "op": "=",
            "type": "key_ams_permanent_notification_promo_active",
            "value": "true"
          }
        ]
      }
    ],
    [
      {
        "icon": "@feed_ic_card_applock",
        "text": "${applocking_lock_another_app}",
        "title": "@feed_card_locking_another_title",
        "action": {
          "type": "DeepLinkAction",
          "color": "#ff7800",
          "label": "@feed_card_locking_another_label",
          "intentAction": "com.avast.android.mobilesecurity.RUN_APP_LOCKER"
        },
        "id": 16624,
        "weight": 2,
        "type": "CardSimpleTopic",
        "color": "#ff7800",
        "analyticsId": "app-locking-another-app",
        "conditions": [
          {
            "op": "=",
            "type": "key_ams_app_to_lock_next",
            "value": "true"
          },
          {
            "op": ">=",
            "type": "AppVersion",
            "value": "5.10.1"
          }
        ]
      },
      {
        "icon": "@feed_ic_card_applock",
        "text": "${applocking_lock_sensitive_app}",
        "title": "@feed_card_locking_sensitive_title",
        "action": {
          "type": "DeepLinkAction",
          "color": "#ff7800",
          "label": "@feed_card_locking_sensitive_label",
          "intentAction": "com.avast.android.mobilesecurity.RUN_APP_LOCKER"
        },
        "id": 16625,
        "weight": 2,
        "type": "CardSimpleTopic",
        "color": "#ff7800",
        "analyticsId": "app-locking-sensitive-app",
        "conditions": [
          {
            "op": "=",
            "type": "key_ams_app_to_lock_first",
            "value": "true"
          },
          {
            "op": ">=",
            "type": "AppVersion",
            "value": "5.10.1"
          }
        ]
      }
    ],
    [
      {
        "icon": "@feed_ic_card_applock",
        "text": "${applocking_lock_another_app}",
        "title": "@feed_card_locking_another_title",
        "action": {
          "type": "DeepLinkAction",
          "color": "#0cb754",
          "label": "@feed_card_locking_another_label",
          "intentAction": "com.avast.android.mobilesecurity.RUN_APP_LOCKER"
        },
        "id": 18096,
        "weight": 2,
        "type": "CardSimpleTopic",
        "color": "#0cb754",
        "analyticsId": "app-locking-another-app",
        "conditions": [
          {
            "op": "=",
            "type": "key_ams_app_to_lock_next",
            "value": "true"
          },
          {
            "op": ">=",
            "type": "AppVersion",
            "value": "5.10.1"
          }
        ]
      },
      {
        "icon": "@feed_ic_card_applock",
        "text": "${applocking_lock_sensitive_app}",
        "title": "@feed_card_locking_sensitive_title",
        "action": {
          "type": "DeepLinkAction",
          "color": "#0cb754",
          "label": "@feed_card_locking_sensitive_label",
          "intentAction": "com.avast.android.mobilesecurity.RUN_APP_LOCKER"
        },
        "id": 18097,
        "weight": 2,
        "type": "CardSimpleTopic",
        "color": "#0cb754",
        "analyticsId": "app-locking-sensitive-app",
        "conditions": [
          {
            "op": "=",
            "type": "key_ams_app_to_lock_first",
            "value": "true"
          },
          {
            "op": ">=",
            "type": "AppVersion",
            "value": "5.10.1"
          }
        ]
      }
    ],
    [
      {
        "icon": "@ic_feed_tip",
        "text": "@ad_feed_description_hint_webshield",
        "title": "@ad_feed_title_hint_webshield",
        "action": {
          "type": "DeepLinkAction",
          "color": "#ff9a00",
          "label": "@ad_feed_button_open",
          "intentAction": "com.avast.android.mobilesecurity.RUN_WEB_SHIELD"
        },
        "id": 18061,
        "weight": 1,
        "type": "CardSimple",
        "color": "#ff9a00",
        "analyticsId": "hint_webshield",
        "conditions": [
          {
            "op": "=",
            "type": "key_ams_web_shield_active",
            "value": "False"
          }
        ]
      },
      {
        "icon": "@ic_feed_tip",
        "text": "@ad_feed_description_hint_fileshield",
        "title": "@ad_feed_title_hint_fileshield",
        "action": {
          "type": "DeepLinkAction",
          "color": "#ff9a00",
          "label": "@ad_feed_button_turn_on",
          "intentAction": "com.avast.android.mobilesecurity.RUN_FILE_SHIELD"
        },
        "id": 18058,
        "weight": 2,
        "type": "CardSimple",
        "color": "#ff9a00",
        "analyticsId": "hint_fileshield",
        "conditions": [
          {
            "op": "=",
            "type": "key_ams_file_shield_active",
            "value": "False"
          },
          {
            "op": "<",
            "type": "AndroidVersion",
            "value": "6.0"
          }
        ]
      },
      {
        "icon": "@ic_feed_tip",
        "text": "@ad_feed_description_hint_trustedsources",
        "title": "@ad_feed_title_hint_trusted_sources",
        "id": 18059,
        "weight": 2,
        "type": "CardSimple",
        "color": "#ff9a00",
        "analyticsId": "hint_trustedsources",
        "conditions": []
      },
      {
        "icon": "@ic_feed_tip",
        "text": "@ad_feed_description_hint_appshield",
        "title": "@ad_feed_title_hint_appshield",
        "action": {
          "type": "DeepLinkAction",
          "color": "#ff9a00",
          "label": "@ad_feed_button_turn_on",
          "intentAction": "com.avast.android.mobilesecurity.RUN_APP_SHIELD"
        },
        "id": 18060,
        "weight": 1,
        "type": "CardSimple",
        "color": "#ff9a00",
        "analyticsId": "hint_appshield",
        "conditions": [
          {
            "op": "=",
            "type": "key_ams_app_shield_active",
            "value": "False"
          }
        ]
      }
    ]
  ]
}
