arm64-v8a/librecognitiontrackingdataprovider.so 387600 c3eb4d9e3bce76117ccf2dacd6eda234935461b2594bfe3f5ab79472d1800a08
arm64-v8a/libxplat_compphoto_ocean_application_ocean_support_tracking_targetarAndroid.so 195080 658c56fd6d30dcc80407bb4190758e3c924f6ae60f347a8b6a059c2b8d9b475c
arm64-v8a/libmovingtargettrackingdataprovider.so 125448 5bbbee691df01c6dd811f31eaa85726e4078490c0ae1100d68321129588e2593
