Hole: 0.03984356;-2.0683854
Hole: 2.5867186;2.7116044
Hole: 2.5773435;-4.5724907
Hole: 0.7281251;-2.688161
Hole: 1.5585938;-0.5373189
Hole: 1.7070312;2.7436492
Hole: -0.9124999;2.6717463
Hole: 0.109375;-0.17545931
Hole: -2.5351562;-3.9378676
Hole: -1.6078124;-3.6799526
Hole: 0.8304688;-4.643612
Hole: -0.44218755;-2.8014858
Hole: -2.5648437;-0.78507257
Hole: -1.7625;0.3825711
Hole: -2.5671875;1.9292705
Hole: -1.3828125;3.3993745
Goal: 0.35078096;0.7725647;0.0
Obstacle: 3.0;0.1;0.0;5.0;0.0
Obstacle: 3.0;0.1;0.0;-5.0;0.0
Obstacle: 5.0;0.1;3.0;0.0;1.5707964
Obstacle: 5.0;0.1;-3.0;0.0;1.5707964
Obstacle: 1.0;0.1;-0.40546882;3.3368495;0.39269903
Obstacle: 1.0;0.1;1.3382812;3.360295;-0.3926991
Obstacle: 1.0;0.1;2.1859374;2.0746386;-1.5707964
Obstacle: 1.0;0.1;-0.6039064;-2.068387;2.3561945
Obstacle: 1.0;0.1;0.6648438;-2.0871425;0.7853982
Obstacle: 2.25;0.1;-1.2632813;0.7850738;-1.5707964
Obstacle: 0.5;0.1;0.62734365;1.6541624;-0.7853982
Obstacle: 0.5;0.1;0.0546875;1.665884;0.7853982
Obstacle: 1.0;0.1;-0.28437495;0.37944505;1.5707964
Obstacle: 0.75;0.1;1.2460938;-2.6592424;-0.7853982
Obstacle: 0.5;0.1;-1.475;-2.0207114;0.7853982
Obstacle: 0.75;0.1;-2.3632812;-4.3950763;0.7853982
Obstacle: 0.75;0.1;-0.2437501;-3.3735836;1.1780972
Obstacle: 0.5;0.1;1.1359372;-1.0148509;1.9634954
Obstacle: 1.0;0.1;0.94921875;0.36928487;1.5707963
