Hole: -0.4781251;4.5584226
Hole: -0.01171875;4.4685416
Hole: 0.46953154;4.289565
Hole: 0.9453125;4.0676055
Hole: 1.3968751;3.8190696
Hole: 1.8000002;3.5103564
Hole: 2.1179686;3.1273932
Hole: 2.3249998;2.7045722
Hole: 2.478125;2.2794065
Hole: 2.5226564;1.7956235
Hole: 2.5132813;1.3313792
Hole: 2.3718748;0.85697556
Hole: 2.046094;0.5107467
Hole: 1.6382809;0.26690078
Hole: 1.1789064;0.1465414
Hole: 0.7046876;0.09261445
Hole: 0.22968769;0.12543975
Hole: -0.2687497;0.13872604
Hole: -0.73359394;0.19812457
Hole: 0.87734365;-0.35287237
Hole: 1.2921875;-0.667839
Hole: 1.6289062;-1.0375148
Hole: 1.9312496;-1.5064473
Hole: 2.219531;-1.9347401
Hole: 2.319531;-2.415396
Hole: 2.3820314;-2.9007423
Hole: 2.1648436;-3.3462284
Hole: 1.8687501;-3.7393508
Hole: 1.4398437;-4.0199294
Hole: 0.9906249;-4.2246976
Hole: 0.52890635;-4.3661594
Hole: 0.04296875;-4.49199
Hole: -0.4437499;-4.521689
Hole: -0.95468736;-4.559203
Hole: -2.5546875;2.527941
Hole: -2.09375;2.4951143
Hole: -1.6132812;2.4654145
Hole: -1.1632813;2.4419672
Hole: -0.6976564;2.3927305
Hole: -0.25468755;2.3333333
Hole: -2.5671875;-1.8690906
Hole: -2.128125;-1.9613142
Hole: -1.6898437;-2.01446
Hole: -1.2320312;-2.1410718
Hole: -0.7781249;-2.240329
Hole: -0.3499999;-2.3153598
Hole: 0.19843721;2.1832747
Hole: 0.11250019;-2.3888242
Goal: -2.3921876;-4.402109;0.0
Obstacle: 3.0;0.1;0.0;5.0;0.0
Obstacle: 3.0;0.1;0.0;-5.0;0.0
Obstacle: 5.0;0.1;3.0;0.0;1.5707964
Obstacle: 5.0;0.1;-3.0;0.0;1.5707964
