Hole: -2.6804688;2.8241491
Hole: -2.2421875;2.7967944
Hole: -1.7796874;2.7921062
Hole: -1.3382812;2.8022647
Hole: -0.88437486;2.8108644
Hole: -0.4367187;2.8241494
Hole: 0.029687643;2.817897
Hole: 0.4796872;2.8350909
Hole: 0.9359374;2.8280578
Hole: 1.383594;2.814771
Hole: 2.6710935;2.798358
Hole: 2.6750002;0.8624455
Hole: 2.2234373;0.848378
Hole: 1.7468753;0.82649505
Hole: 1.2914066;0.842907
Hole: 0.8421874;0.8601016
Hole: 0.37578154;0.8593203
Hole: -0.06796861;0.8374364
Hole: -0.5210936;0.8405626
Hole: -0.96796894;0.8491596
Hole: -2.6945312;0.863228
Hole: -1.4429688;0.85541266
Hole: -2.6679688;-1.0015633
Hole: -2.2078125;-1.0265739
Hole: -1.7593751;-1.0218843
Hole: -1.31875;-1.0085973
Hole: -0.87109375;-1.0250096
Hole: 2.675;-1.0148503
Hole: 2.2320313;-1.0375152
Hole: 1.7679687;-1.0328262
Hole: 1.3156252;-1.036733
Hole: 0.8515625;-1.0656506
Hole: -0.41015625;-1.0257914
Hole: -2.7203126;-2.810082
Hole: -2.2429688;-2.787417
Hole: -1.7820313;-2.785073
Hole: 2.71875;-2.77882
Hole: 2.2507815;-2.7991405
Hole: 1.7679687;-2.791325
Hole: 1.2984371;-2.7819467
Hole: 0.8351562;-2.817898
Hole: 0.38437486;-2.8288395
Hole: -0.064062595;-2.8249323
Hole: -0.48984385;-2.8350916
Hole: 1.7234378;-4.752248
Hole: 1.7289062;-4.270808
Hole: 0.3859372;-3.2930844
Hole: 0.40156245;-3.7565455
Goal: 2.4359374;-4.460727;0.0
Obstacle: 3.0;0.1;0.0;5.0;0.0
Obstacle: 3.0;0.1;0.0;-5.0;0.0
Obstacle: 5.0;0.1;3.0;0.0;1.5707964
Obstacle: 5.0;0.1;-3.0;0.0;1.5707964
