Hole: -2.6546874;2.9570143
Hole: -1.0171876;4.6553345
Hole: -0.8914063;4.1949987
Hole: -2.1765623;2.8585377
Hole: -0.8468752;2.9085565
Hole: -1.9429688;2.4310265
Hole: -1.984375;1.9769431
Hole: -0.5531249;3.8464246
Hole: -2.171094;1.5439613
Hole: -2.5390625;1.2711989
Hole: -0.06484389;3.75342
Hole: 0.4210937;3.7839
Hole: 0.8718748;3.9191086
Hole: -0.37265635;2.745994
Hole: -0.8921876;2.420086
Hole: -0.82421875;1.9488081
Hole: 0.08828139;2.671746
Hole: 0.2687497;2.2418914
Hole: 0.04218769;1.8276665
Hole: -0.42734385;1.6877685
Hole: 1.3601565;2.9288776
Hole: -0.87734365;0.49433392
Hole: -2.6367188;0.80617434
Hole: 1.3601565;4.0003905
Hole: 1.8492184;3.9159818
Hole: -0.41953135;0.49120775
Hole: 0.035937548;0.608441
Hole: 1.2710936;2.441969
Hole: 1.2585936;1.9566237
Hole: 1.3546877;1.476748
Hole: 0.45078135;0.80539274
Hole: 1.8351564;2.9046497
Hole: 0.54218745;0.30910504
Hole: 1.625;1.0593976
Hole: 2.09375;2.4857357
Hole: 2.171875;2.026181
Hole: 2.1757812;1.5564678
Hole: 2.1164064;1.0648689
Hole: 2.6820312;3.3985953
Hole: 2.3039064;3.7049623
Hole: 2.657812;0.13247342
Hole: 2.2085938;-0.10746397
Hole: 1.8609371;-0.4599452
Hole: 0.71640635;-0.12465786
Hole: -2.65;0.33333302
Hole: 0.8187499;-0.65298915
Hole: -1.1984375;0.8530675
Hole: -1.4648438;0.4779207
Hole: -2.5859375;-0.13403644
Hole: -1.3671875;-0.015240225
Hole: -1.09375;-0.41930386
Hole: 0.43359375;-0.9507623
Hole: -0.029687405;-1.0656513
Hole: -0.7781248;-0.7788198
Hole: -0.5070312;-1.1719425
Hole: 1.7609377;-0.9445097
Hole: 1.8359375;-1.4173509
Hole: 2.0710936;-1.8503326
Hole: 2.4398441;-2.1449788
Hole: 2.6789064;-2.5670183
Hole: -2.4085937;-0.5810864
Hole: -2.153125;-0.9765538
Hole: -1.9664063;-1.4533023
Hole: -1.253125;-2.155921
Hole: 1.0710936;-1.9527166
Hole: 0.16718745;-2.081674
Hole: 0.62890625;-2.212195
Hole: -0.19843721;-2.330205
Hole: 1.188281;-2.4380617
Hole: 1.2648435;-2.9288797
Hole: -0.35078096;-2.7389607
Hole: 1.0250001;-3.364205
Hole: -0.49296904;-3.214929
Hole: 0.7078123;-3.7245026
Hole: 1.5999999;-3.2766716
Hole: 1.9164062;-3.6643226
Hole: 1.563281;-3.9878836
Hole: 1.0570316;-4.059007
Hole: -2.1554687;-2.5287244
Hole: -2.6421876;-2.6365783
Hole: -2.60625;-3.1047282
Hole: -0.4054687;-4.262993
Hole: -0.12812495;-4.6397014
Hole: -0.89765644;-4.3692837
Hole: -1.3976562;-4.3716288
Hole: -1.9070313;-4.3270793
Hole: -2.23125;-3.9534965
Hole: -2.469531;-3.5525599
Hole: 2.6351562;-4.631888
Hole: -1.6148438;-1.7964053
Hole: -1.6875;-2.3739738
Hole: -0.9859376;-3.2305584
Hole: -1.4250001;-3.4103172
Goal: 0.3984375;-2.9046516;-0.3926991
Obstacle: 3.0;0.1;0.0;5.0;0.0
Obstacle: 3.0;0.1;0.0;-5.0;0.0
Obstacle: 5.0;0.1;3.0;0.0;1.5707964
Obstacle: 5.0;0.1;-3.0;0.0;1.5707964
