Hole: -2.6890626;3.2469707
Hole: -2.2640624;3.2626023
Hole: -1.796875;3.2688544
Hole: -1.3125;3.2782335
Hole: -0.9679688;3.5869484
Hole: -0.3468752;4.688158
Hole: -0.16640615;4.247363
Hole: -0.032812595;3.787808
Hole: -0.017187357;3.325908
Hole: -0.119531155;2.8726058
Hole: -0.3671875;2.4630716
Hole: -0.6812501;2.1184049
Hole: -1.9320313;2.2708094
Hole: -1.8867188;1.815162
Hole: -1.8382813;1.370457
Hole: -1.7570312;0.89136356
Hole: -2.1945312;-0.12700324
Hole: -1.7164062;-0.0847991
Hole: -1.2664063;0.03009044
Hole: -0.93984365;0.34974617
Hole: -0.75312495;0.78429097
Hole: 2.7562504;-3.7745209
Hole: -2.64375;-0.983587
Hole: -2.1921875;-0.9570143
Hole: -1.2585938;-0.8944901
Hole: -1.7195312;-0.9601405
Hole: -0.8046875;-0.7999219
Hole: 0.17421865;0.3669403
Hole: 0.28203154;0.8116454
Hole: -0.064062595;2.1043375
Hole: 0.2562499;1.7377884
Hole: 0.39140606;1.2782323
Hole: 0.060156345;-0.08167284
Hole: 0.059375048;-1.1594372
Hole: -0.4203124;-1.1273934
Hole: 0.4898436;-0.9343492
Hole: 0.8312497;-0.6240722
Hole: 1.0890622;-0.23642032
Hole: 1.2273436;0.18014841
Hole: 1.2835937;0.67956257
Hole: 1.3109374;1.1531845
Hole: 1.3265629;1.6299334
Hole: 1.3007812;2.0887063
Hole: 1.2617188;2.5521686
Hole: 1.2515621;3.018757
Hole: 1.234375;3.472842
Hole: 1.2226562;3.942555
Hole: 1.6734371;3.9425561
Hole: 2.1445312;3.9198895
Hole: 2.407031;-3.4110987
Hole: 1.9468751;-3.349356
Hole: 1.5085936;-3.5197341
Hole: 1.1156251;-3.8190708
Hole: -0.6273439;-3.67839
Hole: -1.1039062;-3.7627943
Hole: -2.0789063;-4.6717486
Hole: 2.688281;2.7788188
Hole: 2.2015624;2.7694416
Hole: 1.796094;1.6408755
Hole: 2.1609373;1.3110585
Hole: 2.6906252;0.3255174
Hole: 2.3179684;0.054318525
Hole: 1.4562502;-0.54669815
Hole: 1.8273435;-0.8733879
Hole: 2.1898437;-1.232904
Hole: 0.67421865;-3.6002364
Hole: 0.25468755;-3.339976
Hole: -0.22109365;-3.3946846
Hole: 0.017968893;-4.6459546
Hole: -1.4148438;-3.4322
Hole: -1.7570312;-3.082064
Hole: -2.124219;-4.2020316
Hole: 1.1976566;-1.6658851
Hole: 1.1750002;-2.1660788
Hole: 1.1140628;-2.6756554
Hole: -0.71171856;-2.5513897
Hole: -1.0;-2.1481051
Hole: -1.3632812;-1.8339187
Hole: -1.8414063;-1.7815552
Hole: 0.0867188;-1.6541629
Hole: 0.18281269;-2.8382175
Goal: 2.5210938;-4.4873004;0.0
Obstacle: 3.0;0.1;0.0;5.0;0.0
Obstacle: 3.0;0.1;0.0;-5.0;0.0
Obstacle: 5.0;0.1;3.0;0.0;1.5707964
Obstacle: 5.0;0.1;-3.0;0.0;1.5707964
