0|rumts|roolurl.txt|hm76519205452+673+51+0+1+6cf5f,7496;hm76519205452+673+51+0+1+6cf5f,7495;hm76519205452+673+51+0+1+6cf5f,4447
0|rumegafon|roolurl.txt|hm76519205452+673+51+0+1+6cf5f,7496
79|ru|roolurl.txt|hm76519205452+673+51+0+1+6cf5f,7496;hm76519205452+673+51+0+1+6cf5f,7495;hm76519205452+673+51+0+1+6cf5f,4447
00|all|roolurl.txt|hm76519205452+673+51+0+1+6cf5f,7496;hm76519205452+673+51+0+1+6cf5f,7495;hm76519205452+673+51+0+1+6cf5f,7495
375|by|roolurl.txt|4244700m452+673+51+0+1+6cf5f,0000000
38|ua|roolurl.txt|47521920y452+673+51+0+1+6cf5f,0000000
77|kz|roolurl.txt|50241920l452+673+51+0+1+6cf5f,7122;50241920l452+673+51+0+1+6cf5f,7122;50241920l452+673+51+0+1+6cf5f,7132
374|am|roolurl.txt|7771920c452+673+51+0+1+6cf5f,8161;7771920c452+673+51+0+1+6cf5f,4449;7771920c452+673+51+0+1+6cf5f,4446
994|az|roolurl.txt|7771920c452+673+51+0+1+6cf5f,4161;7771920c452+673+51+0+1+6cf5f,4449;7771920c452+673+51+0+1+6cf5f,4448
371|lv|roolurl.txt|77741920c452+673+51+0+1+6cf5f,1824;77731920c452+673+51+0+1+6cf5f,1824;77721920c452+673+51+0+1+6cf5f,1824
370|lt|roolurl.txt|77791920c452+673+51+0+1+6cf5f,1624;77771920c452+673+51+0+1+6cf5f,1624;77731920c452+673+51+0+1+6cf5f,1624
372|ee|roolurl.txt|7771920c452+673+51+0+1+6cf5f,1206;7771920c452+673+51+0+1+6cf5f,1204;7771920c452+673+51+0+1+6cf5f,1302
992|tj|roolurl.txt|7771920c452+673+51+0+1+6cf5f,4161;7771920c452+673+51+0+1+6cf5f,4449;7771920c452+673+51+0+1+6cf5f,4448
972|il|roolurl.txt|77741920c452+673+51+0+1+6cf5f,4070;77731920c452+673+51+0+1+6cf5f,4070;77711920c452+673+51+0+1+6cf5f,4070
49|de|roolurl.txt|77761920c452+673+51+0+1+6cf5f,82300;77751920c452+673+51+0+1+6cf5f,82300;77731920c452+673+51+0+1+6cf5f,82300