[
	{
		"Id": "ClanMemberJoined",
		"Text": "Joined Clan",
		"CharacterLimit": 0,
		"Category": "CHAT WARNING MESSAGES",
		"Comment": ""
	},
	{
		"Id": "ClanMemberLeft",
		"Text": "Left the Clan",
		"CharacterLimit": 0,
		"Category": "CHAT WARNING MESSAGES",
		"Comment": ""
	}
]