[
	{
		"Id": "DaysDuration",
		"Text": "{amount} g",
		"CharacterLimit": 0,
		"Category": "LocalizationFormatter",
		"Comment": ""
	},
	{
		"Id": "HoursDuration",
		"Text": "{amount} h",
		"CharacterLimit": 0,
		"Category": "LocalizationFormatter",
		"Comment": ""
	},
	{
		"Id": "MinutesDuration",
		"Text": "{amount} m",
		"CharacterLimit": 0,
		"Category": "LocalizationFormatter",
		"Comment": ""
	},
	{
		"Id": "SecondsDuration",
		"Text": "{amount} s",
		"CharacterLimit": 0,
		"Category": "LocalizationFormatter",
		"Comment": ""
	},
	{
		"Id": "DurationSeparation",
		"Text": "{first} {second}",
		"CharacterLimit": 0,
		"Category": "LocalizationFormatter",
		"Comment": ""
	},
	{
		"Id": "EmptyDuration",
		"Text": "0 s",
		"CharacterLimit": 0,
		"Category": "LocalizationFormatter",
		"Comment": ""
	},
	{
		"Id": "MillionAmount",
		"Text": "{amount} M",
		"CharacterLimit": 0,
		"Category": "LocalizationFormatter",
		"Comment": ""
	}
]