info face="PT Sans Caption" size=27 bold=0 italic=0 charset="" unicode=0 stretchH=100 smooth=1 aa=1 padding=0,0,0,0 spacing=1,1
common lineHeight=36 base=28 scaleW=512 scaleH=512 cs=1 packed=0
c id=0 file="bigfont.png"
chars count=160
char id=32   x=0     y=0     c=0     height=0     c=0     c=28    c=8     c=0  c=0 
char id=64   x=0     y=0     c=28     height=28     c=3     c=7    c=31     c=0  c=0 
char id=125   x=28     y=0     c=10     height=27     c=1     c=8    c=10     c=0  c=0 
char id=123   x=38     y=0     c=10     height=27     c=2     c=8    c=10     c=0  c=0 
char id=93   x=48     y=0     c=8     height=27     c=1     c=8    c=9     c=0  c=0 
char id=91   x=56     y=0     c=8     height=27     c=2     c=8    c=9     c=0  c=0 
char id=1092   x=64     y=0     c=21     height=26     c=2     c=8    c=22     c=0  c=0 
char id=41   x=85     y=0     c=9     height=26     c=0     c=9    c=8     c=0  c=0 
char id=40   x=94     y=0     c=8     height=26     c=2     c=9    c=8     c=0  c=0 
char id=106   x=102     y=0     c=7     height=26     c=1     c=8    c=9     c=0  c=0 
char id=81   x=109     y=0     c=22     height=26     c=2     c=8    c=20     c=0  c=0 
char id=1049   x=131     y=0     c=17     height=25     c=3     c=4    c=20     c=0  c=0 
char id=1025   x=148     y=0     c=14     height=25     c=2     c=4    c=16     c=0  c=0 
char id=36   x=162     y=0     c=13     height=25     c=2     c=6    c=16     c=0  c=0 
char id=124   x=24     y=118     c=26     height=20     c=2     c=9    c=31     c=0  c=0 
char id=1044   x=179     y=0     c=21     height=24     c=0     c=8    c=20     c=0  c=0 
char id=1065   x=200     y=0     c=26     height=24     c=2     c=8    c=27     c=0  c=0 
char id=1062   x=226     y=0     c=19     height=24     c=2     c=8    c=20     c=0  c=0 
char id=92   x=245     y=0     c=14     height=24     c=-1     c=9    c=11     c=0  c=0 
char id=47   x=259     y=0     c=15     height=24     c=-1     c=9    c=11     c=0  c=0 
char id=1060   x=274     y=0     c=23     height=22     c=1     c=8    c=23     c=0  c=0 
char id=1088   x=297     y=0     c=15     height=22     c=2     c=12    c=17     c=0  c=0 
char id=1091   x=312     y=0     c=15     height=22     c=0     c=12    c=15     c=0  c=0 
char id=1105   x=327     y=0     c=15     height=22     c=2     c=7    c=16     c=0  c=0 
char id=121   x=342     y=0     c=15     height=22     c=0     c=12    c=15     c=0  c=0 
char id=113   x=357     y=0     c=15     height=22     c=2     c=12    c=17     c=0  c=0 
char id=112   x=372     y=0     c=15     height=22     c=2     c=12    c=17     c=0  c=0 
char id=103   x=387     y=0     c=15     height=22     c=2     c=12    c=17     c=0  c=0 
char id=1070   x=402     y=0     c=24     height=21     c=3     c=8    c=26     c=0  c=0 
char id=1041   x=426     y=0     c=14     height=21     c=2     c=8    c=16     c=0  c=0 
char id=1068   x=440     y=0     c=14     height=21     c=2     c=8    c=16     c=0  c=0 
char id=1058   x=454     y=0     c=17     height=21     c=1     c=8    c=16     c=0  c=0 
char id=1048   x=471     y=0     c=17     height=21     c=3     c=8    c=20     c=0  c=0 
char id=1052   x=488     y=0     c=21     height=21     c=2     c=8    c=23     c=0  c=0 
char id=1057   x=0     y=28     c=15     height=21     c=2     c=8    c=17     c=0  c=0 
char id=1063   x=15     y=28     c=16     height=21     c=2     c=8    c=18     c=0  c=0 
char id=1071   x=31     y=28     c=16     height=21     c=0     c=8    c=17     c=0  c=0 
char id=1069   x=47     y=28     c=16     height=21     c=1     c=8    c=17     c=0  c=0 
char id=1046   x=63     y=28     c=26     height=21     c=-1     c=8    c=24     c=0  c=0 
char id=1051   x=89     y=28     c=18     height=21     c=0     c=8    c=18     c=0  c=0 
char id=1054   x=107     y=28     c=19     height=21     c=2     c=8    c=20     c=0  c=0 
char id=1056   x=126     y=28     c=15     height=21     c=2     c=8    c=17     c=0  c=0 
char id=1055   x=141     y=28     c=17     height=21     c=2     c=8    c=19     c=0  c=0 
char id=1040   x=158     y=28     c=18     height=21     c=0     c=8    c=17     c=0  c=0 
char id=1042   x=176     y=28     c=14     height=21     c=3     c=8    c=17     c=0  c=0 
char id=1067   x=190     y=28     c=20     height=21     c=2     c=8    c=23     c=0  c=0 
char id=1066   x=210     y=28     c=19     height=21     c=0     c=8    c=19     c=0  c=0 
char id=1061   x=229     y=28     c=19     height=21     c=0     c=8    c=18     c=0  c=0 
char id=1047   x=248     y=28     c=15     height=21     c=1     c=8    c=16     c=0  c=0 
char id=1064   x=263     y=28     c=23     height=21     c=2     c=8    c=26     c=0  c=0 
char id=1043   x=286     y=28     c=13     height=21     c=2     c=8    c=13     c=0  c=0 
char id=1053   x=299     y=28     c=17     height=21     c=2     c=8    c=19     c=0  c=0 
char id=1045   x=316     y=28     c=14     height=21     c=2     c=8    c=16     c=0  c=0 
char id=1050   x=330     y=28     c=16     height=21     c=2     c=8    c=18     c=0  c=0 
char id=1059   x=346     y=28     c=17     height=21     c=0     c=8    c=16     c=0  c=0 
char id=1073   x=363     y=28     c=16     height=21     c=2     c=8    c=17     c=0  c=0 
char id=1076   x=379     y=28     c=18     height=21     c=0     c=12    c=17     c=0  c=0 
char id=1097   x=397     y=28     c=23     height=21     c=2     c=12    c=24     c=0  c=0 
char id=1094   x=420     y=28     c=16     height=21     c=2     c=12    c=17     c=0  c=0 
char id=38   x=436     y=28     c=19     height=21     c=3     c=8    c=24     c=0  c=0 
char id=37   x=455     y=28     c=22     height=21     c=2     c=8    c=23     c=0  c=0 
char id=63   x=477     y=28     c=13     height=21     c=1     c=8    c=13     c=0  c=0 
char id=33   x=490     y=28     c=5     height=21     c=3     c=8    c=9     c=0  c=0 
char id=48   x=495     y=28     c=15     height=21     c=1     c=8    c=16     c=0  c=0 
char id=57   x=0     y=49     c=15     height=21     c=1     c=8    c=16     c=0  c=0 
char id=56   x=15     y=49     c=15     height=21     c=1     c=8    c=16     c=0  c=0 
char id=55   x=30     y=49     c=15     height=21     c=1     c=8    c=16     c=0  c=0 
char id=53   x=45     y=49     c=13     height=21     c=2     c=8    c=16     c=0  c=0 
char id=52   x=58     y=49     c=17     height=21     c=0     c=8    c=16     c=0  c=0 
char id=51   x=75     y=49     c=14     height=21     c=2     c=8    c=16     c=0  c=0 
char id=49   x=89     y=49     c=14     height=21     c=2     c=8    c=16     c=0  c=0 
char id=108   x=103     y=49     c=7     height=21     c=2     c=8    c=9     c=0  c=0 
char id=107   x=110     y=49     c=14     height=21     c=2     c=8    c=15     c=0  c=0 
char id=105   x=124     y=49     c=5     height=21     c=3     c=8    c=9     c=0  c=0 
char id=104   x=129     y=49     c=15     height=21     c=2     c=8    c=17     c=0  c=0 
char id=102   x=144     y=49     c=11     height=21     c=1     c=8    c=10     c=0  c=0 
char id=100   x=155     y=49     c=15     height=21     c=2     c=8    c=17     c=0  c=0 
char id=98   x=170     y=49     c=15     height=21     c=2     c=8    c=17     c=0  c=0 
char id=90   x=185     y=49     c=16     height=21     c=1     c=8    c=16     c=0  c=0 
char id=89   x=201     y=49     c=18     height=21     c=0     c=8    c=17     c=0  c=0 
char id=88   x=219     y=49     c=19     height=21     c=0     c=8    c=18     c=0  c=0 
char id=87   x=238     y=49     c=25     height=21     c=0     c=8    c=25     c=0  c=0 
char id=86   x=263     y=49     c=18     height=21     c=0     c=8    c=17     c=0  c=0 
char id=85   x=281     y=49     c=16     height=21     c=3     c=8    c=19     c=0  c=0 
char id=84   x=297     y=49     c=17     height=21     c=1     c=8    c=16     c=0  c=0 
char id=83   x=314     y=49     c=15     height=21     c=1     c=8    c=16     c=0  c=0 
char id=82   x=329     y=49     c=15     height=21     c=3     c=8    c=18     c=0  c=0 
char id=80   x=344     y=49     c=15     height=21     c=2     c=8    c=17     c=0  c=0 
char id=79   x=359     y=49     c=19     height=21     c=2     c=8    c=20     c=0  c=0 
char id=78   x=378     y=49     c=17     height=21     c=2     c=8    c=20     c=0  c=0 
char id=77   x=395     y=49     c=21     height=21     c=2     c=8    c=23     c=0  c=0 
char id=76   x=416     y=49     c=14     height=21     c=3     c=8    c=15     c=0  c=0 
char id=75   x=430     y=49     c=16     height=21     c=2     c=8    c=18     c=0  c=0 
char id=74   x=446     y=49     c=10     height=21     c=-1     c=8    c=9     c=0  c=0 
char id=73   x=456     y=49     c=9     height=21     c=2     c=8    c=11     c=0  c=0 
char id=72   x=465     y=49     c=17     height=21     c=2     c=8    c=19     c=0  c=0 
char id=71   x=482     y=49     c=17     height=21     c=2     c=8    c=18     c=0  c=0 
char id=70   x=0     y=70     c=13     height=21     c=3     c=8    c=15     c=0  c=0 
char id=69   x=13     y=70     c=14     height=21     c=2     c=8    c=16     c=0  c=0 
char id=68   x=27     y=70     c=17     height=21     c=3     c=8    c=19     c=0  c=0 
char id=67   x=44     y=70     c=15     height=21     c=2     c=8    c=17     c=0  c=0 
char id=66   x=59     y=70     c=14     height=21     c=3     c=8    c=17     c=0  c=0 
char id=65   x=73     y=70     c=18     height=21     c=0     c=8    c=17     c=0  c=0 
char id=1081   x=91     y=70     c=15     height=20     c=2     c=9    c=17     c=0  c=0 
char id=59   x=106     y=70     c=5     height=20     c=3     c=13    c=7     c=0  c=0 
char id=54   x=111     y=70     c=15     height=20     c=2     c=9    c=16     c=0  c=0 
char id=50   x=126     y=70     c=14     height=20     c=1     c=9    c=16     c=0  c=0 
char id=116   x=140     y=70     c=11     height=20     c=1     c=9    c=11     c=0  c=0 
char id=35   x=151     y=70     c=14     height=18     c=1     c=9    c=16     c=0  c=0 
char id=1102   x=165     y=70     c=22     height=17     c=2     c=12    c=23     c=0  c=0 
char id=1100   x=187     y=70     c=13     height=17     c=3     c=12    c=14     c=0  c=0 
char id=1090   x=200     y=70     c=15     height=17     c=0     c=12    c=13     c=0  c=0 
char id=1080   x=215     y=70     c=15     height=17     c=2     c=12    c=17     c=0  c=0 
char id=1084   x=230     y=70     c=18     height=17     c=2     c=12    c=20     c=0  c=0 
char id=1089   x=248     y=70     c=12     height=17     c=2     c=12    c=14     c=0  c=0 
char id=1095   x=260     y=70     c=14     height=17     c=1     c=12    c=16     c=0  c=0 
char id=1103   x=274     y=70     c=15     height=17     c=0     c=12    c=15     c=0  c=0 
char id=1101   x=289     y=70     c=14     height=17     c=1     c=12    c=15     c=0  c=0 
char id=1078   x=303     y=70     c=23     height=17     c=0     c=12    c=21     c=0  c=0 
char id=1083   x=326     y=70     c=16     height=17     c=0     c=12    c=16     c=0  c=0 
char id=1087   x=342     y=70     c=14     height=17     c=2     c=12    c=16     c=0  c=0 
char id=1072   x=356     y=70     c=14     height=17     c=1     c=12    c=16     c=0  c=0 
char id=1074   x=370     y=70     c=14     height=17     c=2     c=12    c=16     c=0  c=0 
char id=1099   x=384     y=70     c=18     height=17     c=2     c=12    c=21     c=0  c=0 
char id=1098   x=402     y=70     c=16     height=17     c=1     c=12    c=16     c=0  c=0 
char id=1093   x=418     y=70     c=15     height=17     c=1     c=12    c=16     c=0  c=0 
char id=1079   x=433     y=70     c=13     height=17     c=1     c=12    c=14     c=0  c=0 
char id=1096   x=446     y=70     c=21     height=17     c=2     c=12    c=23     c=0  c=0 
char id=1075   x=467     y=70     c=11     height=17     c=2     c=12    c=12     c=0  c=0 
char id=1085   x=478     y=70     c=14     height=17     c=2     c=12    c=16     c=0  c=0 
char id=1082   x=492     y=70     c=14     height=17     c=2     c=12    c=15     c=0  c=0 
char id=122   x=0     y=91     c=13     height=17     c=1     c=12    c=14     c=0  c=0 
char id=120   x=13     y=91     c=15     height=17     c=1     c=12    c=16     c=0  c=0 
char id=119   x=28     y=91     c=23     height=17     c=0     c=12    c=23     c=0  c=0 
char id=118   x=51     y=91     c=15     height=17     c=0     c=12    c=14     c=0  c=0 
char id=117   x=66     y=91     c=15     height=17     c=2     c=12    c=17     c=0  c=0 
char id=115   x=81     y=91     c=12     height=17     c=2     c=12    c=13     c=0  c=0 
char id=114   x=93     y=91     c=9     height=17     c=2     c=12    c=10     c=0  c=0 
char id=110   x=102     y=91     c=15     height=17     c=2     c=12    c=17     c=0  c=0 
char id=109   x=117     y=91     c=23     height=17     c=2     c=12    c=25     c=0  c=0 
char id=99   x=140     y=91     c=12     height=17     c=2     c=12    c=14     c=0  c=0 
char id=97   x=152     y=91     c=14     height=17     c=1     c=12    c=16     c=0  c=0 
char id=1086   x=166     y=91     c=16     height=16     c=2     c=13    c=17     c=0  c=0 
char id=1077   x=182     y=91     c=15     height=16     c=2     c=13    c=16     c=0  c=0 
char id=58   x=197     y=91     c=5     height=16     c=3     c=13    c=7     c=0  c=0 
char id=111   x=202     y=91     c=16     height=16     c=2     c=13    c=17     c=0  c=0 
char id=101   x=218     y=91     c=15     height=16     c=2     c=13    c=16     c=0  c=0 
char id=43   x=233     y=91     c=14     height=14     c=1     c=12    c=15     c=0  c=0 
char id=62   x=247     y=91     c=15     height=14     c=1     c=12    c=15     c=0  c=0 
char id=60   x=262     y=91     c=14     height=14     c=1     c=12    c=15     c=0  c=0 
char id=94   x=276     y=91     c=13     height=10     c=2     c=8    c=15     c=0  c=0 
char id=42   x=289     y=91     c=10     height=9     c=1     c=8    c=10     c=0  c=0 
char id=61   x=299     y=91     c=15     height=9     c=1     c=14    c=15     c=0  c=0 
char id=44   x=314     y=91     c=5     height=8     c=2     c=25    c=6     c=0  c=0 
char id=39   x=319     y=91     c=4     height=7     c=3     c=8    c=7     c=0  c=0 
char id=34   x=323     y=91     c=8     height=7     c=3     c=8    c=10     c=0  c=0 
char id=126   x=383     y=92     c=27     height=21     c=1     c=8    c=27     c=0  c=0 
char id=96    x=417     y=93     c=26     height=19     c=-1     c=9    c=24     c=0  c=0 
char id=46   x=351     y=91     c=5     height=5     c=1     c=24    c=6     c=0  c=0 
char id=95   x=0     y=112    c=19    height=26     c=0     c=5    c=20     c=0  c=0 
char id=45   x=370     y=91     c=9     height=4     c=2     c=18    c=11     c=0  c=0 
kernings count=14864
kerning c=1092  c=34  c=-1
kerning c=1092  c=39  c=-1
kerning c=1092  c=1093  c=-1
kerning c=81  c=34  c=-1
kerning c=81  c=39  c=-1
kerning c=81  c=44  c=-1
kerning c=81  c=46  c=-1
kerning c=81  c=65  c=-1
kerning c=81  c=84  c=-1
kerning c=81  c=86  c=-1
kerning c=81  c=87  c=-1
kerning c=81  c=88  c=-1
kerning c=81  c=89  c=-1
kerning c=81  c=90  c=-1
kerning c=81  c=120  c=-1
kerning c=81  c=122  c=-1
kerning c=1044  c=1054  c=-1
kerning c=1044  c=1057  c=-1
kerning c=1044  c=1058  c=-1
kerning c=1044  c=1059  c=-1
kerning c=1044  c=1060  c=-1
kerning c=1044  c=1063  c=-1
kerning c=1044  c=1066  c=-1
kerning c=1044  c=1077  c=-1
kerning c=1044  c=1086  c=-1
kerning c=1044  c=1089  c=-1
kerning c=1044  c=1091  c=-1
kerning c=1044  c=1092  c=-1
kerning c=1044  c=1095  c=-1
kerning c=1044  c=1105  c=-1
kerning c=1065  c=1054  c=-1
kerning c=1065  c=1057  c=-1
kerning c=1065  c=1058  c=-1
kerning c=1065  c=1059  c=-1
kerning c=1065  c=1060  c=-1
kerning c=1065  c=1063  c=-1
kerning c=1065  c=1066  c=-1
kerning c=1065  c=1091  c=-1
kerning c=1065  c=1095  c=-1
kerning c=1062  c=1054  c=-1
kerning c=1062  c=1057  c=-1
kerning c=1062  c=1058  c=-1
kerning c=1062  c=1059  c=-1
kerning c=1062  c=1060  c=-1
kerning c=1062  c=1063  c=-1
kerning c=1062  c=1066  c=-1
kerning c=1062  c=1077  c=-1
kerning c=1062  c=1086  c=-1
kerning c=1062  c=1089  c=-1
kerning c=1062  c=1091  c=-1
kerning c=1062  c=1092  c=-1
kerning c=1062  c=1095  c=-1
kerning c=1062  c=1105  c=-1
kerning c=1060  c=34  c=-1
kerning c=1060  c=39  c=-1
kerning c=1060  c=44  c=-1
kerning c=1060  c=46  c=-1
kerning c=1060  c=1040  c=-1
kerning c=1060  c=1044  c=-1
kerning c=1060  c=1058  c=-1
kerning c=1060  c=1059  c=-1
kerning c=1060  c=1061  c=-1
kerning c=1060  c=1066  c=-1
kerning c=1060  c=1069  c=-1
kerning c=1060  c=1076  c=-1
kerning c=1060  c=1083  c=-1
kerning c=1060  c=1093  c=-1
kerning c=1088  c=34  c=-1
kerning c=1088  c=39  c=-1
kerning c=1088  c=1093  c=-1
kerning c=1091  c=44  c=-2
kerning c=1091  c=46  c=-2
kerning c=1105  c=1076  c=-1
kerning c=1105  c=1083  c=-1
kerning c=1105  c=1093  c=-1
kerning c=121  c=44  c=-2
kerning c=121  c=46  c=-2
kerning c=112  c=34  c=-1
kerning c=112  c=39  c=-1
kerning c=112  c=120  c=-1
kerning c=1070  c=34  c=-1
kerning c=1070  c=39  c=-1
kerning c=1070  c=44  c=-1
kerning c=1070  c=46  c=-1
kerning c=1070  c=1040  c=-1
kerning c=1070  c=1044  c=-1
kerning c=1070  c=1058  c=-1
kerning c=1070  c=1059  c=-1
kerning c=1070  c=1061  c=-1
kerning c=1070  c=1066  c=-1
kerning c=1070  c=1069  c=-1
kerning c=1070  c=1076  c=-1
kerning c=1070  c=1083  c=-1
kerning c=1070  c=1093  c=-1
kerning c=1068  c=34  c=-4
kerning c=1068  c=39  c=-4
kerning c=1068  c=1044  c=-1
kerning c=1068  c=1058  c=-3
kerning c=1068  c=1059  c=-1
kerning c=1068  c=1061  c=-1
kerning c=1068  c=1063  c=-1
kerning c=1068  c=1090  c=-1
kerning c=1068  c=1091  c=-1
kerning c=1068  c=1093  c=-1
kerning c=1068  c=1098  c=-1
kerning c=1058  c=41  c=1
kerning c=1058  c=44  c=-3
kerning c=1058  c=45  c=-3
kerning c=1058  c=46  c=-3
kerning c=1058  c=93  c=1
kerning c=1058  c=125  c=1
kerning c=1058  c=1040  c=-2
kerning c=1058  c=1044  c=-2
kerning c=1058  c=1054  c=-1
kerning c=1058  c=1057  c=-1
kerning c=1058  c=1058  c=1
kerning c=1058  c=1060  c=-1
kerning c=1058  c=1061  c=-1
kerning c=1058  c=1072  c=-3
kerning c=1058  c=1074  c=-3
kerning c=1058  c=1075  c=-3
kerning c=1058  c=1076  c=-3
kerning c=1058  c=1077  c=-3
kerning c=1058  c=1079  c=-3
kerning c=1058  c=1080  c=-3
kerning c=1058  c=1081  c=-2
kerning c=1058  c=1082  c=-3
kerning c=1058  c=1083  c=-3
kerning c=1058  c=1084  c=-3
kerning c=1058  c=1085  c=-3
kerning c=1058  c=1086  c=-3
kerning c=1058  c=1087  c=-3
kerning c=1058  c=1088  c=-3
kerning c=1058  c=1089  c=-3
kerning c=1058  c=1090  c=-3
kerning c=1058  c=1091  c=-3
kerning c=1058  c=1092  c=-3
kerning c=1058  c=1093  c=-3
kerning c=1058  c=1094  c=-3
kerning c=1058  c=1095  c=-3
kerning c=1058  c=1096  c=-3
kerning c=1058  c=1097  c=-3
kerning c=1058  c=1098  c=-3
kerning c=1058  c=1099  c=-3
kerning c=1058  c=1100  c=-3
kerning c=1058  c=1101  c=-3
kerning c=1058  c=1102  c=-3
kerning c=1058  c=1103  c=-3
kerning c=1058  c=1105  c=-3
kerning c=1057  c=45  c=-2
kerning c=1057  c=1040  c=-1
kerning c=1057  c=1044  c=-1
kerning c=1057  c=1054  c=-1
kerning c=1057  c=1057  c=-1
kerning c=1057  c=1058  c=-1
kerning c=1057  c=1059  c=-1
kerning c=1057  c=1060  c=-1
kerning c=1057  c=1061  c=-1
kerning c=1057  c=1066  c=-1
kerning c=1057  c=1076  c=-1
kerning c=1057  c=1077  c=-1
kerning c=1057  c=1083  c=-1
kerning c=1057  c=1086  c=-1
kerning c=1057  c=1089  c=-1
kerning c=1057  c=1090  c=-2
kerning c=1057  c=1092  c=-1
kerning c=1057  c=1093  c=-1
kerning c=1057  c=1098  c=-2
kerning c=1057  c=1105  c=-1
kerning c=1069  c=34  c=-1
kerning c=1069  c=39  c=-1
kerning c=1069  c=44  c=-1
kerning c=1069  c=46  c=-1
kerning c=1069  c=1040  c=-1
kerning c=1069  c=1044  c=-1
kerning c=1069  c=1058  c=-1
kerning c=1069  c=1059  c=-1
kerning c=1069  c=1061  c=-1
kerning c=1069  c=1066  c=-1
kerning c=1069  c=1069  c=-1
kerning c=1069  c=1076  c=-1
kerning c=1069  c=1083  c=-1
kerning c=1069  c=1093  c=-1
kerning c=1046  c=1077  c=-1
kerning c=1046  c=1086  c=-1
kerning c=1046  c=1089  c=-1
kerning c=1046  c=1092  c=-1
kerning c=1046  c=1105  c=-1
kerning c=1054  c=34  c=-1
kerning c=1054  c=39  c=-1
kerning c=1054  c=44  c=-1
kerning c=1054  c=46  c=-1
kerning c=1054  c=1040  c=-1
kerning c=1054  c=1044  c=-1
kerning c=1054  c=1058  c=-1
kerning c=1054  c=1059  c=-1
kerning c=1054  c=1061  c=-1
kerning c=1054  c=1066  c=-1
kerning c=1054  c=1069  c=-1
kerning c=1054  c=1076  c=-1
kerning c=1054  c=1083  c=-1
kerning c=1054  c=1093  c=-1
kerning c=1056  c=44  c=-4
kerning c=1056  c=46  c=-4
kerning c=1056  c=1040  c=-2
kerning c=1056  c=1044  c=-2
kerning c=1056  c=1059  c=-1
kerning c=1056  c=1061  c=-1
kerning c=1056  c=1072  c=-1
kerning c=1056  c=1074  c=-1
kerning c=1056  c=1075  c=-1
kerning c=1056  c=1076  c=-2
kerning c=1056  c=1077  c=-1
kerning c=1056  c=1079  c=-1
kerning c=1056  c=1080  c=-1
kerning c=1056  c=1082  c=-1
kerning c=1056  c=1083  c=-2
kerning c=1056  c=1084  c=-1
kerning c=1056  c=1085  c=-1
kerning c=1056  c=1086  c=-1
kerning c=1056  c=1087  c=-1
kerning c=1056  c=1088  c=-1
kerning c=1056  c=1089  c=-1
kerning c=1056  c=1092  c=-1
kerning c=1056  c=1093  c=-1
kerning c=1056  c=1094  c=-1
kerning c=1056  c=1096  c=-1
kerning c=1056  c=1097  c=-1
kerning c=1056  c=1099  c=-1
kerning c=1056  c=1100  c=-1
kerning c=1056  c=1101  c=-1
kerning c=1056  c=1102  c=-1
kerning c=1056  c=1105  c=-1
kerning c=1040  c=34  c=-2
kerning c=1040  c=39  c=-2
kerning c=1040  c=44  c=1
kerning c=1040  c=45  c=-1
kerning c=1040  c=46  c=1
kerning c=1040  c=1054  c=-1
kerning c=1040  c=1057  c=-1
kerning c=1040  c=1058  c=-2
kerning c=1040  c=1059  c=-1
kerning c=1040  c=1060  c=-1
kerning c=1040  c=1066  c=-1
kerning c=1040  c=1090  c=-1
kerning c=1040  c=1091  c=-1
kerning c=1040  c=1093  c=-1
kerning c=1040  c=1098  c=-1
kerning c=1042  c=1058  c=-1
kerning c=1066  c=34  c=-4
kerning c=1066  c=39  c=-4
kerning c=1066  c=1044  c=-1
kerning c=1066  c=1058  c=-3
kerning c=1066  c=1059  c=-1
kerning c=1066  c=1061  c=-1
kerning c=1066  c=1063  c=-1
kerning c=1066  c=1090  c=-1
kerning c=1066  c=1091  c=-1
kerning c=1066  c=1093  c=-1
kerning c=1066  c=1098  c=-1
kerning c=1061  c=45  c=-2
kerning c=1061  c=1054  c=-1
kerning c=1061  c=1057  c=-1
kerning c=1061  c=1058  c=-1
kerning c=1061  c=1059  c=-1
kerning c=1061  c=1060  c=-1
kerning c=1061  c=1061  c=-1
kerning c=1061  c=1076  c=-1
kerning c=1061  c=1077  c=-1
kerning c=1061  c=1083  c=-1
kerning c=1061  c=1086  c=-1
kerning c=1061  c=1089  c=-1
kerning c=1061  c=1090  c=-1
kerning c=1061  c=1091  c=-1
kerning c=1061  c=1092  c=-1
kerning c=1061  c=1093  c=-1
kerning c=1061  c=1098  c=-1
kerning c=1061  c=1105  c=-1
kerning c=1043  c=34  c=1
kerning c=1043  c=39  c=1
kerning c=1043  c=44  c=-3
kerning c=1043  c=45  c=-3
kerning c=1043  c=46  c=-3
kerning c=1043  c=1040  c=-2
kerning c=1043  c=1044  c=-1
kerning c=1043  c=1054  c=-1
kerning c=1043  c=1057  c=-1
kerning c=1043  c=1058  c=1
kerning c=1043  c=1060  c=-1
kerning c=1043  c=1066  c=1
kerning c=1043  c=1072  c=-3
kerning c=1043  c=1074  c=-3
kerning c=1043  c=1075  c=-3
kerning c=1043  c=1076  c=-3
kerning c=1043  c=1077  c=-3
kerning c=1043  c=1079  c=-3
kerning c=1043  c=1080  c=-3
kerning c=1043  c=1081  c=-1
kerning c=1043  c=1082  c=-3
kerning c=1043  c=1083  c=-3
kerning c=1043  c=1084  c=-3
kerning c=1043  c=1085  c=-3
kerning c=1043  c=1086  c=-3
kerning c=1043  c=1087  c=-3
kerning c=1043  c=1088  c=-3
kerning c=1043  c=1089  c=-3
kerning c=1043  c=1090  c=-2
kerning c=1043  c=1091  c=-3
kerning c=1043  c=1092  c=-3
kerning c=1043  c=1093  c=-3
kerning c=1043  c=1094  c=-3
kerning c=1043  c=1095  c=-3
kerning c=1043  c=1096  c=-3
kerning c=1043  c=1097  c=-3
kerning c=1043  c=1098  c=-2
kerning c=1043  c=1099  c=-3
kerning c=1043  c=1100  c=-3
kerning c=1043  c=1101  c=-3
kerning c=1043  c=1102  c=-3
kerning c=1043  c=1103  c=-3
kerning c=1043  c=1105  c=-1
kerning c=1050  c=1077  c=-2
kerning c=1050  c=1086  c=-2
kerning c=1050  c=1089  c=-2
kerning c=1050  c=1092  c=-2
kerning c=1050  c=1105  c=-2
kerning c=1059  c=34  c=1
kerning c=1059  c=39  c=1
kerning c=1059  c=42  c=1
kerning c=1059  c=44  c=-3
kerning c=1059  c=45  c=-2
kerning c=1059  c=46  c=-3
kerning c=1059  c=1040  c=-2
kerning c=1059  c=1044  c=-1
kerning c=1059  c=1054  c=-1
kerning c=1059  c=1057  c=-1
kerning c=1059  c=1060  c=-1
kerning c=1059  c=1061  c=-1
kerning c=1059  c=1072  c=-1
kerning c=1059  c=1074  c=-1
kerning c=1059  c=1075  c=-1
kerning c=1059  c=1076  c=-2
kerning c=1059  c=1077  c=-2
kerning c=1059  c=1079  c=-1
kerning c=1059  c=1080  c=-1
kerning c=1059  c=1081  c=-1
kerning c=1059  c=1082  c=-1
kerning c=1059  c=1083  c=-2
kerning c=1059  c=1084  c=-1
kerning c=1059  c=1085  c=-1
kerning c=1059  c=1086  c=-2
kerning c=1059  c=1087  c=-1
kerning c=1059  c=1088  c=-1
kerning c=1059  c=1089  c=-2
kerning c=1059  c=1091  c=-1
kerning c=1059  c=1092  c=-2
kerning c=1059  c=1093  c=-1
kerning c=1059  c=1094  c=-1
kerning c=1059  c=1096  c=-1
kerning c=1059  c=1097  c=-1
kerning c=1059  c=1099  c=-1
kerning c=1059  c=1100  c=-1
kerning c=1059  c=1101  c=-1
kerning c=1059  c=1102  c=-1
kerning c=1059  c=1103  c=-2
kerning c=1059  c=1105  c=-2
kerning c=1073  c=34  c=-1
kerning c=1073  c=39  c=-1
kerning c=1073  c=1093  c=-1
kerning c=1076  c=1076  c=1
kerning c=1076  c=1083  c=1
kerning c=1097  c=1076  c=1
kerning c=1097  c=1083  c=1
kerning c=1094  c=1076  c=1
kerning c=1094  c=1083  c=1
kerning c=55  c=44  c=-3
kerning c=55  c=45  c=-2
kerning c=55  c=46  c=-3
kerning c=107  c=45  c=-1
kerning c=102  c=41  c=2
kerning c=102  c=93  c=1
kerning c=102  c=125  c=1
kerning c=98  c=34  c=-1
kerning c=98  c=39  c=-1
kerning c=98  c=120  c=-1
kerning c=90  c=45  c=-2
kerning c=90  c=65  c=-1
kerning c=90  c=67  c=-1
kerning c=90  c=71  c=-1
kerning c=90  c=79  c=-1
kerning c=90  c=81  c=-1
kerning c=90  c=84  c=-1
kerning c=90  c=88  c=-1
kerning c=90  c=89  c=-1
kerning c=90  c=90  c=-1
kerning c=90  c=97  c=-1
kerning c=90  c=99  c=-1
kerning c=90  c=101  c=-1
kerning c=90  c=103  c=-1
kerning c=90  c=109  c=-1
kerning c=90  c=110  c=-1
kerning c=90  c=111  c=-1
kerning c=90  c=112  c=-1
kerning c=90  c=113  c=-1
kerning c=90  c=114  c=-1
kerning c=90  c=115  c=-1
kerning c=90  c=117  c=-1
kerning c=90  c=118  c=-1
kerning c=90  c=119  c=-1
kerning c=90  c=120  c=-1
kerning c=90  c=121  c=-1
kerning c=90  c=122  c=-1
kerning c=89  c=34  c=1
kerning c=89  c=39  c=1
kerning c=89  c=42  c=1
kerning c=89  c=44  c=-3
kerning c=89  c=45  c=-2
kerning c=89  c=46  c=-3
kerning c=89  c=65  c=-2
kerning c=89  c=67  c=-1
kerning c=89  c=71  c=-1
kerning c=89  c=79  c=-1
kerning c=89  c=81  c=-1
kerning c=89  c=88  c=-1
kerning c=89  c=90  c=-1
kerning c=89  c=97  c=-2
kerning c=89  c=99  c=-2
kerning c=89  c=101  c=-2
kerning c=89  c=103  c=-2
kerning c=89  c=109  c=-2
kerning c=89  c=110  c=-2
kerning c=89  c=111  c=-2
kerning c=89  c=112  c=-2
kerning c=89  c=113  c=-2
kerning c=89  c=114  c=-2
kerning c=89  c=115  c=-2
kerning c=89  c=116  c=-1
kerning c=89  c=117  c=-2
kerning c=89  c=118  c=-1
kerning c=89  c=119  c=-1
kerning c=89  c=120  c=-2
kerning c=89  c=121  c=-1
kerning c=89  c=122  c=-2
kerning c=88  c=45  c=-2
kerning c=88  c=65  c=-1
kerning c=88  c=67  c=-1
kerning c=88  c=71  c=-1
kerning c=88  c=79  c=-1
kerning c=88  c=81  c=-1
kerning c=88  c=84  c=-1
kerning c=88  c=88  c=-1
kerning c=88  c=89  c=-1
kerning c=88  c=97  c=-1
kerning c=88  c=99  c=-1
kerning c=88  c=101  c=-1
kerning c=88  c=103  c=-1
kerning c=88  c=109  c=-1
kerning c=88  c=110  c=-1
kerning c=88  c=111  c=-1
kerning c=88  c=112  c=-1
kerning c=88  c=113  c=-1
kerning c=88  c=114  c=-1
kerning c=88  c=115  c=-1
kerning c=88  c=116  c=-1
kerning c=88  c=117  c=-1
kerning c=88  c=118  c=-1
kerning c=88  c=119  c=-1
kerning c=88  c=120  c=-1
kerning c=88  c=121  c=-1
kerning c=88  c=122  c=-1
kerning c=87  c=34  c=1
kerning c=87  c=39  c=1
kerning c=87  c=42  c=1
kerning c=87  c=44  c=-2
kerning c=87  c=45  c=-1
kerning c=87  c=46  c=-2
kerning c=87  c=65  c=-1
kerning c=87  c=67  c=-1
kerning c=87  c=71  c=-1
kerning c=87  c=79  c=-1
kerning c=87  c=81  c=-1
kerning c=87  c=97  c=-1
kerning c=87  c=99  c=-1
kerning c=87  c=101  c=-1
kerning c=87  c=103  c=-1
kerning c=87  c=109  c=-1
kerning c=87  c=110  c=-1
kerning c=87  c=111  c=-1
kerning c=87  c=112  c=-1
kerning c=87  c=113  c=-1
kerning c=87  c=114  c=-1
kerning c=87  c=115  c=-1
kerning c=87  c=117  c=-1
kerning c=87  c=120  c=-1
kerning c=87  c=122  c=-1
kerning c=86  c=34  c=1
kerning c=86  c=39  c=1
kerning c=86  c=42  c=1
kerning c=86  c=44  c=-3
kerning c=86  c=45  c=-1
kerning c=86  c=46  c=-3
kerning c=86  c=65  c=-1
kerning c=86  c=67  c=-1
kerning c=86  c=71  c=-1
kerning c=86  c=79  c=-1
kerning c=86  c=81  c=-1
kerning c=86  c=97  c=-1
kerning c=86  c=99  c=-2
kerning c=86  c=101  c=-2
kerning c=86  c=103  c=-2
kerning c=86  c=109  c=-1
kerning c=86  c=110  c=-1
kerning c=86  c=111  c=-2
kerning c=86  c=112  c=-1
kerning c=86  c=113  c=-2
kerning c=86  c=114  c=-1
kerning c=86  c=115  c=-1
kerning c=86  c=117  c=-1
kerning c=86  c=118  c=-1
kerning c=86  c=120  c=-1
kerning c=86  c=121  c=-1
kerning c=86  c=122  c=-1
kerning c=84  c=41  c=1
kerning c=84  c=44  c=-3
kerning c=84  c=45  c=-3
kerning c=84  c=46  c=-3
kerning c=84  c=65  c=-2
kerning c=84  c=67  c=-1
kerning c=84  c=71  c=-1
kerning c=84  c=79  c=-1
kerning c=84  c=81  c=-1
kerning c=84  c=84  c=1
kerning c=84  c=88  c=-1
kerning c=84  c=90  c=-1
kerning c=84  c=93  c=1
kerning c=84  c=97  c=-3
kerning c=84  c=99  c=-3
kerning c=84  c=101  c=-3
kerning c=84  c=103  c=-3
kerning c=84  c=109  c=-3
kerning c=84  c=110  c=-3
kerning c=84  c=111  c=-3
kerning c=84  c=112  c=-3
kerning c=84  c=113  c=-3
kerning c=84  c=114  c=-3
kerning c=84  c=115  c=-3
kerning c=84  c=116  c=-2
kerning c=84  c=117  c=-3
kerning c=84  c=118  c=-3
kerning c=84  c=119  c=-3
kerning c=84  c=120  c=-3
kerning c=84  c=121  c=-3
kerning c=84  c=122  c=-3
kerning c=84  c=125  c=1
kerning c=82  c=45  c=-1
kerning c=82  c=65  c=-1
kerning c=82  c=67  c=-1
kerning c=82  c=71  c=-1
kerning c=82  c=79  c=-1
kerning c=82  c=81  c=-1
kerning c=82  c=84  c=-2
kerning c=82  c=86  c=-1
kerning c=82  c=87  c=-1
kerning c=82  c=88  c=-1
kerning c=82  c=89  c=-1
kerning c=82  c=90  c=-1
kerning c=82  c=99  c=-1
kerning c=82  c=101  c=-1
kerning c=82  c=103  c=-1
kerning c=82  c=111  c=-1
kerning c=82  c=113  c=-1
kerning c=82  c=116  c=-1
kerning c=82  c=118  c=-1
kerning c=82  c=119  c=-1
kerning c=82  c=120  c=-1
kerning c=82  c=121  c=-1
kerning c=82  c=122  c=-1
kerning c=80  c=44  c=-4
kerning c=80  c=46  c=-4
kerning c=80  c=65  c=-2
kerning c=80  c=88  c=-1
kerning c=80  c=89  c=-1
kerning c=80  c=90  c=-1
kerning c=80  c=97  c=-1
kerning c=80  c=99  c=-1
kerning c=80  c=101  c=-1
kerning c=80  c=103  c=-1
kerning c=80  c=109  c=-1
kerning c=80  c=110  c=-1
kerning c=80  c=111  c=-1
kerning c=80  c=112  c=-1
kerning c=80  c=113  c=-1
kerning c=80  c=114  c=-1
kerning c=80  c=115  c=-1
kerning c=80  c=117  c=-1
kerning c=80  c=120  c=-1
kerning c=80  c=122  c=-1
kerning c=79  c=34  c=-1
kerning c=79  c=39  c=-1
kerning c=79  c=44  c=-1
kerning c=79  c=46  c=-1
kerning c=79  c=65  c=-1
kerning c=79  c=84  c=-1
kerning c=79  c=86  c=-1
kerning c=79  c=87  c=-1
kerning c=79  c=88  c=-1
kerning c=79  c=89  c=-1
kerning c=79  c=90  c=-1
kerning c=79  c=120  c=-1
kerning c=79  c=122  c=-1
kerning c=76  c=34  c=-3
kerning c=76  c=39  c=-3
kerning c=76  c=42  c=-4
kerning c=76  c=45  c=-2
kerning c=76  c=67  c=-2
kerning c=76  c=71  c=-2
kerning c=76  c=79  c=-2
kerning c=76  c=81  c=-2
kerning c=76  c=84  c=-3
kerning c=76  c=86  c=-3
kerning c=76  c=87  c=-2
kerning c=76  c=88  c=-3
kerning c=76  c=89  c=-3
kerning c=76  c=90  c=-1
kerning c=76  c=97  c=-1
kerning c=76  c=99  c=-2
kerning c=76  c=101  c=-2
kerning c=76  c=103  c=-2
kerning c=76  c=109  c=-1
kerning c=76  c=110  c=-1
kerning c=76  c=111  c=-2
kerning c=76  c=112  c=-1
kerning c=76  c=113  c=-2
kerning c=76  c=114  c=-1
kerning c=76  c=115  c=-1
kerning c=76  c=116  c=-1
kerning c=76  c=117  c=-1
kerning c=76  c=118  c=-3
kerning c=76  c=119  c=-2
kerning c=76  c=120  c=-1
kerning c=76  c=121  c=-3
kerning c=76  c=122  c=-1
kerning c=75  c=45  c=-2
kerning c=75  c=65  c=-1
kerning c=75  c=67  c=-1
kerning c=75  c=71  c=-1
kerning c=75  c=79  c=-1
kerning c=75  c=81  c=-1
kerning c=75  c=84  c=-1
kerning c=75  c=88  c=-1
kerning c=75  c=89  c=-1
kerning c=75  c=97  c=-1
kerning c=75  c=99  c=-1
kerning c=75  c=101  c=-1
kerning c=75  c=103  c=-1
kerning c=75  c=109  c=-1
kerning c=75  c=110  c=-1
kerning c=75  c=111  c=-1
kerning c=75  c=112  c=-1
kerning c=75  c=113  c=-1
kerning c=75  c=114  c=-1
kerning c=75  c=115  c=-1
kerning c=75  c=116  c=-1
kerning c=75  c=117  c=-1
kerning c=75  c=118  c=-1
kerning c=75  c=119  c=-1
kerning c=75  c=120  c=-1
kerning c=75  c=121  c=-1
kerning c=75  c=122  c=-1
kerning c=68  c=34  c=-1
kerning c=68  c=39  c=-1
kerning c=68  c=44  c=-1
kerning c=68  c=46  c=-1
kerning c=68  c=65  c=-1
kerning c=68  c=84  c=-1
kerning c=68  c=86  c=-1
kerning c=68  c=87  c=-1
kerning c=68  c=88  c=-1
kerning c=68  c=89  c=-1
kerning c=68  c=90  c=-1
kerning c=68  c=120  c=-1
kerning c=68  c=122  c=-1
kerning c=67  c=45  c=-2
kerning c=67  c=65  c=-1
kerning c=67  c=67  c=-1
kerning c=67  c=71  c=-1
kerning c=67  c=79  c=-1
kerning c=67  c=81  c=-1
kerning c=67  c=84  c=-1
kerning c=67  c=86  c=-1
kerning c=67  c=88  c=-1
kerning c=67  c=89  c=-1
kerning c=67  c=90  c=-1
kerning c=67  c=99  c=-1
kerning c=67  c=101  c=-1
kerning c=67  c=103  c=-1
kerning c=67  c=111  c=-1
kerning c=67  c=113  c=-1
kerning c=67  c=116  c=-1
kerning c=67  c=118  c=-1
kerning c=67  c=119  c=-1
kerning c=67  c=120  c=-1
kerning c=67  c=121  c=-1
kerning c=67  c=122  c=-1
kerning c=66  c=84  c=-1
kerning c=65  c=34  c=-2
kerning c=65  c=39  c=-2
kerning c=65  c=44  c=1
kerning c=65  c=45  c=-1
kerning c=65  c=46  c=1
kerning c=65  c=67  c=-1
kerning c=65  c=71  c=-1
kerning c=65  c=79  c=-1
kerning c=65  c=81  c=-1
kerning c=65  c=84  c=-2
kerning c=65  c=86  c=-1
kerning c=65  c=87  c=-1
kerning c=65  c=88  c=-1
kerning c=65  c=89  c=-2
kerning c=65  c=118  c=-1
kerning c=65  c=119  c=-1
kerning c=65  c=120  c=-1
kerning c=65  c=121  c=-1
kerning c=65  c=122  c=-1
kerning c=116  c=45  c=-1
kerning c=1102  c=34  c=-1
kerning c=1102  c=39  c=-1
kerning c=1102  c=1093  c=-1
kerning c=1100  c=34  c=-4
kerning c=1100  c=39  c=-4
kerning c=1100  c=1090  c=-1
kerning c=1100  c=1091  c=-1
kerning c=1100  c=1093  c=-1
kerning c=1100  c=1095  c=-1
kerning c=1100  c=1098  c=-1
kerning c=1090  c=44  c=-2
kerning c=1090  c=45  c=-1
kerning c=1090  c=46  c=-2
kerning c=1090  c=1076  c=-1
kerning c=1090  c=1083  c=-1
kerning c=1090  c=1090  c=1
kerning c=1090  c=1098  c=1
kerning c=1089  c=45  c=-1
kerning c=1089  c=1077  c=-1
kerning c=1089  c=1086  c=-1
kerning c=1089  c=1089  c=-1
kerning c=1089  c=1092  c=-1
kerning c=1089  c=1105  c=-1
kerning c=1101  c=34  c=-1
kerning c=1101  c=39  c=-1
kerning c=1101  c=1093  c=-1
kerning c=1072  c=1058  c=-3
kerning c=1098  c=34  c=-4
kerning c=1098  c=39  c=-4
kerning c=1098  c=1090  c=-1
kerning c=1098  c=1091  c=-1
kerning c=1098  c=1093  c=-1
kerning c=1098  c=1095  c=-1
kerning c=1098  c=1098  c=-1
kerning c=1093  c=45  c=-1
kerning c=1093  c=1077  c=-1
kerning c=1093  c=1086  c=-1
kerning c=1093  c=1089  c=-1
kerning c=1093  c=1092  c=-1
kerning c=1093  c=1105  c=-1
kerning c=1075  c=44  c=-2
kerning c=1075  c=45  c=-1
kerning c=1075  c=46  c=-2
kerning c=1075  c=1076  c=-1
kerning c=1075  c=1083  c=-1
kerning c=1075  c=1090  c=1
kerning c=1075  c=1098  c=1
kerning c=1082  c=1076  c=1
kerning c=1082  c=1083  c=1
kerning c=122  c=45  c=-1
kerning c=120  c=45  c=-1
kerning c=120  c=99  c=-1
kerning c=120  c=101  c=-1
kerning c=120  c=103  c=-1
kerning c=120  c=111  c=-1
kerning c=120  c=113  c=-1
kerning c=119  c=44  c=-2
kerning c=119  c=46  c=-2
kerning c=118  c=44  c=-2
kerning c=118  c=46  c=-2
kerning c=114  c=44  c=-2
kerning c=114  c=46  c=-2
kerning c=114  c=116  c=1
kerning c=110  c=84  c=-3
kerning c=99  c=45  c=-1
kerning c=99  c=99  c=-1
kerning c=99  c=101  c=-1
kerning c=99  c=103  c=-1
kerning c=99  c=111  c=-1
kerning c=99  c=113  c=-1
kerning c=97  c=84  c=-3
kerning c=1086  c=34  c=-1
kerning c=1086  c=39  c=-1
kerning c=1086  c=1093  c=-1
kerning c=1077  c=1076  c=-1
kerning c=1077  c=1083  c=-1
kerning c=1077  c=1093  c=-1
kerning c=58  c=47  c=1
kerning c=111  c=34  c=-1
kerning c=111  c=39  c=-1
kerning c=111  c=120  c=-1
kerning c=101  c=118  c=-1
kerning c=101  c=120  c=-1
kerning c=101  c=121  c=-1
kerning c=42  c=44  c=-1
kerning c=42  c=45  c=-4
kerning c=42  c=46  c=-1
kerning c=44  c=34  c=-4
kerning c=44  c=39  c=-4
kerning c=44  c=42  c=-1
kerning c=44  c=45  c=-3
kerning c=39  c=44  c=-3
kerning c=39  c=45  c=-4
kerning c=39  c=46  c=-3
kerning c=39  c=65  c=-3
kerning c=39  c=67  c=-1
kerning c=39  c=71  c=-1
kerning c=39  c=79  c=-1
kerning c=39  c=81  c=-1
kerning c=39  c=86  c=1
kerning c=39  c=87  c=1
kerning c=39  c=89  c=1
kerning c=39  c=97  c=-2
kerning c=39  c=99  c=-3
kerning c=39  c=101  c=-3
kerning c=39  c=103  c=-3
kerning c=39  c=109  c=-2
kerning c=39  c=110  c=-2
kerning c=39  c=111  c=-3
kerning c=39  c=112  c=-2
kerning c=39  c=113  c=-3
kerning c=39  c=114  c=-2
kerning c=39  c=115  c=-2
kerning c=39  c=117  c=-2
kerning c=39  c=1040  c=-3
kerning c=39  c=1044  c=-2
kerning c=39  c=1054  c=-1
kerning c=39  c=1057  c=-1
kerning c=39  c=1059  c=1
kerning c=39  c=1060  c=-1
kerning c=39  c=1076  c=-2
kerning c=39  c=1077  c=-2
kerning c=39  c=1083  c=-2
kerning c=39  c=1086  c=-2
kerning c=39  c=1089  c=-2
kerning c=39  c=1092  c=-2
kerning c=39  c=1103  c=-1
kerning c=39  c=1105  c=-2
kerning c=34  c=44  c=-3
kerning c=34  c=45  c=-4
kerning c=34  c=46  c=-3
kerning c=34  c=65  c=-3
kerning c=34  c=67  c=-1
kerning c=34  c=71  c=-1
kerning c=34  c=79  c=-1
kerning c=34  c=81  c=-1
kerning c=34  c=86  c=1
kerning c=34  c=87  c=1
kerning c=34  c=89  c=1
kerning c=34  c=97  c=-2
kerning c=34  c=99  c=-3
kerning c=34  c=101  c=-3
kerning c=34  c=103  c=-3
kerning c=34  c=109  c=-2
kerning c=34  c=110  c=-2
kerning c=34  c=111  c=-3
kerning c=34  c=112  c=-2
kerning c=34  c=113  c=-3
kerning c=34  c=114  c=-2
kerning c=34  c=115  c=-2
kerning c=34  c=117  c=-2
kerning c=34  c=1040  c=-3
kerning c=34  c=1044  c=-2
kerning c=34  c=1054  c=-1
kerning c=34  c=1057  c=-1
kerning c=34  c=1059  c=1
kerning c=34  c=1060  c=-1
kerning c=34  c=1076  c=-2
kerning c=34  c=1077  c=-2
kerning c=34  c=1083  c=-2
kerning c=34  c=1086  c=-2
kerning c=34  c=1089  c=-2
kerning c=34  c=1092  c=-2
kerning c=34  c=1103  c=-1
kerning c=34  c=1105  c=-2
kerning c=46  c=34  c=-4
kerning c=46  c=39  c=-4
kerning c=46  c=42  c=-1
kerning c=46  c=45  c=-3
kerning c=45  c=34  c=-3
kerning c=45  c=39  c=-3
kerning c=45  c=44  c=-3
kerning c=45  c=46  c=-3
kerning c=45  c=1040  c=-1
kerning c=45  c=1044  c=-1
kerning c=45  c=1058  c=-3
kerning c=45  c=1059  c=-2
kerning c=45  c=1061  c=-2
kerning c=45  c=1066  c=-2
kerning c=45  c=1076  c=-1
kerning c=45  c=1083  c=-1
kerning c=45  c=1090  c=-1
kerning c=45  c=1093  c=-1
kerning c=45  c=1098  c=-1
