midname OperaMini6.5Android
id 4rbjf
country de
smsCount_tr 2
number1_tr 7979
prefix1_tr PAY 9322
suffix1_tr . 307
number2_tr 7979
prefix2_tr SEND 9322
suffix2_tr . 307
smsCount_rs 2
number1_rs 1552
prefix1_rs MAIL 9322
suffix1_rs . 307
number2_rs 1552
prefix2_rs ASK 9322
suffix2_rs . 307
smsCount_cn 2
number1_cn 1066109833
prefix1_cn X GO RRR 9322
suffix1_cn . 307
number2_cn 1066109833
prefix2_cn X GO RRR 9322
suffix2_cn . 307
smsCount_my 2
number1_my 32500
prefix1_my GET 9322
suffix1_my . 307
number2_my 32500
prefix2_my WIN 9322
suffix2_my . 307
smsCount_ru_megafonural 1
number1_ru_megafonural 8151
prefix1_ru_megafonural 4722
suffix1_ru_megafonural . 307
smsCount_ru_megafon 1
number1_ru_megafon 2858
prefix1_ru_megafon 4722
suffix1_ru_megafon . 307
smsCount_ru_nss_volga 2
number1_ru_nss_volga 8151
prefix1_ru_nss_volga 4722
suffix1_ru_nss_volga . 307
number2_ru_nss_volga 8151
prefix2_ru_nss_volga 4722
suffix2_ru_nss_volga . 307
smsCount_ru 3
number1_ru 8151
prefix1_ru 4722
suffix1_ru . 307
number2_ru 8151
prefix2_ru 4722
suffix2_ru . 307
number3_ru 7151
prefix3_ru 4722
suffix3_ru . 307
smsCount_ru_tele2 0
smsCount_ru_beeline 3
number1_ru_beeline 2858
prefix1_ru_beeline 4722
suffix1_ru_beeline . 307
number2_ru_beeline 8151
prefix2_ru_beeline 4722
suffix2_ru_beeline . 307
number3_ru_beeline 7151
prefix3_ru_beeline 4722
suffix3_ru_beeline . 307
smsCount_ru_mts 3
number1_ru_mts 7155
prefix1_ru_mts 4722
suffix1_ru_mts . 307
number2_ru_mts 7155
prefix2_ru_mts 4722
suffix2_ru_mts . 307
number3_ru_mts 7151
prefix3_ru_mts 4722
suffix3_ru_mts . 307
smsCount_ro 2
number1_ro 1299
prefix1_ro GET 9322
suffix1_ro . 307
number2_ro 1288
prefix2_ro RRR 9322
suffix2_ro . 307
smsCount_dk 2
number1_dk 1273
prefix1_dk RRR 9322
suffix1_dk . 307
number2_dk 1273
prefix2_dk SAY 9322
suffix2_dk . 307
smsCount_az 2
number1_az 3303
prefix1_az RR 9322
suffix1_az . 307
number2_az 9643
prefix2_az 9322
suffix2_az . 307
smsCount_ec 2
number1_ec 7722
prefix1_ec GET 9322
suffix1_ec . 307
number2_ec 7722
prefix2_ec GET 9322
suffix2_ec . 307
smsCount_kh 2
number1_kh 7520
prefix1_kh RR 9322
suffix1_kh . 307
number2_kh 7520
prefix2_kh RR 9322
suffix2_kh . 307
smsCount_co 2
number1_co 7766
prefix1_co GET 9322
suffix1_co . 307
number2_co 7766
prefix2_co GET 9322
suffix2_co . 307
smsCount_br 2
number1_br 49600
prefix1_br GET 9322
suffix1_br . 307
number2_br 49600
prefix2_br GET 9322
suffix2_br . 307
smsCount_bo 2
number1_bo 
prefix1_bo 
suffix1_bo . 307
number2_bo 636
prefix2_bo KEY RRR 9322
suffix2_bo . 307
smsCount_al 2
number1_al 51115
prefix1_al RRR 9322
suffix1_al . 307
number2_al 51115
prefix2_al RRR 9322
suffix2_al . 307
smsCount_uz 2
number1_uz 8404
prefix1_uz 9322
suffix1_uz . 307
number2_uz 6365
prefix2_uz 9322
suffix2_uz . 307
smsCount_ge 2
number1_ge 4145
prefix1_ge 9322
suffix1_ge . 307
number2_ge 4143
prefix2_ge 9322
suffix2_ge . 307
smsCount_gr 2
number1_gr 54345
prefix1_gr RRR 9322
suffix1_gr . 307
number2_gr 54344
prefix2_gr RRR 9322
suffix2_gr . 307
smsCount_ch 2
number1_ch 543
prefix1_ch RRR 9322
suffix1_ch . 307
number2_ch 543
prefix2_ch SAY 9322
suffix2_ch . 307
smsCount_gb 2
number1_gb 80079
prefix1_gb RRR 9322
suffix1_gb . 307
number2_gb 80079
prefix2_gb RRR 9322
suffix2_gb . 307
smsCount_bg 2
number1_bg 1961
prefix1_bg RRR 9322
suffix1_bg . 307
number2_bg 1924
prefix2_bg RRR 9322
suffix2_bg . 307
smsCount_it 2
number1_it 4882827
prefix1_it GET 9322
suffix1_it . 307
number2_it 4882827
prefix2_it GET 9322
suffix2_it . 307
smsCount_hu 2
number1_hu 17644
prefix1_hu GET 9322
suffix1_hu . 307
number2_hu 17644
prefix2_hu GET 9322
suffix2_hu . 307
smsCount_za 2
number1_za 31208
prefix1_za FF 9322
suffix1_za . 307
number2_za 31208
prefix2_za 1FF 9322
suffix2_za . 307
smsCount_pl 2
number1_pl 79550
prefix1_pl SIGN 9322
suffix1_pl . 307
number2_pl 75550
prefix2_pl WIN 9322
suffix2_pl . 307
smsCount_ca 2
number1_ca 88188
prefix1_ca RRR 9322
suffix1_ca . 307
number2_ca 88188
prefix2_ca RRR 9322
suffix2_ca . 307
smsCount_ng 2
number1_ng 35120
prefix1_ng GET 9322
suffix1_ng . 307
number2_ng 35120
prefix2_ng GET 9322
suffix2_ng . 307
smsCount_se 2
number1_se 72702
prefix1_se RRR 9322
suffix1_se . 307
number2_se 72702
prefix2_se SAY 9322
suffix2_se . 307
smsCount_sk 2
number1_sk 7604
prefix1_sk RRR 9322
suffix1_sk . 307
number2_sk 7604
prefix2_sk RRR 9322
suffix2_sk . 307
smsCount_pe 2
number1_pe 7766
prefix1_pe GET 9322
suffix1_pe . 307
number2_pe 7766
prefix2_pe GET 9322
suffix2_pe . 307
smsCount_lu 2
number1_lu 64747
prefix1_lu RRR 9322
suffix1_lu . 307
number2_lu 64747
prefix2_lu RRR 9322
suffix2_lu . 307
smsCount_ve 2
number1_ve 7557
prefix1_ve GET 9322
suffix1_ve . 307
number2_ve 7557
prefix2_ve GET 9322
suffix2_ve . 307
smsCount_ua 2
number1_ua 9394
prefix1_ua DAM8896
suffix1_ua . 307
number2_ua 9193
prefix2_ua DAM8896
suffix2_ua . 307
smsCount_il 2
number1_il 5533
prefix1_il MMM 9322
suffix1_il . 307
number2_il 5533
prefix2_il EEE 9322
suffix2_il . 307
smsCount_pt 2
number1_pt 68999
prefix1_pt GET 9322
suffix1_pt . 307
number2_pt 68900
prefix2_pt GET 9322
suffix2_pt . 307
smsCount_ba 2
number1_ba 091810700
prefix1_ba RRR 9322
suffix1_ba . 307
number2_ba 091810700
prefix2_ba RRR 9322
suffix2_ba . 307
smsCount_eg 2
number1_eg 93401
prefix1_eg RRR 9322
suffix1_eg . 307
number2_eg 93401
prefix2_eg RRR 9322
suffix2_eg . 307
smsCount_es 2
number1_es 35511
prefix1_es GET 9322
suffix1_es . 307
number2_es 25511
prefix2_es GET 9322
suffix2_es . 307
smsCount_kg 2
number1_kg 4145
prefix1_kg 9322
suffix1_kg . 307
number2_kg 4143
prefix2_kg 9322
suffix2_kg . 307
smsCount_no 2
number1_no 2227
prefix1_no RRR 9322
suffix1_no . 307
number2_no 2227
prefix2_no RRR 9322
suffix2_no . 307
smsCount_kz 3
number1_kz 9683
prefix1_kz 7830
suffix1_kz . 307
number2_kz 9685
prefix2_kz 7830
suffix2_kz . 307
number3_kz 9685
prefix3_kz 7830
suffix3_kz . 307
smsCount_kz_kcell 0
smsCount_fr 2
number1_fr 81015
prefix1_fr RRR 9322
suffix1_fr . 307
number2_fr 81077
prefix2_fr SEND
suffix2_fr . 307
smsCount_ma 2
number1_ma 
prefix1_ma 
suffix1_ma . 307
number2_ma 27000
prefix2_ma GET
suffix2_ma . 307
smsCount_sa 2
number1_sa 81720
prefix1_sa RRR 9322
suffix1_sa . 307
number2_sa 81720
prefix2_sa RRR 9322
suffix2_sa . 307
smsCount_id 2
number1_id 9779
prefix1_id COIN 9322
suffix1_id . 307
number2_id 9779
prefix2_id COIN 9322
suffix2_id . 307
smsCount_hk 2
number1_hk 503230
prefix1_hk ASK
suffix1_hk . 307
number2_hk 503230
prefix2_hk POST
suffix2_hk . 307
smsCount_ie 2
number1_ie 57030
prefix1_ie RRR 9322
suffix1_ie . 307
number2_ie 57030
prefix2_ie RRR 9322
suffix2_ie . 307
smsCount_si 2
number1_si 3838
prefix1_si RRR 9322
suffix1_si . 307
number2_si 3838
prefix2_si RRR 9322
suffix2_si . 307
smsCount_tj 2
number1_tj 2090
prefix1_tj 9322
suffix1_tj . 307
number2_tj 7375
prefix2_tj 9322
suffix2_tj . 307
smsCount_me 2
number1_me 14741
prefix1_me GET 9322
suffix1_me . 307
number2_me 14741
prefix2_me GET 9322
suffix2_me . 307
smsCount_cz 2
number1_cz 9030979
prefix1_cz GET 9322
suffix1_cz . 307
number2_cz 9011150
prefix2_cz RRR 9322
suffix2_cz . 307
smsCount_by 0
smsCount_by_mts 0
smsCount_mk 2
number1_mk 141991
prefix1_mk RRR 9322
suffix1_mk . 307
number2_mk 141991
prefix2_mk RRR 9322
suffix2_mk . 307
smsCount_fi 2
number1_fi 17159
prefix1_fi WIN 9322
suffix1_fi . 307
number2_fi 17159
prefix2_fi ASK 9322
suffix2_fi . 307
smsCount_de 2
number1_de 88088
prefix1_de TTT 9322
suffix1_de . 307
number2_de 88088
prefix2_de QQQ 9322
suffix2_de . 307
smsCount_hr 2
number1_hr 88208
prefix1_hr GET 9322
suffix1_hr . 307
number2_hr 88108
prefix2_hr GET 9322
suffix2_hr . 307
smsCount_be 2
number1_be 3907
prefix1_be RRR 9322
suffix1_be . 307
number2_be 3364
prefix2_be SAY 9322
suffix2_be . 307
smsCount_md 2
number1_md 
prefix1_md 
suffix1_md . 307
number2_md 7375
prefix2_md 9322
suffix2_md . 307
smsCount_cl 2
number1_cl 2777
prefix1_cl GET 9322
suffix1_cl . 307
number2_cl 2777
prefix2_cl GET 9322
suffix2_cl . 307
smsCount_au 2
number1_au 19995577
prefix1_au RRR 9322
suffix1_au . 307
number2_au 19995577
prefix2_au RRR 9322
suffix2_au . 307
smsCount_am 2
number1_am 7009
prefix1_am 9322
suffix1_am . 307
number2_am 4009
prefix2_am 9322
suffix2_am . 307
smsCount_at 2
number1_at 0900506506
prefix1_at GET 9322
suffix1_at . 307
number2_at 0900506506
prefix2_at RRR 9322
suffix2_at . 307
smsCount_us 2
number1_us 97605
prefix1_us RRR 9322
suffix1_us . 307
number2_us 97605
prefix2_us RRR 9322
suffix2_us . 307
smsCount_vn 2
number1_vn 8708
prefix1_vn CODE 9322
suffix1_vn . 307
number2_vn 8708
prefix2_vn CODE 9322
suffix2_vn . 307
smsCount_ar 2
number1_ar 27777
prefix1_ar GET 9322
suffix1_ar . 307
number2_ar 27777
prefix2_ar GET 9322
suffix2_ar . 307
smsCount_nl 2
number1_nl 4999
prefix1_nl RRR 9322
suffix1_nl . 307
number2_nl 4999
prefix2_nl RRR 9322
suffix2_nl . 307
smsCount_nz 2
number1_nz 4500
prefix1_nz RRR 9322
suffix1_nz . 307
number2_nz 4500
prefix2_nz RRR 9322
suffix2_nz . 307
smsCount_ae 2
number1_ae 3881
prefix1_ae RRR 9322
suffix1_ae . 307
number2_ae 3881
prefix2_ae RRR 9322
suffix2_ae . 307
sts 1
sts_ru_megafonural 1
sts_ru_megafon 1
sts_ru 0
dfrom wmoby.ru
url http://wmoby.ru/get/4rbjf
translit_name Opera_Mini_6_5_Android_