info face="Nanum Gothic" size=43 bold=0 italic=0 charset="" unicode=0 stretchH=100 smooth=1 aa=1 padding=0,0,0,0 spacing=0,0
common lineHeight=55 base=48 scaleW=1216 scaleH=1216 pages=1 packed=0
page id=0 file="ChalkboardSE-Subtitle-ko.png"
chars count=738
char id=32 x=40 y=392 width=0 height=0 xoffset=0 yoffset=40 xadvance=12 page=0 chnl=0
char id=33 x=204 y=1108 width=13 height=40 xoffset=6 yoffset=9 xadvance=18 page=0 chnl=0
char id=34 x=975 y=1165 width=17 height=17 xoffset=4 yoffset=9 xadvance=18 page=0 chnl=0
char id=35 x=1022 y=1071 width=30 height=39 xoffset=2 yoffset=9 xadvance=26 page=0 chnl=0
char id=36 x=1189 y=139 width=25 height=47 xoffset=4 yoffset=6 xadvance=26 page=0 chnl=0
char id=37 x=946 y=997 width=44 height=42 xoffset=5 yoffset=7 xadvance=47 page=0 chnl=0
char id=38 x=946 y=1082 width=36 height=41 xoffset=2 yoffset=8 xadvance=31 page=0 chnl=0
char id=39 x=884 y=1187 width=12 height=17 xoffset=4 yoffset=9 xadvance=13 page=0 chnl=0
char id=40 x=27 y=692 width=19 height=49 xoffset=3 yoffset=6 xadvance=16 page=0 chnl=0
char id=41 x=27 y=642 width=19 height=49 xoffset=1 yoffset=6 xadvance=16 page=0 chnl=0
char id=42 x=1022 y=1189 width=25 height=24 xoffset=4 yoffset=16 xadvance=26 page=0 chnl=0
char id=43 x=1144 y=1104 width=31 height=31 xoffset=2 yoffset=13 xadvance=28 page=0 chnl=0
char id=44 x=975 y=1183 width=15 height=16 xoffset=2 yoffset=39 xadvance=13 page=0 chnl=0
char id=45 x=347 y=1200 width=19 height=11 xoffset=2 yoffset=23 xadvance=16 page=0 chnl=0
char id=46 x=1198 y=418 width=14 height=14 xoffset=3 yoffset=37 xadvance=13 page=0 chnl=0
char id=47 x=180 y=1108 width=23 height=44 xoffset=0 yoffset=8 xadvance=16 page=0 chnl=0
char id=48 x=993 y=991 width=28 height=40 xoffset=2 yoffset=9 xadvance=26 page=0 chnl=0
char id=49 x=970 y=1124 width=18 height=40 xoffset=6 yoffset=9 xadvance=26 page=0 chnl=0
char id=50 x=1167 y=950 width=27 height=40 xoffset=2 yoffset=9 xadvance=26 page=0 chnl=0
char id=51 x=1139 y=950 width=27 height=40 xoffset=2 yoffset=9 xadvance=26 page=0 chnl=0
char id=52 x=1107 y=950 width=31 height=40 xoffset=1 yoffset=9 xadvance=26 page=0 chnl=0
char id=53 x=1080 y=950 width=26 height=40 xoffset=4 yoffset=9 xadvance=26 page=0 chnl=0
char id=54 x=1051 y=950 width=28 height=40 xoffset=3 yoffset=9 xadvance=26 page=0 chnl=0
char id=55 x=1023 y=950 width=27 height=40 xoffset=3 yoffset=9 xadvance=26 page=0 chnl=0
char id=56 x=993 y=950 width=29 height=40 xoffset=2 yoffset=9 xadvance=26 page=0 chnl=0
char id=57 x=946 y=1165 width=28 height=40 xoffset=2 yoffset=9 xadvance=26 page=0 chnl=0
char id=58 x=1198 y=384 width=14 height=33 xoffset=3 yoffset=13 xadvance=13 page=0 chnl=0
char id=59 x=1197 y=237 width=15 height=37 xoffset=2 yoffset=13 xadvance=13 page=0 chnl=0
char id=60 x=1 y=692 width=25 height=49 xoffset=3 yoffset=5 xadvance=24 page=0 chnl=0
char id=61 x=805 y=1192 width=31 height=20 xoffset=2 yoffset=19 xadvance=28 page=0 chnl=0
char id=62 x=1 y=642 width=25 height=49 xoffset=2 yoffset=5 xadvance=24 page=0 chnl=0
char id=63 x=946 y=1124 width=23 height=40 xoffset=4 yoffset=9 xadvance=23 page=0 chnl=0
char id=64 x=946 y=1040 width=41 height=41 xoffset=2 yoffset=9 xadvance=37 page=0 chnl=0
char id=65 x=1085 y=1031 width=38 height=39 xoffset=0 yoffset=10 xadvance=31 page=0 chnl=0
char id=66 x=1187 y=991 width=26 height=39 xoffset=4 yoffset=10 xadvance=26 page=0 chnl=0
char id=67 x=1181 y=770 width=31 height=41 xoffset=3 yoffset=8 xadvance=29 page=0 chnl=0
char id=68 x=1053 y=1031 width=31 height=39 xoffset=4 yoffset=10 xadvance=31 page=0 chnl=0
char id=69 x=993 y=1152 width=25 height=39 xoffset=4 yoffset=10 xadvance=25 page=0 chnl=0
char id=70 x=993 y=1112 width=24 height=39 xoffset=4 yoffset=10 xadvance=22 page=0 chnl=0
char id=71 x=1179 y=722 width=34 height=41 xoffset=3 yoffset=8 xadvance=34 page=0 chnl=0
char id=72 x=1022 y=1031 width=30 height=39 xoffset=4 yoffset=10 xadvance=31 page=0 chnl=0
char id=73 x=202 y=1153 width=12 height=39 xoffset=3 yoffset=10 xadvance=10 page=0 chnl=0
char id=74 x=1192 y=286 width=18 height=40 xoffset=1 yoffset=9 xadvance=16 page=0 chnl=0
char id=75 x=1156 y=991 width=30 height=39 xoffset=4 yoffset=10 xadvance=28 page=0 chnl=0
char id=76 x=993 y=1072 width=24 height=39 xoffset=4 yoffset=10 xadvance=21 page=0 chnl=0
char id=77 x=1086 y=910 width=41 height=39 xoffset=4 yoffset=10 xadvance=42 page=0 chnl=0
char id=78 x=1181 y=864 width=31 height=40 xoffset=4 yoffset=9 xadvance=31 page=0 chnl=0
char id=79 x=714 y=1154 width=36 height=41 xoffset=3 yoffset=8 xadvance=34 page=0 chnl=0
char id=80 x=993 y=1032 width=27 height=39 xoffset=4 yoffset=10 xadvance=25 page=0 chnl=0
char id=81 x=48 y=1168 width=36 height=46 xoffset=3 yoffset=9 xadvance=34 page=0 chnl=0
char id=82 x=1126 y=991 width=29 height=39 xoffset=4 yoffset=10 xadvance=27 page=0 chnl=0
char id=83 x=1183 y=626 width=25 height=41 xoffset=3 yoffset=8 xadvance=23 page=0 chnl=0
char id=84 x=1095 y=991 width=30 height=39 xoffset=1 yoffset=10 xadvance=23 page=0 chnl=0
char id=85 x=1181 y=817 width=31 height=40 xoffset=4 yoffset=9 xadvance=31 page=0 chnl=0
char id=86 x=1058 y=991 width=36 height=39 xoffset=0 yoffset=10 xadvance=29 page=0 chnl=0
char id=87 x=1 y=1 width=51 height=39 xoffset=0 yoffset=10 xadvance=44 page=0 chnl=0
char id=88 x=1022 y=991 width=35 height=39 xoffset=1 yoffset=10 xadvance=29 page=0 chnl=0
char id=89 x=1157 y=910 width=35 height=39 xoffset=0 yoffset=10 xadvance=29 page=0 chnl=0
char id=90 x=1128 y=910 width=28 height=39 xoffset=1 yoffset=10 xadvance=23 page=0 chnl=0
char id=91 x=17 y=592 width=15 height=49 xoffset=5 yoffset=5 xadvance=16 page=0 chnl=0
char id=92 x=1040 y=910 width=45 height=38 xoffset=2 yoffset=11 xadvance=42 page=0 chnl=0
char id=93 x=1 y=592 width=15 height=49 xoffset=2 yoffset=5 xadvance=16 page=0 chnl=0
char id=94 x=899 y=1185 width=31 height=27 xoffset=2 yoffset=9 xadvance=28 page=0 chnl=0
char id=95 x=180 y=1197 width=30 height=11 xoffset=0 yoffset=43 xadvance=23 page=0 chnl=0
char id=96 x=367 y=1200 width=17 height=14 xoffset=0 yoffset=8 xadvance=10 page=0 chnl=0
char id=97 x=1141 y=1071 width=26 height=32 xoffset=2 yoffset=17 xadvance=23 page=0 chnl=0
char id=98 x=219 y=1168 width=27 height=43 xoffset=4 yoffset=6 xadvance=26 page=0 chnl=0
char id=99 x=1115 y=1071 width=25 height=32 xoffset=2 yoffset=17 xadvance=21 page=0 chnl=0
char id=100 x=1185 y=188 width=27 height=43 xoffset=2 yoffset=6 xadvance=26 page=0 chnl=0
char id=101 x=1087 y=1071 width=27 height=32 xoffset=2 yoffset=17 xadvance=23 page=0 chnl=0
char id=102 x=180 y=1153 width=21 height=43 xoffset=1 yoffset=6 xadvance=16 page=0 chnl=0
char id=103 x=1152 y=1031 width=27 height=38 xoffset=2 yoffset=17 xadvance=26 page=0 chnl=0
char id=104 x=1187 y=530 width=26 height=42 xoffset=4 yoffset=7 xadvance=26 page=0 chnl=0
char id=105 x=1196 y=90 width=13 height=41 xoffset=3 yoffset=8 xadvance=10 page=0 chnl=0
char id=106 x=1177 y=41 width=16 height=48 xoffset=0 yoffset=7 xadvance=12 page=0 chnl=0
char id=107 x=1187 y=335 width=26 height=42 xoffset=3 yoffset=7 xadvance=22 page=0 chnl=0
char id=108 x=1194 y=41 width=12 height=42 xoffset=3 yoffset=7 xadvance=10 page=0 chnl=0
char id=109 x=758 y=1181 width=39 height=31 xoffset=3 yoffset=18 xadvance=39 page=0 chnl=0
char id=110 x=1117 y=1104 width=26 height=31 xoffset=4 yoffset=18 xadvance=26 page=0 chnl=0
char id=111 x=1053 y=1180 width=29 height=32 xoffset=2 yoffset=17 xadvance=26 page=0 chnl=0
char id=112 x=1124 y=1031 width=27 height=38 xoffset=3 yoffset=17 xadvance=26 page=0 chnl=0
char id=113 x=1022 y=1150 width=27 height=38 xoffset=2 yoffset=17 xadvance=26 page=0 chnl=0
char id=114 x=1195 y=950 width=19 height=31 xoffset=4 yoffset=18 xadvance=16 page=0 chnl=0
char id=115 x=1053 y=1147 width=22 height=32 xoffset=2 yoffset=17 xadvance=18 page=0 chnl=0
char id=116 x=1193 y=910 width=21 height=38 xoffset=1 yoffset=11 xadvance=16 page=0 chnl=0
char id=117 x=1087 y=1168 width=26 height=31 xoffset=4 yoffset=18 xadvance=26 page=0 chnl=0
char id=118 x=1087 y=1136 width=28 height=31 xoffset=0 yoffset=18 xadvance=21 page=0 chnl=0
char id=119 x=347 y=1168 width=43 height=31 xoffset=0 yoffset=18 xadvance=36 page=0 chnl=0
char id=120 x=1087 y=1104 width=29 height=31 xoffset=0 yoffset=18 xadvance=22 page=0 chnl=0
char id=121 x=1053 y=1109 width=27 height=37 xoffset=0 yoffset=18 xadvance=20 page=0 chnl=0
char id=122 x=1168 y=1071 width=25 height=31 xoffset=2 yoffset=18 xadvance=21 page=0 chnl=0
char id=123 x=20 y=542 width=18 height=49 xoffset=2 yoffset=5 xadvance=13 page=0 chnl=0
char id=124 x=33 y=592 width=12 height=47 xoffset=3 yoffset=6 xadvance=10 page=0 chnl=0
char id=125 x=1 y=542 width=18 height=49 xoffset=0 yoffset=5 xadvance=13 page=0 chnl=0
char id=126 x=714 y=1196 width=29 height=15 xoffset=3 yoffset=22 xadvance=28 page=0 chnl=0
char id=8230 x=1 y=1195 width=39 height=13 xoffset=4 yoffset=22 xadvance=40 page=0 chnl=0
char id=8216 x=837 y=1192 width=13 height=18 xoffset=1 yoffset=8 xadvance=8 page=0 chnl=0
char id=8217 x=744 y=1196 width=13 height=18 xoffset=1 yoffset=8 xadvance=8 page=0 chnl=0
char id=8220 x=1194 y=1071 width=19 height=18 xoffset=1 yoffset=8 xadvance=15 page=0 chnl=0
char id=8221 x=993 y=1192 width=19 height=18 xoffset=1 yoffset=8 xadvance=15 page=0 chnl=0
char id=12290 x=1117 y=1136 width=18 height=18 xoffset=2 yoffset=36 xadvance=40 page=0 chnl=0
char id=65509 x=1053 y=1071 width=33 height=37 xoffset=7 yoffset=11 xadvance=40 page=0 chnl=0
char id=165 x=1180 y=1031 width=33 height=37 xoffset=7 yoffset=11 xadvance=40 page=0 chnl=0
char id=304 x=154 y=40 width=0 height=0 xoffset=0 yoffset=0 xadvance=0 page=0 chnl=0
char id=305 x=247 y=1168 width=12 height=29 xoffset=4 yoffset=19 xadvance=12 page=0 chnl=0
char id=214 x=153 y=40 width=0 height=0 xoffset=0 yoffset=0 xadvance=0 page=0 chnl=0
char id=246 x=152 y=40 width=0 height=0 xoffset=0 yoffset=0 xadvance=0 page=0 chnl=0
char id=220 x=90 y=1168 width=31 height=44 xoffset=2 yoffset=5 xadvance=28 page=0 chnl=0
char id=252 x=1181 y=1 width=26 height=39 xoffset=3 yoffset=10 xadvance=24 page=0 chnl=0
char id=199 x=1179 y=578 width=28 height=42 xoffset=2 yoffset=13 xadvance=24 page=0 chnl=0
char id=231 x=1022 y=1111 width=25 height=38 xoffset=2 yoffset=17 xadvance=22 page=0 chnl=0
char id=286 x=151 y=40 width=0 height=0 xoffset=0 yoffset=0 xadvance=0 page=0 chnl=0
char id=287 x=150 y=40 width=0 height=0 xoffset=0 yoffset=0 xadvance=0 page=0 chnl=0
char id=350 x=149 y=40 width=0 height=0 xoffset=0 yoffset=0 xadvance=0 page=0 chnl=0
char id=351 x=148 y=40 width=0 height=0 xoffset=0 yoffset=0 xadvance=0 page=0 chnl=0
char id=8356 x=147 y=40 width=0 height=0 xoffset=0 yoffset=0 xadvance=0 page=0 chnl=0
char id=54028 x=581 y=433 width=46 height=48 xoffset=1 yoffset=5 xadvance=40 page=0 chnl=0
char id=51060 x=307 y=531 width=39 height=48 xoffset=4 yoffset=5 xadvance=40 page=0 chnl=0
char id=52264 x=534 y=433 width=46 height=48 xoffset=1 yoffset=5 xadvance=40 page=0 chnl=0
char id=53944 x=993 y=910 width=46 height=38 xoffset=1 yoffset=8 xadvance=40 page=0 chnl=0
char id=51088 x=486 y=433 width=47 height=48 xoffset=1 yoffset=5 xadvance=40 page=0 chnl=0
char id=51468 x=946 y=950 width=46 height=46 xoffset=1 yoffset=7 xadvance=40 page=0 chnl=0
char id=53272 x=391 y=1119 width=43 height=48 xoffset=1 yoffset=5 xadvance=40 page=0 chnl=0
char id=49828 x=946 y=910 width=46 height=39 xoffset=1 yoffset=7 xadvance=40 page=0 chnl=0
char id=50612 x=307 y=482 width=39 height=48 xoffset=3 yoffset=5 xadvance=40 page=0 chnl=0
char id=52824 x=391 y=1070 width=41 height=48 xoffset=2 yoffset=5 xadvance=40 page=0 chnl=0
char id=48652 x=899 y=1145 width=46 height=39 xoffset=1 yoffset=7 xadvance=40 page=0 chnl=0
char id=47676 x=714 y=1106 width=39 height=47 xoffset=4 yoffset=6 xadvance=40 page=0 chnl=0
char id=54588 x=391 y=1021 width=41 height=48 xoffset=2 yoffset=5 xadvance=40 page=0 chnl=0
char id=51228 x=391 y=972 width=44 height=48 xoffset=0 yoffset=5 xadvance=40 page=0 chnl=0
char id=47532 x=180 y=531 width=38 height=48 xoffset=4 yoffset=5 xadvance=40 page=0 chnl=0
char id=50500 x=391 y=923 width=44 height=48 xoffset=3 yoffset=5 xadvance=40 page=0 chnl=0
char id=50640 x=391 y=874 width=42 height=48 xoffset=2 yoffset=5 xadvance=40 page=0 chnl=0
char id=45716 x=899 y=1098 width=46 height=46 xoffset=1 yoffset=6 xadvance=40 page=0 chnl=0
char id=46972 x=391 y=825 width=44 height=48 xoffset=3 yoffset=5 xadvance=40 page=0 chnl=0
char id=45800 x=714 y=1058 width=43 height=47 xoffset=4 yoffset=6 xadvance=40 page=0 chnl=0
char id=44032 x=391 y=776 width=45 height=48 xoffset=2 yoffset=5 xadvance=40 page=0 chnl=0
char id=50630 x=391 y=727 width=43 height=48 xoffset=3 yoffset=6 xadvance=40 page=0 chnl=0
char id=49845 x=758 y=818 width=46 height=47 xoffset=1 yoffset=6 xadvance=40 page=0 chnl=0
char id=45768 x=180 y=482 width=38 height=48 xoffset=5 yoffset=5 xadvance=40 page=0 chnl=0
char id=45796 x=391 y=678 width=43 height=48 xoffset=4 yoffset=5 xadvance=40 page=0 chnl=0
char id=44148 x=714 y=1010 width=41 height=47 xoffset=3 yoffset=6 xadvance=40 page=0 chnl=0
char id=45572 x=758 y=770 width=46 height=47 xoffset=1 yoffset=6 xadvance=40 page=0 chnl=0
char id=44396 x=899 y=1051 width=46 height=46 xoffset=1 yoffset=7 xadvance=40 page=0 chnl=0
char id=51032 x=391 y=629 width=41 height=48 xoffset=1 yoffset=5 xadvance=40 page=0 chnl=0
char id=51096 x=391 y=580 width=45 height=48 xoffset=2 yoffset=5 xadvance=40 page=0 chnl=0
char id=47803 x=1132 y=722 width=46 height=47 xoffset=1 yoffset=6 xadvance=40 page=0 chnl=0
char id=51068 x=391 y=531 width=40 height=48 xoffset=3 yoffset=5 xadvance=40 page=0 chnl=0
char id=44620 x=438 y=433 width=47 height=48 xoffset=1 yoffset=5 xadvance=40 page=0 chnl=0
char id=50836 x=1134 y=864 width=46 height=39 xoffset=1 yoffset=7 xadvance=40 page=0 chnl=0
char id=45813 x=714 y=962 width=43 height=47 xoffset=4 yoffset=6 xadvance=40 page=0 chnl=0
char id=51008 x=899 y=1004 width=46 height=46 xoffset=1 yoffset=6 xadvance=40 page=0 chnl=0
char id=45817 x=391 y=482 width=43 height=48 xoffset=4 yoffset=5 xadvance=40 page=0 chnl=0
char id=49888 x=714 y=914 width=42 height=47 xoffset=2 yoffset=6 xadvance=40 page=0 chnl=0
char id=51012 x=391 y=433 width=46 height=48 xoffset=1 yoffset=5 xadvance=40 page=0 chnl=0
char id=45440 x=1085 y=722 width=46 height=47 xoffset=1 yoffset=6 xadvance=40 page=0 chnl=0
char id=44172 x=1155 y=384 width=42 height=48 xoffset=2 yoffset=5 xadvance=40 page=0 chnl=0
char id=54624 x=1109 y=384 width=45 height=48 xoffset=2 yoffset=5 xadvance=40 page=0 chnl=0
char id=44163 x=1066 y=384 width=42 height=48 xoffset=3 yoffset=5 xadvance=40 page=0 chnl=0
char id=51077 x=714 y=866 width=39 height=47 xoffset=3 yoffset=6 xadvance=40 page=0 chnl=0
char id=51020 x=1038 y=722 width=46 height=47 xoffset=1 yoffset=6 xadvance=40 page=0 chnl=0
char id=49548 x=1087 y=864 width=46 height=39 xoffset=1 yoffset=7 xadvance=40 page=0 chnl=0
char id=49885 x=1025 y=384 width=40 height=48 xoffset=2 yoffset=5 xadvance=40 page=0 chnl=0
char id=49455 x=981 y=384 width=43 height=48 xoffset=2 yoffset=5 xadvance=40 page=0 chnl=0
char id=44060 x=938 y=384 width=42 height=48 xoffset=2 yoffset=5 xadvance=40 page=0 chnl=0
char id=53664 x=1040 y=864 width=46 height=38 xoffset=1 yoffset=8 xadvance=40 page=0 chnl=0
char id=54609 x=897 y=384 width=40 height=48 xoffset=2 yoffset=5 xadvance=40 page=0 chnl=0
char id=52629 x=991 y=722 width=46 height=47 xoffset=1 yoffset=6 xadvance=40 page=0 chnl=0
char id=44592 x=307 y=433 width=39 height=48 xoffset=3 yoffset=5 xadvance=40 page=0 chnl=0
char id=44036 x=945 y=722 width=45 height=47 xoffset=2 yoffset=6 xadvance=40 page=0 chnl=0
char id=50740 x=898 y=722 width=46 height=47 xoffset=1 yoffset=6 xadvance=40 page=0 chnl=0
char id=46384 x=851 y=384 width=45 height=48 xoffset=3 yoffset=5 xadvance=40 page=0 chnl=0
char id=47484 x=804 y=384 width=46 height=48 xoffset=1 yoffset=5 xadvance=40 page=0 chnl=0
char id=49324 x=757 y=384 width=46 height=48 xoffset=1 yoffset=5 xadvance=40 page=0 chnl=0
char id=46993 x=347 y=1119 width=43 height=48 xoffset=4 yoffset=5 xadvance=40 page=0 chnl=0
char id=54616 x=711 y=384 width=45 height=48 xoffset=2 yoffset=5 xadvance=40 page=0 chnl=0
char id=46988 x=714 y=818 width=43 height=47 xoffset=4 yoffset=6 xadvance=40 page=0 chnl=0
char id=46308 x=851 y=722 width=46 height=47 xoffset=1 yoffset=6 xadvance=40 page=0 chnl=0
char id=50976 x=804 y=722 width=46 height=47 xoffset=1 yoffset=6 xadvance=40 page=0 chnl=0
char id=47168 x=347 y=1070 width=42 height=48 xoffset=3 yoffset=5 xadvance=40 page=0 chnl=0
char id=47579 x=347 y=1021 width=43 height=48 xoffset=4 yoffset=5 xadvance=40 page=0 chnl=0
char id=48372 x=993 y=864 width=46 height=39 xoffset=1 yoffset=7 xadvance=40 page=0 chnl=0
char id=50948 x=347 y=972 width=41 height=48 xoffset=1 yoffset=5 xadvance=40 page=0 chnl=0
char id=54644 x=347 y=923 width=43 height=48 xoffset=2 yoffset=5 xadvance=40 page=0 chnl=0
char id=51456 x=899 y=957 width=46 height=46 xoffset=1 yoffset=6 xadvance=40 page=0 chnl=0
char id=48708 x=180 y=433 width=38 height=48 xoffset=4 yoffset=5 xadvance=40 page=0 chnl=0
char id=50676 x=347 y=874 width=40 height=48 xoffset=3 yoffset=5 xadvance=40 page=0 chnl=0
char id=44256 x=946 y=864 width=46 height=38 xoffset=1 yoffset=8 xadvance=40 page=0 chnl=0
char id=51080 x=666 y=384 width=44 height=48 xoffset=3 yoffset=6 xadvance=40 page=0 chnl=0
char id=48264 x=714 y=770 width=39 height=47 xoffset=4 yoffset=6 xadvance=40 page=0 chnl=0
char id=52280 x=758 y=722 width=45 height=47 xoffset=2 yoffset=6 xadvance=40 page=0 chnl=0
char id=47564 x=714 y=722 width=43 height=47 xoffset=4 yoffset=6 xadvance=40 page=0 chnl=0
char id=50506 x=621 y=384 width=44 height=48 xoffset=3 yoffset=6 xadvance=40 page=0 chnl=0
char id=45936 x=347 y=825 width=41 height=48 xoffset=3 yoffset=5 xadvance=40 page=0 chnl=0
char id=45336 x=180 y=1060 width=37 height=47 xoffset=5 yoffset=6 xadvance=40 page=0 chnl=0
char id=48260 x=307 y=384 width=39 height=48 xoffset=4 yoffset=5 xadvance=40 page=0 chnl=0
char id=50896 x=1168 y=674 width=42 height=47 xoffset=2 yoffset=6 xadvance=40 page=0 chnl=0
char id=50508 x=576 y=384 width=44 height=48 xoffset=3 yoffset=5 xadvance=40 page=0 chnl=0
char id=52856 x=1122 y=674 width=45 height=47 xoffset=2 yoffset=6 xadvance=40 page=0 chnl=0
char id=53580 x=347 y=776 width=41 height=48 xoffset=3 yoffset=5 xadvance=40 page=0 chnl=0
char id=44600 x=347 y=727 width=40 height=48 xoffset=3 yoffset=5 xadvance=40 page=0 chnl=0
char id=49688 x=529 y=384 width=46 height=48 xoffset=1 yoffset=5 xadvance=40 page=0 chnl=0
char id=46160 x=1075 y=674 width=46 height=47 xoffset=1 yoffset=6 xadvance=40 page=0 chnl=0
char id=51648 x=347 y=678 width=41 height=48 xoffset=2 yoffset=5 xadvance=40 page=0 chnl=0
char id=53020 x=347 y=629 width=41 height=48 xoffset=2 yoffset=5 xadvance=40 page=0 chnl=0
char id=48400 x=482 y=384 width=46 height=48 xoffset=1 yoffset=5 xadvance=40 page=0 chnl=0
char id=50556 x=437 y=384 width=44 height=48 xoffset=3 yoffset=5 xadvance=40 page=0 chnl=0
char id=44057 x=391 y=384 width=45 height=48 xoffset=2 yoffset=5 xadvance=40 page=0 chnl=0
char id=51452 x=899 y=910 width=46 height=46 xoffset=1 yoffset=7 xadvance=40 page=0 chnl=0
char id=50724 x=1134 y=1 width=46 height=39 xoffset=1 yoffset=7 xadvance=40 page=0 chnl=0
char id=49492 x=347 y=580 width=42 height=48 xoffset=1 yoffset=5 xadvance=40 page=0 chnl=0
char id=49436 x=347 y=531 width=42 height=48 xoffset=1 yoffset=5 xadvance=40 page=0 chnl=0
char id=48152 x=1031 y=674 width=43 height=47 xoffset=4 yoffset=6 xadvance=40 page=0 chnl=0
char id=45216 x=347 y=482 width=43 height=48 xoffset=5 yoffset=5 xadvance=40 page=0 chnl=0
char id=51600 x=984 y=674 width=46 height=47 xoffset=1 yoffset=6 xadvance=40 page=0 chnl=0
char id=49464 x=347 y=433 width=43 height=48 xoffset=1 yoffset=5 xadvance=40 page=0 chnl=0
char id=54168 x=347 y=384 width=43 height=48 xoffset=1 yoffset=5 xadvance=40 page=0 chnl=0
char id=54140 x=1145 y=335 width=41 height=48 xoffset=2 yoffset=5 xadvance=40 page=0 chnl=0
char id=47196 x=1087 y=1 width=46 height=39 xoffset=1 yoffset=7 xadvance=40 page=0 chnl=0
char id=51592 x=1040 y=1 width=46 height=38 xoffset=1 yoffset=8 xadvance=40 page=0 chnl=0
char id=49884 x=1103 y=335 width=41 height=48 xoffset=2 yoffset=5 xadvance=40 page=0 chnl=0
char id=46523 x=1 y=492 width=40 height=49 xoffset=3 yoffset=5 xadvance=40 page=0 chnl=0
char id=49373 x=1058 y=335 width=44 height=48 xoffset=1 yoffset=5 xadvance=40 page=0 chnl=0
char id=44033 x=1012 y=335 width=45 height=48 xoffset=2 yoffset=5 xadvance=40 page=0 chnl=0
char id=45208 x=968 y=335 width=43 height=48 xoffset=4 yoffset=5 xadvance=40 page=0 chnl=0
char id=44284 x=921 y=335 width=46 height=48 xoffset=1 yoffset=5 xadvance=40 page=0 chnl=0
char id=54617 x=875 y=335 width=45 height=48 xoffset=2 yoffset=5 xadvance=40 page=0 chnl=0
char id=51109 x=829 y=335 width=45 height=48 xoffset=2 yoffset=5 xadvance=40 page=0 chnl=0
char id=55124 x=937 y=674 width=46 height=47 xoffset=1 yoffset=6 xadvance=40 page=0 chnl=0
char id=55176 x=788 y=335 width=40 height=48 xoffset=2 yoffset=5 xadvance=40 page=0 chnl=0
char id=48156 x=744 y=335 width=43 height=48 xoffset=4 yoffset=5 xadvance=40 page=0 chnl=0
char id=44204 x=895 y=674 width=41 height=47 xoffset=3 yoffset=6 xadvance=40 page=0 chnl=0
char id=46104 x=702 y=335 width=41 height=48 xoffset=1 yoffset=5 xadvance=40 page=0 chnl=0
char id=54868 x=655 y=335 width=46 height=48 xoffset=1 yoffset=5 xadvance=40 page=0 chnl=0
char id=47932 x=848 y=674 width=46 height=47 xoffset=1 yoffset=6 xadvance=40 page=0 chnl=0
char id=51656 x=613 y=335 width=41 height=48 xoffset=3 yoffset=5 xadvance=40 page=0 chnl=0
char id=54632 x=802 y=674 width=45 height=47 xoffset=2 yoffset=6 xadvance=40 page=0 chnl=0
char id=49892 x=571 y=335 width=41 height=48 xoffset=2 yoffset=5 xadvance=40 page=0 chnl=0
char id=54664 x=525 y=335 width=45 height=48 xoffset=2 yoffset=6 xadvance=40 page=0 chnl=0
char id=54633 x=756 y=674 width=45 height=47 xoffset=2 yoffset=6 xadvance=40 page=0 chnl=0
char id=44305 x=478 y=335 width=46 height=48 xoffset=1 yoffset=5 xadvance=40 page=0 chnl=0
char id=44192 x=432 y=335 width=45 height=48 xoffset=2 yoffset=6 xadvance=40 page=0 chnl=0
char id=51200 x=389 y=335 width=42 height=48 xoffset=1 yoffset=5 xadvance=40 page=0 chnl=0
char id=55148 x=347 y=335 width=41 height=48 xoffset=1 yoffset=5 xadvance=40 page=0 chnl=0
char id=52380 x=714 y=674 width=41 height=47 xoffset=3 yoffset=6 xadvance=40 page=0 chnl=0
char id=46500 x=667 y=1154 width=41 height=47 xoffset=3 yoffset=6 xadvance=40 page=0 chnl=0
char id=47140 x=307 y=335 width=39 height=48 xoffset=4 yoffset=5 xadvance=40 page=0 chnl=0
char id=44208 x=1151 y=286 width=40 height=48 xoffset=3 yoffset=5 xadvance=40 page=0 chnl=0
char id=51221 x=1110 y=286 width=40 height=48 xoffset=2 yoffset=5 xadvance=40 page=0 chnl=0
char id=45236 x=1068 y=286 width=41 height=48 xoffset=4 yoffset=5 xadvance=40 page=0 chnl=0
char id=47540 x=1028 y=286 width=39 height=48 xoffset=4 yoffset=5 xadvance=40 page=0 chnl=0
char id=51204 x=667 y=1106 width=41 height=47 xoffset=2 yoffset=6 xadvance=40 page=0 chnl=0
char id=45392 x=180 y=1012 width=38 height=47 xoffset=5 yoffset=6 xadvance=40 page=0 chnl=0
char id=45684 x=667 y=1058 width=46 height=47 xoffset=1 yoffset=6 xadvance=40 page=0 chnl=0
char id=45320 x=988 y=286 width=39 height=48 xoffset=5 yoffset=5 xadvance=40 page=0 chnl=0
char id=47924 x=667 y=1010 width=46 height=47 xoffset=1 yoffset=6 xadvance=40 page=0 chnl=0
char id=53960 x=667 y=962 width=46 height=47 xoffset=1 yoffset=6 xadvance=40 page=0 chnl=0
char id=49352 x=944 y=286 width=43 height=48 xoffset=1 yoffset=5 xadvance=40 page=0 chnl=0
char id=45432 x=993 y=1 width=46 height=38 xoffset=1 yoffset=8 xadvance=40 page=0 chnl=0
char id=47160 x=901 y=286 width=42 height=48 xoffset=4 yoffset=6 xadvance=40 page=0 chnl=0
char id=44288 x=667 y=914 width=46 height=47 xoffset=1 yoffset=5 xadvance=40 page=0 chnl=0
char id=51064 x=667 y=866 width=40 height=47 xoffset=3 yoffset=5 xadvance=40 page=0 chnl=0
char id=53552 x=861 y=286 width=39 height=48 xoffset=4 yoffset=5 xadvance=40 page=0 chnl=0
char id=45367 x=819 y=286 width=41 height=48 xoffset=4 yoffset=5 xadvance=40 page=0 chnl=0
char id=44988 x=899 y=864 width=46 height=45 xoffset=1 yoffset=7 xadvance=40 page=0 chnl=0
char id=50577 x=774 y=286 width=44 height=48 xoffset=3 yoffset=5 xadvance=40 page=0 chnl=0
char id=54620 x=667 y=818 width=45 height=47 xoffset=2 yoffset=6 xadvance=40 page=0 chnl=0
char id=51025 x=727 y=286 width=46 height=48 xoffset=1 yoffset=5 xadvance=40 page=0 chnl=0
char id=50868 x=852 y=1140 width=46 height=46 xoffset=1 yoffset=6 xadvance=40 page=0 chnl=0
char id=49457 x=685 y=286 width=41 height=48 xoffset=2 yoffset=5 xadvance=40 page=0 chnl=0
char id=45804 x=261 y=1119 width=43 height=48 xoffset=4 yoffset=5 xadvance=40 page=0 chnl=0
char id=50864 x=667 y=770 width=46 height=47 xoffset=1 yoffset=6 xadvance=40 page=0 chnl=0
char id=50668 x=261 y=1070 width=40 height=48 xoffset=3 yoffset=5 xadvance=40 page=0 chnl=0
char id=47084 x=261 y=1021 width=39 height=48 xoffset=4 yoffset=5 xadvance=40 page=0 chnl=0
char id=52983 x=261 y=972 width=42 height=48 xoffset=3 yoffset=5 xadvance=40 page=0 chnl=0
char id=46112 x=261 y=923 width=42 height=48 xoffset=2 yoffset=5 xadvance=40 page=0 chnl=0
char id=53364 x=667 y=722 width=46 height=47 xoffset=1 yoffset=6 xadvance=40 page=0 chnl=0
char id=47000 x=261 y=874 width=41 height=48 xoffset=3 yoffset=5 xadvance=40 page=0 chnl=0
char id=45380 x=622 y=1154 width=39 height=47 xoffset=5 yoffset=6 xadvance=40 page=0 chnl=0
char id=48512 x=667 y=674 width=46 height=47 xoffset=1 yoffset=6 xadvance=40 page=0 chnl=0
char id=54532 x=946 y=1 width=46 height=37 xoffset=1 yoffset=9 xadvance=40 page=0 chnl=0
char id=48120 x=180 y=384 width=38 height=48 xoffset=4 yoffset=5 xadvance=40 page=0 chnl=0
char id=50628 x=622 y=1106 width=39 height=47 xoffset=3 yoffset=6 xadvance=40 page=0 chnl=0
char id=55193 x=622 y=1058 width=40 height=47 xoffset=2 yoffset=6 xadvance=40 page=0 chnl=0
char id=54252 x=899 y=1 width=46 height=38 xoffset=1 yoffset=8 xadvance=40 page=0 chnl=0
char id=45720 x=1136 y=626 width=46 height=47 xoffset=1 yoffset=6 xadvance=40 page=0 chnl=0
char id=51339 x=1 y=442 width=46 height=49 xoffset=1 yoffset=6 xadvance=40 page=0 chnl=0
char id=53092 x=852 y=1093 width=46 height=46 xoffset=1 yoffset=7 xadvance=40 page=0 chnl=0
char id=47673 x=180 y=335 width=38 height=48 xoffset=4 yoffset=5 xadvance=40 page=0 chnl=0
char id=47792 x=1089 y=626 width=46 height=47 xoffset=1 yoffset=6 xadvance=40 page=0 chnl=0
char id=50732 x=638 y=286 width=46 height=48 xoffset=1 yoffset=5 xadvance=40 page=0 chnl=0
char id=50808 x=219 y=1119 width=41 height=48 xoffset=1 yoffset=5 xadvance=40 page=0 chnl=0
char id=47480 x=1042 y=626 width=46 height=47 xoffset=1 yoffset=5 xadvance=40 page=0 chnl=0
char id=49345 x=591 y=286 width=46 height=48 xoffset=1 yoffset=5 xadvance=40 page=0 chnl=0
char id=51216 x=622 y=1010 width=40 height=47 xoffset=2 yoffset=6 xadvance=40 page=0 chnl=0
char id=47928 x=852 y=1046 width=46 height=46 xoffset=1 yoffset=6 xadvance=40 page=0 chnl=0
char id=45803 x=622 y=962 width=43 height=47 xoffset=4 yoffset=6 xadvance=40 page=0 chnl=0
char id=51004 x=852 y=1 width=46 height=38 xoffset=1 yoffset=8 xadvance=40 page=0 chnl=0
char id=50696 x=261 y=825 width=42 height=48 xoffset=2 yoffset=5 xadvance=40 page=0 chnl=0
char id=46121 x=219 y=1070 width=41 height=48 xoffset=2 yoffset=5 xadvance=40 page=0 chnl=0
char id=50528 x=261 y=776 width=42 height=48 xoffset=2 yoffset=5 xadvance=40 page=0 chnl=0
char id=54840 x=852 y=1004 width=46 height=41 xoffset=1 yoffset=6 xadvance=40 page=0 chnl=0
char id=51665 x=622 y=914 width=39 height=47 xoffset=3 yoffset=6 xadvance=40 page=0 chnl=0
char id=54036 x=544 y=286 width=46 height=48 xoffset=1 yoffset=5 xadvance=40 page=0 chnl=0
char id=49689 x=497 y=286 width=46 height=48 xoffset=1 yoffset=5 xadvance=40 page=0 chnl=0
char id=48516 x=852 y=957 width=46 height=46 xoffset=1 yoffset=6 xadvance=40 page=0 chnl=0
char id=48176 x=219 y=1021 width=41 height=48 xoffset=3 yoffset=5 xadvance=40 page=0 chnl=0
char id=46300 x=805 y=1 width=46 height=38 xoffset=1 yoffset=8 xadvance=40 page=0 chnl=0
char id=47549 x=180 y=964 width=38 height=47 xoffset=4 yoffset=6 xadvance=40 page=0 chnl=0
char id=52636 x=450 y=286 width=46 height=48 xoffset=1 yoffset=5 xadvance=40 page=0 chnl=0
char id=47784 x=758 y=1 width=46 height=38 xoffset=1 yoffset=8 xadvance=40 page=0 chnl=0
char id=46304 x=852 y=910 width=46 height=46 xoffset=1 yoffset=6 xadvance=40 page=0 chnl=0
char id=46020 x=711 y=1 width=46 height=38 xoffset=1 yoffset=8 xadvance=40 page=0 chnl=0
char id=44152 x=219 y=972 width=40 height=48 xoffset=3 yoffset=5 xadvance=40 page=0 chnl=0
char id=50517 x=622 y=866 width=44 height=47 xoffset=3 yoffset=6 xadvance=40 page=0 chnl=0
char id=44536 x=664 y=1 width=46 height=37 xoffset=1 yoffset=9 xadvance=40 page=0 chnl=0
char id=47111 x=1 y=392 width=38 height=49 xoffset=4 yoffset=5 xadvance=40 page=0 chnl=0
char id=47732 x=307 y=1156 width=39 height=47 xoffset=4 yoffset=6 xadvance=40 page=0 chnl=0
char id=50631 x=261 y=727 width=42 height=48 xoffset=3 yoffset=5 xadvance=40 page=0 chnl=0
char id=53916 x=995 y=626 width=46 height=47 xoffset=1 yoffset=6 xadvance=40 page=0 chnl=0
char id=46356 x=180 y=286 width=38 height=48 xoffset=4 yoffset=5 xadvance=40 page=0 chnl=0
char id=54217 x=219 y=923 width=41 height=48 xoffset=2 yoffset=5 xadvance=40 page=0 chnl=0
char id=47200 x=948 y=626 width=46 height=47 xoffset=1 yoffset=6 xadvance=40 page=0 chnl=0
char id=47560 x=261 y=678 width=43 height=48 xoffset=4 yoffset=5 xadvance=40 page=0 chnl=0
char id=48169 x=261 y=629 width=43 height=48 xoffset=4 yoffset=5 xadvance=40 page=0 chnl=0
char id=47568 x=261 y=580 width=43 height=48 xoffset=4 yoffset=5 xadvance=40 page=0 chnl=0
char id=51424 x=617 y=1 width=46 height=38 xoffset=1 yoffset=8 xadvance=40 page=0 chnl=0
char id=47336 x=901 y=626 width=46 height=47 xoffset=1 yoffset=6 xadvance=40 page=0 chnl=0
char id=53356 x=570 y=1 width=46 height=38 xoffset=1 yoffset=8 xadvance=40 page=0 chnl=0
char id=49632 x=219 y=874 width=41 height=48 xoffset=1 yoffset=5 xadvance=40 page=0 chnl=0
char id=44277 x=854 y=626 width=46 height=47 xoffset=1 yoffset=6 xadvance=40 page=0 chnl=0
char id=51676 x=401 y=286 width=48 height=48 xoffset=0 yoffset=5 xadvance=40 page=0 chnl=0
char id=45712 x=523 y=1 width=46 height=38 xoffset=1 yoffset=8 xadvance=40 page=0 chnl=0
char id=44221 x=219 y=825 width=39 height=48 xoffset=3 yoffset=5 xadvance=40 page=0 chnl=0
char id=45912 x=307 y=1108 width=39 height=47 xoffset=5 yoffset=6 xadvance=40 page=0 chnl=0
char id=44552 x=852 y=864 width=46 height=45 xoffset=1 yoffset=7 xadvance=40 page=0 chnl=0
char id=48148 x=261 y=531 width=43 height=48 xoffset=4 yoffset=5 xadvance=40 page=0 chnl=0
char id=50672 x=622 y=818 width=40 height=47 xoffset=3 yoffset=6 xadvance=40 page=0 chnl=0
char id=46973 x=261 y=482 width=43 height=48 xoffset=4 yoffset=5 xadvance=40 page=0 chnl=0
char id=50620 x=219 y=776 width=40 height=48 xoffset=3 yoffset=5 xadvance=40 page=0 chnl=0
char id=51460 x=807 y=626 width=46 height=47 xoffset=1 yoffset=6 xadvance=40 page=0 chnl=0
char id=51076 x=307 y=1060 width=39 height=47 xoffset=3 yoffset=6 xadvance=40 page=0 chnl=0
char id=46321 x=760 y=626 width=46 height=47 xoffset=1 yoffset=6 xadvance=40 page=0 chnl=0
char id=47197 x=354 y=286 width=46 height=48 xoffset=1 yoffset=6 xadvance=40 page=0 chnl=0
char id=50632 x=261 y=433 width=44 height=48 xoffset=3 yoffset=6 xadvance=40 page=0 chnl=0
char id=47476 x=476 y=1 width=46 height=38 xoffset=1 yoffset=8 xadvance=40 page=0 chnl=0
char id=53945 x=307 y=286 width=46 height=48 xoffset=1 yoffset=6 xadvance=40 page=0 chnl=0
char id=51312 x=429 y=1 width=46 height=38 xoffset=1 yoffset=8 xadvance=40 page=0 chnl=0
char id=44053 x=261 y=384 width=45 height=48 xoffset=2 yoffset=5 xadvance=40 page=0 chnl=0
char id=51104 x=714 y=626 width=45 height=47 xoffset=2 yoffset=6 xadvance=40 page=0 chnl=0
char id=51116 x=261 y=335 width=44 height=48 xoffset=0 yoffset=5 xadvance=40 page=0 chnl=0
char id=51201 x=219 y=727 width=40 height=48 xoffset=2 yoffset=5 xadvance=40 page=0 chnl=0
char id=46301 x=667 y=626 width=46 height=47 xoffset=1 yoffset=6 xadvance=40 page=0 chnl=0
char id=52828 x=622 y=770 width=41 height=47 xoffset=3 yoffset=6 xadvance=40 page=0 chnl=0
char id=48276 x=180 y=916 width=38 height=47 xoffset=4 yoffset=6 xadvance=40 page=0 chnl=0
char id=51396 x=219 y=678 width=41 height=48 xoffset=1 yoffset=5 xadvance=40 page=0 chnl=0
char id=54016 x=180 y=868 width=38 height=47 xoffset=5 yoffset=6 xadvance=40 page=0 chnl=0
char id=52852 x=261 y=286 width=45 height=48 xoffset=2 yoffset=5 xadvance=40 page=0 chnl=0
char id=45824 x=219 y=629 width=41 height=48 xoffset=3 yoffset=5 xadvance=40 page=0 chnl=0
char id=45212 x=622 y=722 width=43 height=47 xoffset=5 yoffset=6 xadvance=40 page=0 chnl=0
char id=48656 x=1134 y=817 width=46 height=46 xoffset=1 yoffset=6 xadvance=40 page=0 chnl=0
char id=51089 x=1151 y=237 width=45 height=48 xoffset=2 yoffset=5 xadvance=40 page=0 chnl=0
char id=46108 x=622 y=674 width=42 height=47 xoffset=1 yoffset=5 xadvance=40 page=0 chnl=0
char id=48127 x=307 y=1012 width=39 height=47 xoffset=4 yoffset=6 xadvance=40 page=0 chnl=0
char id=50504 x=622 y=626 width=44 height=47 xoffset=3 yoffset=6 xadvance=40 page=0 chnl=0
char id=50924 x=1134 y=578 width=44 height=47 xoffset=1 yoffset=6 xadvance=40 page=0 chnl=0
char id=48520 x=1104 y=237 width=46 height=48 xoffset=1 yoffset=5 xadvance=40 page=0 chnl=0
char id=48150 x=1060 y=237 width=43 height=48 xoffset=4 yoffset=5 xadvance=40 page=0 chnl=0
char id=47561 x=1016 y=237 width=43 height=48 xoffset=4 yoffset=5 xadvance=40 page=0 chnl=0
char id=50772 x=1 y=342 width=46 height=49 xoffset=1 yoffset=5 xadvance=40 page=0 chnl=0
char id=54805 x=219 y=580 width=40 height=48 xoffset=2 yoffset=5 xadvance=40 page=0 chnl=0
char id=54665 x=973 y=237 width=42 height=48 xoffset=2 yoffset=5 xadvance=40 page=0 chnl=0
char id=48660 x=1087 y=578 width=46 height=47 xoffset=1 yoffset=6 xadvance=40 page=0 chnl=0
char id=50505 x=1042 y=578 width=44 height=47 xoffset=3 yoffset=6 xadvance=40 page=0 chnl=0
char id=47112 x=930 y=237 width=42 height=48 xoffset=3 yoffset=5 xadvance=40 page=0 chnl=0
char id=960 x=1176 y=1104 width=26 height=30 xoffset=0 yoffset=19 xadvance=20 page=0 chnl=0
char id=44144 x=219 y=531 width=40 height=48 xoffset=2 yoffset=5 xadvance=40 page=0 chnl=0
char id=52628 x=995 y=578 width=46 height=47 xoffset=1 yoffset=6 xadvance=40 page=0 chnl=0
char id=52769 x=883 y=237 width=46 height=48 xoffset=1 yoffset=6 xadvance=40 page=0 chnl=0
char id=54536 x=1087 y=817 width=46 height=45 xoffset=1 yoffset=7 xadvance=40 page=0 chnl=0
char id=47751 x=219 y=482 width=41 height=48 xoffset=4 yoffset=6 xadvance=40 page=0 chnl=0
char id=44049 x=949 y=578 width=45 height=47 xoffset=2 yoffset=6 xadvance=40 page=0 chnl=0
char id=48624 x=902 y=578 width=46 height=47 xoffset=1 yoffset=6 xadvance=40 page=0 chnl=0
char id=45348 x=219 y=433 width=41 height=48 xoffset=4 yoffset=5 xadvance=40 page=0 chnl=0
char id=46161 x=855 y=578 width=46 height=47 xoffset=1 yoffset=6 xadvance=40 page=0 chnl=0
char id=47749 x=180 y=237 width=38 height=48 xoffset=4 yoffset=5 xadvance=40 page=0 chnl=0
char id=51473 x=808 y=578 width=46 height=47 xoffset=1 yoffset=6 xadvance=40 page=0 chnl=0
char id=50629 x=307 y=964 width=39 height=47 xoffset=4 yoffset=6 xadvance=40 page=0 chnl=0
char id=50880 x=761 y=578 width=46 height=47 xoffset=1 yoffset=6 xadvance=40 page=0 chnl=0
char id=50644 x=716 y=578 width=44 height=47 xoffset=2 yoffset=6 xadvance=40 page=0 chnl=0
char id=47120 x=840 y=237 width=42 height=48 xoffset=3 yoffset=5 xadvance=40 page=0 chnl=0
char id=49332 x=793 y=237 width=46 height=48 xoffset=1 yoffset=5 xadvance=40 page=0 chnl=0
char id=50689 x=219 y=384 width=39 height=48 xoffset=3 yoffset=5 xadvance=40 page=0 chnl=0
char id=50728 x=1040 y=817 width=46 height=46 xoffset=1 yoffset=6 xadvance=40 page=0 chnl=0
char id=50472 x=750 y=237 width=42 height=48 xoffset=0 yoffset=5 xadvance=40 page=0 chnl=0
char id=51649 x=219 y=335 width=40 height=48 xoffset=2 yoffset=5 xadvance=40 page=0 chnl=0
char id=46412 x=707 y=237 width=42 height=48 xoffset=2 yoffset=5 xadvance=40 page=0 chnl=0
char id=54756 x=664 y=237 width=42 height=48 xoffset=2 yoffset=5 xadvance=40 page=0 chnl=0
char id=44272 x=993 y=817 width=46 height=46 xoffset=1 yoffset=6 xadvance=40 page=0 chnl=0
char id=46041 x=669 y=578 width=46 height=47 xoffset=1 yoffset=6 xadvance=40 page=0 chnl=0
char id=51923 x=617 y=237 width=46 height=48 xoffset=1 yoffset=6 xadvance=40 page=0 chnl=0
char id=45256 x=573 y=237 width=43 height=48 xoffset=4 yoffset=6 xadvance=40 page=0 chnl=0
char id=48764 x=528 y=237 width=44 height=48 xoffset=1 yoffset=5 xadvance=40 page=0 chnl=0
char id=50519 x=483 y=237 width=44 height=48 xoffset=3 yoffset=5 xadvance=40 page=0 chnl=0
char id=50520 x=438 y=237 width=44 height=48 xoffset=3 yoffset=6 xadvance=40 page=0 chnl=0
char id=44061 x=395 y=237 width=42 height=48 xoffset=2 yoffset=5 xadvance=40 page=0 chnl=0
char id=50669 x=219 y=286 width=39 height=48 xoffset=3 yoffset=5 xadvance=40 page=0 chnl=0
char id=51256 x=352 y=237 width=42 height=48 xoffset=1 yoffset=5 xadvance=40 page=0 chnl=0
char id=51500 x=1 y=292 width=45 height=49 xoffset=2 yoffset=5 xadvance=40 page=0 chnl=0
char id=50977 x=622 y=578 width=46 height=47 xoffset=1 yoffset=6 xadvance=40 page=0 chnl=0
char id=44596 x=575 y=1154 width=40 height=47 xoffset=3 yoffset=6 xadvance=40 page=0 chnl=0
char id=44553 x=946 y=817 width=46 height=46 xoffset=1 yoffset=6 xadvance=40 page=0 chnl=0
char id=48783 x=306 y=237 width=45 height=48 xoffset=1 yoffset=5 xadvance=40 page=0 chnl=0
char id=50557 x=261 y=237 width=44 height=48 xoffset=3 yoffset=5 xadvance=40 page=0 chnl=0
char id=44845 x=575 y=1106 width=46 height=47 xoffset=1 yoffset=6 xadvance=40 page=0 chnl=0
char id=53468 x=219 y=237 width=41 height=48 xoffset=3 yoffset=5 xadvance=40 page=0 chnl=0
char id=52404 x=1141 y=188 width=43 height=48 xoffset=1 yoffset=5 xadvance=40 page=0 chnl=0
char id=50025 x=1097 y=188 width=43 height=48 xoffset=0 yoffset=5 xadvance=40 page=0 chnl=0
char id=50688 x=1052 y=188 width=44 height=48 xoffset=3 yoffset=6 xadvance=40 page=0 chnl=0
char id=47566 x=1008 y=188 width=43 height=48 xoffset=4 yoffset=6 xadvance=40 page=0 chnl=0
char id=51536 x=966 y=188 width=41 height=48 xoffset=1 yoffset=5 xadvance=40 page=0 chnl=0
char id=47728 x=926 y=188 width=39 height=48 xoffset=4 yoffset=5 xadvance=40 page=0 chnl=0
char id=46028 x=575 y=1058 width=46 height=47 xoffset=1 yoffset=6 xadvance=40 page=0 chnl=0
char id=45459 x=1 y=41 width=46 height=50 xoffset=1 yoffset=5 xadvance=40 page=0 chnl=0
char id=51652 x=575 y=1010 width=41 height=47 xoffset=2 yoffset=6 xadvance=40 page=0 chnl=0
char id=51208 x=884 y=188 width=41 height=48 xoffset=2 yoffset=5 xadvance=40 page=0 chnl=0
char id=47672 x=844 y=188 width=39 height=48 xoffset=4 yoffset=5 xadvance=40 page=0 chnl=0
char id=49368 x=575 y=962 width=43 height=47 xoffset=1 yoffset=6 xadvance=40 page=0 chnl=0
char id=54540 x=575 y=914 width=46 height=47 xoffset=1 yoffset=6 xadvance=40 page=0 chnl=0
char id=48155 x=575 y=866 width=43 height=47 xoffset=4 yoffset=6 xadvance=40 page=0 chnl=0
char id=53076 x=382 y=1 width=46 height=38 xoffset=1 yoffset=8 xadvance=40 page=0 chnl=0
char id=54260 x=575 y=818 width=46 height=47 xoffset=1 yoffset=6 xadvance=40 page=0 chnl=0
char id=45908 x=804 y=188 width=39 height=48 xoffset=4 yoffset=5 xadvance=40 page=0 chnl=0
char id=44228 x=761 y=188 width=42 height=48 xoffset=2 yoffset=5 xadvance=40 page=0 chnl=0
char id=45396 x=718 y=188 width=42 height=48 xoffset=5 yoffset=6 xadvance=40 page=0 chnl=0
char id=52384 x=676 y=188 width=41 height=48 xoffset=3 yoffset=5 xadvance=40 page=0 chnl=0
char id=52572 x=634 y=188 width=41 height=48 xoffset=1 yoffset=5 xadvance=40 page=0 chnl=0
char id=50984 x=587 y=188 width=46 height=48 xoffset=1 yoffset=5 xadvance=40 page=0 chnl=0
char id=47019 x=544 y=188 width=42 height=48 xoffset=3 yoffset=5 xadvance=40 page=0 chnl=0
char id=45436 x=899 y=817 width=46 height=46 xoffset=1 yoffset=6 xadvance=40 page=0 chnl=0
char id=50416 x=335 y=1 width=46 height=39 xoffset=1 yoffset=7 xadvance=40 page=0 chnl=0
char id=53440 x=500 y=188 width=43 height=48 xoffset=4 yoffset=5 xadvance=40 page=0 chnl=0
char id=52285 x=454 y=188 width=45 height=48 xoffset=2 yoffset=5 xadvance=40 page=0 chnl=0
char id=49549 x=407 y=188 width=46 height=48 xoffset=1 yoffset=6 xadvance=40 page=0 chnl=0
char id=54980 x=360 y=188 width=46 height=48 xoffset=1 yoffset=5 xadvance=40 page=0 chnl=0
char id=50872 x=313 y=188 width=46 height=48 xoffset=1 yoffset=5 xadvance=40 page=0 chnl=0
char id=48736 x=266 y=188 width=46 height=48 xoffset=1 yoffset=5 xadvance=40 page=0 chnl=0
char id=45576 x=852 y=817 width=46 height=46 xoffset=1 yoffset=6 xadvance=40 page=0 chnl=0
char id=44636 x=575 y=770 width=46 height=47 xoffset=1 yoffset=6 xadvance=40 page=0 chnl=0
char id=51677 x=219 y=188 width=46 height=48 xoffset=1 yoffset=5 xadvance=40 page=0 chnl=0
char id=50756 x=575 y=722 width=46 height=47 xoffset=1 yoffset=5 xadvance=40 page=0 chnl=0
char id=48317 x=180 y=188 width=38 height=48 xoffset=4 yoffset=5 xadvance=40 page=0 chnl=0
char id=44540 x=805 y=1146 width=46 height=45 xoffset=1 yoffset=7 xadvance=40 page=0 chnl=0
char id=46496 x=1148 y=139 width=40 height=48 xoffset=3 yoffset=5 xadvance=40 page=0 chnl=0
char id=48149 x=1104 y=139 width=43 height=48 xoffset=4 yoffset=5 xadvance=40 page=0 chnl=0
char id=50752 x=1057 y=139 width=46 height=48 xoffset=1 yoffset=5 xadvance=40 page=0 chnl=0
char id=49340 x=575 y=674 width=46 height=47 xoffset=1 yoffset=6 xadvance=40 page=0 chnl=0
char id=53584 x=575 y=626 width=42 height=47 xoffset=3 yoffset=6 xadvance=40 page=0 chnl=0
char id=48528 x=575 y=578 width=46 height=47 xoffset=1 yoffset=6 xadvance=40 page=0 chnl=0
char id=54200 x=529 y=1154 width=42 height=47 xoffset=2 yoffset=6 xadvance=40 page=0 chnl=0
char id=49440 x=529 y=1106 width=42 height=47 xoffset=2 yoffset=6 xadvance=40 page=0 chnl=0
char id=46907 x=1140 y=530 width=46 height=47 xoffset=1 yoffset=6 xadvance=40 page=0 chnl=0
char id=47569 x=1013 y=139 width=43 height=48 xoffset=4 yoffset=5 xadvance=40 page=0 chnl=0
char id=12615 x=852 y=1187 width=31 height=25 xoffset=8 yoffset=17 xadvance=40 page=0 chnl=0
char id=46385 x=968 y=139 width=44 height=48 xoffset=3 yoffset=5 xadvance=40 page=0 chnl=0
char id=54032 x=1093 y=530 width=46 height=47 xoffset=1 yoffset=6 xadvance=40 page=0 chnl=0
char id=44201 x=928 y=139 width=39 height=48 xoffset=3 yoffset=5 xadvance=40 page=0 chnl=0
char id=49567 x=881 y=139 width=46 height=48 xoffset=1 yoffset=5 xadvance=40 page=0 chnl=0
char id=47588 x=839 y=139 width=41 height=48 xoffset=3 yoffset=5 xadvance=40 page=0 chnl=0
char id=51276 x=793 y=139 width=45 height=48 xoffset=2 yoffset=6 xadvance=40 page=0 chnl=0
char id=45224 x=529 y=1058 width=43 height=47 xoffset=5 yoffset=6 xadvance=40 page=0 chnl=0
char id=49104 x=805 y=1099 width=46 height=46 xoffset=1 yoffset=6 xadvance=40 page=0 chnl=0
char id=52272 x=747 y=139 width=45 height=48 xoffset=2 yoffset=5 xadvance=40 page=0 chnl=0
char id=51901 x=1046 y=530 width=46 height=47 xoffset=1 yoffset=6 xadvance=40 page=0 chnl=0
char id=54889 x=700 y=139 width=46 height=48 xoffset=2 yoffset=6 xadvance=40 page=0 chnl=0
char id=54635 x=654 y=139 width=45 height=48 xoffset=2 yoffset=5 xadvance=40 page=0 chnl=0
char id=45149 x=805 y=1052 width=46 height=46 xoffset=1 yoffset=7 xadvance=40 page=0 chnl=0
char id=54788 x=529 y=1010 width=42 height=47 xoffset=2 yoffset=6 xadvance=40 page=0 chnl=0
char id=47533 x=615 y=139 width=38 height=48 xoffset=4 yoffset=5 xadvance=40 page=0 chnl=0
char id=52268 x=529 y=962 width=45 height=47 xoffset=2 yoffset=6 xadvance=40 page=0 chnl=0
char id=45000 x=805 y=1005 width=46 height=46 xoffset=1 yoffset=7 xadvance=40 page=0 chnl=0
char id=45012 x=572 y=139 width=42 height=48 xoffset=1 yoffset=5 xadvance=40 page=0 chnl=0
char id=48324 x=532 y=139 width=39 height=48 xoffset=4 yoffset=5 xadvance=40 page=0 chnl=0
char id=50837 x=999 y=530 width=46 height=47 xoffset=1 yoffset=6 xadvance=40 page=0 chnl=0
char id=53469 x=490 y=139 width=41 height=48 xoffset=3 yoffset=5 xadvance=40 page=0 chnl=0
char id=48164 x=529 y=914 width=43 height=47 xoffset=4 yoffset=6 xadvance=40 page=0 chnl=0
char id=44048 x=529 y=866 width=45 height=47 xoffset=2 yoffset=6 xadvance=40 page=0 chnl=0
char id=46076 x=446 y=139 width=43 height=48 xoffset=1 yoffset=5 xadvance=40 page=0 chnl=0
char id=54996 x=399 y=139 width=46 height=48 xoffset=1 yoffset=5 xadvance=40 page=0 chnl=0
char id=52452 x=354 y=139 width=44 height=48 xoffset=3 yoffset=6 xadvance=40 page=0 chnl=0
char id=49916 x=951 y=530 width=47 height=47 xoffset=0 yoffset=6 xadvance=40 page=0 chnl=0
char id=44480 x=312 y=139 width=41 height=48 xoffset=1 yoffset=5 xadvance=40 page=0 chnl=0
char id=54408 x=805 y=958 width=46 height=46 xoffset=1 yoffset=7 xadvance=40 page=0 chnl=0
char id=47100 x=180 y=820 width=38 height=47 xoffset=4 yoffset=6 xadvance=40 page=0 chnl=0
char id=49789 x=270 y=139 width=41 height=48 xoffset=2 yoffset=5 xadvance=40 page=0 chnl=0
char id=46608 x=288 y=1 width=46 height=38 xoffset=1 yoffset=8 xadvance=40 page=0 chnl=0
char id=52432 x=228 y=139 width=41 height=48 xoffset=2 yoffset=5 xadvance=40 page=0 chnl=0
char id=44052 x=133 y=1119 width=45 height=48 xoffset=2 yoffset=6 xadvance=40 page=0 chnl=0
char id=50536 x=133 y=1070 width=44 height=48 xoffset=2 yoffset=5 xadvance=40 page=0 chnl=0
char id=47088 x=307 y=916 width=39 height=47 xoffset=4 yoffset=6 xadvance=40 page=0 chnl=0
char id=53951 x=805 y=911 width=46 height=46 xoffset=1 yoffset=7 xadvance=40 page=0 chnl=0
char id=52840 x=307 y=868 width=39 height=47 xoffset=3 yoffset=6 xadvance=40 page=0 chnl=0
char id=47582 x=133 y=1021 width=43 height=48 xoffset=4 yoffset=5 xadvance=40 page=0 chnl=0
char id=48376 x=805 y=864 width=46 height=46 xoffset=1 yoffset=6 xadvance=40 page=0 chnl=0
char id=51217 x=529 y=818 width=40 height=47 xoffset=2 yoffset=6 xadvance=40 page=0 chnl=0
char id=45244 x=133 y=972 width=41 height=48 xoffset=4 yoffset=5 xadvance=40 page=0 chnl=0
char id=48757 x=133 y=923 width=45 height=48 xoffset=2 yoffset=5 xadvance=40 page=0 chnl=0
char id=52992 x=133 y=874 width=42 height=48 xoffset=2 yoffset=5 xadvance=40 page=0 chnl=0
char id=52281 x=529 y=770 width=45 height=47 xoffset=2 yoffset=6 xadvance=40 page=0 chnl=0
char id=54596 x=90 y=1119 width=41 height=48 xoffset=2 yoffset=5 xadvance=40 page=0 chnl=0
char id=54844 x=904 y=530 width=46 height=47 xoffset=1 yoffset=6 xadvance=40 page=0 chnl=0
char id=47157 x=180 y=772 width=38 height=47 xoffset=4 yoffset=6 xadvance=40 page=0 chnl=0
char id=47581 x=133 y=825 width=43 height=48 xoffset=4 yoffset=5 xadvance=40 page=0 chnl=0
char id=45480 x=1 y=242 width=46 height=49 xoffset=1 yoffset=5 xadvance=40 page=0 chnl=0
char id=44161 x=307 y=820 width=39 height=47 xoffset=3 yoffset=6 xadvance=40 page=0 chnl=0
char id=44275 x=805 y=817 width=46 height=46 xoffset=1 yoffset=7 xadvance=40 page=0 chnl=0
char id=44368 x=261 y=1168 width=45 height=38 xoffset=1 yoffset=8 xadvance=40 page=0 chnl=0
char id=45252 x=529 y=722 width=40 height=47 xoffset=4 yoffset=6 xadvance=40 page=0 chnl=0
char id=47952 x=90 y=1070 width=41 height=48 xoffset=1 yoffset=5 xadvance=40 page=0 chnl=0
char id=53685 x=857 y=530 width=46 height=47 xoffset=1 yoffset=6 xadvance=40 page=0 chnl=0
char id=49900 x=529 y=674 width=40 height=47 xoffset=2 yoffset=6 xadvance=40 page=0 chnl=0
char id=45797 x=133 y=776 width=43 height=48 xoffset=4 yoffset=5 xadvance=40 page=0 chnl=0
char id=51275 x=133 y=727 width=43 height=48 xoffset=2 yoffset=5 xadvance=40 page=0 chnl=0
char id=46992 x=133 y=678 width=43 height=48 xoffset=4 yoffset=6 xadvance=40 page=0 chnl=0
char id=44415 x=1134 y=770 width=46 height=46 xoffset=1 yoffset=7 xadvance=40 page=0 chnl=0
char id=44992 x=810 y=530 width=46 height=47 xoffset=1 yoffset=6 xadvance=40 page=0 chnl=0
char id=48373 x=763 y=530 width=46 height=47 xoffset=1 yoffset=6 xadvance=40 page=0 chnl=0
char id=49468 x=529 y=626 width=44 height=47 xoffset=1 yoffset=6 xadvance=40 page=0 chnl=0
char id=49472 x=133 y=629 width=44 height=48 xoffset=1 yoffset=5 xadvance=40 page=0 chnl=0
char id=50572 x=529 y=578 width=44 height=47 xoffset=3 yoffset=6 xadvance=40 page=0 chnl=0
char id=51469 x=1087 y=770 width=46 height=46 xoffset=1 yoffset=7 xadvance=40 page=0 chnl=0
char id=54392 x=716 y=530 width=46 height=47 xoffset=1 yoffset=6 xadvance=40 page=0 chnl=0
char id=44648 x=133 y=580 width=44 height=48 xoffset=0 yoffset=5 xadvance=40 page=0 chnl=0
char id=45228 x=133 y=531 width=43 height=48 xoffset=4 yoffset=6 xadvance=40 page=0 chnl=0
char id=49444 x=90 y=1021 width=41 height=48 xoffset=2 yoffset=5 xadvance=40 page=0 chnl=0
char id=52985 x=90 y=972 width=39 height=48 xoffset=3 yoffset=5 xadvance=40 page=0 chnl=0
char id=45140 x=1040 y=770 width=46 height=46 xoffset=1 yoffset=7 xadvance=40 page=0 chnl=0
char id=52237 x=90 y=923 width=42 height=48 xoffset=1 yoffset=5 xadvance=40 page=0 chnl=0
char id=51333 x=669 y=530 width=46 height=47 xoffset=1 yoffset=6 xadvance=40 page=0 chnl=0
char id=49913 x=180 y=139 width=47 height=48 xoffset=0 yoffset=5 xadvance=40 page=0 chnl=0
char id=48184 x=90 y=874 width=42 height=48 xoffset=3 yoffset=5 xadvance=40 page=0 chnl=0
char id=54693 x=133 y=482 width=45 height=48 xoffset=2 yoffset=5 xadvance=40 page=0 chnl=0
char id=44788 x=90 y=825 width=42 height=48 xoffset=1 yoffset=5 xadvance=40 page=0 chnl=0
char id=51313 x=622 y=530 width=46 height=47 xoffset=1 yoffset=7 xadvance=40 page=0 chnl=0
char id=50892 x=90 y=776 width=41 height=48 xoffset=1 yoffset=5 xadvance=40 page=0 chnl=0
char id=49325 x=133 y=433 width=46 height=48 xoffset=1 yoffset=5 xadvance=40 page=0 chnl=0
char id=47308 x=241 y=1 width=46 height=39 xoffset=1 yoffset=7 xadvance=40 page=0 chnl=0
char id=53412 x=90 y=727 width=40 height=48 xoffset=2 yoffset=5 xadvance=40 page=0 chnl=0
char id=46027 x=993 y=770 width=46 height=46 xoffset=1 yoffset=7 xadvance=40 page=0 chnl=0
char id=54872 x=575 y=530 width=46 height=47 xoffset=2 yoffset=6 xadvance=40 page=0 chnl=0
char id=50491 x=133 y=384 width=45 height=48 xoffset=0 yoffset=5 xadvance=40 page=0 chnl=0
char id=51092 x=529 y=530 width=45 height=47 xoffset=2 yoffset=5 xadvance=40 page=0 chnl=0
char id=47548 x=180 y=724 width=38 height=47 xoffset=4 yoffset=6 xadvance=40 page=0 chnl=0
char id=54924 x=90 y=678 width=41 height=48 xoffset=1 yoffset=5 xadvance=40 page=0 chnl=0
char id=44404 x=1160 y=482 width=46 height=47 xoffset=1 yoffset=6 xadvance=40 page=0 chnl=0
char id=52397 x=90 y=629 width=40 height=48 xoffset=3 yoffset=5 xadvance=40 page=0 chnl=0
char id=49709 x=133 y=335 width=46 height=48 xoffset=1 yoffset=5 xadvance=40 page=0 chnl=0
char id=46373 x=180 y=676 width=37 height=47 xoffset=5 yoffset=6 xadvance=40 page=0 chnl=0
char id=49772 x=90 y=580 width=41 height=48 xoffset=1 yoffset=5 xadvance=40 page=0 chnl=0
char id=44081 x=133 y=286 width=43 height=48 xoffset=2 yoffset=5 xadvance=40 page=0 chnl=0
char id=54801 x=1119 y=482 width=40 height=47 xoffset=2 yoffset=6 xadvance=40 page=0 chnl=0
char id=55128 x=133 y=237 width=46 height=48 xoffset=1 yoffset=5 xadvance=40 page=0 chnl=0
char id=50616 x=1078 y=482 width=40 height=47 xoffset=3 yoffset=6 xadvance=40 page=0 chnl=0
char id=54000 x=90 y=531 width=38 height=48 xoffset=4 yoffset=5 xadvance=40 page=0 chnl=0
char id=45924 x=180 y=628 width=38 height=47 xoffset=5 yoffset=6 xadvance=40 page=0 chnl=0
char id=54001 x=48 y=1119 width=38 height=48 xoffset=5 yoffset=5 xadvance=40 page=0 chnl=0
char id=48268 x=48 y=1070 width=39 height=48 xoffset=4 yoffset=5 xadvance=40 page=0 chnl=0
char id=50773 x=133 y=188 width=46 height=48 xoffset=1 yoffset=5 xadvance=40 page=0 chnl=0
char id=54728 x=48 y=1021 width=41 height=48 xoffset=2 yoffset=5 xadvance=40 page=0 chnl=0
char id=54364 x=194 y=1 width=46 height=38 xoffset=1 yoffset=8 xadvance=40 page=0 chnl=0
char id=49901 x=1037 y=482 width=40 height=47 xoffset=2 yoffset=6 xadvance=40 page=0 chnl=0
char id=51613 x=990 y=482 width=46 height=47 xoffset=1 yoffset=6 xadvance=40 page=0 chnl=0
char id=52649 x=133 y=139 width=46 height=48 xoffset=1 yoffset=6 xadvance=40 page=0 chnl=0
char id=51453 x=943 y=482 width=46 height=47 xoffset=1 yoffset=7 xadvance=40 page=0 chnl=0
char id=45544 x=147 y=1 width=46 height=38 xoffset=1 yoffset=8 xadvance=40 page=0 chnl=0
char id=50516 x=898 y=482 width=44 height=47 xoffset=3 yoffset=6 xadvance=40 page=0 chnl=0
char id=44866 x=851 y=482 width=46 height=47 xoffset=1 yoffset=7 xadvance=40 page=0 chnl=0
char id=55180 x=809 y=482 width=41 height=47 xoffset=2 yoffset=6 xadvance=40 page=0 chnl=0
char id=54172 x=764 y=482 width=44 height=47 xoffset=1 yoffset=6 xadvance=40 page=0 chnl=0
char id=48977 x=717 y=482 width=46 height=47 xoffset=1 yoffset=6 xadvance=40 page=0 chnl=0
char id=47141 x=48 y=972 width=38 height=48 xoffset=4 yoffset=5 xadvance=40 page=0 chnl=0
char id=55141 x=1149 y=90 width=46 height=48 xoffset=1 yoffset=6 xadvance=40 page=0 chnl=0
char id=44668 x=1101 y=90 width=47 height=48 xoffset=1 yoffset=6 xadvance=40 page=0 chnl=0
char id=46504 x=48 y=923 width=41 height=48 xoffset=3 yoffset=5 xadvance=40 page=0 chnl=0
char id=45733 x=670 y=482 width=46 height=47 xoffset=1 yoffset=6 xadvance=40 page=0 chnl=0
char id=46021 x=623 y=482 width=46 height=47 xoffset=1 yoffset=6 xadvance=40 page=0 chnl=0
char id=46916 x=90 y=482 width=42 height=48 xoffset=1 yoffset=5 xadvance=40 page=0 chnl=0
char id=49353 x=1057 y=90 width=43 height=48 xoffset=1 yoffset=5 xadvance=40 page=0 chnl=0
char id=44397 x=576 y=482 width=46 height=47 xoffset=1 yoffset=6 xadvance=40 page=0 chnl=0
char id=49912 x=1008 y=90 width=48 height=48 xoffset=0 yoffset=5 xadvance=40 page=0 chnl=0
char id=48128 x=48 y=874 width=39 height=48 xoffset=4 yoffset=5 xadvance=40 page=0 chnl=0
char id=44257 x=946 y=770 width=46 height=46 xoffset=1 yoffset=7 xadvance=40 page=0 chnl=0
char id=47204 x=961 y=90 width=46 height=48 xoffset=1 yoffset=5 xadvance=40 page=0 chnl=0
char id=48744 x=915 y=90 width=45 height=48 xoffset=2 yoffset=5 xadvance=40 page=0 chnl=0
char id=47609 x=90 y=433 width=42 height=48 xoffset=3 yoffset=5 xadvance=40 page=0 chnl=0
char id=50584 x=90 y=384 width=42 height=48 xoffset=2 yoffset=5 xadvance=40 page=0 chnl=0
char id=46319 x=529 y=482 width=46 height=47 xoffset=1 yoffset=6 xadvance=40 page=0 chnl=0
char id=49910 x=482 y=1154 width=42 height=47 xoffset=2 yoffset=6 xadvance=40 page=0 chnl=0
char id=44537 x=482 y=1106 width=46 height=47 xoffset=1 yoffset=6 xadvance=40 page=0 chnl=0
char id=49849 x=868 y=90 width=46 height=48 xoffset=1 yoffset=5 xadvance=40 page=0 chnl=0
char id=47736 x=48 y=825 width=39 height=48 xoffset=4 yoffset=5 xadvance=40 page=0 chnl=0
char id=48716 x=48 y=776 width=39 height=48 xoffset=4 yoffset=5 xadvance=40 page=0 chnl=0
char id=53748 x=48 y=727 width=41 height=48 xoffset=1 yoffset=5 xadvance=40 page=0 chnl=0
char id=44340 x=48 y=678 width=41 height=48 xoffset=1 yoffset=5 xadvance=40 page=0 chnl=0
char id=47213 x=482 y=1058 width=46 height=47 xoffset=1 yoffset=6 xadvance=40 page=0 chnl=0
char id=55184 x=48 y=629 width=41 height=48 xoffset=2 yoffset=5 xadvance=40 page=0 chnl=0
char id=53360 x=899 y=770 width=46 height=46 xoffset=1 yoffset=6 xadvance=40 page=0 chnl=0
char id=49696 x=821 y=90 width=46 height=48 xoffset=1 yoffset=5 xadvance=40 page=0 chnl=0
char id=46120 x=48 y=580 width=41 height=48 xoffset=2 yoffset=5 xadvance=40 page=0 chnl=0
char id=52880 x=90 y=335 width=42 height=48 xoffset=2 yoffset=5 xadvance=40 page=0 chnl=0
char id=48288 x=48 y=531 width=41 height=48 xoffset=3 yoffset=5 xadvance=40 page=0 chnl=0
char id=52968 x=438 y=1154 width=41 height=47 xoffset=3 yoffset=6 xadvance=40 page=0 chnl=0
char id=54660 x=438 y=1106 width=42 height=47 xoffset=2 yoffset=6 xadvance=40 page=0 chnl=0
char id=49334 x=774 y=90 width=46 height=48 xoffset=1 yoffset=5 xadvance=40 page=0 chnl=0
char id=48296 x=90 y=286 width=42 height=48 xoffset=3 yoffset=5 xadvance=40 page=0 chnl=0
char id=54400 x=482 y=1010 width=46 height=47 xoffset=1 yoffset=6 xadvance=40 page=0 chnl=0
char id=54869 x=727 y=90 width=46 height=48 xoffset=2 yoffset=5 xadvance=40 page=0 chnl=0
char id=47456 x=680 y=90 width=46 height=48 xoffset=1 yoffset=5 xadvance=40 page=0 chnl=0
char id=51704 x=634 y=90 width=45 height=48 xoffset=0 yoffset=5 xadvance=40 page=0 chnl=0
char id=53456 x=438 y=1058 width=43 height=47 xoffset=4 yoffset=6 xadvance=40 page=0 chnl=0
char id=54060 x=482 y=962 width=44 height=47 xoffset=1 yoffset=6 xadvance=40 page=0 chnl=0
char id=51137 x=590 y=90 width=43 height=48 xoffset=2 yoffset=5 xadvance=40 page=0 chnl=0
char id=47021 x=90 y=237 width=42 height=48 xoffset=3 yoffset=5 xadvance=40 page=0 chnl=0
char id=53433 x=48 y=482 width=39 height=48 xoffset=3 yoffset=5 xadvance=40 page=0 chnl=0
char id=45458 x=482 y=914 width=46 height=47 xoffset=1 yoffset=6 xadvance=40 page=0 chnl=0
char id=52292 x=546 y=90 width=43 height=48 xoffset=1 yoffset=5 xadvance=40 page=0 chnl=0
char id=45328 x=48 y=433 width=39 height=48 xoffset=5 yoffset=5 xadvance=40 page=0 chnl=0
char id=51572 x=482 y=866 width=46 height=47 xoffset=1 yoffset=6 xadvance=40 page=0 chnl=0
char id=54256 x=852 y=770 width=46 height=46 xoffset=1 yoffset=6 xadvance=40 page=0 chnl=0
char id=46307 x=805 y=770 width=46 height=46 xoffset=1 yoffset=7 xadvance=40 page=0 chnl=0
char id=49569 x=499 y=90 width=46 height=48 xoffset=1 yoffset=5 xadvance=40 page=0 chnl=0
char id=50760 x=452 y=90 width=46 height=48 xoffset=1 yoffset=5 xadvance=40 page=0 chnl=0
char id=47693 x=48 y=384 width=38 height=48 xoffset=4 yoffset=5 xadvance=40 page=0 chnl=0
char id=50900 x=90 y=188 width=42 height=48 xoffset=2 yoffset=5 xadvance=40 page=0 chnl=0
char id=47805 x=482 y=818 width=46 height=47 xoffset=1 yoffset=6 xadvance=40 page=0 chnl=0
char id=45845 x=90 y=139 width=42 height=48 xoffset=3 yoffset=5 xadvance=40 page=0 chnl=0
char id=47105 x=48 y=335 width=38 height=48 xoffset=4 yoffset=5 xadvance=40 page=0 chnl=0
char id=51210 x=48 y=286 width=40 height=48 xoffset=2 yoffset=5 xadvance=40 page=0 chnl=0
char id=49520 x=408 y=90 width=43 height=48 xoffset=1 yoffset=5 xadvance=40 page=0 chnl=0
char id=47788 x=758 y=1134 width=46 height=46 xoffset=1 yoffset=6 xadvance=40 page=0 chnl=0
char id=53444 x=438 y=1010 width=43 height=47 xoffset=4 yoffset=6 xadvance=40 page=0 chnl=0
char id=49240 x=100 y=1 width=46 height=39 xoffset=1 yoffset=7 xadvance=40 page=0 chnl=0
char id=52488 x=758 y=1093 width=46 height=40 xoffset=1 yoffset=6 xadvance=40 page=0 chnl=0
char id=44260 x=758 y=1047 width=46 height=45 xoffset=1 yoffset=7 xadvance=40 page=0 chnl=0
char id=46976 x=438 y=962 width=43 height=47 xoffset=4 yoffset=6 xadvance=40 page=0 chnl=0
char id=48521 x=361 y=90 width=46 height=48 xoffset=1 yoffset=5 xadvance=40 page=0 chnl=0
char id=52376 x=48 y=237 width=41 height=48 xoffset=2 yoffset=5 xadvance=40 page=0 chnl=0
char id=47448 x=482 y=770 width=46 height=47 xoffset=1 yoffset=6 xadvance=40 page=0 chnl=0
char id=44051 x=315 y=90 width=45 height=48 xoffset=2 yoffset=5 xadvance=40 page=0 chnl=0
char id=54057 x=271 y=90 width=43 height=48 xoffset=1 yoffset=5 xadvance=40 page=0 chnl=0
char id=47592 x=438 y=914 width=42 height=47 xoffset=3 yoffset=6 xadvance=40 page=0 chnl=0
char id=54841 x=224 y=90 width=46 height=48 xoffset=1 yoffset=6 xadvance=40 page=0 chnl=0
char id=45776 x=48 y=188 width=38 height=48 xoffset=5 yoffset=5 xadvance=40 page=0 chnl=0
char id=49692 x=758 y=1000 width=46 height=46 xoffset=1 yoffset=6 xadvance=40 page=0 chnl=0
char id=52286 x=178 y=90 width=45 height=48 xoffset=2 yoffset=5 xadvance=40 page=0 chnl=0
char id=48473 x=48 y=139 width=41 height=48 xoffset=2 yoffset=5 xadvance=40 page=0 chnl=0
char id=49328 x=482 y=722 width=46 height=47 xoffset=1 yoffset=6 xadvance=40 page=0 chnl=0
char id=53596 x=438 y=866 width=41 height=47 xoffset=3 yoffset=6 xadvance=40 page=0 chnl=0
char id=46392 x=133 y=90 width=44 height=48 xoffset=3 yoffset=5 xadvance=40 page=0 chnl=0
char id=47116 x=438 y=818 width=42 height=47 xoffset=3 yoffset=6 xadvance=40 page=0 chnl=0
char id=47004 x=438 y=770 width=42 height=47 xoffset=3 yoffset=6 xadvance=40 page=0 chnl=0
char id=52395 x=90 y=90 width=42 height=48 xoffset=3 yoffset=5 xadvance=40 page=0 chnl=0
char id=48177 x=48 y=90 width=41 height=48 xoffset=3 yoffset=5 xadvance=40 page=0 chnl=0
char id=47049 x=1133 y=41 width=43 height=48 xoffset=4 yoffset=5 xadvance=40 page=0 chnl=0
char id=52337 x=482 y=674 width=45 height=47 xoffset=2 yoffset=6 xadvance=40 page=0 chnl=0
char id=52740 x=482 y=626 width=46 height=47 xoffset=1 yoffset=6 xadvance=40 page=0 chnl=0
char id=54984 x=482 y=578 width=46 height=47 xoffset=1 yoffset=6 xadvance=40 page=0 chnl=0
char id=47144 x=307 y=772 width=39 height=47 xoffset=4 yoffset=6 xadvance=40 page=0 chnl=0
char id=50501 x=1088 y=41 width=44 height=48 xoffset=3 yoffset=5 xadvance=40 page=0 chnl=0
char id=44200 x=1047 y=41 width=40 height=48 xoffset=3 yoffset=5 xadvance=40 page=0 chnl=0
char id=44760 x=1002 y=41 width=44 height=48 xoffset=0 yoffset=5 xadvance=40 page=0 chnl=0
char id=45180 x=959 y=41 width=42 height=48 xoffset=1 yoffset=5 xadvance=40 page=0 chnl=0
char id=44263 x=758 y=954 width=46 height=45 xoffset=1 yoffset=7 xadvance=40 page=0 chnl=0
char id=52768 x=758 y=913 width=46 height=40 xoffset=1 yoffset=6 xadvance=40 page=0 chnl=0
char id=50545 x=438 y=722 width=43 height=47 xoffset=2 yoffset=6 xadvance=40 page=0 chnl=0
char id=55092 x=912 y=41 width=46 height=48 xoffset=1 yoffset=5 xadvance=40 page=0 chnl=0
char id=47700 x=870 y=41 width=41 height=48 xoffset=3 yoffset=5 xadvance=40 page=0 chnl=0
char id=45229 x=826 y=41 width=43 height=48 xoffset=5 yoffset=5 xadvance=40 page=0 chnl=0
char id=50857 x=482 y=530 width=46 height=47 xoffset=1 yoffset=6 xadvance=40 page=0 chnl=0
char id=45823 x=1 y=192 width=43 height=49 xoffset=4 yoffset=5 xadvance=40 page=0 chnl=0
char id=46317 x=758 y=866 width=46 height=46 xoffset=1 yoffset=7 xadvance=40 page=0 chnl=0
char id=44264 x=482 y=482 width=46 height=47 xoffset=1 yoffset=6 xadvance=40 page=0 chnl=0
char id=47355 x=779 y=41 width=46 height=48 xoffset=1 yoffset=6 xadvance=40 page=0 chnl=0
char id=48712 x=307 y=724 width=39 height=47 xoffset=4 yoffset=6 xadvance=40 page=0 chnl=0
char id=45812 x=438 y=674 width=43 height=47 xoffset=4 yoffset=6 xadvance=40 page=0 chnl=0
char id=54952 x=391 y=1168 width=46 height=41 xoffset=1 yoffset=6 xadvance=40 page=0 chnl=0
char id=46244 x=737 y=41 width=41 height=48 xoffset=1 yoffset=5 xadvance=40 page=0 chnl=0
char id=53244 x=695 y=41 width=41 height=48 xoffset=1 yoffset=5 xadvance=40 page=0 chnl=0
char id=48292 x=438 y=626 width=42 height=47 xoffset=3 yoffset=6 xadvance=40 page=0 chnl=0
char id=49496 x=438 y=578 width=42 height=47 xoffset=2 yoffset=6 xadvance=40 page=0 chnl=0
char id=53080 x=133 y=1168 width=46 height=46 xoffset=1 yoffset=6 xadvance=40 page=0 chnl=0
char id=49660 x=53 y=1 width=46 height=39 xoffset=1 yoffset=7 xadvance=40 page=0 chnl=0
char id=52712 x=653 y=41 width=41 height=48 xoffset=1 yoffset=5 xadvance=40 page=0 chnl=0
char id=54744 x=438 y=530 width=40 height=47 xoffset=2 yoffset=6 xadvance=40 page=0 chnl=0
char id=51082 x=610 y=41 width=42 height=48 xoffset=3 yoffset=5 xadvance=40 page=0 chnl=0
char id=44040 x=564 y=41 width=45 height=48 xoffset=2 yoffset=5 xadvance=40 page=0 chnl=0
char id=54148 x=521 y=41 width=42 height=48 xoffset=2 yoffset=5 xadvance=40 page=0 chnl=0
char id=49437 x=479 y=41 width=41 height=48 xoffset=2 yoffset=5 xadvance=40 page=0 chnl=0
char id=50544 x=438 y=482 width=43 height=47 xoffset=2 yoffset=6 xadvance=40 page=0 chnl=0
char id=47680 x=439 y=41 width=39 height=48 xoffset=4 yoffset=5 xadvance=40 page=0 chnl=0
char id=48391 x=392 y=41 width=46 height=48 xoffset=1 yoffset=5 xadvance=40 page=0 chnl=0
char id=54861 x=345 y=41 width=46 height=48 xoffset=1 yoffset=6 xadvance=40 page=0 chnl=0
char id=48731 x=303 y=41 width=41 height=48 xoffset=4 yoffset=6 xadvance=40 page=0 chnl=0
char id=45076 x=260 y=41 width=42 height=48 xoffset=2 yoffset=5 xadvance=40 page=0 chnl=0
char id=47092 x=220 y=41 width=39 height=48 xoffset=4 yoffset=5 xadvance=40 page=0 chnl=0
char id=44191 x=176 y=41 width=43 height=48 xoffset=2 yoffset=5 xadvance=40 page=0 chnl=0
char id=47492 x=1167 y=433 width=46 height=47 xoffset=1 yoffset=6 xadvance=40 page=0 chnl=0
char id=49500 x=134 y=41 width=41 height=48 xoffset=2 yoffset=5 xadvance=40 page=0 chnl=0
char id=45132 x=1120 y=433 width=46 height=47 xoffset=1 yoffset=6 xadvance=40 page=0 chnl=0
char id=54413 x=1073 y=433 width=46 height=47 xoffset=1 yoffset=6 xadvance=40 page=0 chnl=0
char id=53416 x=1032 y=433 width=40 height=47 xoffset=3 yoffset=6 xadvance=40 page=0 chnl=0
char id=48420 x=1 y=142 width=46 height=49 xoffset=1 yoffset=5 xadvance=40 page=0 chnl=0
char id=44428 x=989 y=433 width=42 height=47 xoffset=2 yoffset=6 xadvance=40 page=0 chnl=0
char id=50912 x=1 y=92 width=45 height=49 xoffset=2 yoffset=5 xadvance=40 page=0 chnl=0
char id=45068 x=92 y=41 width=41 height=48 xoffset=1 yoffset=5 xadvance=40 page=0 chnl=0
char id=50725 x=942 y=433 width=46 height=47 xoffset=1 yoffset=6 xadvance=40 page=0 chnl=0
char id=50024 x=48 y=41 width=43 height=48 xoffset=0 yoffset=5 xadvance=40 page=0 chnl=0
char id=47536 x=307 y=676 width=39 height=47 xoffset=4 yoffset=6 xadvance=40 page=0 chnl=0
char id=54004 x=307 y=628 width=39 height=47 xoffset=5 yoffset=6 xadvance=40 page=0 chnl=0
char id=44160 x=307 y=580 width=39 height=47 xoffset=3 yoffset=6 xadvance=40 page=0 chnl=0
char id=46989 x=898 y=433 width=43 height=47 xoffset=4 yoffset=6 xadvance=40 page=0 chnl=0
char id=50526 x=853 y=433 width=44 height=47 xoffset=3 yoffset=6 xadvance=40 page=0 chnl=0
char id=55192 x=812 y=433 width=40 height=47 xoffset=2 yoffset=6 xadvance=40 page=0 chnl=0
char id=44220 x=1 y=1134 width=44 height=48 xoffset=3 yoffset=6 xadvance=40 page=0 chnl=0
char id=47551 x=1 y=1085 width=40 height=48 xoffset=4 yoffset=5 xadvance=40 page=0 chnl=0
char id=47704 x=769 y=433 width=42 height=47 xoffset=3 yoffset=6 xadvance=40 page=0 chnl=0
char id=46168 x=722 y=433 width=46 height=47 xoffset=1 yoffset=6 xadvance=40 page=0 chnl=0
char id=53804 x=675 y=433 width=46 height=47 xoffset=1 yoffset=6 xadvance=40 page=0 chnl=0
char id=45789 x=1 y=1036 width=37 height=48 xoffset=5 yoffset=5 xadvance=40 page=0 chnl=0
char id=49836 x=1 y=987 width=46 height=48 xoffset=1 yoffset=5 xadvance=40 page=0 chnl=0
char id=51229 x=1 y=938 width=43 height=48 xoffset=2 yoffset=5 xadvance=40 page=0 chnl=0
char id=45084 x=1 y=889 width=41 height=48 xoffset=2 yoffset=5 xadvance=40 page=0 chnl=0
char id=44145 x=1 y=840 width=39 height=48 xoffset=3 yoffset=5 xadvance=40 page=0 chnl=0
char id=48725 x=180 y=580 width=38 height=47 xoffset=4 yoffset=6 xadvance=40 page=0 chnl=0
char id=46432 x=1 y=791 width=45 height=48 xoffset=2 yoffset=6 xadvance=40 page=0 chnl=0
char id=44417 x=628 y=433 width=46 height=47 xoffset=1 yoffset=6 xadvance=40 page=0 chnl=0
char id=45285 x=1 y=742 width=43 height=48 xoffset=5 yoffset=5 xadvance=40 page=0 chnl=0
char id=8212 x=1 y=1183 width=44 height=11 xoffset=0 yoffset=24 xadvance=37 page=0 chnl=0
kernings count=61
kerning first=84 second=119 amount=-1
kerning first=89 second=103 amount=-1
kerning first=76 second=86 amount=-1
kerning first=86 second=111 amount=-1
kerning first=65 second=118 amount=-1
kerning first=89 second=74 amount=-1
kerning first=65 second=84 amount=-1
kerning first=80 second=65 amount=-1
kerning first=84 second=122 amount=-1
kerning first=86 second=114 amount=-1
kerning first=86 second=117 amount=-1
kerning first=89 second=115 amount=-1
kerning first=86 second=97 amount=-1
kerning first=87 second=100 amount=-1
kerning first=89 second=67 amount=-1
kerning first=86 second=100 amount=-1
kerning first=89 second=101 amount=-2
kerning first=84 second=111 amount=-1
kerning first=86 second=103 amount=-1
kerning first=84 second=114 amount=-2
kerning first=80 second=74 amount=-1
kerning first=84 second=99 amount=-1
kerning first=84 second=117 amount=-2
kerning first=89 second=97 amount=-1
kerning first=65 second=119 amount=-1
kerning first=84 second=120 amount=-1
kerning first=84 second=65 amount=-2
kerning first=65 second=86 amount=-1
kerning first=89 second=113 amount=-1
kerning first=84 second=100 amount=-1
kerning first=86 second=99 amount=-1
kerning first=84 second=103 amount=-2
kerning first=84 second=79 amount=-1
kerning first=89 second=122 amount=-1
kerning first=84 second=81 amount=-1
kerning first=84 second=109 amount=-1
kerning first=89 second=71 amount=-1
kerning first=70 second=65 amount=-1
kerning first=76 second=89 amount=-1
kerning first=86 second=65 amount=-2
kerning first=65 second=87 amount=-1
kerning first=84 second=112 amount=-1
kerning first=84 second=115 amount=-1
kerning first=84 second=118 amount=-1
kerning first=87 second=65 amount=-1
kerning first=89 second=111 amount=-2
kerning first=84 second=121 amount=-1
kerning first=89 second=99 amount=-1
kerning first=84 second=67 amount=-1
kerning first=89 second=114 amount=-1
kerning first=89 second=117 amount=-1
kerning first=84 second=101 amount=-1
kerning first=89 second=65 amount=-2
kerning first=89 second=100 amount=-2
kerning first=89 second=79 amount=-1
kerning first=80 second=103 amount=-1
kerning first=65 second=89 amount=-2
kerning first=84 second=110 amount=-1
kerning first=84 second=113 amount=-2
kerning first=84 second=97 amount=-1
kerning first=89 second=81 amount=-1
