info face="Hiragino Maru Gothic ProN" size=43 bold=0 italic=0 charset="" unicode=0 stretchH=100 smooth=1 aa=1 padding=0,0,0,0 spacing=0,0
common lineHeight=50 base=41 scaleW=1472 scaleH=1440 pages=1 packed=0
page id=0 file="ChalkboardSE-Subtitle-ja.png"
chars count=955
char id=32 x=20 y=695 width=0 height=0 xoffset=-1 yoffset=33 xadvance=15 page=0 chnl=0
char id=33 x=20 y=607 width=14 height=42 xoffset=2 yoffset=-1 xadvance=14 page=0 chnl=0
char id=34 x=821 y=1412 width=20 height=20 xoffset=1 yoffset=-1 xadvance=17 page=0 chnl=0
char id=35 x=72 y=1168 width=33 height=42 xoffset=0 yoffset=-1 xadvance=29 page=0 chnl=0
char id=36 x=1 y=410 width=32 height=49 xoffset=0 yoffset=-4 xadvance=28 page=0 chnl=0
char id=37 x=1169 y=1210 width=42 height=43 xoffset=0 yoffset=-2 xadvance=39 page=0 chnl=0
char id=38 x=72 y=522 width=37 height=43 xoffset=0 yoffset=-1 xadvance=34 page=0 chnl=0
char id=39 x=97 y=1378 width=13 height=20 xoffset=2 yoffset=-1 xadvance=13 page=0 chnl=0
char id=40 x=1 y=360 width=18 height=49 xoffset=2 yoffset=-1 xadvance=17 page=0 chnl=0
char id=41 x=1 y=310 width=18 height=49 xoffset=1 yoffset=-1 xadvance=17 page=0 chnl=0
char id=42 x=797 y=1412 width=23 height=25 xoffset=0 yoffset=-1 xadvance=18 page=0 chnl=0
char id=43 x=1318 y=1249 width=33 height=33 xoffset=0 yoffset=8 xadvance=30 page=0 chnl=0
char id=44 x=913 y=1418 width=14 height=19 xoffset=2 yoffset=28 xadvance=14 page=0 chnl=0
char id=45 x=334 y=1 width=23 height=12 xoffset=1 yoffset=18 xadvance=20 page=0 chnl=0
char id=46 x=1124 y=1421 width=14 height=14 xoffset=2 yoffset=27 xadvance=14 page=0 chnl=0
char id=47 x=1 y=260 width=26 height=49 xoffset=0 yoffset=-1 xadvance=21 page=0 chnl=0
char id=48 x=1 y=1323 width=33 height=43 xoffset=0 yoffset=-2 xadvance=29 page=0 chnl=0
char id=49 x=72 y=1125 width=19 height=42 xoffset=4 yoffset=-1 xadvance=29 page=0 chnl=0
char id=50 x=72 y=1082 width=32 height=42 xoffset=1 yoffset=-1 xadvance=29 page=0 chnl=0
char id=51 x=1 y=1279 width=32 height=43 xoffset=0 yoffset=-1 xadvance=29 page=0 chnl=0
char id=52 x=72 y=1039 width=34 height=42 xoffset=0 yoffset=-1 xadvance=29 page=0 chnl=0
char id=53 x=72 y=996 width=31 height=42 xoffset=1 yoffset=0 xadvance=29 page=0 chnl=0
char id=54 x=1 y=1235 width=32 height=43 xoffset=1 yoffset=-2 xadvance=29 page=0 chnl=0
char id=55 x=72 y=953 width=32 height=42 xoffset=0 yoffset=-1 xadvance=29 page=0 chnl=0
char id=56 x=1 y=1191 width=33 height=43 xoffset=0 yoffset=-1 xadvance=29 page=0 chnl=0
char id=57 x=1 y=1147 width=32 height=43 xoffset=0 yoffset=-2 xadvance=29 page=0 chnl=0
char id=58 x=92 y=1125 width=14 height=32 xoffset=2 yoffset=9 xadvance=14 page=0 chnl=0
char id=59 x=20 y=656 width=14 height=38 xoffset=2 yoffset=9 xadvance=14 page=0 chnl=0
char id=60 x=1289 y=1283 width=28 height=32 xoffset=0 yoffset=9 xadvance=24 page=0 chnl=0
char id=61 x=1 y=1410 width=33 height=20 xoffset=1 yoffset=15 xadvance=30 page=0 chnl=0
char id=62 x=1439 y=1249 width=28 height=32 xoffset=0 yoffset=9 xadvance=24 page=0 chnl=0
char id=63 x=1 y=1103 width=30 height=43 xoffset=0 yoffset=-2 xadvance=26 page=0 chnl=0
char id=64 x=1169 y=1166 width=43 height=43 xoffset=1 yoffset=-1 xadvance=40 page=0 chnl=0
char id=65 x=72 y=910 width=38 height=42 xoffset=0 yoffset=-1 xadvance=34 page=0 chnl=0
char id=66 x=72 y=867 width=33 height=42 xoffset=2 yoffset=-1 xadvance=32 page=0 chnl=0
char id=67 x=35 y=382 width=36 height=43 xoffset=1 yoffset=-1 xadvance=33 page=0 chnl=0
char id=68 x=72 y=824 width=35 height=42 xoffset=2 yoffset=-1 xadvance=34 page=0 chnl=0
char id=69 x=72 y=781 width=31 height=42 xoffset=2 yoffset=-1 xadvance=29 page=0 chnl=0
char id=70 x=72 y=738 width=31 height=42 xoffset=2 yoffset=-1 xadvance=29 page=0 chnl=0
char id=71 x=35 y=338 width=36 height=43 xoffset=1 yoffset=-2 xadvance=34 page=0 chnl=0
char id=72 x=72 y=695 width=35 height=42 xoffset=2 yoffset=-1 xadvance=35 page=0 chnl=0
char id=73 x=22 y=509 width=12 height=42 xoffset=2 yoffset=-1 xadvance=13 page=0 chnl=0
char id=74 x=72 y=652 width=27 height=42 xoffset=-1 yoffset=-1 xadvance=23 page=0 chnl=0
char id=75 x=72 y=609 width=33 height=42 xoffset=2 yoffset=-1 xadvance=31 page=0 chnl=0
char id=76 x=1436 y=14 width=31 height=42 xoffset=2 yoffset=-1 xadvance=28 page=0 chnl=0
char id=77 x=1256 y=1166 width=42 height=42 xoffset=2 yoffset=-1 xadvance=42 page=0 chnl=0
char id=78 x=35 y=1372 width=34 height=42 xoffset=2 yoffset=-1 xadvance=34 page=0 chnl=0
char id=79 x=72 y=478 width=38 height=43 xoffset=1 yoffset=-1 xadvance=36 page=0 chnl=0
char id=80 x=35 y=1329 width=33 height=42 xoffset=2 yoffset=-1 xadvance=31 page=0 chnl=0
char id=81 x=72 y=208 width=38 height=45 xoffset=1 yoffset=-2 xadvance=36 page=0 chnl=0
char id=82 x=35 y=1286 width=34 height=42 xoffset=2 yoffset=-1 xadvance=32 page=0 chnl=0
char id=83 x=1 y=1059 width=33 height=43 xoffset=0 yoffset=-1 xadvance=30 page=0 chnl=0
char id=84 x=35 y=1243 width=35 height=42 xoffset=0 yoffset=-1 xadvance=30 page=0 chnl=0
char id=85 x=35 y=294 width=34 height=43 xoffset=2 yoffset=-1 xadvance=34 page=0 chnl=0
char id=86 x=35 y=1200 width=36 height=42 xoffset=0 yoffset=-1 xadvance=32 page=0 chnl=0
char id=87 x=161 y=1394 width=49 height=42 xoffset=0 yoffset=-1 xadvance=45 page=0 chnl=0
char id=88 x=35 y=1157 width=36 height=42 xoffset=0 yoffset=-1 xadvance=32 page=0 chnl=0
char id=89 x=35 y=1114 width=35 height=42 xoffset=0 yoffset=-1 xadvance=31 page=0 chnl=0
char id=90 x=35 y=1071 width=34 height=42 xoffset=0 yoffset=-1 xadvance=30 page=0 chnl=0
char id=91 x=1 y=656 width=18 height=48 xoffset=3 yoffset=-1 xadvance=17 page=0 chnl=0
char id=92 x=1 y=210 width=26 height=49 xoffset=0 yoffset=-1 xadvance=21 page=0 chnl=0
char id=93 x=1 y=607 width=18 height=48 xoffset=1 yoffset=-1 xadvance=17 page=0 chnl=0
char id=94 x=749 y=1409 width=30 height=25 xoffset=0 yoffset=-1 xadvance=25 page=0 chnl=0
char id=95 x=303 y=1 width=30 height=10 xoffset=-1 yoffset=37 xadvance=22 page=0 chnl=0
char id=96 x=702 y=1420 width=17 height=16 xoffset=3 yoffset=-2 xadvance=22 page=0 chnl=0
char id=97 x=1289 y=1249 width=28 height=33 xoffset=0 yoffset=8 xadvance=26 page=0 chnl=0
char id=98 x=35 y=1028 width=30 height=42 xoffset=2 yoffset=-1 xadvance=28 page=0 chnl=0
char id=99 x=1253 y=1387 width=28 height=33 xoffset=0 yoffset=9 xadvance=25 page=0 chnl=0
char id=100 x=35 y=985 width=30 height=42 xoffset=0 yoffset=-1 xadvance=28 page=0 chnl=0
char id=101 x=1253 y=1353 width=29 height=33 xoffset=0 yoffset=8 xadvance=26 page=0 chnl=0
char id=102 x=35 y=942 width=25 height=42 xoffset=0 yoffset=-1 xadvance=18 page=0 chnl=0
char id=103 x=35 y=899 width=30 height=42 xoffset=0 yoffset=9 xadvance=28 page=0 chnl=0
char id=104 x=35 y=856 width=28 height=42 xoffset=2 yoffset=-1 xadvance=27 page=0 chnl=0
char id=105 x=20 y=360 width=14 height=42 xoffset=1 yoffset=-1 xadvance=11 page=0 chnl=0
char id=106 x=1 y=55 width=21 height=52 xoffset=-4 yoffset=-1 xadvance=13 page=0 chnl=0
char id=107 x=35 y=813 width=27 height=42 xoffset=2 yoffset=-1 xadvance=24 page=0 chnl=0
char id=108 x=22 y=159 width=12 height=42 xoffset=2 yoffset=-1 xadvance=11 page=0 chnl=0
char id=109 x=1294 y=1209 width=40 height=33 xoffset=2 yoffset=8 xadvance=39 page=0 chnl=0
char id=110 x=1253 y=1319 width=28 height=33 xoffset=2 yoffset=8 xadvance=27 page=0 chnl=0
char id=111 x=1253 y=1285 width=30 height=33 xoffset=0 yoffset=9 xadvance=27 page=0 chnl=0
char id=112 x=35 y=770 width=30 height=42 xoffset=2 yoffset=8 xadvance=28 page=0 chnl=0
char id=113 x=35 y=727 width=30 height=42 xoffset=0 yoffset=8 xadvance=28 page=0 chnl=0
char id=114 x=1447 y=938 width=22 height=33 xoffset=2 yoffset=8 xadvance=20 page=0 chnl=0
char id=115 x=1442 y=890 width=28 height=33 xoffset=0 yoffset=9 xadvance=24 page=0 chnl=0
char id=116 x=72 y=1378 width=24 height=39 xoffset=0 yoffset=2 xadvance=18 page=0 chnl=0
char id=117 x=1437 y=553 width=28 height=33 xoffset=1 yoffset=8 xadvance=27 page=0 chnl=0
char id=118 x=1409 y=1249 width=29 height=32 xoffset=0 yoffset=9 xadvance=25 page=0 chnl=0
char id=119 x=988 y=1402 width=40 height=32 xoffset=0 yoffset=9 xadvance=36 page=0 chnl=0
char id=120 x=1380 y=1249 width=28 height=32 xoffset=0 yoffset=9 xadvance=24 page=0 chnl=0
char id=121 x=35 y=684 width=30 height=42 xoffset=-1 yoffset=9 xadvance=25 page=0 chnl=0
char id=122 x=1352 y=1249 width=27 height=32 xoffset=0 yoffset=9 xadvance=23 page=0 chnl=0
char id=123 x=1 y=558 width=20 height=48 xoffset=1 yoffset=-1 xadvance=18 page=0 chnl=0
char id=124 x=23 y=55 width=11 height=50 xoffset=5 yoffset=0 xadvance=17 page=0 chnl=0
char id=125 x=1 y=509 width=20 height=48 xoffset=1 yoffset=-1 xadvance=18 page=0 chnl=0
char id=126 x=35 y=1415 width=32 height=15 xoffset=0 yoffset=17 xadvance=29 page=0 chnl=0
char id=8230 x=311 y=1420 width=43 height=14 xoffset=3 yoffset=13 xadvance=44 page=0 chnl=0
char id=8216 x=780 y=1409 width=14 height=19 xoffset=2 yoffset=-1 xadvance=14 page=0 chnl=0
char id=8217 x=95 y=1418 width=14 height=19 xoffset=2 yoffset=-1 xadvance=14 page=0 chnl=0
char id=8220 x=409 y=1416 width=22 height=19 xoffset=1 yoffset=-1 xadvance=19 page=0 chnl=0
char id=8221 x=72 y=1418 width=22 height=19 xoffset=0 yoffset=-1 xadvance=19 page=0 chnl=0
char id=12290 x=432 y=1416 width=21 height=21 xoffset=1 yoffset=23 xadvance=44 page=0 chnl=0
char id=65509 x=35 y=641 width=34 height=42 xoffset=7 yoffset=-1 xadvance=44 page=0 chnl=0
char id=165 x=35 y=598 width=34 height=42 xoffset=0 yoffset=-1 xadvance=30 page=0 chnl=0
char id=304 x=22 y=108 width=12 height=46 xoffset=2 yoffset=3 xadvance=13 page=0 chnl=0
char id=305 x=22 y=558 width=12 height=32 xoffset=2 yoffset=9 xadvance=11 page=0 chnl=0
char id=214 x=72 y=63 width=38 height=50 xoffset=1 yoffset=-8 xadvance=36 page=0 chnl=0
char id=246 x=72 y=1295 width=30 height=41 xoffset=0 yoffset=1 xadvance=27 page=0 chnl=0
char id=220 x=35 y=55 width=34 height=50 xoffset=2 yoffset=-8 xadvance=34 page=0 chnl=0
char id=252 x=72 y=1253 width=28 height=41 xoffset=1 yoffset=0 xadvance=27 page=0 chnl=0
char id=199 x=35 y=1 width=36 height=53 xoffset=1 yoffset=-2 xadvance=33 page=0 chnl=0
char id=231 x=1 y=1015 width=28 height=43 xoffset=0 yoffset=8 xadvance=25 page=0 chnl=0
char id=286 x=35 y=106 width=36 height=47 xoffset=1 yoffset=2 xadvance=34 page=0 chnl=0
char id=287 x=1 y=460 width=28 height=48 xoffset=0 yoffset=10 xadvance=25 page=0 chnl=0
char id=350 x=1 y=1 width=33 height=53 xoffset=0 yoffset=-2 xadvance=30 page=0 chnl=0
char id=351 x=1 y=971 width=28 height=43 xoffset=0 yoffset=8 xadvance=24 page=0 chnl=0
char id=8356 x=72 y=1337 width=30 height=40 xoffset=0 yoffset=9 xadvance=25 page=0 chnl=0
char id=12500 x=988 y=1079 width=42 height=46 xoffset=6 yoffset=-5 xadvance=44 page=0 chnl=0
char id=12483 x=1253 y=1249 width=35 height=35 xoffset=6 yoffset=7 xadvance=44 page=0 chnl=0
char id=12484 x=1213 y=1166 width=42 height=42 xoffset=3 yoffset=0 xadvance=44 page=0 chnl=0
char id=12455 x=1213 y=1398 width=38 height=31 xoffset=5 yoffset=9 xadvance=44 page=0 chnl=0
char id=12522 x=1 y=927 width=33 height=43 xoffset=7 yoffset=-1 xadvance=44 page=0 chnl=0
char id=12450 x=1427 y=1122 width=43 height=42 xoffset=3 yoffset=0 xadvance=44 page=0 chnl=0
char id=12395 x=1124 y=1288 width=42 height=44 xoffset=4 yoffset=-2 xadvance=44 page=0 chnl=0
char id=12399 x=1124 y=1243 width=43 height=44 xoffset=3 yoffset=-2 xadvance=44 page=0 chnl=0
char id=12289 x=893 y=1418 width=19 height=19 xoffset=1 yoffset=25 xadvance=44 page=0 chnl=0
char id=12470 x=261 y=753 width=49 height=47 xoffset=0 yoffset=-4 xadvance=44 page=0 chnl=0
char id=12392 x=72 y=389 width=38 height=44 xoffset=5 yoffset=-3 xadvance=44 page=0 chnl=0
char id=12356 x=1383 y=1122 width=43 height=40 xoffset=3 yoffset=0 xadvance=44 page=0 chnl=0
char id=12358 x=72 y=162 width=38 height=45 xoffset=4 yoffset=-2 xadvance=44 page=0 chnl=0
char id=35328 x=1421 y=843 width=47 height=46 xoffset=1 yoffset=-3 xadvance=44 page=0 chnl=0
char id=33865 x=261 y=703 width=48 height=49 xoffset=0 yoffset=-4 xadvance=44 page=0 chnl=0
char id=12364 x=261 y=655 width=49 height=47 xoffset=1 yoffset=-5 xadvance=44 page=0 chnl=0
char id=20837 x=1373 y=843 width=47 height=44 xoffset=0 yoffset=-1 xadvance=44 page=0 chnl=0
char id=12387 x=1371 y=1209 width=37 height=31 xoffset=5 yoffset=10 xadvance=44 page=0 chnl=0
char id=12390 x=1124 y=1201 width=44 height=41 xoffset=2 yoffset=0 xadvance=44 page=0 chnl=0
char id=12414 x=1078 y=1307 width=42 height=45 xoffset=4 yoffset=-3 xadvance=44 page=0 chnl=0
char id=12379 x=1325 y=843 width=47 height=43 xoffset=0 yoffset=-2 xadvance=44 page=0 chnl=0
char id=12435 x=1354 y=1032 width=45 height=44 xoffset=2 yoffset=-2 xadvance=44 page=0 chnl=0
char id=12394 x=1172 y=985 width=45 height=46 xoffset=2 yoffset=-3 xadvance=44 page=0 chnl=0
char id=12380 x=735 y=14 width=50 height=46 xoffset=0 yoffset=-5 xadvance=44 page=0 chnl=0
char id=12384 x=1277 y=843 width=47 height=46 xoffset=2 yoffset=-4 xadvance=44 page=0 chnl=0
char id=12363 x=1125 y=985 width=46 height=44 xoffset=1 yoffset=-2 xadvance=44 page=0 chnl=0
char id=12431 x=1078 y=985 width=46 height=46 xoffset=1 yoffset=-3 xadvance=44 page=0 chnl=0
char id=12426 x=35 y=201 width=35 height=46 xoffset=7 yoffset=-3 xadvance=44 page=0 chnl=0
char id=12377 x=1032 y=985 width=45 height=46 xoffset=1 yoffset=-3 xadvance=44 page=0 chnl=0
char id=65311 x=1 y=883 width=30 height=43 xoffset=9 yoffset=-2 xadvance=44 page=0 chnl=0
char id=12381 x=1308 y=1032 width=45 height=43 xoffset=1 yoffset=-1 xadvance=44 page=0 chnl=0
char id=12398 x=1124 y=1159 width=44 height=41 xoffset=2 yoffset=0 xadvance=44 page=0 chnl=0
char id=31572 x=996 y=650 width=48 height=47 xoffset=0 yoffset=-4 xadvance=44 page=0 chnl=0
char id=12360 x=1262 y=1032 width=45 height=44 xoffset=3 yoffset=-2 xadvance=44 page=0 chnl=0
char id=39514 x=261 y=605 width=48 height=49 xoffset=0 yoffset=-5 xadvance=44 page=0 chnl=0
char id=12365 x=1078 y=1261 width=41 height=45 xoffset=4 yoffset=-3 xadvance=44 page=0 chnl=0
char id=31192 x=261 y=556 width=49 height=48 xoffset=0 yoffset=-4 xadvance=44 page=0 chnl=0
char id=23494 x=1126 y=890 width=46 height=47 xoffset=0 yoffset=-4 xadvance=44 page=0 chnl=0
char id=38560 x=1090 y=698 width=47 height=48 xoffset=2 yoffset=-4 xadvance=44 page=0 chnl=0
char id=12373 x=1078 y=1215 width=40 height=45 xoffset=3 yoffset=-3 xadvance=44 page=0 chnl=0
char id=12428 x=947 y=650 width=48 height=46 xoffset=0 yoffset=-3 xadvance=44 page=0 chnl=0
char id=12427 x=1340 y=1122 width=42 height=43 xoffset=3 yoffset=-1 xadvance=44 page=0 chnl=0
char id=12418 x=1078 y=1169 width=42 height=45 xoffset=3 yoffset=-3 xadvance=44 page=0 chnl=0
char id=12375 x=72 y=344 width=38 height=44 xoffset=8 yoffset=-2 xadvance=44 page=0 chnl=0
char id=27425 x=1041 y=698 width=48 height=48 xoffset=0 yoffset=-4 xadvance=44 page=0 chnl=0
char id=12491 x=1124 y=1122 width=44 height=36 xoffset=2 yoffset=2 xadvance=44 page=0 chnl=0
char id=12517 x=1213 y=1366 width=38 height=31 xoffset=5 yoffset=9 xadvance=44 page=0 chnl=0
char id=12540 x=219 y=1 width=44 height=12 xoffset=2 yoffset=14 xadvance=44 page=0 chnl=0
char id=12473 x=1422 y=1077 width=44 height=40 xoffset=2 yoffset=1 xadvance=44 page=0 chnl=0
char id=65306 x=55 y=512 width=14 height=32 xoffset=17 yoffset=4 xadvance=44 page=0 chnl=0
char id=12501 x=1382 y=1166 width=41 height=40 xoffset=4 yoffset=1 xadvance=44 page=0 chnl=0
char id=12449 x=1409 y=1209 width=36 height=35 xoffset=6 yoffset=8 xadvance=44 page=0 chnl=0
char id=12452 x=1380 y=1077 width=41 height=44 xoffset=2 yoffset=-2 xadvance=44 page=0 chnl=0
char id=12502 x=261 y=507 width=49 height=48 xoffset=1 yoffset=-5 xadvance=44 page=0 chnl=0
char id=12488 x=35 y=248 width=34 height=45 xoffset=10 yoffset=-2 xadvance=44 page=0 chnl=0
char id=12531 x=1169 y=1383 width=42 height=40 xoffset=4 yoffset=1 xadvance=44 page=0 chnl=0
char id=12464 x=992 y=698 width=48 height=48 xoffset=2 yoffset=-5 xadvance=44 page=0 chnl=0
char id=12479 x=988 y=1032 width=41 height=46 xoffset=3 yoffset=-3 xadvance=44 page=0 chnl=0
char id=38283 x=1080 y=890 width=45 height=47 xoffset=2 yoffset=-3 xadvance=44 page=0 chnl=0
char id=20652 x=943 y=698 width=48 height=48 xoffset=0 yoffset=-4 xadvance=44 page=0 chnl=0
char id=12354 x=988 y=985 width=43 height=46 xoffset=3 yoffset=-3 xadvance=44 page=0 chnl=0
char id=24859 x=261 y=457 width=47 height=49 xoffset=1 yoffset=-5 xadvance=44 page=0 chnl=0
char id=22909 x=898 y=650 width=48 height=47 xoffset=0 yoffset=-3 xadvance=44 page=0 chnl=0
char id=23478 x=895 y=698 width=47 height=48 xoffset=0 yoffset=-4 xadvance=44 page=0 chnl=0
char id=36948 x=261 y=409 width=49 height=47 xoffset=0 yoffset=-4 xadvance=44 page=0 chnl=0
char id=32963 x=1037 y=890 width=42 height=47 xoffset=3 yoffset=-3 xadvance=44 page=0 chnl=0
char id=34955 x=1411 y=210 width=49 height=48 xoffset=0 yoffset=-4 xadvance=44 page=0 chnl=0
char id=12434 x=1402 y=938 width=44 height=46 xoffset=2 yoffset=-3 xadvance=44 page=0 chnl=0
char id=37723 x=1361 y=210 width=49 height=47 xoffset=0 yoffset=-3 xadvance=44 page=0 chnl=0
char id=12391 x=1355 y=938 width=46 height=41 xoffset=2 yoffset=0 xadvance=44 page=0 chnl=0
char id=32118 x=846 y=698 width=48 height=48 xoffset=0 yoffset=-4 xadvance=44 page=0 chnl=0
char id=21697 x=1308 y=938 width=46 height=45 xoffset=1 yoffset=-2 xadvance=44 page=0 chnl=0
char id=21619 x=797 y=698 width=48 height=48 xoffset=1 yoffset=-4 xadvance=44 page=0 chnl=0
char id=21521 x=702 y=747 width=44 height=48 xoffset=2 yoffset=-4 xadvance=44 page=0 chnl=0
char id=12369 x=988 y=1356 width=42 height=45 xoffset=4 yoffset=-2 xadvance=44 page=0 chnl=0
char id=20633 x=1311 y=210 width=49 height=48 xoffset=0 yoffset=-4 xadvance=44 page=0 chnl=0
char id=12423 x=1435 y=259 width=35 height=38 xoffset=7 yoffset=5 xadvance=44 page=0 chnl=0
char id=26368 x=849 y=650 width=48 height=47 xoffset=0 yoffset=-3 xadvance=44 page=0 chnl=0
char id=24460 x=1261 y=210 width=49 height=48 xoffset=0 yoffset=-4 xadvance=44 page=0 chnl=0
char id=12362 x=1078 y=1123 width=45 height=45 xoffset=2 yoffset=-3 xadvance=44 page=0 chnl=0
char id=30693 x=1261 y=938 width=46 height=46 xoffset=0 yoffset=-4 xadvance=44 page=0 chnl=0
char id=12425 x=1340 y=1077 width=39 height=44 xoffset=5 yoffset=-2 xadvance=44 page=0 chnl=0
char id=23436 x=749 y=698 width=47 height=48 xoffset=1 yoffset=-4 xadvance=44 page=0 chnl=0
char id=29863 x=800 y=650 width=48 height=47 xoffset=0 yoffset=-4 xadvance=44 page=0 chnl=0
char id=35413 x=751 y=650 width=48 height=47 xoffset=0 yoffset=-3 xadvance=44 page=0 chnl=0
char id=21028 x=702 y=698 width=46 height=48 xoffset=0 yoffset=-4 xadvance=44 page=0 chnl=0
char id=12372 x=1296 y=1122 width=43 height=40 xoffset=4 yoffset=1 xadvance=44 page=0 chnl=0
char id=12383 x=1078 y=1077 width=45 height=45 xoffset=2 yoffset=-3 xadvance=44 page=0 chnl=0
char id=36820 x=1211 y=210 width=49 height=46 xoffset=0 yoffset=-3 xadvance=44 page=0 chnl=0
char id=12459 x=1298 y=1077 width=41 height=44 xoffset=3 yoffset=-2 xadvance=44 page=0 chnl=0
char id=12486 x=1216 y=1032 width=45 height=42 xoffset=2 yoffset=0 xadvance=44 page=0 chnl=0
char id=24215 x=702 y=650 width=48 height=47 xoffset=0 yoffset=-4 xadvance=44 page=0 chnl=0
char id=21213 x=1161 y=210 width=49 height=48 xoffset=0 yoffset=-4 xadvance=44 page=0 chnl=0
char id=36000 x=261 y=359 width=46 height=49 xoffset=1 yoffset=-5 xadvance=44 page=0 chnl=0
char id=34892 x=653 y=1379 width=47 height=48 xoffset=0 yoffset=-4 xadvance=44 page=0 chnl=0
char id=26041 x=989 y=890 width=47 height=47 xoffset=0 yoffset=-4 xadvance=44 page=0 chnl=0
char id=35211 x=941 y=890 width=47 height=47 xoffset=0 yoffset=-3 xadvance=44 page=0 chnl=0
char id=23432 x=653 y=1330 width=46 height=48 xoffset=1 yoffset=-4 xadvance=44 page=0 chnl=0
char id=12397 x=653 y=1283 width=48 height=46 xoffset=0 yoffset=-3 xadvance=44 page=0 chnl=0
char id=20104 x=1229 y=843 width=47 height=46 xoffset=1 yoffset=-3 xadvance=44 page=0 chnl=0
char id=23450 x=893 y=1370 width=46 height=47 xoffset=1 yoffset=-3 xadvance=44 page=0 chnl=0
char id=12461 x=988 y=1310 width=43 height=45 xoffset=2 yoffset=-2 xadvance=44 page=0 chnl=0
char id=12515 x=1213 y=1327 width=37 height=38 xoffset=5 yoffset=5 xadvance=44 page=0 chnl=0
char id=12475 x=1253 y=1077 width=44 height=43 xoffset=1 yoffset=-2 xadvance=44 page=0 chnl=0
char id=12523 x=1214 y=938 width=46 height=43 xoffset=1 yoffset=-1 xadvance=44 page=0 chnl=0
char id=26085 x=1213 y=1077 width=39 height=44 xoffset=5 yoffset=-2 xadvance=44 page=0 chnl=0
char id=26332 x=1181 y=843 width=47 height=46 xoffset=1 yoffset=-3 xadvance=44 page=0 chnl=0
char id=12495 x=1170 y=1032 width=45 height=40 xoffset=1 yoffset=0 xadvance=44 page=0 chnl=0
char id=12539 x=720 y=1420 width=16 height=16 xoffset=16 yoffset=12 xadvance=44 page=0 chnl=0
char id=12487 x=1111 y=210 width=49 height=48 xoffset=1 yoffset=-5 xadvance=44 page=0 chnl=0
char id=12506 x=941 y=1395 width=46 height=38 xoffset=1 yoffset=0 xadvance=44 page=0 chnl=0
char id=12497 x=1133 y=843 width=47 height=44 xoffset=1 yoffset=-4 xadvance=44 page=0 chnl=0
char id=12525 x=1253 y=1209 width=40 height=39 xoffset=4 yoffset=1 xadvance=44 page=0 chnl=0
char id=12481 x=1124 y=1032 width=45 height=44 xoffset=2 yoffset=-1 xadvance=44 page=0 chnl=0
char id=12474 x=653 y=1235 width=48 height=47 xoffset=1 yoffset=-5 xadvance=44 page=0 chnl=0
char id=12477 x=1169 y=1340 width=40 height=42 xoffset=4 yoffset=0 xadvance=44 page=0 chnl=0
char id=12472 x=893 y=1322 width=46 height=47 xoffset=3 yoffset=-5 xadvance=44 page=0 chnl=0
char id=12510 x=1252 y=1122 width=43 height=39 xoffset=2 yoffset=2 xadvance=44 page=0 chnl=0
char id=12471 x=1169 y=1297 width=42 height=42 xoffset=4 yoffset=-1 xadvance=44 page=0 chnl=0
char id=12512 x=1078 y=1032 width=45 height=44 xoffset=1 yoffset=-3 xadvance=44 page=0 chnl=0
char id=12393 x=893 y=1274 width=44 height=47 xoffset=5 yoffset=-5 xadvance=44 page=0 chnl=0
char id=12411 x=1169 y=1077 width=43 height=44 xoffset=3 yoffset=-2 xadvance=44 page=0 chnl=0
char id=12410 x=1085 y=843 width=47 height=37 xoffset=0 yoffset=1 xadvance=44 page=0 chnl=0
char id=33853 x=653 y=1187 width=48 height=47 xoffset=0 yoffset=-4 xadvance=44 page=0 chnl=0
char id=12385 x=988 y=1264 width=41 height=45 xoffset=3 yoffset=-3 xadvance=44 page=0 chnl=0
char id=39135 x=653 y=1138 width=48 height=48 xoffset=0 yoffset=-4 xadvance=44 page=0 chnl=0
char id=12409 x=845 y=1399 width=47 height=38 xoffset=0 yoffset=0 xadvance=44 page=0 chnl=0
char id=12419 x=1213 y=1288 width=38 height=38 xoffset=5 yoffset=5 xadvance=44 page=0 chnl=0
char id=29275 x=653 y=1089 width=47 height=48 xoffset=0 yoffset=-4 xadvance=44 page=0 chnl=0
char id=20013 x=653 y=1040 width=43 height=48 xoffset=2 yoffset=-4 xadvance=44 page=0 chnl=0
char id=21270 x=653 y=991 width=47 height=48 xoffset=0 yoffset=-4 xadvance=44 page=0 chnl=0
char id=23398 x=653 y=942 width=47 height=48 xoffset=1 yoffset=-4 xadvance=44 page=0 chnl=0
char id=25104 x=653 y=894 width=48 height=47 xoffset=0 yoffset=-3 xadvance=44 page=0 chnl=0
char id=20998 x=1061 y=210 width=49 height=47 xoffset=0 yoffset=-3 xadvance=44 page=0 chnl=0
char id=21516 x=1169 y=938 width=44 height=46 xoffset=2 yoffset=-2 xadvance=44 page=0 chnl=0
char id=12376 x=72 y=299 width=38 height=44 xoffset=8 yoffset=-2 xadvance=44 page=0 chnl=0
char id=29289 x=653 y=845 width=47 height=48 xoffset=0 yoffset=-4 xadvance=44 page=0 chnl=0
char id=21547 x=1011 y=210 width=49 height=47 xoffset=0 yoffset=-4 xadvance=44 page=0 chnl=0
char id=20107 x=653 y=796 width=48 height=48 xoffset=0 yoffset=-4 xadvance=44 page=0 chnl=0
char id=30740 x=961 y=210 width=49 height=46 xoffset=0 yoffset=-2 xadvance=44 page=0 chnl=0
char id=31350 x=653 y=747 width=48 height=48 xoffset=1 yoffset=-4 xadvance=44 page=0 chnl=0
char id=12424 x=988 y=1218 width=41 height=45 xoffset=3 yoffset=-3 xadvance=44 page=0 chnl=0
char id=26126 x=1123 y=938 width=45 height=46 xoffset=1 yoffset=-2 xadvance=44 page=0 chnl=0
char id=12509 x=261 y=309 width=48 height=49 xoffset=1 yoffset=-5 xadvance=44 page=0 chnl=0
char id=12469 x=1076 y=938 width=46 height=44 xoffset=1 yoffset=-2 xadvance=44 page=0 chnl=0
char id=12300 x=1445 y=1032 width=20 height=32 xoffset=27 yoffset=-5 xadvance=44 page=0 chnl=0
char id=12301 x=1447 y=985 width=20 height=32 xoffset=1 yoffset=13 xadvance=44 page=0 chnl=0
char id=31278 x=911 y=210 width=49 height=48 xoffset=0 yoffset=-4 xadvance=44 page=0 chnl=0
char id=39006 x=861 y=210 width=49 height=48 xoffset=0 yoffset=-4 xadvance=44 page=0 chnl=0
char id=12415 x=1037 y=843 width=47 height=43 xoffset=2 yoffset=-1 xadvance=44 page=0 chnl=0
char id=24453 x=653 y=698 width=48 height=48 xoffset=0 yoffset=-4 xadvance=44 page=0 chnl=0
char id=19968 x=124 y=1 width=47 height=12 xoffset=0 yoffset=14 xadvance=44 page=0 chnl=0
char id=30058 x=653 y=650 width=48 height=47 xoffset=0 yoffset=-4 xadvance=44 page=0 chnl=0
char id=31169 x=1381 y=601 width=48 height=48 xoffset=0 yoffset=-4 xadvance=44 page=0 chnl=0
char id=27770 x=1332 y=601 width=48 height=48 xoffset=0 yoffset=-4 xadvance=44 page=0 chnl=0
char id=12417 x=1124 y=1077 width=44 height=44 xoffset=2 yoffset=-2 xadvance=44 page=0 chnl=0
char id=12371 x=1213 y=1209 width=39 height=40 xoffset=5 yoffset=1 xadvance=44 page=0 chnl=0
char id=23554 x=1284 y=601 width=47 height=48 xoffset=1 yoffset=-4 xadvance=44 page=0 chnl=0
char id=38272 x=893 y=1226 width=44 height=47 xoffset=2 yoffset=-3 xadvance=44 page=0 chnl=0
char id=32068 x=811 y=210 width=49 height=48 xoffset=0 yoffset=-4 xadvance=44 page=0 chnl=0
char id=38656 x=893 y=1178 width=47 height=47 xoffset=0 yoffset=-3 xadvance=44 page=0 chnl=0
char id=35201 x=893 y=1130 width=47 height=47 xoffset=0 yoffset=-3 xadvance=44 page=0 chnl=0
char id=24605 x=1388 y=553 width=48 height=45 xoffset=0 yoffset=-2 xadvance=44 page=0 chnl=0
char id=23455 x=1236 y=601 width=47 height=48 xoffset=1 yoffset=-4 xadvance=44 page=0 chnl=0
char id=38555 x=1187 y=601 width=48 height=48 xoffset=1 yoffset=-4 xadvance=44 page=0 chnl=0
char id=22823 x=1339 y=553 width=48 height=47 xoffset=0 yoffset=-4 xadvance=44 page=0 chnl=0
char id=38914 x=1290 y=553 width=48 height=46 xoffset=0 yoffset=-2 xadvance=44 page=0 chnl=0
char id=40644 x=1138 y=601 width=48 height=48 xoffset=0 yoffset=-4 xadvance=44 page=0 chnl=0
char id=37329 x=761 y=210 width=49 height=46 xoffset=0 yoffset=-4 xadvance=44 page=0 chnl=0
char id=26178 x=1090 y=601 width=47 height=48 xoffset=1 yoffset=-4 xadvance=44 page=0 chnl=0
char id=20195 x=711 y=210 width=49 height=48 xoffset=0 yoffset=-4 xadvance=44 page=0 chnl=0
char id=24149 x=261 y=259 width=49 height=49 xoffset=0 yoffset=-4 xadvance=44 page=0 chnl=0
char id=12534 x=1432 y=455 width=38 height=38 xoffset=5 yoffset=5 xadvance=44 page=0 chnl=0
char id=26376 x=1034 y=938 width=41 height=46 xoffset=1 yoffset=-2 xadvance=44 page=0 chnl=0
char id=38291 x=893 y=1082 width=44 height=47 xoffset=2 yoffset=-3 xadvance=44 page=0 chnl=0
char id=27096 x=661 y=210 width=49 height=48 xoffset=0 yoffset=-4 xadvance=44 page=0 chnl=0
char id=12293 x=1078 y=1390 width=39 height=44 xoffset=2 yoffset=-3 xadvance=44 page=0 chnl=0
char id=31069 x=611 y=210 width=49 height=48 xoffset=0 yoffset=-4 xadvance=44 page=0 chnl=0
char id=12463 x=1430 y=601 width=40 height=45 xoffset=3 yoffset=-2 xadvance=44 page=0 chnl=0
char id=12524 x=72 y=566 width=38 height=42 xoffset=7 yoffset=-1 xadvance=44 page=0 chnl=0
char id=24180 x=1042 y=601 width=47 height=48 xoffset=0 yoffset=-4 xadvance=44 page=0 chnl=0
char id=21109 x=893 y=1034 width=47 height=47 xoffset=0 yoffset=-4 xadvance=44 page=0 chnl=0
char id=31435 x=989 y=843 width=47 height=45 xoffset=0 yoffset=-3 xadvance=44 page=0 chnl=0
char id=20197 x=1241 y=553 width=48 height=46 xoffset=0 yoffset=-2 xadvance=44 page=0 chnl=0
char id=26469 x=994 y=601 width=47 height=48 xoffset=0 yoffset=-4 xadvance=44 page=0 chnl=0
char id=39640 x=946 y=601 width=47 height=48 xoffset=1 yoffset=-4 xadvance=44 page=0 chnl=0
char id=36074 x=897 y=601 width=48 height=48 xoffset=0 yoffset=-3 xadvance=44 page=0 chnl=0
char id=24231 x=1192 y=553 width=48 height=47 xoffset=0 yoffset=-4 xadvance=44 page=0 chnl=0
char id=24515 x=561 y=210 width=49 height=47 xoffset=0 yoffset=-4 xadvance=44 page=0 chnl=0
char id=22320 x=1143 y=553 width=48 height=47 xoffset=0 yoffset=-4 xadvance=44 page=0 chnl=0
char id=25552 x=848 y=601 width=48 height=48 xoffset=0 yoffset=-4 xadvance=44 page=0 chnl=0
char id=20379 x=511 y=210 width=49 height=48 xoffset=0 yoffset=-4 xadvance=44 page=0 chnl=0
char id=20170 x=461 y=210 width=49 height=48 xoffset=0 yoffset=-4 xadvance=44 page=0 chnl=0
char id=35504 x=1094 y=553 width=48 height=47 xoffset=0 yoffset=-4 xadvance=44 page=0 chnl=0
char id=20241 x=684 y=14 width=50 height=48 xoffset=0 yoffset=-4 xadvance=44 page=0 chnl=0
char id=26989 x=799 y=601 width=48 height=48 xoffset=0 yoffset=-4 xadvance=44 page=0 chnl=0
char id=33258 x=72 y=114 width=38 height=47 xoffset=5 yoffset=-4 xadvance=44 page=0 chnl=0
char id=12467 x=1213 y=1250 width=39 height=37 xoffset=4 yoffset=2 xadvance=44 page=0 chnl=0
char id=12508 x=750 y=601 width=48 height=48 xoffset=1 yoffset=-5 xadvance=44 page=0 chnl=0
char id=27714 x=702 y=601 width=47 height=48 xoffset=1 yoffset=-4 xadvance=44 page=0 chnl=0
char id=23627 x=1045 y=553 width=48 height=46 xoffset=0 yoffset=-3 xadvance=44 page=0 chnl=0
char id=21015 x=893 y=986 width=46 height=47 xoffset=0 yoffset=-3 xadvance=44 page=0 chnl=0
char id=20316 x=653 y=601 width=48 height=48 xoffset=0 yoffset=-4 xadvance=44 page=0 chnl=0
char id=25345 x=604 y=1385 width=47 height=48 xoffset=0 yoffset=-4 xadvance=44 page=0 chnl=0
char id=22770 x=604 y=1336 width=46 height=48 xoffset=1 yoffset=-4 xadvance=44 page=0 chnl=0
char id=20351 x=411 y=210 width=49 height=48 xoffset=0 yoffset=-4 xadvance=44 page=0 chnl=0
char id=36796 x=996 y=553 width=48 height=46 xoffset=0 yoffset=-3 xadvance=44 page=0 chnl=0
char id=12416 x=1032 y=1388 width=45 height=45 xoffset=2 yoffset=-3 xadvance=44 page=0 chnl=0
char id=20154 x=941 y=843 width=47 height=46 xoffset=0 yoffset=-3 xadvance=44 page=0 chnl=0
char id=22679 x=893 y=938 width=47 height=47 xoffset=0 yoffset=-4 xadvance=44 page=0 chnl=0
char id=12507 x=1032 y=1342 width=45 height=45 xoffset=1 yoffset=-2 xadvance=44 page=0 chnl=0
char id=25968 x=361 y=210 width=49 height=48 xoffset=0 yoffset=-4 xadvance=44 page=0 chnl=0
char id=24613 x=893 y=890 width=47 height=47 xoffset=1 yoffset=-4 xadvance=44 page=0 chnl=0
char id=65299 x=1 y=839 width=32 height=43 xoffset=8 yoffset=-1 xadvance=44 page=0 chnl=0
char id=65296 x=1 y=795 width=33 height=43 xoffset=8 yoffset=-1 xadvance=44 page=0 chnl=0
char id=20869 x=604 y=1287 width=44 height=48 xoffset=2 yoffset=-4 xadvance=44 page=0 chnl=0
char id=37197 x=947 y=553 width=48 height=45 xoffset=0 yoffset=-2 xadvance=44 page=0 chnl=0
char id=20445 x=311 y=210 width=49 height=48 xoffset=0 yoffset=-4 xadvance=44 page=0 chnl=0
char id=35388 x=898 y=553 width=48 height=46 xoffset=0 yoffset=-3 xadvance=44 page=0 chnl=0
char id=65281 x=20 y=310 width=14 height=42 xoffset=17 yoffset=-1 xadvance=44 page=0 chnl=0
char id=29983 x=893 y=843 width=47 height=46 xoffset=0 yoffset=-4 xadvance=44 page=0 chnl=0
char id=21021 x=604 y=1238 width=46 height=48 xoffset=0 yoffset=-4 xadvance=44 page=0 chnl=0
char id=23384 x=604 y=1189 width=48 height=48 xoffset=0 yoffset=-4 xadvance=44 page=0 chnl=0
char id=24403 x=845 y=1351 width=42 height=47 xoffset=2 yoffset=-4 xadvance=44 page=0 chnl=0
char id=12458 x=1032 y=1296 width=44 height=45 xoffset=2 yoffset=-2 xadvance=44 page=0 chnl=0
char id=23646 x=845 y=1303 width=47 height=47 xoffset=0 yoffset=-3 xadvance=44 page=0 chnl=0
char id=35542 x=261 y=210 width=49 height=48 xoffset=0 yoffset=-4 xadvance=44 page=0 chnl=0
char id=34903 x=211 y=1382 width=49 height=48 xoffset=0 yoffset=-4 xadvance=44 page=0 chnl=0
char id=36817 x=211 y=1334 width=49 height=47 xoffset=0 yoffset=-4 xadvance=44 page=0 chnl=0
char id=12503 x=604 y=1140 width=47 height=48 xoffset=2 yoffset=-5 xadvance=44 page=0 chnl=0
char id=35370 x=849 y=553 width=48 height=47 xoffset=0 yoffset=-3 xadvance=44 page=0 chnl=0
char id=35441 x=800 y=553 width=48 height=46 xoffset=0 yoffset=-3 xadvance=44 page=0 chnl=0
char id=32862 x=845 y=1255 width=45 height=47 xoffset=2 yoffset=-3 xadvance=44 page=0 chnl=0
char id=37749 x=211 y=1285 width=49 height=48 xoffset=0 yoffset=-4 xadvance=44 page=0 chnl=0
char id=25499 x=211 y=1236 width=49 height=48 xoffset=0 yoffset=-4 xadvance=44 page=0 chnl=0
char id=12400 x=604 y=1091 width=46 height=48 xoffset=3 yoffset=-5 xadvance=44 page=0 chnl=0
char id=12378 x=211 y=1187 width=49 height=48 xoffset=1 yoffset=-5 xadvance=44 page=0 chnl=0
char id=12408 x=845 y=1220 width=47 height=34 xoffset=0 yoffset=4 xadvance=44 page=0 chnl=0
char id=38651 x=845 y=1173 width=47 height=46 xoffset=1 yoffset=-2 xadvance=44 page=0 chnl=0
char id=12420 x=988 y=938 width=45 height=46 xoffset=1 yoffset=-3 xadvance=44 page=0 chnl=0
char id=36766 x=604 y=1042 width=48 height=48 xoffset=0 yoffset=-4 xadvance=44 page=0 chnl=0
char id=26360 x=751 y=553 width=48 height=47 xoffset=0 yoffset=-4 xadvance=44 page=0 chnl=0
char id=36617 x=604 y=993 width=48 height=48 xoffset=0 yoffset=-4 xadvance=44 page=0 chnl=0
char id=20250 x=211 y=1138 width=49 height=48 xoffset=0 yoffset=-4 xadvance=44 page=0 chnl=0
char id=31038 x=604 y=944 width=48 height=48 xoffset=0 yoffset=-4 xadvance=44 page=0 chnl=0
char id=36215 x=211 y=1090 width=49 height=47 xoffset=0 yoffset=-4 xadvance=44 page=0 chnl=0
char id=24808 x=211 y=1041 width=49 height=48 xoffset=0 yoffset=-4 xadvance=44 page=0 chnl=0
char id=22833 x=845 y=1125 width=47 height=47 xoffset=1 yoffset=-3 xadvance=44 page=0 chnl=0
char id=25943 x=604 y=895 width=48 height=48 xoffset=0 yoffset=-4 xadvance=44 page=0 chnl=0
char id=24847 x=604 y=846 width=47 height=48 xoffset=0 yoffset=-4 xadvance=44 page=0 chnl=0
char id=32771 x=604 y=797 width=48 height=48 xoffset=0 yoffset=-4 xadvance=44 page=0 chnl=0
char id=26032 x=604 y=748 width=48 height=48 xoffset=0 yoffset=-4 xadvance=44 page=0 chnl=0
char id=20581 x=633 y=14 width=50 height=48 xoffset=0 yoffset=-4 xadvance=44 page=0 chnl=0
char id=24247 x=211 y=992 width=49 height=48 xoffset=0 yoffset=-4 xadvance=44 page=0 chnl=0
char id=33391 x=604 y=699 width=47 height=48 xoffset=0 yoffset=-4 xadvance=44 page=0 chnl=0
char id=21512 x=211 y=945 width=49 height=46 xoffset=0 yoffset=-3 xadvance=44 page=0 chnl=0
char id=29033 x=211 y=896 width=49 height=48 xoffset=0 yoffset=-4 xadvance=44 page=0 chnl=0
char id=26657 x=211 y=847 width=49 height=48 xoffset=0 yoffset=-4 xadvance=44 page=0 chnl=0
char id=27880 x=702 y=553 width=48 height=47 xoffset=0 yoffset=-4 xadvance=44 page=0 chnl=0
char id=25991 x=845 y=1077 width=47 height=47 xoffset=0 yoffset=-4 xadvance=44 page=0 chnl=0
char id=20006 x=653 y=553 width=48 height=46 xoffset=0 yoffset=-4 xadvance=44 page=0 chnl=0
char id=31185 x=604 y=650 width=48 height=48 xoffset=0 yoffset=-4 xadvance=44 page=0 chnl=0
char id=25436 x=604 y=601 width=48 height=48 xoffset=0 yoffset=-4 xadvance=44 page=0 chnl=0
char id=26619 x=211 y=799 width=49 height=47 xoffset=0 yoffset=-4 xadvance=44 page=0 chnl=0
char id=29677 x=604 y=553 width=48 height=47 xoffset=0 yoffset=-4 xadvance=44 page=0 chnl=0
char id=12468 x=845 y=1031 width=47 height=45 xoffset=2 yoffset=-5 xadvance=44 page=0 chnl=0
char id=35215 x=555 y=1378 width=48 height=47 xoffset=0 yoffset=-3 xadvance=44 page=0 chnl=0
char id=27169 x=211 y=750 width=49 height=48 xoffset=0 yoffset=-4 xadvance=44 page=0 chnl=0
char id=28779 x=845 y=983 width=47 height=47 xoffset=1 yoffset=-3 xadvance=44 page=0 chnl=0
char id=28797 x=555 y=1329 width=47 height=48 xoffset=0 yoffset=-4 xadvance=44 page=0 chnl=0
char id=21407 x=555 y=1282 width=48 height=46 xoffset=0 yoffset=-2 xadvance=44 page=0 chnl=0
char id=22240 x=1032 y=1250 width=45 height=45 xoffset=2 yoffset=-2 xadvance=44 page=0 chnl=0
char id=27424 x=507 y=1386 width=47 height=48 xoffset=1 yoffset=-4 xadvance=44 page=0 chnl=0
char id=38501 x=507 y=1337 width=45 height=48 xoffset=2 yoffset=-4 xadvance=44 page=0 chnl=0
char id=30330 x=555 y=1235 width=48 height=46 xoffset=0 yoffset=-2 xadvance=44 page=0 chnl=0
char id=34920 x=555 y=1187 width=48 height=47 xoffset=0 yoffset=-3 xadvance=44 page=0 chnl=0
char id=19976 x=845 y=935 width=47 height=47 xoffset=0 yoffset=-3 xadvance=44 page=0 chnl=0
char id=22827 x=845 y=887 width=47 height=47 xoffset=1 yoffset=-3 xadvance=44 page=0 chnl=0
char id=12454 x=988 y=1172 width=41 height=45 xoffset=4 yoffset=-2 xadvance=44 page=0 chnl=0
char id=25105 x=555 y=1139 width=48 height=47 xoffset=0 yoffset=-3 xadvance=44 page=0 chnl=0
char id=12396 x=845 y=843 width=47 height=43 xoffset=2 yoffset=-2 xadvance=44 page=0 chnl=0
char id=32154 x=555 y=1090 width=48 height=48 xoffset=0 yoffset=-4 xadvance=44 page=0 chnl=0
char id=21476 x=1419 y=795 width=47 height=47 xoffset=1 yoffset=-4 xadvance=44 page=0 chnl=0
char id=32773 x=555 y=1042 width=48 height=47 xoffset=0 yoffset=-4 xadvance=44 page=0 chnl=0
char id=23383 x=507 y=1288 width=46 height=48 xoffset=1 yoffset=-4 xadvance=44 page=0 chnl=0
char id=20808 x=507 y=1239 width=47 height=48 xoffset=0 yoffset=-4 xadvance=44 page=0 chnl=0
char id=12406 x=211 y=703 width=49 height=46 xoffset=1 yoffset=-4 xadvance=44 page=0 chnl=0
char id=27969 x=555 y=993 width=48 height=48 xoffset=0 yoffset=-4 xadvance=44 page=0 chnl=0
char id=12456 x=1032 y=1212 width=45 height=37 xoffset=2 yoffset=2 xadvance=44 page=0 chnl=0
char id=24109 x=211 y=653 width=48 height=49 xoffset=0 yoffset=-5 xadvance=44 page=0 chnl=0
char id=12388 x=1078 y=1353 width=44 height=36 xoffset=2 yoffset=3 xadvance=44 page=0 chnl=0
char id=25152 x=211 y=605 width=49 height=47 xoffset=0 yoffset=-3 xadvance=44 page=0 chnl=0
char id=28961 x=507 y=1190 width=47 height=48 xoffset=0 yoffset=-4 xadvance=44 page=0 chnl=0
char id=20870 x=941 y=1348 width=43 height=46 xoffset=2 yoffset=-2 xadvance=44 page=0 chnl=0
char id=21608 x=941 y=1301 width=45 height=46 xoffset=0 yoffset=-2 xadvance=44 page=0 chnl=0
char id=29575 x=211 y=555 width=47 height=49 xoffset=0 yoffset=-5 xadvance=44 page=0 chnl=0
char id=25512 x=555 y=944 width=48 height=48 xoffset=0 yoffset=-4 xadvance=44 page=0 chnl=0
char id=28204 x=1371 y=795 width=47 height=47 xoffset=0 yoffset=-3 xadvance=44 page=0 chnl=0
char id=22082 x=1323 y=795 width=47 height=47 xoffset=1 yoffset=-3 xadvance=44 page=0 chnl=0
char id=36913 x=211 y=508 width=49 height=46 xoffset=0 yoffset=-3 xadvance=44 page=0 chnl=0
char id=32076 x=555 y=895 width=48 height=48 xoffset=0 yoffset=-4 xadvance=44 page=0 chnl=0
char id=65305 x=1 y=751 width=32 height=43 xoffset=8 yoffset=-1 xadvance=44 page=0 chnl=0
char id=21106 x=1276 y=795 width=46 height=47 xoffset=0 yoffset=-3 xadvance=44 page=0 chnl=0
char id=27877 x=1228 y=795 width=47 height=46 xoffset=0 yoffset=-3 xadvance=44 page=0 chnl=0
char id=26834 x=211 y=459 width=49 height=48 xoffset=0 yoffset=-4 xadvance=44 page=0 chnl=0
char id=36059 x=555 y=846 width=48 height=48 xoffset=0 yoffset=-4 xadvance=44 page=0 chnl=0
char id=25973 x=211 y=410 width=49 height=48 xoffset=0 yoffset=-4 xadvance=44 page=0 chnl=0
char id=20027 x=1180 y=795 width=47 height=46 xoffset=0 yoffset=-4 xadvance=44 page=0 chnl=0
char id=12368 x=1430 y=357 width=39 height=45 xoffset=6 yoffset=-2 xadvance=44 page=0 chnl=0
char id=30456 x=507 y=1141 width=47 height=48 xoffset=0 yoffset=-4 xadvance=44 page=0 chnl=0
char id=24615 x=555 y=797 width=48 height=48 xoffset=0 yoffset=-4 xadvance=44 page=0 chnl=0
char id=25244 x=555 y=748 width=48 height=48 xoffset=0 yoffset=-4 xadvance=44 page=0 chnl=0
char id=32676 x=1411 y=161 width=49 height=48 xoffset=0 yoffset=-4 xadvance=44 page=0 chnl=0
char id=12514 x=1032 y=1170 width=45 height=41 xoffset=2 yoffset=0 xadvance=44 page=0 chnl=0
char id=12521 x=1210 y=1122 width=41 height=43 xoffset=3 yoffset=-1 xadvance=44 page=0 chnl=0
char id=26628 x=555 y=699 width=48 height=48 xoffset=0 yoffset=-4 xadvance=44 page=0 chnl=0
char id=39178 x=211 y=360 width=49 height=49 xoffset=0 yoffset=-4 xadvance=44 page=0 chnl=0
char id=22763 x=941 y=1255 width=46 height=45 xoffset=1 yoffset=-3 xadvance=44 page=0 chnl=0
char id=26228 x=211 y=310 width=47 height=49 xoffset=1 yoffset=-5 xadvance=44 page=0 chnl=0
char id=36023 x=1132 y=795 width=47 height=47 xoffset=0 yoffset=-3 xadvance=44 page=0 chnl=0
char id=26411 x=555 y=650 width=48 height=48 xoffset=0 yoffset=-4 xadvance=44 page=0 chnl=0
char id=38632 x=1084 y=795 width=47 height=46 xoffset=0 yoffset=-2 xadvance=44 page=0 chnl=0
char id=36895 x=1361 y=161 width=49 height=47 xoffset=0 yoffset=-4 xadvance=44 page=0 chnl=0
char id=22577 x=555 y=601 width=48 height=48 xoffset=0 yoffset=-4 xadvance=44 page=0 chnl=0
char id=21205 x=1036 y=795 width=47 height=47 xoffset=0 yoffset=-4 xadvance=44 page=0 chnl=0
char id=22290 x=941 y=1208 width=45 height=46 xoffset=1 yoffset=-3 xadvance=44 page=0 chnl=0
char id=29066 x=507 y=1092 width=47 height=48 xoffset=0 yoffset=-4 xadvance=44 page=0 chnl=0
char id=19982 x=555 y=553 width=48 height=47 xoffset=0 yoffset=-4 xadvance=44 page=0 chnl=0
char id=39164 x=507 y=1043 width=47 height=48 xoffset=0 yoffset=-4 xadvance=44 page=0 chnl=0
char id=32946 x=507 y=994 width=47 height=48 xoffset=0 yoffset=-4 xadvance=44 page=0 chnl=0
char id=21729 x=988 y=795 width=47 height=47 xoffset=1 yoffset=-3 xadvance=44 page=0 chnl=0
char id=30007 x=941 y=1161 width=44 height=46 xoffset=1 yoffset=-2 xadvance=44 page=0 chnl=0
char id=36861 x=1311 y=161 width=49 height=47 xoffset=0 yoffset=-4 xadvance=44 page=0 chnl=0
char id=20986 x=941 y=1114 width=43 height=46 xoffset=2 yoffset=-3 xadvance=44 page=0 chnl=0
char id=27809 x=1388 y=504 width=48 height=47 xoffset=0 yoffset=-3 xadvance=44 page=0 chnl=0
char id=21454 x=1261 y=161 width=49 height=48 xoffset=0 yoffset=-4 xadvance=44 page=0 chnl=0
char id=26053 x=1339 y=504 width=48 height=48 xoffset=0 yoffset=-4 xadvance=44 page=0 chnl=0
char id=27323 x=582 y=14 width=50 height=48 xoffset=0 yoffset=-4 xadvance=44 page=0 chnl=0
char id=32202 x=940 y=795 width=47 height=47 xoffset=1 yoffset=-3 xadvance=44 page=0 chnl=0
char id=35703 x=1290 y=504 width=48 height=48 xoffset=0 yoffset=-4 xadvance=44 page=0 chnl=0
char id=21462 x=1241 y=504 width=48 height=47 xoffset=0 yoffset=-3 xadvance=44 page=0 chnl=0
char id=19978 x=892 y=795 width=47 height=45 xoffset=0 yoffset=-3 xadvance=44 page=0 chnl=0
char id=12370 x=507 y=945 width=46 height=48 xoffset=3 yoffset=-5 xadvance=44 page=0 chnl=0
char id=21361 x=507 y=896 width=47 height=48 xoffset=0 yoffset=-4 xadvance=44 page=0 chnl=0
char id=37664 x=1211 y=161 width=49 height=47 xoffset=0 yoffset=-3 xadvance=44 page=0 chnl=0
char id=21092 x=507 y=847 width=47 height=48 xoffset=0 yoffset=-4 xadvance=44 page=0 chnl=0
char id=12403 x=507 y=798 width=47 height=48 xoffset=2 yoffset=-6 xadvance=44 page=0 chnl=0
char id=12505 x=941 y=1075 width=46 height=38 xoffset=1 yoffset=0 xadvance=44 page=0 chnl=0
char id=30041 x=845 y=795 width=46 height=47 xoffset=0 yoffset=-4 xadvance=44 page=0 chnl=0
char id=25163 x=797 y=1364 width=47 height=47 xoffset=1 yoffset=-4 xadvance=44 page=0 chnl=0
char id=12516 x=1032 y=1124 width=44 height=45 xoffset=1 yoffset=-2 xadvance=44 page=0 chnl=0
char id=27671 x=1192 y=504 width=48 height=48 xoffset=0 yoffset=-4 xadvance=44 page=0 chnl=0
char id=26009 x=1143 y=504 width=48 height=48 xoffset=0 yoffset=-4 xadvance=44 page=0 chnl=0
char id=20307 x=1161 y=161 width=49 height=48 xoffset=0 yoffset=-4 xadvance=44 page=0 chnl=0
char id=39443 x=1111 y=161 width=49 height=48 xoffset=0 yoffset=-4 xadvance=44 page=0 chnl=0
char id=32004 x=507 y=749 width=47 height=48 xoffset=0 yoffset=-4 xadvance=44 page=0 chnl=0
char id=25506 x=1061 y=161 width=49 height=48 xoffset=0 yoffset=-4 xadvance=44 page=0 chnl=0
char id=19990 x=1411 y=113 width=49 height=46 xoffset=0 yoffset=-3 xadvance=44 page=0 chnl=0
char id=30028 x=1094 y=504 width=48 height=47 xoffset=0 yoffset=-3 xadvance=44 page=0 chnl=0
char id=22810 x=211 y=260 width=44 height=49 xoffset=2 yoffset=-4 xadvance=44 page=0 chnl=0
char id=12367 x=1 y=705 width=32 height=45 xoffset=7 yoffset=-2 xadvance=44 page=0 chnl=0
char id=27508 x=1045 y=504 width=48 height=45 xoffset=0 yoffset=-2 xadvance=44 page=0 chnl=0
char id=21490 x=507 y=700 width=47 height=48 xoffset=1 yoffset=-4 xadvance=44 page=0 chnl=0
char id=21746 x=996 y=504 width=48 height=47 xoffset=0 yoffset=-4 xadvance=44 page=0 chnl=0
char id=38263 x=947 y=504 width=48 height=46 xoffset=0 yoffset=-2 xadvance=44 page=0 chnl=0
char id=39764 x=211 y=210 width=49 height=49 xoffset=0 yoffset=-4 xadvance=44 page=0 chnl=0
char id=27861 x=898 y=504 width=48 height=47 xoffset=0 yoffset=-3 xadvance=44 page=0 chnl=0
char id=35342 x=849 y=504 width=48 height=47 xoffset=0 yoffset=-3 xadvance=44 page=0 chnl=0
char id=26412 x=800 y=504 width=48 height=48 xoffset=0 yoffset=-4 xadvance=44 page=0 chnl=0
char id=22312 x=751 y=504 width=48 height=48 xoffset=0 yoffset=-4 xadvance=44 page=0 chnl=0
char id=38477 x=507 y=651 width=47 height=48 xoffset=1 yoffset=-4 xadvance=44 page=0 chnl=0
char id=12511 x=1169 y=1122 width=40 height=43 xoffset=4 yoffset=-1 xadvance=44 page=0 chnl=0
char id=37240 x=702 y=504 width=48 height=48 xoffset=0 yoffset=-4 xadvance=44 page=0 chnl=0
char id=12490 x=1400 y=1032 width=44 height=44 xoffset=2 yoffset=-2 xadvance=44 page=0 chnl=0
char id=20999 x=797 y=1316 width=47 height=47 xoffset=0 yoffset=-4 xadvance=44 page=0 chnl=0
char id=20877 x=653 y=504 width=48 height=47 xoffset=0 yoffset=-3 xadvance=44 page=0 chnl=0
char id=21069 x=507 y=602 width=47 height=48 xoffset=0 yoffset=-4 xadvance=44 page=0 chnl=0
char id=12451 x=1335 y=1209 width=35 height=37 xoffset=5 yoffset=6 xadvance=44 page=0 chnl=0
char id=26089 x=797 y=1268 width=47 height=47 xoffset=1 yoffset=-3 xadvance=44 page=0 chnl=0
char id=28988 x=1011 y=161 width=49 height=48 xoffset=0 yoffset=-4 xadvance=44 page=0 chnl=0
char id=31665 x=604 y=504 width=48 height=48 xoffset=0 yoffset=-4 xadvance=44 page=0 chnl=0
char id=30446 x=72 y=254 width=38 height=44 xoffset=5 yoffset=-2 xadvance=44 page=0 chnl=0
char id=25731 x=555 y=504 width=48 height=48 xoffset=0 yoffset=-4 xadvance=44 page=0 chnl=0
char id=21218 x=961 y=161 width=49 height=48 xoffset=0 yoffset=-4 xadvance=44 page=0 chnl=0
char id=20282 x=507 y=553 width=47 height=48 xoffset=0 yoffset=-4 xadvance=44 page=0 chnl=0
char id=26885 x=911 y=161 width=49 height=48 xoffset=0 yoffset=-4 xadvance=44 page=0 chnl=0
char id=23376 x=797 y=1222 width=47 height=45 xoffset=0 yoffset=-2 xadvance=44 page=0 chnl=0
char id=26262 x=507 y=504 width=47 height=48 xoffset=1 yoffset=-4 xadvance=44 page=0 chnl=0
char id=12288 x=22 y=591 width=8 height=8 xoffset=-1 yoffset=33 xadvance=44 page=0 chnl=0
char id=31085 x=861 y=161 width=49 height=48 xoffset=0 yoffset=-4 xadvance=44 page=0 chnl=0
char id=27005 x=1383 y=455 width=48 height=48 xoffset=0 yoffset=-4 xadvance=44 page=0 chnl=0
char id=21644 x=1335 y=455 width=47 height=48 xoffset=0 yoffset=-4 xadvance=44 page=0 chnl=0
char id=24433 x=1286 y=455 width=48 height=47 xoffset=0 yoffset=-3 xadvance=44 page=0 chnl=0
char id=38911 x=1237 y=455 width=48 height=47 xoffset=0 yoffset=-3 xadvance=44 page=0 chnl=0
char id=20385 x=811 y=161 width=49 height=48 xoffset=-1 yoffset=-4 xadvance=44 page=0 chnl=0
char id=26684 x=761 y=161 width=49 height=48 xoffset=0 yoffset=-4 xadvance=44 page=0 chnl=0
char id=39472 x=531 y=14 width=50 height=48 xoffset=0 yoffset=-4 xadvance=44 page=0 chnl=0
char id=20516 x=711 y=161 width=49 height=48 xoffset=0 yoffset=-4 xadvance=44 page=0 chnl=0
char id=24341 x=1426 y=698 width=41 height=47 xoffset=3 yoffset=-3 xadvance=44 page=0 chnl=0
char id=24540 x=1188 y=455 width=48 height=48 xoffset=0 yoffset=-4 xadvance=44 page=0 chnl=0
char id=19981 x=1139 y=455 width=48 height=45 xoffset=0 yoffset=-1 xadvance=44 page=0 chnl=0
char id=27531 x=1361 y=113 width=49 height=47 xoffset=0 yoffset=-3 xadvance=44 page=0 chnl=0
char id=21322 x=1090 y=455 width=48 height=48 xoffset=0 yoffset=-4 xadvance=44 page=0 chnl=0
char id=35686 x=1041 y=455 width=48 height=48 xoffset=0 yoffset=-4 xadvance=44 page=0 chnl=0
char id=23519 x=993 y=455 width=47 height=48 xoffset=0 yoffset=-4 xadvance=44 page=0 chnl=0
char id=22256 x=1032 y=1078 width=45 height=45 xoffset=2 yoffset=-2 xadvance=44 page=0 chnl=0
char id=24785 x=945 y=455 width=47 height=48 xoffset=1 yoffset=-5 xadvance=44 page=0 chnl=0
char id=38988 x=480 y=14 width=50 height=46 xoffset=0 yoffset=-3 xadvance=44 page=0 chnl=0
char id=23244 x=661 y=161 width=49 height=48 xoffset=0 yoffset=-4 xadvance=44 page=0 chnl=0
char id=38281 x=797 y=1174 width=45 height=47 xoffset=2 yoffset=-3 xadvance=44 page=0 chnl=0
char id=12494 x=72 y=1211 width=38 height=41 xoffset=4 yoffset=0 xadvance=44 page=0 chnl=0
char id=36009 x=1311 y=113 width=49 height=46 xoffset=0 yoffset=-2 xadvance=44 page=0 chnl=0
char id=22987 x=896 y=455 width=48 height=47 xoffset=0 yoffset=-3 xadvance=44 page=0 chnl=0
char id=12366 x=849 y=455 width=46 height=48 xoffset=3 yoffset=-5 xadvance=44 page=0 chnl=0
char id=12466 x=611 y=161 width=49 height=48 xoffset=1 yoffset=-5 xadvance=44 page=0 chnl=0
char id=30331 x=800 y=455 width=48 height=46 xoffset=0 yoffset=-3 xadvance=44 page=0 chnl=0
char id=22580 x=751 y=455 width=48 height=48 xoffset=0 yoffset=-4 xadvance=44 page=0 chnl=0
char id=12520 x=1424 y=1166 width=39 height=40 xoffset=4 yoffset=0 xadvance=44 page=0 chnl=0
char id=22812 x=561 y=161 width=49 height=48 xoffset=0 yoffset=-4 xadvance=44 page=0 chnl=0
char id=29359 x=797 y=1126 width=47 height=47 xoffset=0 yoffset=-3 xadvance=44 page=0 chnl=0
char id=32618 x=797 y=1078 width=47 height=47 xoffset=0 yoffset=-3 xadvance=44 page=0 chnl=0
char id=12457 x=1432 y=406 width=37 height=38 xoffset=5 yoffset=5 xadvance=44 page=0 chnl=0
char id=29976 x=797 y=1031 width=47 height=46 xoffset=0 yoffset=-3 xadvance=44 page=0 chnl=0
char id=30423 x=702 y=455 width=48 height=46 xoffset=0 yoffset=-3 xadvance=44 page=0 chnl=0
char id=38627 x=653 y=455 width=48 height=48 xoffset=0 yoffset=-4 xadvance=44 page=0 chnl=0
char id=20214 x=511 y=161 width=49 height=48 xoffset=0 yoffset=-4 xadvance=44 page=0 chnl=0
char id=35519 x=797 y=984 width=47 height=46 xoffset=0 yoffset=-2 xadvance=44 page=0 chnl=0
char id=36914 x=1261 y=113 width=49 height=47 xoffset=0 yoffset=-4 xadvance=44 page=0 chnl=0
char id=27573 x=1211 y=113 width=49 height=47 xoffset=0 yoffset=-3 xadvance=44 page=0 chnl=0
char id=65298 x=35 y=555 width=32 height=42 xoffset=8 yoffset=-1 xadvance=44 page=0 chnl=0
char id=24230 x=604 y=455 width=48 height=48 xoffset=0 yoffset=-4 xadvance=44 page=0 chnl=0
char id=31363 x=556 y=455 width=47 height=48 xoffset=0 yoffset=-4 xadvance=44 page=0 chnl=0
char id=34987 x=461 y=161 width=49 height=48 xoffset=0 yoffset=-4 xadvance=44 page=0 chnl=0
char id=23475 x=702 y=1372 width=46 height=47 xoffset=1 yoffset=-4 xadvance=44 page=0 chnl=0
char id=20449 x=411 y=161 width=49 height=48 xoffset=0 yoffset=-4 xadvance=44 page=0 chnl=0
char id=36890 x=1161 y=113 width=49 height=46 xoffset=0 yoffset=-3 xadvance=44 page=0 chnl=0
char id=12489 x=35 y=154 width=35 height=46 xoffset=10 yoffset=-3 xadvance=44 page=0 chnl=0
char id=31680 x=507 y=455 width=48 height=48 xoffset=0 yoffset=-4 xadvance=44 page=0 chnl=0
char id=33104 x=458 y=1381 width=48 height=48 xoffset=0 yoffset=-4 xadvance=44 page=0 chnl=0
char id=12465 x=1032 y=1032 width=45 height=45 xoffset=1 yoffset=-3 xadvance=44 page=0 chnl=0
char id=22615 x=458 y=1333 width=48 height=47 xoffset=0 yoffset=-4 xadvance=44 page=0 chnl=0
char id=29694 x=1111 y=113 width=49 height=47 xoffset=0 yoffset=-3 xadvance=44 page=0 chnl=0
char id=28857 x=458 y=1284 width=46 height=48 xoffset=1 yoffset=-4 xadvance=44 page=0 chnl=0
char id=35226 x=458 y=1235 width=47 height=48 xoffset=0 yoffset=-4 xadvance=44 page=0 chnl=0
char id=22730 x=361 y=161 width=49 height=48 xoffset=0 yoffset=-4 xadvance=44 page=0 chnl=0
char id=28040 x=458 y=1186 width=45 height=48 xoffset=0 yoffset=-4 xadvance=44 page=0 chnl=0
char id=20663 x=311 y=161 width=49 height=48 xoffset=0 yoffset=-4 xadvance=44 page=0 chnl=0
char id=21628 x=797 y=936 width=47 height=47 xoffset=1 yoffset=-3 xadvance=44 page=0 chnl=0
char id=23492 x=458 y=1137 width=48 height=48 xoffset=0 yoffset=-4 xadvance=44 page=0 chnl=0
char id=12499 x=941 y=1028 width=43 height=46 xoffset=6 yoffset=-5 xadvance=44 page=0 chnl=0
char id=12460 x=797 y=888 width=47 height=47 xoffset=2 yoffset=-5 xadvance=44 page=0 chnl=0
char id=24746 x=797 y=841 width=47 height=46 xoffset=0 yoffset=-2 xadvance=44 page=0 chnl=0
char id=21451 x=458 y=1088 width=48 height=48 xoffset=0 yoffset=-4 xadvance=44 page=0 chnl=0
char id=32057 x=458 y=1039 width=47 height=48 xoffset=0 yoffset=-4 xadvance=44 page=0 chnl=0
char id=20171 x=458 y=990 width=48 height=48 xoffset=0 yoffset=-4 xadvance=44 page=0 chnl=0
char id=24863 x=458 y=941 width=48 height=48 xoffset=0 yoffset=-4 xadvance=44 page=0 chnl=0
char id=21250 x=458 y=892 width=46 height=48 xoffset=0 yoffset=-4 xadvance=44 page=0 chnl=0
char id=36949 x=261 y=161 width=49 height=48 xoffset=0 yoffset=-5 xadvance=44 page=0 chnl=0
char id=24179 x=458 y=845 width=48 height=46 xoffset=0 yoffset=-2 xadvance=44 page=0 chnl=0
char id=20961 x=458 y=798 width=48 height=46 xoffset=0 yoffset=-3 xadvance=44 page=0 chnl=0
char id=21223 x=458 y=749 width=47 height=48 xoffset=0 yoffset=-4 xadvance=44 page=0 chnl=0
char id=65285 x=1124 y=1377 width=42 height=43 xoffset=3 yoffset=-1 xadvance=44 page=0 chnl=0
char id=20253 x=211 y=161 width=49 height=48 xoffset=0 yoffset=-4 xadvance=44 page=0 chnl=0
char id=19975 x=797 y=795 width=47 height=45 xoffset=0 yoffset=-1 xadvance=44 page=0 chnl=0
char id=26143 x=1421 y=747 width=47 height=45 xoffset=0 yoffset=-2 xadvance=44 page=0 chnl=0
char id=40180 x=458 y=700 width=47 height=48 xoffset=1 yoffset=-4 xadvance=44 page=0 chnl=0
char id=26397 x=458 y=651 width=46 height=48 xoffset=0 yoffset=-4 xadvance=44 page=0 chnl=0
char id=24184 x=161 y=1344 width=47 height=49 xoffset=1 yoffset=-5 xadvance=44 page=0 chnl=0
char id=26172 x=1061 y=113 width=49 height=46 xoffset=0 yoffset=-3 xadvance=44 page=0 chnl=0
char id=32654 x=458 y=602 width=47 height=48 xoffset=1 yoffset=-4 xadvance=44 page=0 chnl=0
char id=65297 x=35 y=512 width=19 height=42 xoffset=11 yoffset=-1 xadvance=44 page=0 chnl=0
char id=21475 x=1340 y=1166 width=41 height=41 xoffset=3 yoffset=0 xadvance=44 page=0 chnl=0
char id=27491 x=1373 y=747 width=47 height=44 xoffset=0 yoffset=-2 xadvance=44 page=0 chnl=0
char id=28288 x=458 y=553 width=48 height=48 xoffset=0 yoffset=-4 xadvance=44 page=0 chnl=0
char id=22818 x=458 y=504 width=47 height=48 xoffset=0 yoffset=-4 xadvance=44 page=0 chnl=0
char id=12429 x=1169 y=1254 width=42 height=42 xoffset=3 yoffset=0 xadvance=44 page=0 chnl=0
char id=20302 x=161 y=1295 width=49 height=48 xoffset=0 yoffset=-4 xadvance=44 page=0 chnl=0
char id=25509 x=458 y=455 width=48 height=48 xoffset=0 yoffset=-4 xadvance=44 page=0 chnl=0
char id=23458 x=1383 y=406 width=48 height=47 xoffset=0 yoffset=-4 xadvance=44 page=0 chnl=0
char id=22768 x=1335 y=406 width=47 height=48 xoffset=0 yoffset=-4 xadvance=44 page=0 chnl=0
char id=12402 x=941 y=985 width=46 height=42 xoffset=2 yoffset=0 xadvance=44 page=0 chnl=0
char id=24555 x=161 y=1246 width=49 height=48 xoffset=0 yoffset=-4 xadvance=44 page=0 chnl=0
char id=38609 x=1286 y=406 width=48 height=48 xoffset=0 yoffset=-4 xadvance=44 page=0 chnl=0
char id=33609 x=1238 y=406 width=47 height=48 xoffset=0 yoffset=-4 xadvance=44 page=0 chnl=0
char id=65301 x=1 y=1367 width=31 height=42 xoffset=9 yoffset=0 xadvance=44 page=0 chnl=0
char id=19979 x=1325 y=747 width=47 height=45 xoffset=1 yoffset=-1 xadvance=44 page=0 chnl=0
char id=30707 x=1189 y=406 width=48 height=43 xoffset=0 yoffset=-1 xadvance=44 page=0 chnl=0
char id=12480 x=161 y=1196 width=48 height=49 xoffset=1 yoffset=-5 xadvance=44 page=0 chnl=0
char id=12382 x=1140 y=406 width=48 height=43 xoffset=1 yoffset=-1 xadvance=44 page=0 chnl=0
char id=12496 x=1091 y=406 width=48 height=46 xoffset=1 yoffset=-5 xadvance=44 page=0 chnl=0
char id=12412 x=1042 y=406 width=48 height=48 xoffset=2 yoffset=-5 xadvance=44 page=0 chnl=0
char id=30636 x=994 y=406 width=47 height=48 xoffset=1 yoffset=-3 xadvance=44 page=0 chnl=0
char id=31354 x=941 y=938 width=46 height=46 xoffset=1 yoffset=-3 xadvance=44 page=0 chnl=0
char id=20840 x=945 y=406 width=48 height=46 xoffset=0 yoffset=-4 xadvance=44 page=0 chnl=0
char id=28982 x=896 y=406 width=48 height=48 xoffset=0 yoffset=-4 xadvance=44 page=0 chnl=0
char id=23569 x=847 y=406 width=48 height=48 xoffset=0 yoffset=-4 xadvance=44 page=0 chnl=0
char id=27735 x=798 y=406 width=48 height=47 xoffset=0 yoffset=-3 xadvance=44 page=0 chnl=0
char id=29017 x=1011 y=113 width=49 height=47 xoffset=0 yoffset=-3 xadvance=44 page=0 chnl=0
char id=34180 x=750 y=406 width=47 height=48 xoffset=0 yoffset=-4 xadvance=44 page=0 chnl=0
char id=24494 x=429 y=14 width=50 height=48 xoffset=0 yoffset=-4 xadvance=44 page=0 chnl=0
char id=39321 x=701 y=406 width=48 height=47 xoffset=0 yoffset=-4 xadvance=44 page=0 chnl=0
char id=27700 x=652 y=406 width=48 height=47 xoffset=0 yoffset=-3 xadvance=44 page=0 chnl=0
char id=36275 x=1277 y=747 width=47 height=46 xoffset=0 yoffset=-2 xadvance=44 page=0 chnl=0
char id=32032 x=604 y=406 width=47 height=48 xoffset=0 yoffset=-4 xadvance=44 page=0 chnl=0
char id=65300 x=35 y=469 width=34 height=42 xoffset=7 yoffset=-1 xadvance=44 page=0 chnl=0
char id=30003 x=1428 y=308 width=42 height=48 xoffset=3 yoffset=-4 xadvance=44 page=0 chnl=0
char id=29305 x=555 y=406 width=48 height=48 xoffset=0 yoffset=-4 xadvance=44 page=0 chnl=0
char id=24500 x=378 y=14 width=50 height=48 xoffset=0 yoffset=-4 xadvance=44 page=0 chnl=0
char id=30340 x=702 y=1324 width=46 height=47 xoffset=1 yoffset=-4 xadvance=44 page=0 chnl=0
char id=22885 x=161 y=1146 width=48 height=49 xoffset=0 yoffset=-5 xadvance=44 page=0 chnl=0
char id=12422 x=702 y=1276 width=43 height=47 xoffset=3 yoffset=-3 xadvance=44 page=0 chnl=0
char id=24375 x=507 y=406 width=47 height=48 xoffset=1 yoffset=-4 xadvance=44 page=0 chnl=0
char id=28872 x=1229 y=747 width=47 height=47 xoffset=0 yoffset=-3 xadvance=44 page=0 chnl=0
char id=24235 x=161 y=1096 width=49 height=49 xoffset=0 yoffset=-5 xadvance=44 page=0 chnl=0
char id=20966 x=161 y=1047 width=49 height=48 xoffset=0 yoffset=-4 xadvance=44 page=0 chnl=0
char id=26448 x=458 y=406 width=48 height=48 xoffset=0 yoffset=-4 xadvance=44 page=0 chnl=0
char id=27927 x=409 y=1367 width=48 height=48 xoffset=0 yoffset=-4 xadvance=44 page=0 chnl=0
char id=29702 x=961 y=113 width=49 height=45 xoffset=0 yoffset=-2 xadvance=44 page=0 chnl=0
char id=22120 x=911 y=113 width=49 height=45 xoffset=0 yoffset=-2 xadvance=44 page=0 chnl=0
char id=20855 x=1181 y=747 width=47 height=46 xoffset=0 yoffset=-2 xadvance=44 page=0 chnl=0
char id=29366 x=409 y=1318 width=48 height=48 xoffset=0 yoffset=-4 xadvance=44 page=0 chnl=0
char id=28193 x=409 y=1269 width=48 height=48 xoffset=0 yoffset=-4 xadvance=44 page=0 chnl=0
char id=31561 x=409 y=1220 width=47 height=48 xoffset=0 yoffset=-4 xadvance=44 page=0 chnl=0
char id=34880 x=861 y=113 width=49 height=45 xoffset=0 yoffset=-4 xadvance=44 page=0 chnl=0
char id=20309 x=409 y=1171 width=48 height=48 xoffset=0 yoffset=-4 xadvance=44 page=0 chnl=0
char id=23613 x=811 y=113 width=49 height=46 xoffset=0 yoffset=-2 xadvance=44 page=0 chnl=0
char id=12498 x=35 y=426 width=36 height=42 xoffset=7 yoffset=-2 xadvance=44 page=0 chnl=0
char id=22269 x=1401 y=985 width=45 height=45 xoffset=1 yoffset=-2 xadvance=44 page=0 chnl=0
char id=26088 x=1400 y=890 width=41 height=46 xoffset=5 yoffset=-3 xadvance=44 page=0 chnl=0
char id=36984 x=761 y=113 width=49 height=46 xoffset=0 yoffset=-3 xadvance=44 page=0 chnl=0
char id=38996 x=161 y=998 width=49 height=48 xoffset=0 yoffset=-4 xadvance=44 page=0 chnl=0
char id=32340 x=327 y=14 width=50 height=48 xoffset=0 yoffset=-4 xadvance=44 page=0 chnl=0
char id=30906 x=409 y=1123 width=48 height=47 xoffset=0 yoffset=-4 xadvance=44 page=0 chnl=0
char id=35469 x=711 y=113 width=49 height=46 xoffset=0 yoffset=-3 xadvance=44 page=0 chnl=0
char id=24444 x=409 y=1074 width=48 height=48 xoffset=0 yoffset=-4 xadvance=44 page=0 chnl=0
char id=29401 x=409 y=1026 width=48 height=47 xoffset=0 yoffset=-3 xadvance=44 page=0 chnl=0
char id=32854 x=1133 y=747 width=47 height=45 xoffset=0 yoffset=-3 xadvance=44 page=0 chnl=0
char id=22900 x=409 y=978 width=48 height=47 xoffset=0 yoffset=-3 xadvance=44 page=0 chnl=0
char id=24066 x=409 y=929 width=47 height=48 xoffset=0 yoffset=-4 xadvance=44 page=0 chnl=0
char id=29420 x=661 y=113 width=49 height=47 xoffset=0 yoffset=-3 xadvance=44 page=0 chnl=0
char id=21344 x=1356 y=890 width=43 height=46 xoffset=4 yoffset=-3 xadvance=44 page=0 chnl=0
char id=38598 x=161 y=948 width=48 height=49 xoffset=0 yoffset=-4 xadvance=44 page=0 chnl=0
char id=22243 x=1355 y=985 width=45 height=45 xoffset=2 yoffset=-2 xadvance=44 page=0 chnl=0
char id=36066 x=1085 y=747 width=47 height=47 xoffset=1 yoffset=-3 xadvance=44 page=0 chnl=0
char id=21531 x=409 y=883 width=48 height=45 xoffset=0 yoffset=-2 xadvance=44 page=0 chnl=0
char id=12462 x=161 y=898 width=48 height=49 xoffset=2 yoffset=-5 xadvance=44 page=0 chnl=0
char id=32102 x=161 y=849 width=49 height=48 xoffset=0 yoffset=-4 xadvance=44 page=0 chnl=0
char id=33029 x=161 y=799 width=47 height=49 xoffset=0 yoffset=-5 xadvance=44 page=0 chnl=0
char id=36843 x=611 y=113 width=49 height=47 xoffset=0 yoffset=-4 xadvance=44 page=0 chnl=0
char id=23550 x=409 y=835 width=48 height=47 xoffset=0 yoffset=-4 xadvance=44 page=0 chnl=0
char id=24505 x=276 y=14 width=50 height=48 xoffset=0 yoffset=-4 xadvance=44 page=0 chnl=0
char id=24213 x=561 y=113 width=49 height=47 xoffset=0 yoffset=-4 xadvance=44 page=0 chnl=0
char id=25239 x=409 y=786 width=48 height=48 xoffset=0 yoffset=-4 xadvance=44 page=0 chnl=0
char id=25126 x=161 y=750 width=49 height=48 xoffset=0 yoffset=-4 xadvance=44 page=0 chnl=0
char id=27083 x=161 y=701 width=49 height=48 xoffset=0 yoffset=-4 xadvance=44 page=0 chnl=0
char id=27801 x=511 y=113 width=49 height=47 xoffset=0 yoffset=-3 xadvance=44 page=0 chnl=0
char id=27760 x=409 y=738 width=48 height=47 xoffset=0 yoffset=-3 xadvance=44 page=0 chnl=0
char id=29579 x=1037 y=747 width=47 height=42 xoffset=0 yoffset=-1 xadvance=44 page=0 chnl=0
char id=22675 x=461 y=113 width=49 height=47 xoffset=0 yoffset=-4 xadvance=44 page=0 chnl=0
char id=25496 x=409 y=689 width=47 height=48 xoffset=0 yoffset=-4 xadvance=44 page=0 chnl=0
char id=20182 x=409 y=640 width=48 height=48 xoffset=0 yoffset=-4 xadvance=44 page=0 chnl=0
char id=36939 x=411 y=113 width=49 height=46 xoffset=0 yoffset=-3 xadvance=44 page=0 chnl=0
char id=21629 x=161 y=652 width=49 height=48 xoffset=0 yoffset=-4 xadvance=44 page=0 chnl=0
char id=22303 x=989 y=747 width=47 height=45 xoffset=0 yoffset=-3 xadvance=44 page=0 chnl=0
char id=25964 x=161 y=603 width=49 height=48 xoffset=0 yoffset=-4 xadvance=44 page=0 chnl=0
char id=25173 x=409 y=591 width=47 height=48 xoffset=0 yoffset=-4 xadvance=44 page=0 chnl=0
char id=20778 x=161 y=554 width=49 height=48 xoffset=0 yoffset=-4 xadvance=44 page=0 chnl=0
char id=38597 x=409 y=542 width=48 height=48 xoffset=0 yoffset=-4 xadvance=44 page=0 chnl=0
char id=25666 x=409 y=493 width=48 height=48 xoffset=0 yoffset=-4 xadvance=44 page=0 chnl=0
char id=30149 x=161 y=505 width=49 height=48 xoffset=0 yoffset=-4 xadvance=44 page=0 chnl=0
char id=38306 x=702 y=1228 width=45 height=47 xoffset=2 yoffset=-3 xadvance=44 page=0 chnl=0
char id=36899 x=361 y=113 width=49 height=47 xoffset=0 yoffset=-4 xadvance=44 page=0 chnl=0
char id=24037 x=409 y=453 width=48 height=39 xoffset=0 yoffset=1 xadvance=44 page=0 chnl=0
char id=25945 x=161 y=456 width=49 height=48 xoffset=0 yoffset=-4 xadvance=44 page=0 chnl=0
char id=25480 x=161 y=407 width=49 height=48 xoffset=0 yoffset=-4 xadvance=44 page=0 chnl=0
char id=27515 x=409 y=406 width=48 height=46 xoffset=0 yoffset=-2 xadvance=44 page=0 chnl=0
char id=33235 x=225 y=14 width=50 height=48 xoffset=0 yoffset=-4 xadvance=44 page=0 chnl=0
char id=22411 x=941 y=747 width=47 height=46 xoffset=1 yoffset=-3 xadvance=44 page=0 chnl=0
char id=31958 x=161 y=358 width=49 height=48 xoffset=0 yoffset=-4 xadvance=44 page=0 chnl=0
char id=23615 x=1381 y=357 width=48 height=46 xoffset=0 yoffset=-2 xadvance=44 page=0 chnl=0
char id=32933 x=1332 y=357 width=48 height=47 xoffset=0 yoffset=-3 xadvance=44 page=0 chnl=0
char id=38450 x=1284 y=357 width=47 height=48 xoffset=2 yoffset=-4 xadvance=44 page=0 chnl=0
char id=28057 x=1235 y=357 width=48 height=47 xoffset=0 yoffset=-3 xadvance=44 page=0 chnl=0
char id=28024 x=1186 y=357 width=48 height=47 xoffset=0 yoffset=-3 xadvance=44 page=0 chnl=0
char id=36637 x=1137 y=357 width=48 height=48 xoffset=0 yoffset=-3 xadvance=44 page=0 chnl=0
char id=22826 x=1088 y=357 width=48 height=47 xoffset=0 yoffset=-4 xadvance=44 page=0 chnl=0
char id=38525 x=702 y=1180 width=46 height=47 xoffset=2 yoffset=-3 xadvance=44 page=0 chnl=0
char id=31309 x=161 y=308 width=49 height=49 xoffset=0 yoffset=-4 xadvance=44 page=0 chnl=0
char id=33268 x=161 y=259 width=49 height=48 xoffset=0 yoffset=-4 xadvance=44 page=0 chnl=0
char id=20184 x=1039 y=357 width=48 height=48 xoffset=0 yoffset=-4 xadvance=44 page=0 chnl=0
char id=65293 x=264 y=1 width=38 height=12 xoffset=5 yoffset=14 xadvance=44 page=0 chnl=0
char id=29123 x=161 y=210 width=49 height=48 xoffset=0 yoffset=-4 xadvance=44 page=0 chnl=0
char id=21033 x=992 y=357 width=46 height=48 xoffset=0 yoffset=-4 xadvance=44 page=0 chnl=0
char id=36947 x=311 y=113 width=49 height=47 xoffset=0 yoffset=-4 xadvance=44 page=0 chnl=0
char id=26144 x=943 y=357 width=48 height=48 xoffset=1 yoffset=-4 xadvance=44 page=0 chnl=0
char id=30011 x=893 y=747 width=47 height=45 xoffset=0 yoffset=-2 xadvance=44 page=0 chnl=0
char id=36870 x=261 y=113 width=49 height=47 xoffset=0 yoffset=-4 xadvance=44 page=0 chnl=0
char id=35186 x=894 y=357 width=48 height=48 xoffset=0 yoffset=-4 xadvance=44 page=0 chnl=0
char id=33288 x=211 y=113 width=49 height=47 xoffset=0 yoffset=-3 xadvance=44 page=0 chnl=0
char id=26367 x=845 y=747 width=47 height=47 xoffset=0 yoffset=-4 xadvance=44 page=0 chnl=0
char id=26119 x=797 y=747 width=47 height=47 xoffset=0 yoffset=-2 xadvance=44 page=0 chnl=0
char id=32209 x=161 y=161 width=49 height=48 xoffset=0 yoffset=-4 xadvance=44 page=0 chnl=0
char id=33394 x=702 y=1132 width=46 height=47 xoffset=0 yoffset=-4 xadvance=44 page=0 chnl=0
char id=36007 x=846 y=357 width=47 height=48 xoffset=1 yoffset=-4 xadvance=44 page=0 chnl=0
char id=39138 x=797 y=357 width=48 height=47 xoffset=0 yoffset=-3 xadvance=44 page=0 chnl=0
char id=39187 x=161 y=113 width=49 height=47 xoffset=0 yoffset=-3 xadvance=44 page=0 chnl=0
char id=33510 x=749 y=1361 width=47 height=47 xoffset=0 yoffset=-4 xadvance=44 page=0 chnl=0
char id=25903 x=749 y=357 width=47 height=48 xoffset=1 yoffset=-4 xadvance=44 page=0 chnl=0
char id=25588 x=111 y=1379 width=49 height=48 xoffset=0 yoffset=-4 xadvance=44 page=0 chnl=0
char id=27963 x=700 y=357 width=48 height=47 xoffset=0 yoffset=-4 xadvance=44 page=0 chnl=0
char id=23459 x=702 y=1084 width=46 height=47 xoffset=1 yoffset=-4 xadvance=44 page=0 chnl=0
char id=32066 x=651 y=357 width=48 height=48 xoffset=0 yoffset=-4 xadvance=44 page=0 chnl=0
char id=23567 x=111 y=1331 width=49 height=47 xoffset=0 yoffset=-4 xadvance=44 page=0 chnl=0
char id=40614 x=603 y=357 width=47 height=48 xoffset=1 yoffset=-4 xadvance=44 page=0 chnl=0
char id=20856 x=111 y=1282 width=49 height=48 xoffset=0 yoffset=-4 xadvance=44 page=0 chnl=0
char id=33261 x=555 y=357 width=47 height=48 xoffset=0 yoffset=-4 xadvance=44 page=0 chnl=0
char id=21463 x=507 y=357 width=47 height=48 xoffset=1 yoffset=-4 xadvance=44 page=0 chnl=0
char id=35299 x=458 y=357 width=48 height=48 xoffset=0 yoffset=-4 xadvance=44 page=0 chnl=0
char id=35501 x=409 y=357 width=48 height=48 xoffset=0 yoffset=-4 xadvance=44 page=0 chnl=0
char id=33322 x=111 y=1233 width=49 height=48 xoffset=0 yoffset=-4 xadvance=44 page=0 chnl=0
char id=21610 x=749 y=1314 width=47 height=46 xoffset=1 yoffset=-2 xadvance=44 page=0 chnl=0
char id=20803 x=749 y=1268 width=47 height=45 xoffset=0 yoffset=-1 xadvance=44 page=0 chnl=0
char id=27468 x=111 y=1184 width=49 height=48 xoffset=0 yoffset=-4 xadvance=44 page=0 chnl=0
char id=39366 x=111 y=1136 width=49 height=47 xoffset=0 yoffset=-3 xadvance=44 page=0 chnl=0
char id=24033 x=111 y=1089 width=49 height=46 xoffset=0 yoffset=-3 xadvance=44 page=0 chnl=0
char id=12527 x=1299 y=1166 width=40 height=41 xoffset=4 yoffset=1 xadvance=44 page=0 chnl=0
char id=35477 x=111 y=1041 width=49 height=47 xoffset=0 yoffset=-4 xadvance=44 page=0 chnl=0
char id=21151 x=749 y=1220 width=47 height=47 xoffset=0 yoffset=-3 xadvance=44 page=0 chnl=0
char id=21040 x=702 y=1036 width=46 height=47 xoffset=0 yoffset=-4 xadvance=44 page=0 chnl=0
char id=32321 x=111 y=991 width=48 height=49 xoffset=0 yoffset=-4 xadvance=44 page=0 chnl=0
char id=30427 x=360 y=1383 width=48 height=47 xoffset=0 yoffset=-4 xadvance=44 page=0 chnl=0
char id=28322 x=111 y=944 width=49 height=46 xoffset=0 yoffset=-3 xadvance=44 page=0 chnl=0
char id=24120 x=360 y=1334 width=45 height=48 xoffset=2 yoffset=-4 xadvance=44 page=0 chnl=0
char id=28145 x=111 y=896 width=49 height=47 xoffset=0 yoffset=-3 xadvance=44 page=0 chnl=0
char id=38480 x=749 y=1172 width=47 height=47 xoffset=2 yoffset=-3 xadvance=44 page=0 chnl=0
char id=21360 x=702 y=988 width=45 height=47 xoffset=2 yoffset=-3 xadvance=44 page=0 chnl=0
char id=35937 x=111 y=846 width=47 height=49 xoffset=0 yoffset=-5 xadvance=44 page=0 chnl=0
char id=31105 x=360 y=1285 width=48 height=48 xoffset=0 yoffset=-4 xadvance=44 page=0 chnl=0
char id=27490 x=749 y=1125 width=47 height=46 xoffset=0 yoffset=-4 xadvance=44 page=0 chnl=0
char id=31532 x=360 y=1236 width=47 height=48 xoffset=0 yoffset=-4 xadvance=44 page=0 chnl=0
char id=22235 x=1309 y=985 width=45 height=42 xoffset=2 yoffset=-1 xadvance=44 page=0 chnl=0
char id=36578 x=360 y=1187 width=48 height=48 xoffset=0 yoffset=-4 xadvance=44 page=0 chnl=0
char id=21127 x=360 y=1138 width=47 height=48 xoffset=0 yoffset=-4 xadvance=44 page=0 chnl=0
char id=12519 x=1437 y=504 width=33 height=34 xoffset=7 yoffset=7 xadvance=44 page=0 chnl=0
char id=32905 x=360 y=1089 width=44 height=48 xoffset=2 yoffset=-4 xadvance=44 page=0 chnl=0
char id=32210 x=360 y=1040 width=48 height=48 xoffset=0 yoffset=-4 xadvance=44 page=0 chnl=0
char id=36362 x=360 y=992 width=48 height=47 xoffset=0 yoffset=-3 xadvance=44 page=0 chnl=0
char id=34411 x=702 y=940 width=46 height=47 xoffset=1 yoffset=-4 xadvance=44 page=0 chnl=0
char id=35222 x=111 y=797 width=49 height=48 xoffset=0 yoffset=-4 xadvance=44 page=0 chnl=0
char id=24745 x=360 y=943 width=47 height=48 xoffset=0 yoffset=-4 xadvance=44 page=0 chnl=0
char id=26159 x=749 y=1077 width=47 height=47 xoffset=0 yoffset=-3 xadvance=44 page=0 chnl=0
char id=38750 x=360 y=894 width=48 height=48 xoffset=0 yoffset=-4 xadvance=44 page=0 chnl=0
char id=39770 x=360 y=845 width=46 height=48 xoffset=1 yoffset=-4 xadvance=44 page=0 chnl=0
char id=27891 x=360 y=797 width=48 height=47 xoffset=0 yoffset=-3 xadvance=44 page=0 chnl=0
char id=22238 x=1263 y=985 width=45 height=45 xoffset=2 yoffset=-3 xadvance=44 page=0 chnl=0
char id=35069 x=360 y=748 width=48 height=48 xoffset=0 yoffset=-4 xadvance=44 page=0 chnl=0
char id=36896 x=111 y=749 width=49 height=47 xoffset=0 yoffset=-4 xadvance=44 page=0 chnl=0
char id=25216 x=360 y=699 width=48 height=48 xoffset=1 yoffset=-4 xadvance=44 page=0 chnl=0
char id=34899 x=111 y=700 width=49 height=48 xoffset=0 yoffset=-4 xadvance=44 page=0 chnl=0
char id=38761 x=360 y=650 width=47 height=48 xoffset=1 yoffset=-4 xadvance=44 page=0 chnl=0
char id=25551 x=360 y=601 width=48 height=48 xoffset=0 yoffset=-4 xadvance=44 page=0 chnl=0
char id=24418 x=360 y=553 width=48 height=47 xoffset=0 yoffset=-3 xadvance=44 page=0 chnl=0
char id=21487 x=749 y=1031 width=47 height=45 xoffset=1 yoffset=-2 xadvance=44 page=0 chnl=0
char id=33021 x=360 y=504 width=48 height=48 xoffset=0 yoffset=-4 xadvance=44 page=0 chnl=0
char id=22793 x=360 y=455 width=48 height=48 xoffset=0 yoffset=-4 xadvance=44 page=0 chnl=0
char id=24112 x=360 y=406 width=47 height=48 xoffset=1 yoffset=-4 xadvance=44 page=0 chnl=0
char id=22888 x=360 y=357 width=48 height=48 xoffset=0 yoffset=-4 xadvance=44 page=0 chnl=0
char id=21046 x=1381 y=308 width=46 height=48 xoffset=0 yoffset=-4 xadvance=44 page=0 chnl=0
char id=32233 x=111 y=651 width=49 height=48 xoffset=0 yoffset=-4 xadvance=44 page=0 chnl=0
char id=28310 x=1333 y=308 width=47 height=48 xoffset=0 yoffset=-4 xadvance=44 page=0 chnl=0
char id=26522 x=111 y=602 width=49 height=48 xoffset=0 yoffset=-4 xadvance=44 page=0 chnl=0
char id=12513 x=1124 y=1333 width=40 height=43 xoffset=4 yoffset=-2 xadvance=44 page=0 chnl=0
char id=21488 x=702 y=892 width=46 height=47 xoffset=1 yoffset=-4 xadvance=44 page=0 chnl=0
char id=21496 x=1311 y=890 width=44 height=46 xoffset=1 yoffset=-3 xadvance=44 page=0 chnl=0
char id=26029 x=749 y=983 width=47 height=47 xoffset=1 yoffset=-3 xadvance=44 page=0 chnl=0
char id=65286 x=72 y=434 width=37 height=43 xoffset=5 yoffset=-1 xadvance=44 page=0 chnl=0
char id=32000 x=1284 y=308 width=48 height=48 xoffset=0 yoffset=-4 xadvance=44 page=0 chnl=0
char id=20105 x=1235 y=308 width=48 height=48 xoffset=0 yoffset=-4 xadvance=44 page=0 chnl=0
char id=25918 x=1186 y=308 width=48 height=47 xoffset=0 yoffset=-3 xadvance=44 page=0 chnl=0
char id=36865 x=1137 y=308 width=48 height=47 xoffset=0 yoffset=-4 xadvance=44 page=0 chnl=0
char id=25147 x=1088 y=308 width=48 height=46 xoffset=0 yoffset=-2 xadvance=44 page=0 chnl=0
char id=23616 x=749 y=936 width=47 height=46 xoffset=0 yoffset=-2 xadvance=44 page=0 chnl=0
char id=23626 x=749 y=889 width=47 height=46 xoffset=0 yoffset=-3 xadvance=44 page=0 chnl=0
char id=24565 x=1039 y=308 width=48 height=47 xoffset=0 yoffset=-4 xadvance=44 page=0 chnl=0
char id=32884 x=111 y=553 width=49 height=48 xoffset=0 yoffset=-4 xadvance=44 page=0 chnl=0
char id=24773 x=990 y=308 width=48 height=48 xoffset=0 yoffset=-4 xadvance=44 page=0 chnl=0
char id=39131 x=111 y=505 width=49 height=47 xoffset=0 yoffset=-3 xadvance=44 page=0 chnl=0
char id=33509 x=749 y=842 width=47 height=46 xoffset=0 yoffset=-3 xadvance=44 page=0 chnl=0
char id=28845 x=942 y=308 width=47 height=48 xoffset=0 yoffset=-4 xadvance=44 page=0 chnl=0
char id=21839 x=702 y=844 width=44 height=47 xoffset=2 yoffset=-3 xadvance=44 page=0 chnl=0
char id=25563 x=111 y=456 width=49 height=48 xoffset=0 yoffset=-4 xadvance=44 page=0 chnl=0
char id=31639 x=111 y=406 width=47 height=49 xoffset=0 yoffset=-4 xadvance=44 page=0 chnl=0
char id=27598 x=893 y=308 width=48 height=48 xoffset=0 yoffset=-4 xadvance=44 page=0 chnl=0
char id=31186 x=111 y=357 width=49 height=48 xoffset=0 yoffset=-4 xadvance=44 page=0 chnl=0
char id=26152 x=845 y=308 width=47 height=48 xoffset=1 yoffset=-4 xadvance=44 page=0 chnl=0
char id=26118 x=749 y=795 width=47 height=46 xoffset=0 yoffset=-2 xadvance=44 page=0 chnl=0
char id=27663 x=749 y=747 width=47 height=47 xoffset=0 yoffset=-3 xadvance=44 page=0 chnl=0
char id=36196 x=797 y=308 width=47 height=48 xoffset=0 yoffset=-4 xadvance=44 page=0 chnl=0
char id=26001 x=748 y=308 width=48 height=46 xoffset=0 yoffset=-3 xadvance=44 page=0 chnl=0
char id=22825 x=699 y=308 width=48 height=44 xoffset=0 yoffset=-1 xadvance=44 page=0 chnl=0
char id=36523 x=652 y=308 width=46 height=48 xoffset=1 yoffset=-4 xadvance=44 page=0 chnl=0
char id=24049 x=1218 y=985 width=44 height=45 xoffset=3 yoffset=-2 xadvance=44 page=0 chnl=0
char id=34907 x=111 y=308 width=49 height=48 xoffset=0 yoffset=-4 xadvance=44 page=0 chnl=0
char id=30382 x=604 y=308 width=47 height=48 xoffset=0 yoffset=-4 xadvance=44 page=0 chnl=0
char id=28357 x=174 y=14 width=50 height=48 xoffset=0 yoffset=-4 xadvance=44 page=0 chnl=0
char id=27231 x=111 y=259 width=49 height=48 xoffset=0 yoffset=-4 xadvance=44 page=0 chnl=0
char id=28693 x=111 y=210 width=49 height=48 xoffset=0 yoffset=-4 xadvance=44 page=0 chnl=0
char id=39080 x=123 y=14 width=50 height=46 xoffset=0 yoffset=-2 xadvance=44 page=0 chnl=0
char id=30436 x=555 y=308 width=48 height=47 xoffset=0 yoffset=-4 xadvance=44 page=0 chnl=0
char id=21336 x=507 y=308 width=47 height=48 xoffset=0 yoffset=-4 xadvance=44 page=0 chnl=0
char id=20598 x=458 y=308 width=48 height=48 xoffset=0 yoffset=-4 xadvance=44 page=0 chnl=0
char id=35443 x=409 y=308 width=48 height=48 xoffset=0 yoffset=-4 xadvance=44 page=0 chnl=0
char id=29987 x=360 y=308 width=48 height=48 xoffset=0 yoffset=-4 xadvance=44 page=0 chnl=0
char id=21147 x=702 y=796 width=43 height=47 xoffset=2 yoffset=-4 xadvance=44 page=0 chnl=0
char id=37326 x=311 y=1373 width=48 height=46 xoffset=0 yoffset=-2 xadvance=44 page=0 chnl=0
char id=33756 x=311 y=1324 width=48 height=48 xoffset=0 yoffset=-4 xadvance=44 page=0 chnl=0
char id=12478 x=311 y=1275 width=46 height=48 xoffset=4 yoffset=-5 xadvance=44 page=0 chnl=0
char id=30001 x=1266 y=890 width=44 height=46 xoffset=2 yoffset=-3 xadvance=44 page=0 chnl=0
char id=36229 x=111 y=162 width=49 height=47 xoffset=0 yoffset=-4 xadvance=44 page=0 chnl=0
char id=20844 x=311 y=1228 width=48 height=46 xoffset=0 yoffset=-3 xadvance=44 page=0 chnl=0
char id=29105 x=111 y=113 width=49 height=48 xoffset=0 yoffset=-4 xadvance=44 page=0 chnl=0
char id=32368 x=1408 y=63 width=49 height=48 xoffset=0 yoffset=-4 xadvance=44 page=0 chnl=0
char id=24195 x=311 y=1180 width=48 height=47 xoffset=0 yoffset=-3 xadvance=44 page=0 chnl=0
char id=25955 x=1358 y=63 width=49 height=48 xoffset=0 yoffset=-4 xadvance=44 page=0 chnl=0
char id=22855 x=311 y=1131 width=47 height=48 xoffset=1 yoffset=-4 xadvance=44 page=0 chnl=0
char id=22937 x=1308 y=63 width=49 height=48 xoffset=0 yoffset=-4 xadvance=44 page=0 chnl=0
char id=36996 x=1258 y=63 width=49 height=46 xoffset=0 yoffset=-3 xadvance=44 page=0 chnl=0
char id=26524 x=311 y=1084 width=48 height=46 xoffset=0 yoffset=-2 xadvance=44 page=0 chnl=0
char id=36942 x=1208 y=63 width=49 height=46 xoffset=0 yoffset=-3 xadvance=44 page=0 chnl=0
char id=21435 x=1378 y=698 width=47 height=47 xoffset=1 yoffset=-3 xadvance=44 page=0 chnl=0
char id=35598 x=311 y=1036 width=48 height=47 xoffset=0 yoffset=-4 xadvance=44 page=0 chnl=0
char id=38500 x=311 y=987 width=47 height=48 xoffset=1 yoffset=-4 xadvance=44 page=0 chnl=0
char id=26408 x=311 y=938 width=48 height=48 xoffset=0 yoffset=-4 xadvance=44 page=0 chnl=0
char id=26449 x=311 y=889 width=48 height=48 xoffset=0 yoffset=-4 xadvance=44 page=0 chnl=0
char id=22495 x=1158 y=63 width=49 height=47 xoffset=0 yoffset=-4 xadvance=44 page=0 chnl=0
char id=26395 x=1330 y=698 width=47 height=47 xoffset=0 yoffset=-4 xadvance=44 page=0 chnl=0
char id=23481 x=1282 y=698 width=47 height=47 xoffset=0 yoffset=-4 xadvance=44 page=0 chnl=0
char id=37327 x=311 y=842 width=48 height=46 xoffset=0 yoffset=-3 xadvance=44 page=0 chnl=0
char id=39364 x=1108 y=63 width=49 height=47 xoffset=0 yoffset=-3 xadvance=44 page=0 chnl=0
char id=39442 x=1058 y=63 width=49 height=47 xoffset=0 yoffset=-3 xadvance=44 page=0 chnl=0
char id=26399 x=311 y=793 width=47 height=48 xoffset=0 yoffset=-4 xadvance=44 page=0 chnl=0
char id=21942 x=1424 y=650 width=45 height=47 xoffset=2 yoffset=-4 xadvance=44 page=0 chnl=0
char id=20102 x=988 y=1126 width=42 height=45 xoffset=3 yoffset=-2 xadvance=44 page=0 chnl=0
char id=32097 x=1008 y=63 width=49 height=48 xoffset=0 yoffset=-4 xadvance=44 page=0 chnl=0
char id=20303 x=311 y=744 width=48 height=48 xoffset=0 yoffset=-4 xadvance=44 page=0 chnl=0
char id=36864 x=958 y=63 width=49 height=46 xoffset=0 yoffset=-3 xadvance=44 page=0 chnl=0
char id=38899 x=1234 y=698 width=47 height=47 xoffset=0 yoffset=-4 xadvance=44 page=0 chnl=0
char id=36335 x=908 y=63 width=49 height=47 xoffset=0 yoffset=-4 xadvance=44 page=0 chnl=0
char id=33879 x=311 y=696 width=48 height=47 xoffset=0 yoffset=-4 xadvance=44 page=0 chnl=0
char id=20225 x=311 y=649 width=48 height=46 xoffset=0 yoffset=-4 xadvance=44 page=0 chnl=0
char id=21050 x=311 y=600 width=47 height=48 xoffset=0 yoffset=-4 xadvance=44 page=0 chnl=0
char id=28608 x=858 y=63 width=49 height=48 xoffset=0 yoffset=-4 xadvance=44 page=0 chnl=0
char id=36867 x=808 y=63 width=49 height=47 xoffset=0 yoffset=-4 xadvance=44 page=0 chnl=0
char id=23429 x=1186 y=698 width=47 height=47 xoffset=1 yoffset=-4 xadvance=44 page=0 chnl=0
char id=21177 x=1138 y=698 width=47 height=47 xoffset=0 yoffset=-3 xadvance=44 page=0 chnl=0
char id=20001 x=311 y=553 width=48 height=46 xoffset=0 yoffset=-2 xadvance=44 page=0 chnl=0
char id=31070 x=311 y=504 width=47 height=48 xoffset=0 yoffset=-4 xadvance=44 page=0 chnl=0
char id=32080 x=311 y=455 width=48 height=48 xoffset=0 yoffset=-4 xadvance=44 page=0 chnl=0
char id=37096 x=311 y=406 width=48 height=48 xoffset=0 yoffset=-4 xadvance=44 page=0 chnl=0
char id=65288 x=1 y=159 width=20 height=50 xoffset=28 yoffset=-5 xadvance=44 page=0 chnl=0
char id=31216 x=758 y=63 width=49 height=48 xoffset=0 yoffset=-4 xadvance=44 page=0 chnl=0
char id=65289 x=1 y=108 width=20 height=50 xoffset=1 yoffset=-5 xadvance=44 page=0 chnl=0
char id=25276 x=311 y=357 width=46 height=48 xoffset=0 yoffset=-4 xadvance=44 page=0 chnl=0
char id=27578 x=708 y=63 width=49 height=48 xoffset=0 yoffset=-4 xadvance=44 page=0 chnl=0
char id=12493 x=1220 y=890 width=45 height=46 xoffset=1 yoffset=-3 xadvance=44 page=0 chnl=0
char id=37117 x=311 y=308 width=48 height=48 xoffset=0 yoffset=-4 xadvance=44 page=0 chnl=0
char id=35430 x=658 y=63 width=49 height=47 xoffset=0 yoffset=-4 xadvance=44 page=0 chnl=0
char id=23637 x=1386 y=259 width=48 height=47 xoffset=0 yoffset=-3 xadvance=44 page=0 chnl=0
char id=33303 x=608 y=63 width=49 height=48 xoffset=0 yoffset=-4 xadvance=44 page=0 chnl=0
char id=25307 x=1338 y=259 width=47 height=48 xoffset=0 yoffset=-4 xadvance=44 page=0 chnl=0
char id=21338 x=1289 y=259 width=48 height=48 xoffset=0 yoffset=-4 xadvance=44 page=0 chnl=0
char id=21442 x=1240 y=259 width=48 height=48 xoffset=0 yoffset=-4 xadvance=44 page=0 chnl=0
char id=21152 x=1376 y=650 width=47 height=47 xoffset=0 yoffset=-4 xadvance=44 page=0 chnl=0
char id=38459 x=1329 y=650 width=46 height=47 xoffset=2 yoffset=-3 xadvance=44 page=0 chnl=0
char id=26908 x=558 y=63 width=49 height=48 xoffset=0 yoffset=-4 xadvance=44 page=0 chnl=0
char id=24536 x=1281 y=650 width=47 height=47 xoffset=0 yoffset=-4 xadvance=44 page=0 chnl=0
char id=27604 x=1191 y=259 width=48 height=46 xoffset=0 yoffset=-3 xadvance=44 page=0 chnl=0
char id=36611 x=1142 y=259 width=48 height=48 xoffset=0 yoffset=-4 xadvance=44 page=0 chnl=0
char id=20301 x=508 y=63 width=49 height=48 xoffset=0 yoffset=-4 xadvance=44 page=0 chnl=0
char id=20055 x=1093 y=259 width=48 height=48 xoffset=0 yoffset=-4 xadvance=44 page=0 chnl=0
char id=36965 x=458 y=63 width=49 height=47 xoffset=0 yoffset=-4 xadvance=44 page=0 chnl=0
char id=36960 x=408 y=63 width=49 height=47 xoffset=0 yoffset=-4 xadvance=44 page=0 chnl=0
char id=35486 x=1044 y=259 width=48 height=46 xoffset=0 yoffset=-3 xadvance=44 page=0 chnl=0
char id=32908 x=358 y=63 width=49 height=46 xoffset=0 yoffset=-2 xadvance=44 page=0 chnl=0
char id=30528 x=995 y=259 width=48 height=47 xoffset=0 yoffset=-4 xadvance=44 page=0 chnl=0
char id=28611 x=946 y=259 width=48 height=48 xoffset=0 yoffset=-4 xadvance=44 page=0 chnl=0
char id=21402 x=897 y=259 width=48 height=47 xoffset=0 yoffset=-3 xadvance=44 page=0 chnl=0
char id=29190 x=308 y=63 width=49 height=47 xoffset=0 yoffset=-3 xadvance=44 page=0 chnl=0
char id=20280 x=849 y=259 width=47 height=48 xoffset=0 yoffset=-4 xadvance=44 page=0 chnl=0
char id=33145 x=258 y=63 width=49 height=48 xoffset=0 yoffset=-4 xadvance=44 page=0 chnl=0
char id=30171 x=208 y=63 width=49 height=49 xoffset=0 yoffset=-5 xadvance=44 page=0 chnl=0
char id=26696 x=159 y=63 width=48 height=49 xoffset=0 yoffset=-5 xadvance=44 page=0 chnl=0
char id=38918 x=1386 y=14 width=49 height=47 xoffset=0 yoffset=-3 xadvance=44 page=0 chnl=0
char id=39180 x=1336 y=14 width=49 height=48 xoffset=0 yoffset=-4 xadvance=44 page=0 chnl=0
char id=40165 x=801 y=259 width=47 height=48 xoffset=0 yoffset=-4 xadvance=44 page=0 chnl=0
char id=37325 x=1233 y=650 width=47 height=47 xoffset=0 yoffset=-4 xadvance=44 page=0 chnl=0
char id=23566 x=752 y=259 width=48 height=48 xoffset=1 yoffset=-4 xadvance=44 page=0 chnl=0
char id=31243 x=1286 y=14 width=49 height=48 xoffset=0 yoffset=-4 xadvance=44 page=0 chnl=0
char id=20493 x=1236 y=14 width=49 height=48 xoffset=0 yoffset=-4 xadvance=44 page=0 chnl=0
char id=12407 x=703 y=259 width=48 height=45 xoffset=1 yoffset=-3 xadvance=44 page=0 chnl=0
char id=26377 x=654 y=259 width=48 height=48 xoffset=0 yoffset=-4 xadvance=44 page=0 chnl=0
char id=21517 x=1188 y=650 width=44 height=47 xoffset=0 yoffset=-4 xadvance=44 page=0 chnl=0
char id=25613 x=605 y=259 width=48 height=48 xoffset=0 yoffset=-4 xadvance=44 page=0 chnl=0
char id=20919 x=1186 y=14 width=49 height=48 xoffset=0 yoffset=-4 xadvance=44 page=0 chnl=0
char id=21271 x=556 y=259 width=48 height=47 xoffset=0 yoffset=-3 xadvance=44 page=0 chnl=0
char id=30452 x=1141 y=650 width=46 height=47 xoffset=1 yoffset=-4 xadvance=44 page=0 chnl=0
char id=23529 x=507 y=259 width=48 height=47 xoffset=0 yoffset=-4 xadvance=44 page=0 chnl=0
char id=35302 x=458 y=259 width=48 height=48 xoffset=0 yoffset=-4 xadvance=44 page=0 chnl=0
char id=8213 x=172 y=1 width=46 height=10 xoffset=1 yoffset=15 xadvance=44 page=0 chnl=0
char id=22727 x=1136 y=14 width=49 height=47 xoffset=0 yoffset=-4 xadvance=44 page=0 chnl=0
char id=25237 x=409 y=259 width=48 height=48 xoffset=0 yoffset=-4 xadvance=44 page=0 chnl=0
char id=31080 x=1173 y=890 width=46 height=46 xoffset=1 yoffset=-2 xadvance=44 page=0 chnl=0
char id=26413 x=360 y=259 width=48 height=48 xoffset=0 yoffset=-4 xadvance=44 page=0 chnl=0
char id=22766 x=311 y=259 width=48 height=48 xoffset=0 yoffset=-4 xadvance=44 page=0 chnl=0
char id=32020 x=261 y=1388 width=48 height=48 xoffset=0 yoffset=-4 xadvance=44 page=0 chnl=0
char id=31883 x=1086 y=14 width=49 height=48 xoffset=0 yoffset=-4 xadvance=44 page=0 chnl=0
char id=32681 x=261 y=1339 width=48 height=48 xoffset=0 yoffset=-4 xadvance=44 page=0 chnl=0
char id=25080 x=1093 y=650 width=47 height=47 xoffset=0 yoffset=-3 xadvance=44 page=0 chnl=0
char id=25265 x=261 y=1290 width=48 height=48 xoffset=0 yoffset=-4 xadvance=44 page=0 chnl=0
char id=23041 x=1036 y=14 width=49 height=47 xoffset=0 yoffset=-3 xadvance=44 page=0 chnl=0
char id=22530 x=1045 y=650 width=47 height=47 xoffset=1 yoffset=-4 xadvance=44 page=0 chnl=0
char id=27442 x=986 y=14 width=49 height=48 xoffset=0 yoffset=-4 xadvance=44 page=0 chnl=0
char id=37613 x=936 y=14 width=49 height=47 xoffset=0 yoffset=-3 xadvance=44 page=0 chnl=0
char id=32887 x=72 y=14 width=50 height=48 xoffset=0 yoffset=-4 xadvance=44 page=0 chnl=0
char id=32680 x=261 y=1241 width=48 height=48 xoffset=0 yoffset=-4 xadvance=44 page=0 chnl=0
char id=36062 x=111 y=63 width=47 height=49 xoffset=1 yoffset=-4 xadvance=44 page=0 chnl=0
char id=31934 x=261 y=1192 width=48 height=48 xoffset=0 yoffset=-4 xadvance=44 page=0 chnl=0
char id=26479 x=886 y=14 width=49 height=48 xoffset=0 yoffset=-4 xadvance=44 page=0 chnl=0
char id=35408 x=261 y=1143 width=48 height=48 xoffset=0 yoffset=-4 xadvance=44 page=0 chnl=0
char id=27450 x=836 y=14 width=49 height=48 xoffset=0 yoffset=-4 xadvance=44 page=0 chnl=0
char id=30097 x=261 y=1095 width=48 height=47 xoffset=0 yoffset=-3 xadvance=44 page=0 chnl=0
char id=25351 x=261 y=1046 width=47 height=48 xoffset=0 yoffset=-4 xadvance=44 page=0 chnl=0
char id=32027 x=786 y=14 width=49 height=48 xoffset=0 yoffset=-4 xadvance=44 page=0 chnl=0
char id=30495 x=261 y=997 width=47 height=48 xoffset=0 yoffset=-4 xadvance=44 page=0 chnl=0
char id=24471 x=261 y=948 width=48 height=48 xoffset=0 yoffset=-4 xadvance=44 page=0 chnl=0
char id=25447 x=261 y=899 width=48 height=48 xoffset=0 yoffset=-4 xadvance=44 page=0 chnl=0
char id=25913 x=261 y=850 width=47 height=48 xoffset=1 yoffset=-4 xadvance=44 page=0 chnl=0
char id=39854 x=261 y=801 width=48 height=48 xoffset=0 yoffset=-4 xadvance=44 page=0 chnl=0
char id=8212 x=72 y=1 width=51 height=12 xoffset=-1 yoffset=19 xadvance=44 page=0 chnl=0
