792200 ru_megafonural
792201 ru_megafonural
792202 ru_megafonural
792203 ru_megafonural
792204 ru_megafonural
792205 ru_megafonural
792206 ru_megafonural
792207 ru_megafonural
792208 ru_megafonural
792209 ru_megafonural
792210 ru_megafonural
792211 ru_megafonural
792212 ru_megafonural
792213 ru_megafonural
792214 ru_megafonural
792215 ru_megafonural
792216 ru_megafonural
792217 ru_megafonural
792218 ru_megafonural
792219 ru_megafonural
792220 ru_megafonural
792221 ru_megafonural
792222 ru_megafonural
792223 ru_megafonural
7922240 ru_megafonural
7922241 ru_megafonural
7922242 ru_megafonural
7922243 ru_megafonural
7922244 ru_megafonural
7922245 ru_megafonural
7922246 ru_megafonural
7922247 ru_megafonural
7922248 ru_megafonural
7922249 ru_megafonural
7922250 ru_megafonural
7922251 ru_megafonural
7922252 ru_megafonural
7922253 ru_megafonural
7922254 ru_megafonural
7922255 ru_megafonural
7922256 ru_megafonural
7922257 ru_megafonural
7922258 ru_megafonural
7922259 ru_megafonural
792226 ru_megafonural
792227 ru_megafonural
792228 ru_megafonural
792229 ru_megafonural
792230 ru_megafonural
792231 ru_megafonural
792232 ru_megafonural
792233 ru_megafonural
792234 ru_megafonural
792235 ru_megafonural
792236 ru_megafonural
792237 ru_megafonural
792238 ru_megafonural
792239 ru_megafonural
792240 ru_megafonural
792241 ru_megafonural
792242 ru_megafonural
792243 ru_megafonural
792244 ru_megafonural
792245 ru_megafonural
792246 ru_megafonural
792247 ru_megafonural
792248 ru_megafonural
792249 ru_megafonural
792250 ru_megafonural
792251 ru_megafonural
792252 ru_megafonural
792256 ru_megafonural
792257 ru_megafonural
792258 ru_megafonural
792259 ru_megafonural
792260 ru_megafonural
792261 ru_megafonural
792263 ru_megafonural
792264 ru_megafonural
792265 ru_megafonural
792266 ru_megafonural
792267 ru_megafonural
7922680 ru_megafonural
7922681 ru_megafonural
7922682 ru_megafonural
7922683 ru_megafonural
7922684 ru_megafonural
7922685 ru_megafonural
7922686 ru_megafonural
7922687 ru_megafonural
7922688 ru_megafonural
7922689 ru_megafonural
7922690 ru_megafonural
7922691 ru_megafonural
7922692 ru_megafonural
7922693 ru_megafonural
7922694 ru_megafonural
7922695 ru_megafonural
7922696 ru_megafonural
7922697 ru_megafonural
7922698 ru_megafonural
7922699 ru_megafonural
7922700 ru_megafonural
7922701 ru_megafonural
7922702 ru_megafonural
7922703 ru_megafonural
7922704 ru_megafonural
7922705 ru_megafonural
7922706 ru_megafonural
7922707 ru_megafonural
7922708 ru_megafonural
7922709 ru_megafonural
7922710 ru_megafonural
7922711 ru_megafonural
7922712 ru_megafonural
7922713 ru_megafonural
7922714 ru_megafonural
7922715 ru_megafonural
7922716 ru_megafonural
7922717 ru_megafonural
7922718 ru_megafonural
7922719 ru_megafonural
7922720 ru_megafonural
7922721 ru_megafonural
7922722 ru_megafonural
7922723 ru_megafonural
7922724 ru_megafonural
7922725 ru_megafonural
7922726 ru_megafonural
7922727 ru_megafonural
7922728 ru_megafonural
7922729 ru_megafonural
7922730 ru_megafonural
7922731 ru_megafonural
7922732 ru_megafonural
7922733 ru_megafonural
7922734 ru_megafonural
7922735 ru_megafonural
7922736 ru_megafonural
7922737 ru_megafonural
7922738 ru_megafonural
7922739 ru_megafonural
7922740 ru_megafonural
7922741 ru_megafonural
7922742 ru_megafonural
7922743 ru_megafonural
7922744 ru_megafonural
7922745 ru_megafonural
7922746 ru_megafonural
7922747 ru_megafonural
7922748 ru_megafonural
7922749 ru_megafonural
7922750 ru_megafonural
7922751 ru_megafonural
7922752 ru_megafonural
7922753 ru_megafonural
7922754 ru_megafonural
7922755 ru_megafonural
7922756 ru_megafonural
7922757 ru_megafonural
7922758 ru_megafonural
7922759 ru_megafonural
792276 ru_megafonural
792277 ru_megafonural
792278 ru_megafonural
792279 ru_megafonural
79229 ru_megafonural
7929200 ru_megafonural
7929202 ru_megafonural
7929203 ru_megafonural
7929204 ru_megafonural
7929205 ru_megafonural
7929206 ru_megafonural
7929207 ru_megafonural
7929208 ru_megafonural
7929209 ru_megafonural
7929210 ru_megafonural
7929211 ru_megafonural
7929212 ru_megafonural
7929213 ru_megafonural
7929214 ru_megafonural
7929215 ru_megafonural
7929216 ru_megafonural
7929217 ru_megafonural
7929218 ru_megafonural
7929219 ru_megafonural
7929220 ru_megafonural
7929221 ru_megafonural
7929222 ru_megafonural
7929223 ru_megafonural
7929224 ru_megafonural
7929225 ru_megafonural
7929226 ru_megafonural
7929227 ru_megafonural
7929228 ru_megafonural
7929229 ru_megafonural
7929230 ru_megafonural
7929231 ru_megafonural
7929232 ru_megafonural
7929233 ru_megafonural
7929234 ru_megafonural
7929235 ru_megafonural
7929236 ru_megafonural
7929237 ru_megafonural
7929238 ru_megafonural
7929239 ru_megafonural
7929240 ru_megafonural
792925 ru_megafonural
792926 ru_megafonural
7929270 ru_megafonural
7929271 ru_megafonural
7929272 ru_megafonural
7929273 ru_megafonural
7929274 ru_megafonural
7929275 ru_megafonural
7929276 ru_megafonural
7929277 ru_megafonural
7929278 ru_megafonural
7929279 ru_megafonural
7929285 ru_megafonural
7929286 ru_megafonural
7929287 ru_megafonural
7929288 ru_megafonural
7929289 ru_megafonural
792929 ru_megafonural
7932100 ru_megafonural
7932200 ru_megafonural
7932203 ru_megafonural
7932207 ru_megafonural
7932209 ru_megafonural
7932400 ru_megafonural
7920 ru_megafon
7921 ru_megafon
7922 ru_megafon
7923 ru_megafon
7924 ru_megafon
7925 ru_megafon
7926 ru_megafon
7927 ru_megafon
7928 ru_megafon
7929 ru_megafon
7930 ru_megafon
7931 ru_megafon
7932 ru_megafon
7933 ru_megafon
7934 ru_megafon
7936 ru_megafon
7937 ru_megafon
7938 ru_megafon
79881 ru_mts
7988590 ru_mts
7988593 ru_mts
7988595 ru_mts
7988600 ru_mts
79170 ru_mts
79171 ru_mts
7917000 ru_mts
7917002 ru_mts
79880 ru_mts
7989680 ru_mts
7989686 ru_mts
79897 ru_mts
79899 ru_mts
79101 ru_mts
79107 ru_mts
79156 ru_mts
79190 ru_mts
7910011 ru_mts
7910063 ru_mts
7910065 ru_mts
79134 ru_mts
79132 ru_mts
79133 ru_mts
79131 ru_mts
7983250 ru_mts
7983254 ru_mts
79832 ru_mts
7983595 ru_mts
7983596 ru_mts
79888 ru_mts
79887 ru_mts
79187 ru_mts
79197 ru_mts
79188 ru_mts
7988675 ru_mts
7988679 ru_mts
7988624 ru_mts
7988628 ru_mts
7988085 ru_mts
7988089 ru_mts
79176 ru_mts
7917050 ru_mts
7917063 ru_mts
79876 ru_mts
7987685 ru_mts
7987689 ru_mts
79105 ru_mts
7910700 ru_mts
7910704 ru_mts
79109 ru_mts
79807 ru_mts
7910075 ru_mts
7910077 ru_mts
79157 ru_mts
79196 ru_mts
7917064 ru_mts
7917067 ru_mts
7917077 ru_mts
7917079 ru_mts
7987575 ru_mts
7987579 ru_mts
7987735 ru_mts
7987739 ru_mts
79877 ru_mts
79130 ru_mts
79179 ru_mts
7917068 ru_mts
7917069 ru_mts
7917072 ru_mts
7917076 ru_mts
7987680 ru_mts
7987684 ru_mts
7987570 ru_mts
7987574 ru_mts
7987565 ru_mts
7987569 ru_mts
7988760 ru_mts
7988761 ru_mts
7988763 ru_mts
7988764 ru_mts
7988766 ru_mts
7988768 ru_mts
7988601 ru_mts
7988629 ru_mts
7988958 ru_mts
7910640 ru_mts
7910646 ru_mts
7910649 ru_mts
79108 ru_mts
79806 ru_mts
7980640 ru_mts
7980644 ru_mts
7910010 ru_mts
7910069 ru_mts
7910071 ru_mts
79100 ru_mts
79106 ru_mts
7910036 ru_mts
7910038 ru_mts
7910662 ru_mts
7910666 ru_mts
79159 ru_mts
7980650 ru_mts
7980664 ru_mts
7910017 ru_mts
7910078 ru_mts
7910080 ru_mts
798 ru_mts
79191 ru_mts
7919139 ru_mts
7919410 ru_mts
7919411 ru_mts
7910015 ru_mts
7910019 ru_mts
7910048 ru_mts
7910050 ru_mts
7910012 ru_mts
7910013 ru_mts
791 ru_mts
79175 ru_mts
7910000 ru_mts
7910005 ru_mts
7910081 ru_mts
7910089 ru_mts
7910008 ru_mts
7910009 ru_mts
7910060 ru_mts
7910062 ru_mts
7919784 ru_mts
7919786 ru_mts
7919960 ru_mts
7919970 ru_mts
79199 ru_mts
79104 ru_mts
79150 ru_mts
79154 ru_mts
7911075 ru_mts
7911079 ru_mts
79113 ru_mts
79116 ru_mts
79118 ru_mts
79813 ru_mts
7981360 ru_mts
7981364 ru_mts
79123 ru_mts
79127 ru_mts
79128 ru_mts
79195 ru_mts
7912008 ru_mts
7912009 ru_mts
7912056 ru_mts
7912058 ru_mts
79823 ru_mts
7982390 ru_mts
7982394 ru_mts
7910705 ru_mts
7910709 ru_mts
79158 ru_mts
7980510 ru_mts
7980514 ru_mts
7910014 ru_mts
7910045 ru_mts
7910047 ru_mts
7910066 ru_mts
7910068 ru_mts
79103 ru_mts
7910660 ru_mts
7910661 ru_mts
7910016 ru_mts
7910641 ru_mts
7910645 ru_mts
79155 ru_mts
79805 ru_mts
7980500 ru_mts
7980504 ru_mts
79121 ru_mts
79125 ru_mts
79129 ru_mts
7912000 ru_mts
7912074 ru_mts
7912094 ru_mts
7912095 ru_mts
79829 ru_mts
7910667 ru_mts
7910669 ru_mts
7980690 ru_mts
7980696 ru_mts
7910018 ru_mts
7910042 ru_mts
7910044 ru_mts
79198 ru_mts
79878 ru_mts
79873 ru_mts
7912065 ru_mts
7912067 ru_mts
7912062 ru_mts
7912064 ru_mts
7912075 ru_mts
79124 ru_mts
7912076 ru_mts
79193 ru_mts
79194 ru_mts
7912081 ru_mts
7912082 ru_mts
7912083 ru_mts
7912085 ru_mts
79172 ru_mts
79173 ru_mts
7987800 ru_mts
7987814 ru_mts
7987560 ru_mts
7987564 ru_mts
79825 ru_mts
7912086 ru_mts
7912093 ru_mts
79824 ru_mts
7912087 ru_mts
7912089 ru_mts
7912080 ru_mts
7912077 ru_mts
7912079 ru_mts
7912059 ru_mts
7912061 ru_mts
7912068 ru_mts
7912070 ru_mts
7983365 ru_mts
7983369 ru_mts
7983515 ru_mts
7983519 ru_mts
7983590 ru_mts
7983594 ru_mts
7912071 ru_mts
7912073 ru_mts
7988665 ru_mts
7988656 ru_mts
7988664 ru_mts
79889 ru_mts
79896 ru_mts
79886 ru_mts
7988605 ru_mts
7988619 ru_mts
7989690 ru_mts
7989694 ru_mts
79102 ru_mts
7910730 ru_mts
7910731 ru_mts
7910740 ru_mts
79192 ru_mts
7919130 ru_mts
7919136 ru_mts
7910022 ru_mts
7910051 ru_mts
7910053 ru_mts
79803 ru_mts
7910023 ru_mts
7910030 ru_mts
7910741 ru_mts
7910745 ru_mts
7910736 ru_mts
7910737 ru_mts
7911055 ru_mts
7911059 ru_mts
79115 ru_mts
7911655 ru_mts
7911659 ru_mts
79815 ru_mts
7911060 ru_mts
7911064 ru_mts
7911050 ru_mts
7911054 ru_mts
79114 ru_mts
79814 ru_mts
7911070 ru_mts
7911074 ru_mts
7981440 ru_mts
7981444 ru_mts
7911045 ru_mts
7911049 ru_mts
7981445 ru_mts
7981449 ru_mts
7981510 ru_mts
7981524 ru_mts
7911040 ru_mts
7911044 ru_mts
79816 ru_mts
79110 ru_mts
79112 ru_mts
79117 ru_mts
79119 ru_mts
79817 ru_mts
79819 ru_mts
79811 ru_mts
79818 ru_mts
7981850 ru_mts
7981864 ru_mts
79120 ru_mts
7912053 ru_mts
7912055 ru_mts
79879 ru_mts
79140 ru_mts
7914060 ru_mts
7914064 ru_mts
7914538 ru_mts
79145 ru_mts
79146 ru_mts
79143 ru_mts
7988310 ru_mts
7988311 ru_mts
7988313 ru_mts
7988324 ru_mts
7988326 ru_mts
7988329 ru_mts
7988370 ru_mts
7988378 ru_mts
7988460 ru_mts
7988463 ru_mts
7988966 ru_mts
7988623 ru_mts
79898 ru_mts
7988558 ru_mts
7988559 ru_mts
7988603 ru_mts
7988604 ru_mts
7988667 ru_mts
7988673 ru_mts
7988954 ru_mts
7988957 ru_mts
7988620 ru_mts
7988621 ru_mts
7988769 ru_mts
7988770 ru_mts
7988953 ru_mts
7988487 ru_mts
7988489 ru_mts
7988520 ru_mts
7988522 ru_mts
7988524 ru_mts
7988529 ru_mts
7988622 ru_mts
7988652 ru_mts
7988666 ru_mts
7988674 ru_mts
7988762 ru_mts
7988765 ru_mts
7988486 ru_mts
7988509 ru_mts
7988523 ru_mts
7988557 ru_mts
7988594 ru_mts
7988602 ru_mts
7988336 ru_mts
7988353 ru_mts
7988379 ru_mts
7988382 ru_mts
7988464 ru_mts
7988473 ru_mts
7988470 ru_mts
7988472 ru_mts
79186 ru_mts
7988425 ru_mts
79882 ru_mts
7988312 ru_mts
7988325 ru_mts
79184 ru_mts
7988330 ru_mts
7988335 ru_mts
7988337 ru_mts
7988352 ru_mts
7988354 ru_mts
7988369 ru_mts
7988380 ru_mts
7988381 ru_mts
7988383 ru_mts
7988389 ru_mts
79181 ru_mts
79884 ru_mts
79182 ru_mts
79183 ru_mts
79189 ru_mts
79180 ru_mts
7988500 ru_mts
7988508 ru_mts
7988474 ru_mts
7988483 ru_mts
7988080 ru_mts
7988084 ru_mts
79885 ru_mts
79185 ru_mts
7988950 ru_mts
7988952 ru_mts
79895 ru_mts
7988550 ru_mts
7988556 ru_mts
79872 ru_mts
79178 ru_mts
7987205 ru_mts
7987229 ru_mts
79874 ru_mts
79141 ru_mts
79142 ru_mts
79841 ru_mts
79148 ru_mts
7983510 ru_mts
7983511 ru_mts
7983514 ru_mts
7983300 ru_mts
7983324 ru_mts
79137 ru_mts
79138 ru_mts
79139 ru_mts
79831 ru_mts
7913980 ru_mts
7913987 ru_mts
7913989 ru_mts
79136 ru_mts
7983325 ru_mts
7983329 ru_mts
7983580 ru_mts
7983584 ru_mts
79122 ru_mts
79126 ru_mts
7912001 ru_mts
7912007 ru_mts
7912090 ru_mts
7912092 ru_mts
7912096 ru_mts
7912099 ru_mts
7912030 ru_mts
7912044 ru_mts
7912045 ru_mts
7912052 ru_mts
79826 ru_mts
79147 ru_mts
79144 ru_mts
79135 ru_mts
7983255 ru_mts
7983259 ru_mts
7983260 ru_mts
7983264 ru_mts
7983370 ru_mts
7983374 ru_mts
7983375 ru_mts
7983379 ru_mts
7983585 ru_mts
7983589 ru_mts
79833 ru_mts
7983597 ru_mts
7983598 ru_mts
79174 ru_mts
79177 ru_mts
79875 ru_mts
7987465 ru_mts
7987499 ru_mts
7910732 ru_mts
7910738 ru_mts
7910749 ru_mts
79802 ru_mts
7910024 ru_mts
7910039 ru_mts
7910041 ru_mts
7910744 ru_mts
7910746 ru_mts
7910747 ru_mts
7910748 ru_mts
7910020 ru_mts
7910031 ru_mts
7910032 ru_mts
7910072 ru_mts
7910074 ru_mts
7910021 ru_mts
7910033 ru_mts
7910035 ru_mts
7910743 ru_mts
7910733 ru_mts
7910735 ru_mts
7910739 ru_mts
7910742 ru_mts
7980250 ru_mts
7980253 ru_mts
7910025 ru_mts
7910029 ru_mts
7910054 ru_mts
7910056 ru_mts
7911065 ru_mts
7911069 ru_mts
7911650 ru_mts
7911654 ru_mts
7981650 ru_mts
7981654 ru_mts
79883 ru_mts
7988959 ru_mts
7988964 ru_mts
7988965 ru_mts
7988967 ru_mts
7988969 ru_mts
7917070 ru_mts
7917071 ru_mts
7987720 ru_mts
7987727 ru_mts
7987728 ru_mts
7987732 ru_mts
7914083 ru_mts
7914099 ru_mts
79149 ru_mts
79834 ru_mts
7914000 ru_mts
7914014 ru_mts
7914065 ru_mts
7914079 ru_mts
79835 ru_mts
7914080 ru_mts
7914082 ru_mts
7913988 ru_mts
79836 ru_mts
7910006 ru_mts
7910007 ru_mts
7910057 ru_mts
7910059 ru_mts
7983265 ru_mts
7983269 ru_mts
7983360 ru_mts
7983364 ru_mts
7917003 ru_mts
7917009 ru_mts
7987460 ru_mts
7987464 ru_mts
7987815 ru_mts
7987819 ru_mts
795301 ru_nss
79644 ru_beeline
7961115 ru_beeline
7961119 ru_beeline
7961243 ru_beeline
7961249 ru_beeline
7903632 ru_beeline
7903878 ru_beeline
7903879 ru_beeline
7903888 ru_beeline
7903889 ru_beeline
7960500 ru_beeline
7960513 ru_beeline
7962155 ru_beeline
7962169 ru_beeline
7963150 ru_beeline
7963152 ru_beeline
7963214 ru_beeline
7963216 ru_beeline
7905058 ru_beeline
7905059 ru_beeline
7905105 ru_beeline
7905109 ru_beeline
7905155 ru_beeline
7905157 ru_beeline
7906510 ru_beeline
7906515 ru_beeline
7906617 ru_beeline
7906619 ru_beeline
7909246 ru_beeline
7909249 ru_beeline
7962588 ru_beeline
7962590 ru_beeline
7903050 ru_beeline
7903326 ru_beeline
7905008 ru_beeline
7905182 ru_beeline
7905379 ru_beeline
7961373 ru_beeline
7961379 ru_beeline
7964860 ru_beeline
7964864 ru_beeline
7961333 ru_beeline
7961337 ru_beeline
7967755 ru_beeline
7967759 ru_beeline
7906137 ru_beeline
7906139 ru_beeline
7906334 ru_beeline
7906336 ru_beeline
7909366 ru_beeline
7909369 ru_beeline
79600 ru_beeline
7963126 ru_beeline
7963127 ru_beeline
7963239 ru_beeline
7964136 ru_beeline
7964137 ru_beeline
7964482 ru_beeline
7964489 ru_beeline
7961109 ru_beeline
79611 ru_beeline
7961613 ru_beeline
7961617 ru_beeline
7961028 ru_beeline
7961029 ru_beeline
7906580 ru_beeline
7906590 ru_beeline
7962325 ru_beeline
7962349 ru_beeline
7905049 ru_beeline
7905053 ru_beeline
7905644 ru_beeline
79056 ru_beeline
7909210 ru_beeline
7909217 ru_beeline
79601 ru_beeline
7906670 ru_beeline
7906680 ru_beeline
7903025 ru_beeline
7903030 ru_beeline
7903420 ru_beeline
7903650 ru_beeline
7903656 ru_beeline
79038 ru_beeline
7903634 ru_beeline
7903895 ru_beeline
7903899 ru_beeline
7905150 ru_beeline
7905153 ru_beeline
7906520 ru_beeline
7906524 ru_beeline
7906609 ru_beeline
7906666 ru_beeline
7964150 ru_beeline
7964156 ru_beeline
7961007 ru_beeline
7961008 ru_beeline
7967680 ru_beeline
7967684 ru_beeline
7909253 ru_beeline
7909256 ru_beeline
7960738 ru_beeline
7960749 ru_beeline
79621 ru_beeline
7963217 ru_beeline
7963218 ru_beeline
7961127 ru_beeline
7961129 ru_beeline
7963930 ru_beeline
7961163 ru_beeline
7961166 ru_beeline
7903024 ru_beeline
7903642 ru_beeline
7903884 ru_beeline
7903887 ru_beeline
7962300 ru_beeline
7962324 ru_beeline
79092 ru_beeline
7960620 ru_beeline
7960640 ru_beeline
7905040 ru_beeline
7905170 ru_beeline
7905173 ru_beeline
7905878 ru_beeline
7905879 ru_beeline
7906565 ru_beeline
7906567 ru_beeline
7906600 ru_beeline
7906608 ru_beeline
7903320 ru_beeline
7903336 ru_beeline
7903339 ru_beeline
7905035 ru_beeline
7905037 ru_beeline
7963128 ru_beeline
7963129 ru_beeline
7905183 ru_beeline
7905184 ru_beeline
7905348 ru_beeline
7905349 ru_beeline
79656 ru_beeline
7962630 ru_beeline
7962636 ru_beeline
7906140 ru_beeline
7906147 ru_beeline
7906390 ru_beeline
7906394 ru_beeline
7909354 ru_beeline
7909361 ru_beeline
79603 ru_beeline
7963234 ru_beeline
7964855 ru_beeline
7964859 ru_beeline
7903310 ru_beeline
7903312 ru_beeline
7903350 ru_beeline
7903356 ru_beeline
7905000 ru_beeline
7905007 ru_beeline
7905180 ru_beeline
7905181 ru_beeline
7905307 ru_beeline
7905309 ru_beeline
79053 ru_beeline
7967740 ru_beeline
7967754 ru_beeline
7964950 ru_beeline
7964965 ru_beeline
7961038 ru_beeline
7961051 ru_beeline
79659 ru_beeline
7967450 ru_beeline
7967454 ru_beeline
7967455 ru_beeline
7967459 ru_beeline
7963130 ru_beeline
7963144 ru_beeline
7962519 ru_beeline
7962547 ru_beeline
7961349 ru_beeline
7961355 ru_beeline
7961372 ru_beeline
7963899 ru_beeline
7963909 ru_beeline
7963890 ru_beeline
7963898 ru_beeline
79061 ru_beeline
7906370 ru_beeline
7906377 ru_beeline
7909345 ru_beeline
7909353 ru_beeline
7960800 ru_beeline
7960807 ru_beeline
7963235 ru_beeline
7963238 ru_beeline
7905297 ru_beeline
7905298 ru_beeline
7905237 ru_beeline
7905299 ru_beeline
7906206 ru_beeline
7906209 ru_beeline
7909567 ru_beeline
7909572 ru_beeline
79602 ru_beeline
79637 ru_beeline
7964317 ru_beeline
7964319 ru_beeline
7965815 ru_beeline
7965819 ru_beeline
7967570 ru_beeline
7967574 ru_beeline
7905239 ru_beeline
7905290 ru_beeline
7905292 ru_beeline
7906200 ru_beeline
7906205 ru_beeline
7909565 ru_beeline
7909566 ru_beeline
7963240 ru_beeline
7965805 ru_beeline
7965809 ru_beeline
7963366 ru_beeline
7963367 ru_beeline
7963333 ru_beeline
7963334 ru_beeline
7964690 ru_beeline
7964694 ru_beeline
7963368 ru_beeline
7963369 ru_beeline
7964310 ru_beeline
7964312 ru_beeline
7963330 ru_beeline
7963332 ru_beeline
7903051 ru_beeline
7903325 ru_beeline
7905009 ru_beeline
7905378 ru_beeline
7905389 ru_beeline
7906160 ru_beeline
7906164 ru_beeline
7964850 ru_beeline
7964854 ru_beeline
7964840 ru_beeline
7964844 ru_beeline
7906378 ru_beeline
7906379 ru_beeline
7909324 ru_beeline
7909328 ru_beeline
7963145 ru_beeline
7963149 ru_beeline
7961099 ru_beeline
7962591 ru_beeline
7962597 ru_beeline
7905238 ru_beeline
7905295 ru_beeline
7906220 ru_beeline
7906224 ru_beeline
7909573 ru_beeline
7909576 ru_beeline
7963337 ru_beeline
7963339 ru_beeline
7964675 ru_beeline
7964679 ru_beeline
7964313 ru_beeline
7964316 ru_beeline
7963335 ru_beeline
7963336 ru_beeline
7965810 ru_beeline
7965814 ru_beeline
7967560 ru_beeline
7967564 ru_beeline
7903028 ru_beeline
7903031 ru_beeline
7903032 ru_beeline
7903643 ru_beeline
7903699 ru_beeline
7903860 ru_beeline
7903867 ru_beeline
7905043 ru_beeline
7905045 ru_beeline
79623 ru_beeline
7962370 ru_beeline
7962374 ru_beeline
7961600 ru_beeline
7961612 ru_beeline
7961030 ru_beeline
7961036 ru_beeline
7905178 ru_beeline
7905179 ru_beeline
7905855 ru_beeline
7906591 ru_beeline
7906595 ru_beeline
7906681 ru_beeline
7906688 ru_beeline
7909218 ru_beeline
7909224 ru_beeline
7903422 ru_beeline
7906443 ru_beeline
7906445 ru_beeline
7909493 ru_beeline
7909499 ru_beeline
7960438 ru_beeline
7960439 ru_beeline
7963170 ru_beeline
7963171 ru_beeline
7963282 ru_beeline
7963284 ru_beeline
7905420 ru_beeline
7905424 ru_beeline
7963285 ru_beeline
7963288 ru_beeline
7964042 ru_beeline
7964043 ru_beeline
7964046 ru_beeline
7967580 ru_beeline
7967582 ru_beeline
7962850 ru_beeline
7903928 ru_beeline
7903929 ru_beeline
7903989 ru_beeline
7905090 ru_beeline
7905093 ru_beeline
7905977 ru_beeline
7905979 ru_beeline
7905998 ru_beeline
7905999 ru_beeline
7960750 ru_beeline
7960751 ru_beeline
79639 ru_beeline
79017 ru_beeline
79670 ru_beeline
79672 ru_beeline
79688 ru_beeline
79689 ru_beeline
79686 ru_beeline
79687 ru_beeline
79647 ru_beeline
79651 ru_beeline
79652 ru_beeline
79654 ru_beeline
79629 ru_beeline
7963714 ru_beeline
7963719 ru_beeline
7963751 ru_beeline
7963759 ru_beeline
79645 ru_beeline
79646 ru_beeline
79091 ru_beeline
79096 ru_beeline
79099 ru_beeline
79636 ru_beeline
7963710 ru_beeline
7963713 ru_beeline
7963750 ru_beeline
79037 ru_beeline
79039 ru_beeline
79055 ru_beeline
79057 ru_beeline
79060 ru_beeline
79067 ru_beeline
79030 ru_beeline
79031 ru_beeline
79032 ru_beeline
7903363 ru_beeline
79035 ru_beeline
79036 ru_beeline
7906190 ru_beeline
7906192 ru_beeline
7961895 ru_beeline
7961899 ru_beeline
7962800 ru_beeline
7962801 ru_beeline
7963954 ru_beeline
7961093 ru_beeline
7961094 ru_beeline
7962843 ru_beeline
7962849 ru_beeline
7960775 ru_beeline
7960777 ru_beeline
7967620 ru_beeline
7967625 ru_beeline
7906952 ru_beeline
7906953 ru_beeline
7961738 ru_beeline
7961746 ru_beeline
7903077 ru_beeline
7903917 ru_beeline
7963201 ru_beeline
7909524 ru_beeline
7909527 ru_beeline
7903649 ru_beeline
7903698 ru_beeline
7903890 ru_beeline
7903894 ru_beeline
7905160 ru_beeline
7905163 ru_beeline
7905695 ru_beeline
7905699 ru_beeline
7906516 ru_beeline
7906519 ru_beeline
7961013 ru_beeline
7967987 ru_beeline
7967999 ru_beeline
7906667 ru_beeline
7906669 ru_beeline
7909257 ru_beeline
7909259 ru_beeline
7960579 ru_beeline
7960592 ru_beeline
7961134 ru_beeline
7961139 ru_beeline
7964615 ru_beeline
7964619 ru_beeline
7903026 ru_beeline
7903635 ru_beeline
7903636 ru_beeline
7903696 ru_beeline
7903810 ru_beeline
7903817 ru_beeline
7905640 ru_beeline
7905643 ru_beeline
7906506 ru_beeline
7906509 ru_beeline
79657 ru_beeline
7961005 ru_beeline
7961006 ru_beeline
7906640 ru_beeline
7906645 ru_beeline
7909250 ru_beeline
7909252 ru_beeline
7960514 ru_beeline
7960525 ru_beeline
7961120 ru_beeline
7961126 ru_beeline
79641 ru_beeline
7905405 ru_beeline
7905408 ru_beeline
79615 ru_beeline
7967315 ru_beeline
7967329 ru_beeline
79676 ru_beeline
7962823 ru_beeline
7962842 ru_beeline
7903049 ru_beeline
7903076 ru_beeline
7903900 ru_beeline
7903906 ru_beeline
7903997 ru_beeline
7903999 ru_beeline
79658 ru_beeline
7906994 ru_beeline
7906996 ru_beeline
7909529 ru_beeline
7909534 ru_beeline
7960779 ru_beeline
7960799 ru_beeline
7961845 ru_beeline
7961848 ru_beeline
79618 ru_beeline
7963942 ru_beeline
7963949 ru_beeline
7905094 ru_beeline
7905095 ru_beeline
79059 ru_beeline
7905945 ru_beeline
7905946 ru_beeline
7906193 ru_beeline
7906195 ru_beeline
7906906 ru_beeline
7906909 ru_beeline
7903300 ru_beeline
7903304 ru_beeline
7903308 ru_beeline
7903309 ru_beeline
7903330 ru_beeline
7903335 ru_beeline
7905017 ru_beeline
7905019 ru_beeline
7905300 ru_beeline
7905306 ru_beeline
7906125 ru_beeline
7906129 ru_beeline
7960808 ru_beeline
7960850 ru_beeline
7961380 ru_beeline
7961393 ru_beeline
7964966 ru_beeline
7964992 ru_beeline
7967480 ru_beeline
7967487 ru_beeline
7906337 ru_beeline
7906347 ru_beeline
7909323 ru_beeline
7909329 ru_beeline
7909342 ru_beeline
7909344 ru_beeline
7909362 ru_beeline
7909365 ru_beeline
7909370 ru_beeline
7909371 ru_beeline
7964878 ru_beeline
7964879 ru_beeline
7964845 ru_beeline
7964849 ru_beeline
7964993 ru_beeline
7964999 ru_beeline
7967800 ru_beeline
7967812 ru_beeline
7903035 ru_beeline
7903039 ru_beeline
7903421 ru_beeline
7903658 ru_beeline
7903659 ru_beeline
7903697 ru_beeline
7903840 ru_beeline
7903845 ru_beeline
79051 ru_beeline
79622 ru_beeline
7963223 ru_beeline
7963228 ru_beeline
7961145 ru_beeline
7961152 ru_beeline
7963931 ru_beeline
7963939 ru_beeline
7961260 ru_beeline
7961267 ru_beeline
7967430 ru_beeline
7967434 ru_beeline
7905189 ru_beeline
79065 ru_beeline
7906620 ru_beeline
7906630 ru_beeline
7909260 ru_beeline
7909264 ru_beeline
7960593 ru_beeline
7960619 ru_beeline
7903029 ru_beeline
7903637 ru_beeline
7903880 ru_beeline
7903883 ru_beeline
7905046 ru_beeline
7905165 ru_beeline
7905169 ru_beeline
7905856 ru_beeline
7963229 ru_beeline
7964168 ru_beeline
7964169 ru_beeline
7961620 ru_beeline
7961627 ru_beeline
7906568 ru_beeline
7906571 ru_beeline
7906660 ru_beeline
7906665 ru_beeline
7909225 ru_beeline
7909230 ru_beeline
7960641 ru_beeline
7960656 ru_beeline
7962475 ru_beeline
7962489 ru_beeline
7963155 ru_beeline
7963158 ru_beeline
7903033 ru_beeline
7903034 ru_beeline
7903075 ru_beeline
7903630 ru_beeline
7903631 ru_beeline
7903694 ru_beeline
7903695 ru_beeline
7905125 ru_beeline
7905129 ru_beeline
7961014 ru_beeline
7961019 ru_beeline
7963153 ru_beeline
7963154 ru_beeline
7963219 ru_beeline
7963222 ru_beeline
7964162 ru_beeline
7964166 ru_beeline
7961140 ru_beeline
7961144 ru_beeline
7965720 ru_beeline
7965724 ru_beeline
7905164 ru_beeline
7906549 ru_beeline
7906555 ru_beeline
7906650 ru_beeline
7906656 ru_beeline
7909265 ru_beeline
7909271 ru_beeline
7960700 ru_beeline
7960718 ru_beeline
7903027 ru_beeline
7903633 ru_beeline
7903639 ru_beeline
7903870 ru_beeline
7903877 ru_beeline
7905041 ru_beeline
7905042 ru_beeline
7905154 ru_beeline
7961167 ru_beeline
7961169 ru_beeline
7905158 ru_beeline
7905159 ru_beeline
7906572 ru_beeline
7906577 ru_beeline
7906689 ru_beeline
7906694 ru_beeline
7909236 ru_beeline
7909239 ru_beeline
7960673 ru_beeline
7960699 ru_beeline
7962375 ru_beeline
7962389 ru_beeline
7903638 ru_beeline
7903646 ru_beeline
7903690 ru_beeline
7903692 ru_beeline
7961153 ru_beeline
7961162 ru_beeline
7961972 ru_beeline
7961974 ru_beeline
7964167 ru_beeline
7965725 ru_beeline
7965729 ru_beeline
7961020 ru_beeline
7961027 ru_beeline
7905645 ru_beeline
7905647 ru_beeline
7906525 ru_beeline
7906529 ru_beeline
7906631 ru_beeline
7906639 ru_beeline
7909276 ru_beeline
7909281 ru_beeline
7960526 ru_beeline
7960545 ru_beeline
7962200 ru_beeline
7962214 ru_beeline
7903423 ru_beeline
7903424 ru_beeline
7903427 ru_beeline
7903429 ru_beeline
7903469 ru_beeline
7903477 ru_beeline
7903480 ru_beeline
7903482 ru_beeline
7903498 ru_beeline
7903499 ru_beeline
7963370 ru_beeline
7963375 ru_beeline
7964000 ru_beeline
7964024 ru_beeline
7964050 ru_beeline
7964054 ru_beeline
7965485 ru_beeline
7965494 ru_beeline
79673 ru_beeline
79674 ru_beeline
7906446 ru_beeline
7906450 ru_beeline
7906480 ru_beeline
7906482 ru_beeline
7909478 ru_beeline
7909486 ru_beeline
7960407 ru_beeline
7960421 ru_beeline
79634 ru_beeline
7903640 ru_beeline
7903641 ru_beeline
7903693 ru_beeline
7903834 ru_beeline
7903839 ru_beeline
7905185 ru_beeline
7905187 ru_beeline
7905690 ru_beeline
7905694 ru_beeline
7906540 ru_beeline
7906548 ru_beeline
79679 ru_beeline
7964157 ru_beeline
7964161 ru_beeline
7965710 ru_beeline
7965714 ru_beeline
7961009 ru_beeline
7961012 ru_beeline
7961130 ru_beeline
7961133 ru_beeline
7906646 ru_beeline
7906649 ru_beeline
7960565 ru_beeline
7960578 ru_beeline
7962390 ru_beeline
7962397 ru_beeline
7903063 ru_beeline
7903066 ru_beeline
7903322 ru_beeline
7903345 ru_beeline
7903346 ru_beeline
7903357 ru_beeline
7903359 ru_beeline
7903379 ru_beeline
7903389 ru_beeline
7967475 ru_beeline
7967479 ru_beeline
79677 ru_beeline
7909300 ru_beeline
7909305 ru_beeline
7960300 ru_beeline
7960314 ru_beeline
7962598 ru_beeline
7962601 ru_beeline
7961338 ru_beeline
7961348 ru_beeline
7967470 ru_beeline
7967474 ru_beeline
7903476 ru_beeline
7905027 ru_beeline
7905029 ru_beeline
7905197 ru_beeline
7905199 ru_beeline
7905340 ru_beeline
7905347 ru_beeline
7906130 ru_beeline
7906136 ru_beeline
79063 ru_beeline
79627 ru_beeline
7962808 ru_beeline
7962822 ru_beeline
7961976 ru_beeline
7961999 ru_beeline
7962802 ru_beeline
7962807 ru_beeline
7963504 ru_beeline
7963509 ru_beeline
79635 ru_beeline
79069 ru_beeline
7909500 ru_beeline
7909507 ru_beeline
7905080 ru_beeline
7905084 ru_beeline
7905924 ru_beeline
7905929 ru_beeline
7960936 ru_beeline
7960966 ru_beeline
7906196 ru_beeline
7906940 ru_beeline
7906946 ru_beeline
7903072 ru_beeline
7903073 ru_beeline
7903910 ru_beeline
7903912 ru_beeline
7903947 ru_beeline
7903949 ru_beeline
7903957 ru_beeline
7903958 ru_beeline
7903990 ru_beeline
7903992 ru_beeline
7903995 ru_beeline
7903996 ru_beeline
7963517 ru_beeline
7963519 ru_beeline
79640 ru_beeline
7963500 ru_beeline
7963503 ru_beeline
7961230 ru_beeline
7961242 ru_beeline
79062 ru_beeline
7909577 ru_beeline
7909593 ru_beeline
79626 ru_beeline
7963241 ru_beeline
7963249 ru_beeline
7903092 ru_beeline
7903099 ru_beeline
79675 ru_beeline
79643 ru_beeline
79650 ru_beeline
7963300 ru_beeline
7963321 ru_beeline
7905200 ru_beeline
7905236 ru_beeline
79052 ru_beeline
7906225 ru_beeline
7906229 ru_beeline
7961800 ru_beeline
7961811 ru_beeline
7963322 ru_beeline
7963329 ru_beeline
79633 ru_beeline
7903040 ru_beeline
7903044 ru_beeline
7903052 ru_beeline
7903060 ru_beeline
7903657 ru_beeline
7903846 ru_beeline
7903849 ru_beeline
7905010 ru_beeline
7905014 ru_beeline
7967710 ru_beeline
7967730 ru_beeline
7909282 ru_beeline
7909299 ru_beeline
7962504 ru_beeline
7962518 ru_beeline
7963230 ru_beeline
7963233 ru_beeline
79616 ru_beeline
79648 ru_beeline
7905190 ru_beeline
7905196 ru_beeline
7905865 ru_beeline
7905869 ru_beeline
7906348 ru_beeline
7906369 ru_beeline
7906556 ru_beeline
7906557 ru_beeline
7906578 ru_beeline
7906579 ru_beeline
7903046 ru_beeline
7903048 ru_beeline
7903067 ru_beeline
7903071 ru_beeline
7903907 ru_beeline
7903909 ru_beeline
7903916 ru_beeline
7903940 ru_beeline
7903946 ru_beeline
7903984 ru_beeline
7903985 ru_beeline
7906920 ru_beeline
7906938 ru_beeline
7906975 ru_beeline
7906989 ru_beeline
7909509 ru_beeline
7909522 ru_beeline
7960900 ru_beeline
7960935 ru_beeline
7961700 ru_beeline
7961737 ru_beeline
7903993 ru_beeline
7903994 ru_beeline
7905065 ru_beeline
7905079 ru_beeline
7905947 ru_beeline
7905949 ru_beeline
7905993 ru_beeline
7905995 ru_beeline
7960422 ru_beeline
7960431 ru_beeline
7962649 ru_beeline
7962653 ru_beeline
7963165 ru_beeline
7963169 ru_beeline
7963280 ru_beeline
7963281 ru_beeline
7964030 ru_beeline
7964034 ru_beeline
7964035 ru_beeline
7964041 ru_beeline
7906483 ru_beeline
7906485 ru_beeline
7909487 ru_beeline
7909492 ru_beeline
7967410 ru_beeline
7967424 ru_beeline
7967425 ru_beeline
7967429 ru_beeline
7967920 ru_beeline
7967942 ru_beeline
7963390 ru_beeline
7963394 ru_beeline
7965495 ru_beeline
7965499 ru_beeline
7903425 ru_beeline
7903426 ru_beeline
7903490 ru_beeline
7903497 ru_beeline
7905435 ru_beeline
7905437 ru_beeline
7906189 ru_beeline
7963115 ru_beeline
7963119 ru_beeline
7962602 ru_beeline
7962614 ru_beeline
7961215 ru_beeline
7961229 ru_beeline
7903400 ru_beeline
7903407 ru_beeline
79034 ru_beeline
7903460 ru_beeline
7903464 ru_beeline
7903470 ru_beeline
7903474 ru_beeline
7903485 ru_beeline
7903486 ru_beeline
7903488 ru_beeline
7903489 ru_beeline
7961817 ru_beeline
7961268 ru_beeline
7961332 ru_beeline
7906414 ru_beeline
7906430 ru_beeline
7906439 ru_beeline
7906452 ru_beeline
7906454 ru_beeline
7909400 ru_beeline
7909442 ru_beeline
7960442 ru_beeline
7960470 ru_beeline
79614 ru_beeline
7905425 ru_beeline
7905432 ru_beeline
7905439 ru_beeline
79054 ru_beeline
7905478 ru_beeline
7905479 ru_beeline
7905485 ru_beeline
7905487 ru_beeline
7906180 ru_beeline
7906186 ru_beeline
7963112 ru_beeline
7963114 ru_beeline
7903020 ru_beeline
7903023 ru_beeline
7903045 ru_beeline
7903328 ru_beeline
7903329 ru_beeline
7961640 ru_beeline
7961651 ru_beeline
7961052 ru_beeline
7961053 ru_beeline
7906148 ru_beeline
7906155 ru_beeline
7909330 ru_beeline
7909341 ru_beeline
7962615 ru_beeline
7962629 ru_beeline
7903380 ru_beeline
7903386 ru_beeline
7903475 ru_beeline
7905030 ru_beeline
7905034 ru_beeline
7905368 ru_beeline
7905369 ru_beeline
7905380 ru_beeline
7905388 ru_beeline
79649 ru_beeline
7905401 ru_beeline
7905404 ru_beeline
7965455 ru_beeline
7965484 ru_beeline
7967650 ru_beeline
7967674 ru_beeline
7967696 ru_beeline
79667 ru_beeline
7906431 ru_beeline
7906436 ru_beeline
7909443 ru_beeline
7909468 ru_beeline
7960471 ru_beeline
7960498 ru_beeline
7962851 ru_beeline
7962890 ru_beeline
7963160 ru_beeline
7963164 ru_beeline
7967300 ru_beeline
7967314 ru_beeline
7903410 ru_beeline
7903412 ru_beeline
7903447 ru_beeline
7903459 ru_beeline
7905438 ru_beeline
7905470 ru_beeline
7905477 ru_beeline
7905494 ru_beeline
7905495 ru_beeline
7906187 ru_beeline
7903061 ru_beeline
7903062 ru_beeline
7903305 ru_beeline
7903307 ru_beeline
7903313 ru_beeline
7903314 ru_beeline
7903318 ru_beeline
7903319 ru_beeline
7903340 ru_beeline
7903344 ru_beeline
7903387 ru_beeline
7903388 ru_beeline
7967460 ru_beeline
7967465 ru_beeline
7967760 ru_beeline
7967780 ru_beeline
7967466 ru_beeline
7967469 ru_beeline
7966240 ru_beeline
7966250 ru_beeline
7966260 ru_beeline
7909306 ru_beeline
7909314 ru_beeline
7962548 ru_beeline
7962579 ru_beeline
79655 ru_beeline
7963120 ru_beeline
7963125 ru_beeline
7905020 ru_beeline
7905026 ru_beeline
7905038 ru_beeline
7905039 ru_beeline
7905370 ru_beeline
7905377 ru_beeline
7906110 ru_beeline
7906124 ru_beeline
7906320 ru_beeline
7906333 ru_beeline
7961656 ru_beeline
7961699 ru_beeline
7961057 ru_beeline
7961091 ru_beeline
7903315 ru_beeline
7903317 ru_beeline
7903327 ru_beeline
7903370 ru_beeline
7903377 ru_beeline
7903467 ru_beeline
7903468 ru_beeline
7905482 ru_beeline
7905483 ru_beeline
7906165 ru_beeline
7906175 ru_beeline
7906400 ru_beeline
7906410 ru_beeline
7906451 ru_beeline
7909377 ru_beeline
7909394 ru_beeline
7960867 ru_beeline
7960896 ru_beeline
7903478 ru_beeline
7903479 ru_beeline
7905061 ru_beeline
7905064 ru_beeline
7962756 ru_beeline
7962761 ru_beeline
7905433 ru_beeline
7905434 ru_beeline
7909535 ru_beeline
7909537 ru_beeline
79620 ru_beeline
7903925 ru_beeline
7903927 ru_beeline
7903980 ru_beeline
7903983 ru_beeline
7905096 ru_beeline
7905099 ru_beeline
7905921 ru_beeline
7905923 ru_beeline
7961880 ru_beeline
7961884 ru_beeline
7965870 ru_beeline
7965876 ru_beeline
7965877 ru_beeline
7965879 ru_beeline
7965970 ru_beeline
7965984 ru_beeline
7965985 ru_beeline
7965989 ru_beeline
7968100 ru_beeline
7968104 ru_beeline
7905940 ru_beeline
7905944 ru_beeline
7906197 ru_beeline
7906918 ru_beeline
7906919 ru_beeline
7906990 ru_beeline
7906993 ru_beeline
79609 ru_beeline
7961849 ru_beeline
7962751 ru_beeline
7962755 ru_beeline
7906455 ru_beeline
7906459 ru_beeline
7909372 ru_beeline
7909376 ru_beeline
7960851 ru_beeline
7960866 ru_beeline
7967330 ru_beeline
7967337 ru_beeline
7967338 ru_beeline
7967339 ru_beeline
7967820 ru_beeline
7967842 ru_beeline
7903347 ru_beeline
7903349 ru_beeline
7903378 ru_beeline
7905060 ru_beeline
7905360 ru_beeline
7905364 ru_beeline
7905480 ru_beeline
7905481 ru_beeline
7906177 ru_beeline
7906179 ru_beeline
7961812 ru_beeline
7961816 ru_beeline
7961975 ru_beeline
7965450 ru_beeline
7965454 ru_beeline
7961054 ru_beeline
7961056 ru_beeline
7903321 ru_beeline
7961652 ru_beeline
7961655 ru_beeline
7961798 ru_beeline
7961799 ru_beeline
7962065 ru_beeline
7962084 ru_beeline
7903918 ru_beeline
7906900 ru_beeline
7906905 ru_beeline
7903920 ru_beeline
7903924 ru_beeline
7903959 ru_beeline
7903986 ru_beeline
7903988 ru_beeline
7960752 ru_beeline
7960774 ru_beeline
7963180 ru_beeline
7963192 ru_beeline
7963254 ru_beeline
7963269 ru_beeline
7963955 ru_beeline
7963959 ru_beeline
7905086 ru_beeline
7905088 ru_beeline
7905970 ru_beeline
7905976 ru_beeline
7905996 ru_beeline
7905997 ru_beeline
7906910 ru_beeline
7906917 ru_beeline
7906971 ru_beeline
7906974 ru_beeline
7909523 ru_beeline
7962776 ru_beeline
7962779 ru_beeline
7903913 ru_beeline
7903915 ru_beeline
7903950 ru_beeline
7903955 ru_beeline
7905089 ru_beeline
7905990 ru_beeline
7905992 ru_beeline
7961885 ru_beeline
7961889 ru_beeline
7961890 ru_beeline
7961892 ru_beeline
7964090 ru_beeline
7964094 ru_beeline
7964610 ru_beeline
7964614 ru_beeline
7961095 ru_beeline
7961098 ru_beeline
7964095 ru_beeline
7964098 ru_beeline
7906198 ru_beeline
7906199 ru_beeline
7906947 ru_beeline
7906951 ru_beeline
7906954 ru_beeline
7906959 ru_beeline
7909538 ru_beeline
7909549 ru_beeline
7960969 ru_beeline
7960979 ru_beeline
7963193 ru_beeline
7963197 ru_beeline
7964695 ru_beeline
7964699 ru_beeline
7961110 ru_beeline
7961114 ru_beeline
79612 ru_beeline
7903645 ru_beeline
7903647 ru_beeline
7903648 ru_beeline
7903830 ru_beeline
7903833 ru_beeline
7906610 ru_beeline
7906616 ru_beeline
7909272 ru_beeline
7909275 ru_beeline
7960719 ru_beeline
7960737 ru_beeline
7905055 ru_beeline
7905057 ru_beeline
7905648 ru_beeline
7905649 ru_beeline
7962085 ru_beeline
7962099 ru_beeline
7906558 ru_beeline
7906564 ru_beeline
7906489 ru_beeline
7962494 ru_beeline
7962495 ru_beeline
79624 ru_beeline
7906490 ru_beeline
7906493 ru_beeline
7906496 ru_beeline
7906499 ru_beeline
7909750 ru_beeline
7909774 ru_beeline
79682 ru_beeline
7905490 ru_beeline
7905493 ru_beeline
7905496 ru_beeline
7905499 ru_beeline
7906411 ru_beeline
7906413 ru_beeline
7906440 ru_beeline
7906442 ru_beeline
79064 ru_beeline
7962740 ru_beeline
7962742 ru_beeline
7903408 ru_beeline
7903409 ru_beeline
7903413 ru_beeline
7903419 ru_beeline
7903440 ru_beeline
7903446 ru_beeline
7962410 ru_beeline
7962413 ru_beeline
7962460 ru_beeline
7962490 ru_beeline
7962493 ru_beeline
7962496 ru_beeline
7962499 ru_beeline
7963818 ru_beeline
7963819 ru_beeline
7963842 ru_beeline
7963849 ru_beeline
7963810 ru_beeline
7963817 ru_beeline
79638 ru_beeline
7962283 ru_beeline
7962285 ru_beeline
7962293 ru_beeline
7962295 ru_beeline
79098 ru_beeline
7909883 ru_beeline
7909885 ru_beeline
7909893 ru_beeline
7909895 ru_beeline
79619 ru_beeline
7963823 ru_beeline
7963826 ru_beeline
7963827 ru_beeline
7963829 ru_beeline
7963840 ru_beeline
7963841 ru_beeline
7963564 ru_beeline
7963568 ru_beeline
7963562 ru_beeline
7963563 ru_beeline
7909896 ru_beeline
7909899 ru_beeline
7962583 ru_beeline
7962587 ru_beeline
7962673 ru_beeline
7962679 ru_beeline
7909886 ru_beeline
7909889 ru_beeline
7963820 ru_beeline
7963822 ru_beeline
7962150 ru_beeline
7962151 ru_beeline
7962286 ru_beeline
7962289 ru_beeline
7962296 ru_beeline
7962299 ru_beeline
7962500 ru_beeline
7962503 ru_beeline
7963940 ru_beeline
7963941 ru_beeline
7963835 ru_beeline
7963839 ru_beeline
7963830 ru_beeline
7963834 ru_beeline
7909880 ru_beeline
7909882 ru_beeline
7909890 ru_beeline
7909892 ru_beeline
7962215 ru_beeline
7962217 ru_beeline
7962280 ru_beeline
7962282 ru_beeline
7962290 ru_beeline
7962292 ru_beeline
7903360 ru_beeline
7903362 ru_beeline
7903364 ru_beeline
7903369 ru_beeline
79033 ru_beeline
79058 ru_beeline
79068 ru_beeline
7909707 ru_beeline
7909775 ru_beeline
7909799 ru_beeline
7963350 ru_beeline
7963351 ru_beeline
7963737 ru_beeline
7963738 ru_beeline
79632 ru_beeline
7967350 ru_beeline
7967354 ru_beeline
7960657 ru_beeline
7960672 ru_beeline
7961037 ru_beeline
7962218 ru_beeline
7962219 ru_beeline
7905047 ru_beeline
7905048 ru_beeline
7905085 ru_beeline
7961618 ru_beeline
7961619 ru_beeline
7961628 ru_beeline
7961629 ru_beeline
7965715 ru_beeline
7965719 ru_beeline
7905120 ru_beeline
7905124 ru_beeline
7906596 ru_beeline
7906599 ru_beeline
7906657 ru_beeline
7906659 ru_beeline
7909231 ru_beeline
7909235 ru_beeline
7963159 ru_beeline
7964130 ru_beeline
7964135 ru_beeline
7963270 ru_beeline
7963275 ru_beeline
7963850 ru_beeline
7963857 ru_beeline
7961573 ru_beeline
7961574 ru_beeline
7961761 ru_beeline
7961769 ru_beeline
7909000 ru_beeline
7909031 ru_beeline
7909700 ru_beeline
7909706 ru_beeline
7963031 ru_beeline
7963055 ru_beeline
79678 ru_beeline
7961770 ru_beeline
7961778 ru_beeline
7903078 ru_beeline
7903087 ru_beeline
7905859 ru_beeline
7906800 ru_beeline
7906815 ru_beeline
7906855 ru_beeline
7906859 ru_beeline
79642 ru_beeline
7965853 ru_beeline
7965859 ru_beeline
7961575 ru_beeline
7961579 ru_beeline
7909068 ru_beeline
7909099 ru_beeline
7909743 ru_beeline
7909749 ru_beeline
7963073 ru_beeline
7963097 ru_beeline
79681 ru_beeline
7903088 ru_beeline
7903091 ru_beeline
7906850 ru_beeline
7906854 ru_beeline
7906860 ru_beeline
7906872 ru_beeline
7906890 ru_beeline
7906894 ru_beeline
7906898 ru_beeline
7906899 ru_beeline
7961783 ru_beeline
7961789 ru_beeline
7961790 ru_beeline
7961797 ru_beeline
7961779 ru_beeline
7961782 ru_beeline
7905820 ru_beeline
7905826 ru_beeline
7905857 ru_beeline
7905858 ru_beeline
7906820 ru_beeline
7906827 ru_beeline
7906873 ru_beeline
7906875 ru_beeline
7909180 ru_beeline
7909194 ru_beeline
7909734 ru_beeline
7909742 ru_beeline
7961200 ru_beeline
7961214 ru_beeline
7963056 ru_beeline
7963072 ru_beeline
7963858 ru_beeline
7963861 ru_beeline
7963870 ru_beeline
7963884 ru_beeline
7964185 ru_beeline
7964199 ru_beeline
7961572 ru_beeline
7961754 ru_beeline
7961759 ru_beeline
7967900 ru_beeline
7967914 ru_beeline
7905860 ru_beeline
7905864 ru_beeline
7906876 ru_beeline
7906878 ru_beeline
7906887 ru_beeline
7906889 ru_beeline
7909726 ru_beeline
7909733 ru_beeline
7963011 ru_beeline
7963020 ru_beeline
7963480 ru_beeline
7963484 ru_beeline
7964180 ru_beeline
7964184 ru_beeline
7965840 ru_beeline
7965852 ru_beeline
7905874 ru_beeline
7905877 ru_beeline
7906816 ru_beeline
7906819 ru_beeline
7906897 ru_beeline
7909050 ru_beeline
7909067 ru_beeline
7909713 ru_beeline
7909715 ru_beeline
7963026 ru_beeline
7963030 ru_beeline
7963276 ru_beeline
7963000 ru_beeline
7962891 ru_beeline
7962899 ru_beeline
7963550 ru_beeline
7963554 ru_beeline
7963885 ru_beeline
7963889 ru_beeline
7909716 ru_beeline
7909721 ru_beeline
7961563 ru_beeline
7961569 ru_beeline
7965830 ru_beeline
7965834 ru_beeline
7961747 ru_beeline
7961748 ru_beeline
7963430 ru_beeline
7963434 ru_beeline
7905870 ru_beeline
7905872 ru_beeline
7906829 ru_beeline
7909130 ru_beeline
7909144 ru_beeline
7963277 ru_beeline
7963279 ru_beeline
7963862 ru_beeline
7963867 ru_beeline
7963868 ru_beeline
7963869 ru_beeline
7965835 ru_beeline
7965839 ru_beeline
7961570 ru_beeline
7961571 ru_beeline
7961749 ru_beeline
7961753 ru_beeline
7909722 ru_beeline
7909725 ru_beeline
7963001 ru_beeline
7963010 ru_beeline
7965865 ru_beeline
7965869 ru_beeline
7963435 ru_beeline
7963439 ru_beeline
7905850 ru_beeline
7905854 ru_beeline
7906828 ru_beeline
7906883 ru_beeline
7906884 ru_beeline
7909145 ru_beeline
7909149 ru_beeline
7963485 ru_beeline
7963489 ru_beeline
7963555 ru_beeline
7963559 ru_beeline
7965860 ru_beeline
7965864 ru_beeline
7961760 ru_beeline
7906879 ru_beeline
7906882 ru_beeline
7963021 ru_beeline
7963025 ru_beeline
7963490 ru_beeline
7963495 ru_beeline
7905827 ru_beeline
7905829 ru_beeline
7906895 ru_beeline
7906896 ru_beeline
7909032 ru_beeline
7909049 ru_beeline
7909708 ru_beeline
7909712 ru_beeline
7963496 ru_beeline
7963499 ru_beeline
7906885 ru_beeline
7906886 ru_beeline
7909195 ru_beeline
7909199 ru_beeline
7961550 ru_beeline
7961562 ru_beeline
7905400 ru_beeline
7905409 ru_beeline
7905484 ru_beeline
7906176 ru_beeline
7906437 ru_beeline
7962770 ru_beeline
7962775 ru_beeline
7909395 ru_beeline
7909399 ru_beeline
7960897 ru_beeline
7960899 ru_beeline
7961394 ru_beeline
7961399 ru_beeline
7961840 ru_beeline
7961844 ru_beeline
7905294 ru_beeline
7906286 ru_beeline
7906291 ru_beeline
7909557 ru_beeline
7909564 ru_beeline
7963361 ru_beeline
7963365 ru_beeline
7963358 ru_beeline
7963360 ru_beeline
7964307 ru_beeline
7964309 ru_beeline
7964680 ru_beeline
7964688 ru_beeline
7965800 ru_beeline
7965804 ru_beeline
7967345 ru_beeline
7967349 ru_beeline
7964689 ru_beeline
7967550 ru_beeline
7967553 ru_beeline
7964300 ru_beeline
7964302 ru_beeline
7965730 ru_beeline
7965734 ru_beeline
7905293 ru_beeline
7905873 ru_beeline
7906280 ru_beeline
7906285 ru_beeline
7909550 ru_beeline
7909556 ru_beeline
7962659 ru_beeline
7962665 ru_beeline
7967510 ru_beeline
7967514 ru_beeline
7963352 ru_beeline
7963357 ru_beeline
7963730 ru_beeline
7963733 ru_beeline
7963734 ru_beeline
7963736 ru_beeline
7964303 ru_beeline
7964306 ru_beeline
7964660 ru_beeline
7964674 ru_beeline
7965735 ru_beeline
7965749 ru_beeline
7967520 ru_beeline
7967523 ru_beeline
7905296 ru_beeline
7906292 ru_beeline
7906299 ru_beeline
7909594 ru_beeline
7909599 ru_beeline
7962666 ru_beeline
7962672 ru_beeline
7967340 ru_beeline
7967344 ru_beeline
7905920 ru_beeline
7906997 ru_beeline
7906999 ru_beeline
7909528 ru_beeline
7960778 ru_beeline
7963250 ru_beeline
7963253 ru_beeline
7961894 ru_beeline
7963950 ru_beeline
7963953 ru_beeline
7963202 ru_beeline
7963209 ru_beeline
7961092 ru_beeline
7962060 ru_beeline
7962064 ru_beeline
7962582 ru_beeline
7906939 ru_beeline
7906970 ru_beeline
7909508 ru_beeline
7960967 ru_beeline
7960968 ru_beeline
7903956 ru_beeline
7963515 ru_beeline
7963516 ru_beeline
7963513 ru_beeline
7963514 ru_beeline
7963510 ru_beeline
7963512 ru_beeline
7903074 ru_beeline
7903919 ru_beeline
7963198 ru_beeline
7963199 ru_beeline
7961893 ru_beeline
7960499 ru_beeline
7962762 ru_beeline
7962769 ru_beeline
7903465 ru_beeline
7903466 ru_beeline
7906438 ru_beeline
7909469 ru_beeline
7909471 ru_beeline
7960436 ru_beeline
7960437 ru_beeline
7961818 ru_beeline
7961819 ru_beeline
7961826 ru_beeline
7961829 ru_beeline
7961970 ru_beeline
7961971 ru_beeline
7968280 ru_beeline
7968287 ru_beeline
7903487 ru_beeline
7906486 ru_beeline
7906488 ru_beeline
7960432 ru_beeline
7960435 ru_beeline
7962637 ru_beeline
7962648 ru_beeline
7963172 ru_beeline
7963175 ru_beeline
7964025 ru_beeline
7964029 ru_beeline
7964055 ru_beeline
7964059 ru_beeline
7963398 ru_beeline
7963399 ru_beeline
7964060 ru_beeline
7964074 ru_beeline
7963395 ru_beeline
7963397 ru_beeline
7960440 ru_beeline
7960441 ru_beeline
7962654 ru_beeline
7962658 ru_beeline
7964075 ru_beeline
7964077 ru_beeline
7967948 ru_beeline
7967959 ru_beeline
7967488 ru_beeline
7967492 ru_beeline
7961820 ru_beeline
7961825 ru_beeline
7963376 ru_beeline
7963377 ru_beeline
7963378 ru_beeline
7963379 ru_beeline
7964047 ru_beeline
7964049 ru_beeline
7960400 ru_beeline
7960406 ru_beeline
7903483 ru_beeline
7903484 ru_beeline
7905488 ru_beeline
7905489 ru_beeline
7963176 ru_beeline
7963179 ru_beeline
7906188 ru_beeline
7906494 ru_beeline
7906495 ru_beeline
7909472 ru_beeline
7909477 ru_beeline
7962743 ru_beeline
7962750 ru_beeline
7964455 ru_beeline
7964459 ru_beeline
7964238 ru_beeline
7964239 ru_beeline
7964480 ru_beeline
7964481 ru_beeline
7964430 ru_beeline
7964454 ru_beeline
7964475 ru_beeline
7964479 ru_beeline
7964825 ru_beeline
7964829 ru_beeline
7964400 ru_beeline
7964414 ru_beeline
7964415 ru_beeline
7964429 ru_beeline
7964800 ru_beeline
7964824 ru_beeline
7964230 ru_beeline
7964231 ru_beeline
7964460 ru_beeline
7964474 ru_beeline
7963200 ru_beeline
7961100 ru_beeline
7961108 ru_beeline
7961000 ru_beeline
7961004 ru_beeline
7903644 ru_beeline
7903818 ru_beeline
7903819 ru_beeline
7903868 ru_beeline
7903869 ru_beeline
7906695 ru_beeline
7906699 ru_beeline
7909240 ru_beeline
7909245 ru_beeline
7960546 ru_beeline
7960564 ru_beeline
7967970 ru_beeline
7967984 ru_beeline
7905054 ru_beeline
7905100 ru_beeline
7905104 ru_beeline
7905174 ru_beeline
7905177 ru_beeline
7905188 ru_beeline
7963210 ru_beeline
7963213 ru_beeline
7906500 ru_beeline
7906505 ru_beeline
7903323 ru_beeline
7903324 ru_beeline
7905015 ru_beeline
7905016 ru_beeline
7905365 ru_beeline
7905367 ru_beeline
7906156 ru_beeline
7906159 ru_beeline
7906395 ru_beeline
7906399 ru_beeline
7909315 ru_beeline
7909322 ru_beeline
7967700 ru_beeline
7967706 ru_beeline
7962398 ru_beeline
7962399 ru_beeline
7963100 ru_beeline
7963106 ru_beeline
7963110 ru_beeline
7963111 ru_beeline
7962470 ru_beeline
7962474 ru_beeline
7967440 ru_beeline
7967444 ru_beeline
7967445 ru_beeline
7967449 ru_beeline
7960315 ru_beeline
7960329 ru_beeline
7963107 ru_beeline
7963109 ru_beeline
7964865 ru_beeline
7964877 ru_beeline
7963098 ru_beeline
7963099 ru_beeline
7961350 ru_beeline
7961354 ru_beeline
7900219 ru_tele2
7900220 ru_tele2
7900221 ru_tele2
7900222 ru_tele2
7900223 ru_tele2
7900224 ru_tele2
7900225 ru_tele2
7900226 ru_tele2
7900227 ru_tele2
7900228 ru_tele2
790213 ru_tele2
7902147 ru_tele2
7902148 ru_tele2
7902149 ru_tele2
790219 ru_tele2
7902250 ru_tele2
7902251 ru_tele2
7902252 ru_tele2
7902281 ru_tele2
7902282 ru_tele2
7902283 ru_tele2
7902284 ru_tele2
7902285 ru_tele2
7902286 ru_tele2
7902403 ru_tele2
7902404 ru_tele2
7902405 ru_tele2
7902406 ru_tele2
7902407 ru_tele2
7902408 ru_tele2
7902504 ru_tele2
7902507 ru_tele2
790400 ru_tele2
790401 ru_tele2
790402 ru_tele2
790403 ru_tele2
790404 ru_tele2
790405 ru_tele2
790406 ru_tele2
790407 ru_tele2
790408 ru_tele2
790409 ru_tele2
790410 ru_tele2
790420 ru_tele2
7904210 ru_tele2
7904211 ru_tele2
7904212 ru_tele2
7904213 ru_tele2
7904214 ru_tele2
7904218 ru_tele2
7904219 ru_tele2
790422 ru_tele2
790423 ru_tele2
7904245 ru_tele2
7904246 ru_tele2
7904247 ru_tele2
7904248 ru_tele2
7904249 ru_tele2
7904250 ru_tele2
7904251 ru_tele2
7904252 ru_tele2
7904253 ru_tele2
7904254 ru_tele2
7904255 ru_tele2
7904256 ru_tele2
7904257 ru_tele2
7904258 ru_tele2
7904259 ru_tele2
7904260 ru_tele2
7904261 ru_tele2
7904270 ru_tele2
7904271 ru_tele2
7904272 ru_tele2
7904273 ru_tele2
7904274 ru_tele2
7904275 ru_tele2
7904276 ru_tele2
7904277 ru_tele2
7904278 ru_tele2
7904279 ru_tele2
790428 ru_tele2
790429 ru_tele2
790430 ru_tele2
790431 ru_tele2
790432 ru_tele2
790433 ru_tele2
790434 ru_tele2
790435 ru_tele2
790436 ru_tele2
790437 ru_tele2
790439 ru_tele2
790444 ru_tele2
790450 ru_tele2
790451 ru_tele2
790452 ru_tele2
790453 ru_tele2
790455 ru_tele2
790457 ru_tele2
790458 ru_tele2
790459 ru_tele2
790460 ru_tele2
790461 ru_tele2
790463 ru_tele2
790464 ru_tele2
790465 ru_tele2
790468 ru_tele2
790469 ru_tele2
790482 ru_tele2
790483 ru_tele2
7904857 ru_tele2
7904858 ru_tele2
7904859 ru_tele2
790486 ru_tele2
7904955 ru_tele2
7904956 ru_tele2
7904957 ru_tele2
7904958 ru_tele2
7904959 ru_tele2
790496 ru_tele2
790497 ru_tele2
790499 ru_tele2
790804 ru_tele2
790805 ru_tele2
790806 ru_tele2
790810 ru_tele2
790811 ru_tele2
790812 ru_tele2
790813 ru_tele2
790814 ru_tele2
790815 ru_tele2
790816 ru_tele2
790817 ru_tele2
790818 ru_tele2
790819 ru_tele2
7908225 ru_tele2
7908226 ru_tele2
7908228 ru_tele2
7908229 ru_tele2
790823 ru_tele2
790828 ru_tele2
7908290 ru_tele2
7908291 ru_tele2
7908292 ru_tele2
7908293 ru_tele2
7908294 ru_tele2
7908295 ru_tele2
790831 ru_tele2
7908328 ru_tele2
7908329 ru_tele2
790850 ru_tele2
790851 ru_tele2
790857 ru_tele2
790858 ru_tele2
7908605 ru_tele2
7908606 ru_tele2
7908607 ru_tele2
7908670 ru_tele2
7908671 ru_tele2
7908672 ru_tele2
7908673 ru_tele2
7908674 ru_tele2
7908675 ru_tele2
7908676 ru_tele2
7908677 ru_tele2
7908678 ru_tele2
7908679 ru_tele2
7908680 ru_tele2
7908681 ru_tele2
7908682 ru_tele2
7908683 ru_tele2
7908684 ru_tele2
7908685 ru_tele2
7908686 ru_tele2
7908687 ru_tele2
7908688 ru_tele2
7908689 ru_tele2
7908690 ru_tele2
7908691 ru_tele2
7908692 ru_tele2
7908693 ru_tele2
7908715 ru_tele2
7908716 ru_tele2
7908717 ru_tele2
7908718 ru_tele2
7908719 ru_tele2
790878 ru_tele2
790879 ru_tele2
790880 ru_tele2
790894 ru_tele2
790895 ru_tele2
795000 ru_tele2
795001 ru_tele2
795002 ru_tele2
795003 ru_tele2
795004 ru_tele2
795015 ru_tele2
795016 ru_tele2
795017 ru_tele2
795021 ru_tele2
795022 ru_tele2
795024 ru_tele2
795025 ru_tele2
795026 ru_tele2
795027 ru_tele2
7950308 ru_tele2
795033 ru_tele2
7950565 ru_tele2
7950566 ru_tele2
7950567 ru_tele2
7950568 ru_tele2
7950569 ru_tele2
795057 ru_tele2
795058 ru_tele2
795059 ru_tele2
795060 ru_tele2
795061 ru_tele2
795062 ru_tele2
7950660 ru_tele2
7950661 ru_tele2
795067 ru_tele2
795068 ru_tele2
795069 ru_tele2
795070 ru_tele2
795071 ru_tele2
795072 ru_tele2
795073 ru_tele2
795074 ru_tele2
795075 ru_tele2
795076 ru_tele2
795077 ru_tele2
795078 ru_tele2
795079 ru_tele2
795080 ru_tele2
795081 ru_tele2
795082 ru_tele2
795083 ru_tele2
795084 ru_tele2
795085 ru_tele2
795086 ru_tele2
795087 ru_tele2
795089 ru_tele2
795090 ru_tele2
795091 ru_tele2
795092 ru_tele2
795095 ru_tele2
7950962 ru_tele2
7950963 ru_tele2
795107 ru_tele2
795108 ru_tele2
795110 ru_tele2
795111 ru_tele2
795112 ru_tele2
795113 ru_tele2
795114 ru_tele2
795115 ru_tele2
795116 ru_tele2
795117 ru_tele2
795118 ru_tele2
795119 ru_tele2
795120 ru_tele2
795121 ru_tele2
7951295 ru_tele2
7951296 ru_tele2
7951297 ru_tele2
795130 ru_tele2
795131 ru_tele2
795132 ru_tele2
795133 ru_tele2
7951347 ru_tele2
7951348 ru_tele2
7951349 ru_tele2
7951350 ru_tele2
7951351 ru_tele2
7951352 ru_tele2
7951353 ru_tele2
7951354 ru_tele2
7951355 ru_tele2
7951356 ru_tele2
795136 ru_tele2
795137 ru_tele2
795138 ru_tele2
795139 ru_tele2
795140 ru_tele2
795141 ru_tele2
795142 ru_tele2
795144 ru_tele2
795145 ru_tele2
795146 ru_tele2
795147 ru_tele2
795148 ru_tele2
795149 ru_tele2
795150 ru_tele2
795151 ru_tele2
795152 ru_tele2
795153 ru_tele2
795154 ru_tele2
795155 ru_tele2
795156 ru_tele2
795157 ru_tele2
795158 ru_tele2
795159 ru_tele2
795160 ru_tele2
795161 ru_tele2
795164 ru_tele2
795165 ru_tele2
795166 ru_tele2
795167 ru_tele2
795168 ru_tele2
795169 ru_tele2
795170 ru_tele2
795171 ru_tele2
795172 ru_tele2
795173 ru_tele2
795174 ru_tele2
795175 ru_tele2
795176 ru_tele2
795177 ru_tele2
795178 ru_tele2
795179 ru_tele2
795180 ru_tele2
795181 ru_tele2
795182 ru_tele2
795183 ru_tele2
795184 ru_tele2
795185 ru_tele2
795186 ru_tele2
795187 ru_tele2
7952015 ru_tele2
7952016 ru_tele2
7952017 ru_tele2
7952018 ru_tele2
7952019 ru_tele2
795205 ru_tele2
795206 ru_tele2
795210 ru_tele2
795211 ru_tele2
795212 ru_tele2
795215 ru_tele2
7952160 ru_tele2
7952161 ru_tele2
7952162 ru_tele2
7952163 ru_tele2
7952164 ru_tele2
7952165 ru_tele2
7952166 ru_tele2
7952167 ru_tele2
7952168 ru_tele2
7952169 ru_tele2
7952170 ru_tele2
7952171 ru_tele2
7952172 ru_tele2
7952173 ru_tele2
7952174 ru_tele2
7952175 ru_tele2
7952176 ru_tele2
7952177 ru_tele2
7952178 ru_tele2
7952179 ru_tele2
7952180 ru_tele2
7952181 ru_tele2
7952182 ru_tele2
7952183 ru_tele2
7952184 ru_tele2
7952185 ru_tele2
7952186 ru_tele2
7952187 ru_tele2
7952188 ru_tele2
7952189 ru_tele2
795220 ru_tele2
795221 ru_tele2
795222 ru_tele2
795223 ru_tele2
795224 ru_tele2
795225 ru_tele2
795226 ru_tele2
795227 ru_tele2
795228 ru_tele2
795229 ru_tele2
795230 ru_tele2
7952314 ru_tele2
795235 ru_tele2
795236 ru_tele2
795237 ru_tele2
795238 ru_tele2
795239 ru_tele2
795240 ru_tele2
795241 ru_tele2
795242 ru_tele2
795243 ru_tele2
795244 ru_tele2
795245 ru_tele2
795248 ru_tele2
795249 ru_tele2
795250 ru_tele2
795251 ru_tele2
795252 ru_tele2
795253 ru_tele2
795254 ru_tele2
795255 ru_tele2
795256 ru_tele2
795257 ru_tele2
795258 ru_tele2
795259 ru_tele2
795260 ru_tele2
795276 ru_tele2
795277 ru_tele2
795278 ru_tele2
795279 ru_tele2
795280 ru_tele2
795281 ru_tele2
795282 ru_tele2
795283 ru_tele2
795284 ru_tele2
795285 ru_tele2
795286 ru_tele2
795287 ru_tele2
795288 ru_tele2
795289 ru_tele2
795290 ru_tele2
795291 ru_tele2
795292 ru_tele2
795293 ru_tele2
795294 ru_tele2
795296 ru_tele2
795297 ru_tele2
795298 ru_tele2
795299 ru_tele2
7953059 ru_tele2
7953060 ru_tele2
7953061 ru_tele2
7953062 ru_tele2
7953063 ru_tele2
7953064 ru_tele2
7953065 ru_tele2
7953066 ru_tele2
7953067 ru_tele2
7953068 ru_tele2
7953069 ru_tele2
7953070 ru_tele2
7953071 ru_tele2
7953072 ru_tele2
7953073 ru_tele2
7953074 ru_tele2
7953075 ru_tele2
7953076 ru_tele2
7953077 ru_tele2
7953078 ru_tele2
7953079 ru_tele2
7953080 ru_tele2
7953081 ru_tele2
7953082 ru_tele2
7953083 ru_tele2
7953084 ru_tele2
7953085 ru_tele2
7953086 ru_tele2
7953087 ru_tele2
7953088 ru_tele2
7953089 ru_tele2
7953090 ru_tele2
7953091 ru_tele2
7953092 ru_tele2
7953093 ru_tele2
7953094 ru_tele2
7953095 ru_tele2
7953096 ru_tele2
7953097 ru_tele2
7953098 ru_tele2
7953099 ru_tele2
7953100 ru_tele2
7953101 ru_tele2
7953102 ru_tele2
7953103 ru_tele2
7953104 ru_tele2
7953105 ru_tele2
7953106 ru_tele2
7953107 ru_tele2
7953108 ru_tele2
7953109 ru_tele2
7953110 ru_tele2
7953111 ru_tele2
7953112 ru_tele2
7953113 ru_tele2
7953114 ru_tele2
7953115 ru_tele2
7953116 ru_tele2
7953117 ru_tele2
7953118 ru_tele2
795312 ru_tele2
795313 ru_tele2
795314 ru_tele2
795315 ru_tele2
795316 ru_tele2
795317 ru_tele2
795318 ru_tele2
795319 ru_tele2
7953230 ru_tele2
7953231 ru_tele2
7953232 ru_tele2
7953233 ru_tele2
7953234 ru_tele2
7953235 ru_tele2
7953236 ru_tele2
7953237 ru_tele2
7953238 ru_tele2
7953239 ru_tele2
7953240 ru_tele2
7953241 ru_tele2
7953242 ru_tele2
7953243 ru_tele2
7953244 ru_tele2
7953245 ru_tele2
7953246 ru_tele2
7953247 ru_tele2
7953248 ru_tele2
7953249 ru_tele2
7953250 ru_tele2
7953251 ru_tele2
7953252 ru_tele2
7953253 ru_tele2
7953254 ru_tele2
795326 ru_tele2
795327 ru_tele2
795328 ru_tele2
795329 ru_tele2
795330 ru_tele2
795331 ru_tele2
795332 ru_tele2
795333 ru_tele2
795334 ru_tele2
795335 ru_tele2
795336 ru_tele2
795337 ru_tele2
795339 ru_tele2
79534110 ru_tele2
79534111 ru_tele2
79534112 ru_tele2
79534113 ru_tele2
79534114 ru_tele2
79534115 ru_tele2
79534116 ru_tele2
79534117 ru_tele2
79534118 ru_tele2
79534119 ru_tele2
7953419 ru_tele2
7953420 ru_tele2
7953421 ru_tele2
7953422 ru_tele2
7953423 ru_tele2
7953424 ru_tele2
7953425 ru_tele2
7953426 ru_tele2
7953427 ru_tele2
7953428 ru_tele2
7953429 ru_tele2
7953430 ru_tele2
7953431 ru_tele2
7953432 ru_tele2
7953433 ru_tele2
7953434 ru_tele2
7953435 ru_tele2
7953436 ru_tele2
7953437 ru_tele2
7953438 ru_tele2
7953439 ru_tele2
7953440 ru_tele2
7953441 ru_tele2
7953442 ru_tele2
7953443 ru_tele2
795346 ru_tele2
795347 ru_tele2
7953500 ru_tele2
7953501 ru_tele2
7953502 ru_tele2
7953503 ru_tele2
7953504 ru_tele2
7953505 ru_tele2
7953506 ru_tele2
7953507 ru_tele2
7953508 ru_tele2
7953509 ru_tele2
7953510 ru_tele2
7953511 ru_tele2
7953512 ru_tele2
7953513 ru_tele2
7953514 ru_tele2
7953515 ru_tele2
7953516 ru_tele2
7953517 ru_tele2
7953518 ru_tele2
7953519 ru_tele2
7953520 ru_tele2
7953521 ru_tele2
7953522 ru_tele2
7953523 ru_tele2
7953524 ru_tele2
7953525 ru_tele2
7953526 ru_tele2
7953527 ru_tele2
7953528 ru_tele2
7953529 ru_tele2
7953530 ru_tele2
7953531 ru_tele2
7953532 ru_tele2
7953533 ru_tele2
7953534 ru_tele2
7953535 ru_tele2
7953536 ru_tele2
7953537 ru_tele2
7953538 ru_tele2
7953539 ru_tele2
7953540 ru_tele2
7953541 ru_tele2
7953542 ru_tele2
7953543 ru_tele2
7953544 ru_tele2
7953545 ru_tele2
7953546 ru_tele2
7953547 ru_tele2
7953548 ru_tele2
7953549 ru_tele2
795355 ru_tele2
795356 ru_tele2
795357 ru_tele2
795361 ru_tele2
795362 ru_tele2
795364 ru_tele2
795365 ru_tele2
795366 ru_tele2
795367 ru_tele2
795368 ru_tele2
795369 ru_tele2
795370 ru_tele2
795371 ru_tele2
795372 ru_tele2
795373 ru_tele2
795374 ru_tele2
795375 ru_tele2
795376 ru_tele2
795377 ru_tele2
795378 ru_tele2
795379 ru_tele2
795380 ru_tele2
795381 ru_tele2
7953857 ru_tele2
7953858 ru_tele2
7953859 ru_tele2
7953860 ru_tele2
7953861 ru_tele2
7953862 ru_tele2
7953863 ru_tele2
7953864 ru_tele2
7953865 ru_tele2
7953866 ru_tele2
7953867 ru_tele2
7953868 ru_tele2
7953869 ru_tele2
7953870 ru_tele2
7953871 ru_tele2
7953872 ru_tele2
7953873 ru_tele2
7953874 ru_tele2
7953875 ru_tele2
7953876 ru_tele2
7953877 ru_tele2
7953878 ru_tele2
7953879 ru_tele2
7953880 ru_tele2
7953881 ru_tele2
7953882 ru_tele2
7953883 ru_tele2
7953884 ru_tele2
7953885 ru_tele2
7953886 ru_tele2
7953887 ru_tele2
7953888 ru_tele2
7953889 ru_tele2
7953890 ru_tele2
7953891 ru_tele2
7953892 ru_tele2
7953893 ru_tele2
7953894 ru_tele2
7953895 ru_tele2
7953896 ru_tele2
795390 ru_tele2
795391 ru_tele2
795392 ru_tele2
795393 ru_tele2
795394 ru_tele2
7953950 ru_tele2
7953951 ru_tele2
7953952 ru_tele2
7953953 ru_tele2
7953954 ru_tele2
7953955 ru_tele2
7953956 ru_tele2
7953957 ru_tele2
7953958 ru_tele2
7953959 ru_tele2
7953960 ru_tele2
7953961 ru_tele2
7953962 ru_tele2
7953963 ru_tele2
7953964 ru_tele2
7953965 ru_tele2
7953966 ru_tele2
7953967 ru_tele2
7953968 ru_tele2
7953969 ru_tele2
7953970 ru_tele2
7953971 ru_tele2
7953972 ru_tele2
7953973 ru_tele2
7953974 ru_tele2

37533 by_mts
375292 by_mts
375295 by_mts
375297 by_mts
375298 by_mts
375 by

994 az
79 ru

38050 ua_mts
38066 ua_mts
38095 ua_mts
38099 ua_mts
380 ua

7701 kz_kcell
7702 kz_kcell
7775 kz_kcell

77 kz
374 am
43 at
61 au
32 be
359 bg
420 cz
49 de
45 dk
372 ee
34 es
33 fr
44 gb
995 ge
36 hu
3538 ie
972 il
996 kg
370 lt
371 lv
31 nl
47 no
48 pl
351 pt
46 se
992 tj
886 tw
