info face="Calibri" size=12 bold=0 italic=0 charset="" unicode=0 stretchH=100 smooth=1 aa=1 padding=0,0,0,0 spacing=1,1
common lineHeight=16 base=11 scaleW=32 scaleH=32 pages=1 packed=0
page id=0 file="storefont.png"
chars count=12
char id=32   x=0     y=0     width=0     height=0     xoffset=0     yoffset=11    xadvance=3     page=0  chnl=0 
char id=48   x=0     y=0     width=7     height=10     xoffset=0     yoffset=2    xadvance=6     page=0  chnl=0 
char id=57   x=7     y=0     width=7     height=10     xoffset=0     yoffset=2    xadvance=6     page=0  chnl=0 
char id=56   x=14     y=0     width=7     height=10     xoffset=0     yoffset=2    xadvance=6     page=0  chnl=0 
char id=55   x=21     y=0     width=7     height=10     xoffset=1     yoffset=2    xadvance=6     page=0  chnl=0 
char id=54   x=0     y=10     width=7     height=10     xoffset=0     yoffset=2    xadvance=6     page=0  chnl=0 
char id=53   x=7     y=10     width=7     height=10     xoffset=0     yoffset=2    xadvance=6     page=0  chnl=0 
char id=52   x=14     y=10     width=7     height=10     xoffset=1     yoffset=2    xadvance=6     page=0  chnl=0 
char id=51   x=21     y=10     width=7     height=10     xoffset=1     yoffset=2    xadvance=6     page=0  chnl=0 
char id=50   x=0     y=20     width=7     height=10     xoffset=1     yoffset=2    xadvance=6     page=0  chnl=0 
char id=49   x=7     y=20     width=7     height=10     xoffset=1     yoffset=2    xadvance=6     page=0  chnl=0 
char id=58   x=14     y=20     width=3     height=8     xoffset=1     yoffset=4    xadvance=3     page=0  chnl=0 
char id=60   x=18     y=21     width=9     height=9     xoffset=1     yoffset=3    xadvance=13     page=0  chnl=0 
kernings count=4197
