[
  {
    "hash": "13b9b13c1c73eefcd3bb2508c9158bc40f0283403b86bb3f064573691bec202b",
    "name": "caffe2deeptext",
    "path": "caffe2deeptext.apk"
  },
  {
    "hash": "3fce8fe7fe10b119ee740a929c76e531e16d6726d9350f25c6221a2b6f23e68c",
    "name": "cardio",
    "path": "cardio.apk"
  },
  {
    "hash": "a5774417e9c7795f8dac2101ac28a27cd39599e3bf159c0c1c9e0b243626e3c8",
    "name": "effects",
    "path": "effects.apk"
  },
  {
    "hash": "59e42df9ede6b9c85a552435987a0e8f3bc99f7528658b29b9fcaf1d8f2437c5",
    "name": "instantgamesads",
    "path": "instantgamesads.apk"
  },
  {
    "hash": "472263dfd7b66c75875a815a8248063bc5a569212458c6e83457f3b9c5fa901b",
    "name": "internalprefs",
    "path": "internalprefs.apk"
  },
  {
    "hash": "3d82064a47e1ff46578324286d44f0f1ad0aadbcbfc059d866c56c0d0b054669",
    "name": "mapbox",
    "path": "mapbox.apk"
  },
  {
    "hash": "8bc9b8a4f64b2f38309989b27020f337152f8a090e03eb201cbea071e8d8ea74",
    "name": "msuggestionsops",
    "path": "msuggestionsops.apk"
  },
  {
    "hash": "72d786c8d3ede9d095697bd393d10de8d9332fc03e851f2d43ec884ab7b3c5ec",
    "name": "openh264",
    "path": "openh264.apk"
  },
  {
    "hash": "b80e6ae9c852ed87147e16787bd7c0dbaa21d849168e7b142f9896a619f1aa2f",
    "name": "slam",
    "path": "slam.apk"
  }
]
